%!PS-Adobe-2.0 EPSF-2.0
%%BoundingBox:  0 0 567 544
%%Title: Results/M1Data_invD0.eps: Region: invD0
%%Creator: ROOT Version 6.08/06
%%CreationDate: Sun Oct 13 15:24:48 2019
%%DocumentNeededResources: ProcSet (FontSetInit)
%%EndComments
%%BeginProlog
80 dict begin
/s {stroke} def /l {lineto} def /m {moveto} def /t {translate} def
/r {rotate} def /rl {roll}  def /R {repeat} def
/d {rlineto} def /rm {rmoveto} def /gr {grestore} def /f {eofill} def
/c {setrgbcolor} def /black {0 setgray} def /sd {setdash} def
/cl {closepath} def /sf {scalefont setfont} def /lw {setlinewidth} def
/box {m dup 0 exch d exch 0 d 0 exch neg d cl} def
/NC{systemdict begin initclip end}def/C{NC box clip newpath}def
/bl {box s} def /bf {gsave box gsave f grestore 1 lw [] 0 sd s grestore} def /Y { 0 exch d} def /X { 0 d} def 
/K {{pop pop 0 moveto} exch kshow} bind def
/ita {/ang 15 def gsave [1 0 ang dup sin exch cos div 1 0 0] concat} def 
/mp {newpath /y exch def /x exch def} def
/side {[w .77 mul w .23 mul] .385 w mul sd w 0 l currentpoint t -144 r} def
/mr {mp x y w2 0 360 arc} def /m24 {mr s} def /m20 {mr f} def
/mb {mp x y w2 add m w2 neg 0 d 0 w neg d w 0 d 0 w d cl} def
/mt {mp x y w2 add m w2 neg w neg d w 0 d cl} def
/m21 {mb f} def /m25 {mb s} def /m22 {mt f} def /m26{mt s} def
/m23 {mp x y w2 sub m w2 w d w neg 0 d cl f} def
/m27 {mp x y w2 add m w3 neg w2 neg d w3 w2 neg d w3 w2 d cl s} def
/m28 {mp x w2 sub y w2 sub w3 add m w3 0 d  0 w3 neg d w3 0 d 0 w3 d w3 0 d  0 w3 d w3 neg 0 d 0 w3 d w3 neg 0 d 0 w3 neg d w3 neg 0 d cl s } def
/m29 {mp gsave x w2 sub y w2 add w3 sub m currentpoint t 4 {side} repeat cl fill gr} def
/m30 {mp gsave x w2 sub y w2 add w3 sub m currentpoint t 4 {side} repeat cl s gr} def
/m31 {mp x y w2 sub m 0 w d x w2 sub y m w 0 d x w2 sub y w2 add m w w neg d x w2 sub y w2 sub m w w d s} def
/m32 {mp x y w2 sub m w2 w d w neg 0 d cl s} def
/m33 {mp x y w2 add m w3 neg w2 neg d w3 w2 neg d w3 w2 d cl f} def
/m34 {mp x w2 sub y w2 sub w3 add m w3 0 d  0 w3 neg d w3 0 d 0 w3 d w3 0 d  0 w3 d w3 neg 0 d 0 w3 d w3 neg 0 d 0 w3 neg d w3 neg 0 d cl f } def
/m2 {mp x y w2 sub m 0 w d x w2 sub y m w 0 d s} def
/m5 {mp x w2 sub y w2 sub m w w d x w2 sub y w2 add m w w neg d s} def
%%IncludeResource: ProcSet (FontSetInit)
%%IncludeResource: font Times-Roman
%%IncludeResource: font Times-Italic
%%IncludeResource: font Times-Bold
%%IncludeResource: font Times-BoldItalic
%%IncludeResource: font Helvetica
%%IncludeResource: font Helvetica-Oblique
%%IncludeResource: font Helvetica-Bold
%%IncludeResource: font Helvetica-BoldOblique
%%IncludeResource: font Courier
%%IncludeResource: font Courier-Oblique
%%IncludeResource: font Courier-Bold
%%IncludeResource: font Courier-BoldOblique
%%IncludeResource: font Symbol
%%IncludeResource: font ZapfDingbats
/reEncode {exch findfont dup length dict begin {1 index /FID eq  {pop pop} {def} ifelse } forall /Encoding exch def currentdict end dup /FontName get exch definefont pop } def [/Times-Bold /Times-Italic /Times-BoldItalic /Helvetica /Helvetica-Oblique
 /Helvetica-Bold /Helvetica-BoldOblique /Courier /Courier-Oblique /Courier-Bold /Courier-BoldOblique /Times-Roman /AvantGarde-Book /AvantGarde-BookOblique /AvantGarde-Demi /AvantGarde-DemiOblique /Bookman-Demi /Bookman-DemiItalic /Bookman-Light
 /Bookman-LightItalic /Helvetica-Narrow /Helvetica-Narrow-Bold /Helvetica-Narrow-BoldOblique /Helvetica-Narrow-Oblique /NewCenturySchlbk-Roman /NewCenturySchlbk-Bold /NewCenturySchlbk-BoldItalic /NewCenturySchlbk-Italic /Palatino-Bold
 /Palatino-BoldItalic /Palatino-Italic /Palatino-Roman ] {ISOLatin1Encoding reEncode } forall
%%EndProlog
%%BeginSetup
%%EndSetup
newpath  gsave  .25 .25 scale  gsave  0 0 t black[  ] 0 sd 3 lw 1 1 1 c 2268 2176 0 0 bf black 1 1 1 c 2245 533 11 11 bf black 1 1 1 c 1661 288 371 224 bf black 1661 288 371 224 bl 371 224 m 1661 X s 371 512 m 1661 X s 371 224 m 288 Y s[ 4 8] 0 sd
 2032 224 m -1661 X s 2032 296 m -1661 X s 2032 368 m -1661 X s 2032 440 m -1661 X s 2032 512 m -1661 X s[  ] 0 sd 2032 224 m 288 Y s 371 224 m 1661 X s
 gsave  2245 533 11 11 C 1849.18 98.9272 t 0 r /Helvetica findfont 64.7479 sf 0 0 m ( [GeV]) show NC gr 
 gsave  2245 533 11 11 C 1803.52 76.0979 t 0 r /Helvetica findfont 41.8957 sf 0 0 m (12) show NC gr 
 gsave  2245 533 11 11 C 1750.25 98.9272 t 0 r /Helvetica findfont 64.7479 sf 0 0 m (m) show NC gr  371 236 m -12 Y s 430 230 m -6 Y s 489 230 m -6 Y s 549 230 m -6 Y s 608 230 m -6 Y s 667 236 m -12 Y s 727 230 m -6 Y s 786 230 m -6 Y s 845 230 m -6
 Y s 905 230 m -6 Y s 964 236 m -12 Y s 1023 230 m -6 Y s 1083 230 m -6 Y s 1142 230 m -6 Y s 1201 230 m -6 Y s 1261 236 m -12 Y s 1320 230 m -6 Y s 1379 230 m -6 Y s 1439 230 m -6 Y s 1498 230 m -6 Y s 1557 236 m -12 Y s 1617 230 m -6 Y s 1676 230 m
 -6 Y s 1735 230 m -6 Y s 1795 230 m -6 Y s 1854 236 m -12 Y s 1854 236 m -12 Y s 1913 230 m -6 Y s 1973 230 m -6 Y s
 gsave  2245 533 11 11 C 334.831 171.22 t 0 r /Helvetica findfont 57.1305 sf 0 0 m (50) show NC gr 
 gsave  2245 533 11 11 C 631.612 171.22 t 0 r /Helvetica findfont 57.1305 sf 0 0 m (60) show NC gr 
 gsave  2245 533 11 11 C 928.394 171.22 t 0 r /Helvetica findfont 57.1305 sf 0 0 m (70) show NC gr 
 gsave  2245 533 11 11 C 1225.18 171.22 t 0 r /Helvetica findfont 57.1305 sf 0 0 m (80) show NC gr 
 gsave  2245 533 11 11 C 1521.96 171.22 t 0 r /Helvetica findfont 57.1305 sf 0 0 m (90) show NC gr 
 gsave  2245 533 11 11 C 1803.52 171.22 t 0 r /Helvetica findfont 57.1305 sf 0 0 m (100) show NC gr  371 512 m 1661 X s 371 500 m 12 Y s 430 506 m 6 Y s 489 506 m 6 Y s 549 506 m 6 Y s 608 506 m 6 Y s 667 500 m 12 Y s 727 506 m 6 Y s 786 506 m 6 Y s
 845 506 m 6 Y s 905 506 m 6 Y s 964 500 m 12 Y s 1023 506 m 6 Y s 1083 506 m 6 Y s 1142 506 m 6 Y s 1201 506 m 6 Y s 1261 500 m 12 Y s 1320 506 m 6 Y s 1379 506 m 6 Y s 1439 506 m 6 Y s 1498 506 m 6 Y s 1557 500 m 12 Y s 1617 506 m 6 Y s 1676 506 m
 6 Y s 1735 506 m 6 Y s 1795 506 m 6 Y s 1854 500 m 12 Y s 1854 500 m 12 Y s 1913 506 m 6 Y s 1973 506 m 6 Y s 371 224 m 288 Y s
 gsave  2245 533 11 11 C 156.001 407.124 t 90 r /Helvetica findfont 64.7479 sf 0 0 m (Pull) show NC gr  407 224 m -36 X s 389 242 m -18 X s 389 260 m -18 X s 389 278 m -18 X s 407 296 m -36 X s 389 314 m -18 X s 389 332 m -18 X s 389 350 m -18 X s
 407 368 m -36 X s 389 386 m -18 X s 389 404 m -18 X s 389 422 m -18 X s 407 440 m -36 X s 389 458 m -18 X s 389 476 m -18 X s 389 494 m -18 X s 407 512 m -36 X s
 gsave  2245 533 11 11 C 327.221 201.659 t 0 r /Helvetica findfont 57.1305 sf 0 0 m (4) show NC gr 
 gsave  2245 533 11 11 C 292.977 201.659 t 0 r /Symbol findfont 57.1305 sf 0 0 m (-) show NC gr 
 gsave  2245 533 11 11 C 327.221 273.952 t 0 r /Helvetica findfont 57.1305 sf 0 0 m (2) show NC gr 
 gsave  2245 533 11 11 C 292.977 273.952 t 0 r /Symbol findfont 57.1305 sf 0 0 m (-) show NC gr 
 gsave  2245 533 11 11 C 327.221 346.245 t 0 r /Helvetica findfont 57.1305 sf 0 0 m (0) show NC gr 
 gsave  2245 533 11 11 C 327.221 418.538 t 0 r /Helvetica findfont 57.1305 sf 0 0 m (2) show NC gr 
 gsave  2245 533 11 11 C 327.221 490.831 t 0 r /Helvetica findfont 57.1305 sf 0 0 m (4) show NC gr  2032 224 m 288 Y s 1996 224 m 36 X s 2014 242 m 18 X s 2014 260 m 18 X s 2014 278 m 18 X s 1996 296 m 36 X s 2014 314 m 18 X s 2014 332 m 18 X s 2014
 350 m 18 X s 1996 368 m 36 X s 2014 386 m 18 X s 2014 404 m 18 X s 2014 422 m 18 X s 1996 440 m 36 X s 2014 458 m 18 X s 2014 476 m 18 X s 2014 494 m 18 X s 1996 512 m 36 X s 400 423 m 39 Y s 400 462 m cl s 400 423 m -36 Y s 400 387 m cl s 460 427 m
 40 Y s 460 467 m cl s 460 427 m -36 Y s 460 391 m cl s 519 359 m 36 Y s 519 395 m cl s 519 359 m -33 Y s 519 326 m cl s 578 347 m 36 Y s 578 383 m cl s 578 347 m -33 Y s 578 314 m cl s 638 346 m 36 Y s 638 382 m cl s 638 346 m -32 Y s 638 314 m cl s
 697 350 m 36 Y s 697 386 m cl s 697 350 m -32 Y s 697 318 m cl s 756 348 m 36 Y s 756 384 m cl s 756 348 m -33 Y s 756 315 m cl s 816 341 m 36 Y s 816 377 m cl s 816 341 m -33 Y s 816 308 m cl s 875 362 m 36 Y s 875 398 m cl s 875 362 m -33 Y s 875
 329 m cl s 934 373 m 39 Y s 934 412 m cl s 934 373 m -36 Y s 934 337 m cl s 994 292 m 36 Y s 994 328 m cl s 994 292 m -32 Y s 994 260 m cl s 1053 373 m 39 Y s 1053 412 m cl s 1053 373 m -36 Y s 1053 337 m cl s 1112 363 m 36 Y s 1112 399 m cl s 1112
 363 m -32 Y s 1112 331 m cl s 1172 362 m 36 Y s 1172 398 m cl s 1172 362 m -32 Y s 1172 330 m cl s 1231 335 m 36 Y s 1231 371 m cl s 1231 335 m -33 Y s 1231 302 m cl s 1290 400 m 39 Y s 1290 439 m cl s 1290 400 m -36 Y s 1290 364 m cl s 1350 342 m
 36 Y s 1350 378 m cl s 1350 342 m -33 Y s 1350 309 m cl s 1409 354 m 36 Y s 1409 390 m cl s 1409 354 m -33 Y s 1409 321 m cl s 1468 401 m 38 Y s 1468 439 m cl s 1468 401 m -36 Y s 1468 365 m cl s 1528 306 m 36 Y s 1528 342 m cl s 1528 306 m -34 Y s
 1528 272 m cl s 1587 377 m 37 Y s 1587 414 m cl s 1587 377 m -36 Y s 1587 341 m cl s 1646 348 m 36 Y s 1646 384 m cl s 1646 348 m -35 Y s 1646 313 m cl s 1706 418 m 38 Y s 1706 456 m cl s 1706 418 m -36 Y s 1706 382 m cl s 1765 446 m 39 Y s 1765 485
 m cl s 1765 446 m -36 Y s 1765 410 m cl s 1824 284 m 36 Y s 1824 320 m cl s 1824 284 m -32 Y s 1824 252 m cl s 1884 420 m 40 Y s 1884 460 m cl s 1884 420 m -36 Y s 1884 384 m cl s 1943 389 m 40 Y s 1943 429 m cl s 1943 389 m -36 Y s 1943 353 m cl s
 2002 358 m 36 Y s 2002 394 m cl s 2002 358 m -32 Y s 2002 326 m cl s /w 37 def /w2 {w 2 div} def /w3 {w 3 div} def 400 423 460 427 519 359 578 347 638 346 697 350 756 348 816 341 875 362 934 373 994 292 1053 373 1112 363 1172 362 1231 335 1290 400
 1350 342 1409 354 1468 401 1528 306 1587 377 1646 348 1706 418 1765 446 1824 284 1884 420 1943 389 2002 358 28 { m20} R 371 224 m 1661 X s 371 236 m -12 Y s 430 230 m -6 Y s 489 230 m -6 Y s 549 230 m -6 Y s 608 230 m -6 Y s 667 236 m -12 Y s 727
 230 m -6 Y s 786 230 m -6 Y s 845 230 m -6 Y s 905 230 m -6 Y s 964 236 m -12 Y s 1023 230 m -6 Y s 1083 230 m -6 Y s 1142 230 m -6 Y s 1201 230 m -6 Y s 1261 236 m -12 Y s 1320 230 m -6 Y s 1379 230 m -6 Y s 1439 230 m -6 Y s 1498 230 m -6 Y s 1557
 236 m -12 Y s 1617 230 m -6 Y s 1676 230 m -6 Y s 1735 230 m -6 Y s 1795 230 m -6 Y s 1854 236 m -12 Y s 1854 236 m -12 Y s 1913 230 m -6 Y s 1973 230 m -6 Y s 371 512 m 1661 X s 371 500 m 12 Y s 430 506 m 6 Y s 489 506 m 6 Y s 549 506 m 6 Y s 608
 506 m 6 Y s 667 500 m 12 Y s 727 506 m 6 Y s 786 506 m 6 Y s 845 506 m 6 Y s 905 506 m 6 Y s 964 500 m 12 Y s 1023 506 m 6 Y s 1083 506 m 6 Y s 1142 506 m 6 Y s 1201 506 m 6 Y s 1261 500 m 12 Y s 1320 506 m 6 Y s 1379 506 m 6 Y s 1439 506 m 6 Y s
 1498 506 m 6 Y s 1557 500 m 12 Y s 1617 506 m 6 Y s 1676 506 m 6 Y s 1735 506 m 6 Y s 1795 506 m 6 Y s 1854 500 m 12 Y s 1854 500 m 12 Y s 1913 506 m 6 Y s 1973 506 m 6 Y s 371 224 m 288 Y s 407 224 m -36 X s 389 242 m -18 X s 389 260 m -18 X s 389
 278 m -18 X s 407 296 m -36 X s 389 314 m -18 X s 389 332 m -18 X s 389 350 m -18 X s 407 368 m -36 X s 389 386 m -18 X s 389 404 m -18 X s 389 422 m -18 X s 407 440 m -36 X s 389 458 m -18 X s 389 476 m -18 X s 389 494 m -18 X s 407 512 m -36 X s
 2032 224 m 288 Y s 1996 224 m 36 X s 2014 242 m 18 X s 2014 260 m 18 X s 2014 278 m 18 X s 1996 296 m 36 X s 2014 314 m 18 X s 2014 332 m 18 X s 2014 350 m 18 X s 1996 368 m 36 X s 2014 386 m 18 X s 2014 404 m 18 X s 2014 422 m 18 X s 1996 440 m 36
 X s 2014 458 m 18 X s 2014 476 m 18 X s 2014 494 m 18 X s 1996 512 m 36 X s[  12 12 ] 0 sd 6 lw 371 368 m 1661 X s[  ] 0 sd 3 lw 1 1 1 c 2245 1622 11 544 bf black 1 1 1 c 1661 1507 371 577 bf black 1661 1507 371 577 bl 371 577 m 1661 X s 371 613 m
 -36 Y s 430 595 m -18 Y s 489 595 m -18 Y s 549 595 m -18 Y s 608 595 m -18 Y s 667 613 m -36 Y s 727 595 m -18 Y s 786 595 m -18 Y s 845 595 m -18 Y s 905 595 m -18 Y s 964 613 m -36 Y s 1023 595 m -18 Y s 1083 595 m -18 Y s 1142 595 m -18 Y s 1201
 595 m -18 Y s 1261 613 m -36 Y s 1320 595 m -18 Y s 1379 595 m -18 Y s 1439 595 m -18 Y s 1498 595 m -18 Y s 1557 613 m -36 Y s 1617 595 m -18 Y s 1676 595 m -18 Y s 1735 595 m -18 Y s 1795 595 m -18 Y s 1854 613 m -36 Y s 1854 613 m -36 Y s 1913
 595 m -18 Y s 1973 595 m -18 Y s 371 2084 m 1661 X s 371 2048 m 36 Y s 430 2066 m 18 Y s 489 2066 m 18 Y s 549 2066 m 18 Y s 608 2066 m 18 Y s 667 2048 m 36 Y s 727 2066 m 18 Y s 786 2066 m 18 Y s 845 2066 m 18 Y s 905 2066 m 18 Y s 964 2048 m 36 Y
 s 1023 2066 m 18 Y s 1083 2066 m 18 Y s 1142 2066 m 18 Y s 1201 2066 m 18 Y s 1261 2048 m 36 Y s 1320 2066 m 18 Y s 1379 2066 m 18 Y s 1439 2066 m 18 Y s 1498 2066 m 18 Y s 1557 2048 m 36 Y s 1617 2066 m 18 Y s 1676 2066 m 18 Y s 1735 2066 m 18 Y s
 1795 2066 m 18 Y s 1854 2048 m 36 Y s 1854 2048 m 36 Y s 1913 2066 m 18 Y s 1973 2066 m 18 Y s 371 577 m 1507 Y s
 gsave  2245 1622 11 544 C 152.196 1666.54 t 90 r /Helvetica findfont 64.7045 sf 0 0 m (Events / 2GeV) show NC gr  433 577 m -62 X s 402 639 m -31 X s 402 702 m -31 X s 402 765 m -31 X s 433 828 m -62 X s 402 891 m -31 X s 402 954 m -31 X s 402 1017
 m -31 X s 433 1079 m -62 X s 402 1142 m -31 X s 402 1205 m -31 X s 402 1268 m -31 X s 433 1331 m -62 X s 402 1394 m -31 X s 402 1457 m -31 X s 402 1519 m -31 X s 433 1582 m -62 X s 402 1645 m -31 X s 402 1708 m -31 X s 402 1771 m -31 X s 433 1834 m
 -62 X s 433 1834 m -62 X s 402 1896 m -31 X s 402 1959 m -31 X s 402 2022 m -31 X s
 gsave  2245 1622 11 544 C 327.221 555.514 t 0 r /Helvetica findfont 57.0922 sf 0 0 m (0) show NC gr 
 gsave  2245 1622 11 544 C 262.538 806.637 t 0 r /Helvetica findfont 57.0922 sf 0 0 m (200) show NC gr 
 gsave  2245 1622 11 544 C 262.538 1057.76 t 0 r /Helvetica findfont 57.0922 sf 0 0 m (400) show NC gr 
 gsave  2245 1622 11 544 C 262.538 1308.88 t 0 r /Helvetica findfont 57.0922 sf 0 0 m (600) show NC gr 
 gsave  2245 1622 11 544 C 262.538 1560.01 t 0 r /Helvetica findfont 57.0922 sf 0 0 m (800) show NC gr 
 gsave  2245 1622 11 544 C 232.099 1811.13 t 0 r /Helvetica findfont 57.0922 sf 0 0 m (1000) show NC gr  2032 577 m 1507 Y s 1969 577 m 63 X s 2001 639 m 31 X s 2001 702 m 31 X s 2001 765 m 31 X s 1969 828 m 63 X s 2001 891 m 31 X s 2001 954 m 31 X s
 2001 1017 m 31 X s 1969 1079 m 63 X s 2001 1142 m 31 X s 2001 1205 m 31 X s 2001 1268 m 31 X s 1969 1331 m 63 X s 2001 1394 m 31 X s 2001 1457 m 31 X s 2001 1519 m 31 X s 1969 1582 m 63 X s 2001 1645 m 31 X s 2001 1708 m 31 X s 2001 1771 m 31 X s
 1969 1834 m 63 X s 1969 1834 m 63 X s 2001 1896 m 31 X s 2001 1959 m 31 X s 2001 2022 m 31 X s 400 705 m -29 X s 371 705 m cl s 400 705 m 30 X s 430 705 m cl s 400 705 m 13 Y s 400 718 m cl s 400 705 m -12 Y s 400 693 m cl s 460 712 m -30 X s 430
 712 m cl s 460 712 m 29 X s 489 712 m cl s 460 712 m 14 Y s 460 726 m cl s 460 712 m -12 Y s 460 700 m cl s 519 693 m -30 X s 489 693 m cl s 519 693 m 30 X s 549 693 m cl s 519 693 m 14 Y s 519 707 m cl s 519 693 m -12 Y s 519 681 m cl s 578 693 m
 -29 X s 549 693 m cl s 578 693 m 30 X s 608 693 m cl s 578 693 m 14 Y s 578 707 m cl s 578 693 m -12 Y s 578 681 m cl s 638 697 m -30 X s 608 697 m cl s 638 697 m 29 X s 667 697 m cl s 638 697 m 14 Y s 638 711 m cl s 638 697 m -12 Y s 638 685 m cl s
 697 702 m -30 X s 667 702 m cl s 697 702 m 30 X s 727 702 m cl s 697 702 m 14 Y s 697 716 m cl s 697 702 m -12 Y s 697 690 m cl s 756 705 m -29 X s 727 705 m cl s 756 705 m 30 X s 786 705 m cl s 756 705 m 13 Y s 756 718 m cl s 756 705 m -12 Y s 756
 693 m cl s 816 705 m -30 X s 786 705 m cl s 816 705 m 29 X s 845 705 m cl s 816 705 m 13 Y s 816 718 m cl s 816 705 m -12 Y s 816 693 m cl s 875 715 m -30 X s 845 715 m cl s 875 715 m 30 X s 905 715 m cl s 875 715 m 14 Y s 875 729 m cl s 875 715 m
 -13 Y s 875 702 m cl s 934 721 m -29 X s 905 721 m cl s 934 721 m 30 X s 964 721 m cl s 934 721 m 14 Y s 934 735 m cl s 934 721 m -13 Y s 934 708 m cl s 994 693 m -30 X s 964 693 m cl s 994 693 m 29 X s 1023 693 m cl s 994 693 m 14 Y s 994 707 m cl
 s 994 693 m -12 Y s 994 681 m cl s 1053 726 m -30 X s 1023 726 m cl s 1053 726 m 30 X s 1083 726 m cl s 1053 726 m 14 Y s 1053 740 m cl s 1053 726 m -13 Y s 1053 713 m cl s 1112 726 m -29 X s 1083 726 m cl s 1112 726 m 30 X s 1142 726 m cl s 1112
 726 m 14 Y s 1112 740 m cl s 1112 726 m -13 Y s 1112 713 m cl s 1172 731 m -30 X s 1142 731 m cl s 1172 731 m 29 X s 1201 731 m cl s 1172 731 m 15 Y s 1172 746 m cl s 1172 731 m -13 Y s 1172 718 m cl s 1231 729 m -30 X s 1201 729 m cl s 1231 729 m
 30 X s 1261 729 m cl s 1231 729 m 14 Y s 1231 743 m cl s 1231 729 m -14 Y s 1231 715 m cl s 1290 771 m -29 X s 1261 771 m cl s 1290 771 m 30 X s 1320 771 m cl s 1290 771 m 17 Y s 1290 788 m cl s 1290 771 m -15 Y s 1290 756 m cl s 1350 778 m -30 X s
 1320 778 m cl s 1350 778 m 29 X s 1379 778 m cl s 1350 778 m 16 Y s 1350 794 m cl s 1350 778 m -16 Y s 1350 762 m cl s 1409 849 m -30 X s 1379 849 m cl s 1409 849 m 30 X s 1439 849 m cl s 1409 849 m 19 Y s 1409 868 m cl s 1409 849 m -18 Y s 1409 831
 m cl s 1468 1028 m -29 X s 1439 1028 m cl s 1468 1028 m 30 X s 1498 1028 m cl s 1468 1028 m 24 Y s 1468 1052 m cl s 1468 1028 m -23 Y s 1468 1005 m cl s 1528 1243 m -30 X s 1498 1243 m cl s 1528 1243 m 29 X s 1557 1243 m cl s 1528 1243 m 29 Y s 1528
 1272 m cl s 1528 1243 m -29 Y s 1528 1214 m cl s 1587 1499 m -30 X s 1557 1499 m cl s 1587 1499 m 30 X s 1617 1499 m cl s 1587 1499 m 35 Y s 1587 1534 m cl s 1587 1499 m -33 Y s 1587 1466 m cl s 1646 1216 m -29 X s 1617 1216 m cl s 1646 1216 m 30 X
 s 1676 1216 m cl s 1646 1216 m 29 Y s 1646 1245 m cl s 1646 1216 m -27 Y s 1646 1189 m cl s 1706 940 m -30 X s 1676 940 m cl s 1706 940 m 29 X s 1735 940 m cl s 1706 940 m 22 Y s 1706 962 m cl s 1706 940 m -21 Y s 1706 919 m cl s 1765 800 m -30 X s
 1735 800 m cl s 1765 800 m 30 X s 1795 800 m cl s 1765 800 m 18 Y s 1765 818 m cl s 1765 800 m -16 Y s 1765 784 m cl s 1824 683 m -29 X s 1795 683 m cl s 1824 683 m 30 X s 1854 683 m cl s 1824 683 m 13 Y s 1824 696 m cl s 1824 683 m -11 Y s 1824 672
 m cl s 1884 707 m -30 X s 1854 707 m cl s 1884 707 m 29 X s 1913 707 m cl s 1884 707 m 14 Y s 1884 721 m cl s 1884 707 m -12 Y s 1884 695 m cl s 1943 681 m -30 X s 1913 681 m cl s 1943 681 m 30 X s 1973 681 m cl s 1943 681 m 13 Y s 1943 694 m cl s
 1943 681 m -12 Y s 1943 669 m cl s 2002 658 m -29 X s 1973 658 m cl s 2002 658 m 30 X s 2032 658 m cl s 2002 658 m 12 Y s 2002 670 m cl s 2002 658 m -10 Y s 2002 648 m cl s 400 705 460 712 519 693 578 693 638 697 697 702 756 705 816 705 875 715 934
 721 994 693 1053 726 1112 726 1172 731 1231 729 1290 771 1350 778 1409 849 1468 1028 1528 1243 1587 1499 1646 1216 1706 940 1765 800 1824 683 1884 707 1943 681 2002 658 28 { m20} R 0.8 0 0 c 9 lw black 0.8 0 0 c 371 684 m cl s 371 684 m 59 5 d 59 6
 d 60 4 d 59 5 d 59 3 d 60 4 d 59 3 d 59 2 d 60 2 d 59 3 d 59 2 d 60 3 d 59 4 d 59 7 d 30 5 d 30 7 d 29 9 d 30 13 d 15 9 d 15 10 d 14 12 d 15 15 d 15 18 d 15 22 d 15 27 d 7 15 d 8 18 d 7 19 d 7 21 d 8 24 d 7 25 d 8 29 d 7 31 d 7 33 d 8 36 d 15 77 d
 15 82 d 14 77 d 8 34 d 7 31 d 4 13 d 4 11 d 7 19 d 4 6 d 3 4 d 4 2 d 4 X 4 -2 d 3 -5 d 4 -7 d 4 -9 d 3 -12 d 4 -14 d 4 -15 d 4 -17 d 3 -19 d 4 -20 d 7 -43 d 15 -95 d 15 -95 d 7 -45 d 8 -42 d 7 -40 d 8 -36 d 7 -34 d 8 -30 d 7 -27 d 7 -24 d 8 -21 d 7
 -19 d 8 -17 d 7 -14 d 15 -24 d 15 -18 d 15 -14 d 14 -11 d 15 -8 d 30 -14 d 30 -10 d 29 -9 d 60 -14 d 59 -11 d s 0 1 0 c[  12 12 ] 0 sd black 0 1 0 c 371 577 m cl s 371 577 m 830 X 30 1 d 59 X 30 1 d 15 X 15 1 d 14 X 15 1 d 15 X 15 1 d 15 1 d 7 1 d 8
 X 7 1 d 7 1 d 8 1 d 7 1 d 8 1 d 7 1 d 7 1 d 8 1 d 15 3 d 15 3 d 7 1 d 7 1 d 8 1 d 7 1 d 4 1 d 7 X 4 1 d 19 X 3 -1 d 8 X 3 -1 d 4 X 4 -1 d 4 X 3 -1 d 4 X 7 -2 d 8 -1 d 7 -1 d 15 -4 d 15 -2 d 7 -2 d 8 -1 d 7 -1 d 8 -1 d 7 -1 d 7 -1 d 8 -1 d 7 X 8 -1 d
 7 X 15 -1 d 15 -1 d 15 X 14 -1 d 45 X 30 -1 d 148 X s 0.2 0.4 0.2 c black 0.2 0.4 0.2 c 371 578 m cl s 371 578 m 118 X 60 1 d 118 X 60 1 d 59 X 59 1 d 60 1 d 59 2 d 59 2 d 60 3 d 59 4 d 59 8 d 30 5 d 30 7 d 29 10 d 30 13 d 15 8 d 15 10 d 14 12 d 15
 15 d 15 17 d 15 21 d 15 25 d 7 15 d 8 16 d 7 18 d 7 20 d 8 22 d 7 23 d 8 26 d 7 28 d 7 31 d 8 32 d 15 68 d 15 70 d 7 33 d 7 31 d 8 26 d 7 23 d 4 9 d 4 8 d 3 6 d 4 5 d 4 4 d 3 2 d 4 X 4 -2 d 4 -3 d 3 -5 d 4 -6 d 4 -8 d 3 -10 d 4 -11 d 4 -12 d 4 -13 d
 3 -14 d 4 -16 d 7 -33 d 8 -36 d 7 -37 d 15 -77 d 15 -73 d 7 -33 d 8 -32 d 7 -29 d 8 -26 d 7 -24 d 7 -21 d 8 -19 d 7 -17 d 8 -14 d 7 -12 d 15 -21 d 15 -15 d 15 -11 d 14 -8 d 15 -7 d 30 -9 d 30 -6 d 29 -5 d 60 -6 d 59 -3 d s 1 0.8 0.2 c black 1 0.8
 0.2 c 371 679 m cl s 371 679 m 59 6 d 59 5 d 60 4 d 59 4 d 59 3 d 60 3 d 59 3 d 59 2 d 60 1 d 59 1 d 178 X 59 -1 d 60 -2 d 59 -1 d 59 -3 d 60 -3 d 59 -3 d 59 -4 d 60 -5 d 59 -4 d 59 -6 d 60 -6 d 59 -6 d 59 -7 d 60 -7 d 59 -8 d s 0 0 1 c black 0 0 1
 c 371 579 m cl s 371 579 m 59 X 59 1 d 238 X 59 -1 d 178 X 59 -1 d 178 X 60 1 d 59 X 30 1 d 29 1 d 15 1 d 15 1 d 15 1 d 15 1 d 14 3 d 8 1 d 7 1 d 8 2 d 7 2 d 7 3 d 8 3 d 7 3 d 4 2 d 4 2 d 7 4 d 4 3 d 4 2 d 3 3 d 4 3 d 7 7 d 8 7 d 7 7 d 8 7 d 7 7 d 4
 4 d 3 2 d 4 2 d 4 2 d 4 2 d 7 X 4 -1 d 3 -1 d 4 -2 d 4 -3 d 4 -3 d 3 -3 d 4 -5 d 7 -8 d 4 -4 d 4 -4 d 2 -3 d 1 -2 d 4 -4 d 8 -7 d 3 -4 d 4 -3 d 4 -3 d 3 -3 d 4 -2 d 4 -2 d 4 -2 d 3 -2 d 4 -2 d 4 -1 d 7 -3 d 8 -2 d 7 -1 d 7 -2 d 15 -2 d 15 -1 d 15 -2
 d 15 X 15 -1 d 29 -1 d 30 -1 d 59 -1 d 60 X 59 -1 d s black[  ] 0 sd 3 lw 371 577 m 1661 X s 371 613 m -36 Y s 430 595 m -18 Y s 489 595 m -18 Y s 549 595 m -18 Y s 608 595 m -18 Y s 667 613 m -36 Y s 727 595 m -18 Y s 786 595 m -18 Y s 845 595 m
 -18 Y s 905 595 m -18 Y s 964 613 m -36 Y s 1023 595 m -18 Y s 1083 595 m -18 Y s 1142 595 m -18 Y s 1201 595 m -18 Y s 1261 613 m -36 Y s 1320 595 m -18 Y s 1379 595 m -18 Y s 1439 595 m -18 Y s 1498 595 m -18 Y s 1557 613 m -36 Y s 1617 595 m -18
 Y s 1676 595 m -18 Y s 1735 595 m -18 Y s 1795 595 m -18 Y s 1854 613 m -36 Y s 1854 613 m -36 Y s 1913 595 m -18 Y s 1973 595 m -18 Y s 371 2084 m 1661 X s 371 2048 m 36 Y s 430 2066 m 18 Y s 489 2066 m 18 Y s 549 2066 m 18 Y s 608 2066 m 18 Y s
 667 2048 m 36 Y s 727 2066 m 18 Y s 786 2066 m 18 Y s 845 2066 m 18 Y s 905 2066 m 18 Y s 964 2048 m 36 Y s 1023 2066 m 18 Y s 1083 2066 m 18 Y s 1142 2066 m 18 Y s 1201 2066 m 18 Y s 1261 2048 m 36 Y s 1320 2066 m 18 Y s 1379 2066 m 18 Y s 1439
 2066 m 18 Y s 1498 2066 m 18 Y s 1557 2048 m 36 Y s 1617 2066 m 18 Y s 1676 2066 m 18 Y s 1735 2066 m 18 Y s 1795 2066 m 18 Y s 1854 2048 m 36 Y s 1854 2048 m 36 Y s 1913 2066 m 18 Y s 1973 2066 m 18 Y s 371 577 m 1507 Y s 433 577 m -62 X s 402 639
 m -31 X s 402 702 m -31 X s 402 765 m -31 X s 433 828 m -62 X s 402 891 m -31 X s 402 954 m -31 X s 402 1017 m -31 X s 433 1079 m -62 X s 402 1142 m -31 X s 402 1205 m -31 X s 402 1268 m -31 X s 433 1331 m -62 X s 402 1394 m -31 X s 402 1457 m -31 X
 s 402 1519 m -31 X s 433 1582 m -62 X s 402 1645 m -31 X s 402 1708 m -31 X s 402 1771 m -31 X s 433 1834 m -62 X s 433 1834 m -62 X s 402 1896 m -31 X s 402 1959 m -31 X s 402 2022 m -31 X s 2032 577 m 1507 Y s 1969 577 m 63 X s 2001 639 m 31 X s
 2001 702 m 31 X s 2001 765 m 31 X s 1969 828 m 63 X s 2001 891 m 31 X s 2001 954 m 31 X s 2001 1017 m 31 X s 1969 1079 m 63 X s 2001 1142 m 31 X s 2001 1205 m 31 X s 2001 1268 m 31 X s 1969 1331 m 63 X s 2001 1394 m 31 X s 2001 1457 m 31 X s 2001
 1519 m 31 X s 1969 1582 m 63 X s 2001 1645 m 31 X s 2001 1708 m 31 X s 2001 1771 m 31 X s 1969 1834 m 63 X s 1969 1834 m 63 X s 2001 1896 m 31 X s 2001 1959 m 31 X s 2001 2022 m 31 X s 1 1 1 c black
 gsave  2245 1622 11 544 C 662.051 1989.96 t 0 r /Helvetica findfont 60.8983 sf 0 0 m ( Internal) show NC gr 
 gsave  2245 1622 11 544 C 452.782 1989.96 t 0 r /Helvetica-BoldOblique findfont 60.8983 sf 0 0 m (ATLAS) show NC gr 
 gsave  2245 1622 11 544 C 452.782 1902.45 t 0 r /Helvetica findfont 60.8983 sf 0 0 m (data 2015\25518 + mc16a,d,e) show NC gr 
 gsave  2245 1622 11 544 C 1034.93 1818.74 t 0 r /Helvetica findfont 41.8676 sf 0 0 m (\2551) show NC gr 
 gsave  2245 1622 11 544 C 513.661 1792.1 t 0 r /Helvetica findfont 60.8983 sf 0 0 m (=13 TeV, 138.97 fb) show NC gr 
 gsave  2245 1622 11 544 C 483.221 1792.1 t 0 r /Helvetica findfont 60.8983 sf 0 0 m (s) show NC gr  6 lw 464 1826 m 8 -38 d s 3 lw 472 1788 m 4 57 d s 476 1845 m 38 X s
 gsave  2245 1622 11 544 C 745.759 1712.2 t 0 r /Helvetica findfont 60.8983 sf 0 0 m ( CR) show NC gr 
 gsave  2245 1622 11 544 C 722.93 1689.37 t 0 r /Helvetica findfont 41.8676 sf 0 0 m (0) show NC gr 
 gsave  2245 1622 11 544 C 452.782 1712.2 t 0 r /Helvetica findfont 60.8983 sf 0 0 m (Inverted d) show NC gr  1 1 1 c 718 438 1269 1598 bl 1269 1598 m 718 X s 1987 1598 m 438 Y s 1987 2036 m -718 X s 1269 2036 m -438 Y s black
 gsave  2245 1622 11 544 C 1445.86 1986.15 t 0 r /Helvetica findfont 60.8983 sf 0 0 m (Data) show NC gr  1296 1999 m 125 X s 1358 1977 m 44 Y s 1358 1999 m20
 gsave  2245 1622 11 544 C 1445.86 1910.06 t 0 r /Helvetica findfont 60.8983 sf 0 0 m (Total BG) show NC gr  0.8 0 0 c 9 lw 1296 1926 m 125 X s black
 gsave  2245 1622 11 544 C 1445.86 1837.76 t 0 r /Helvetica findfont 60.8983 sf 0 0 m (Z+LFjets) show NC gr  0 1 0 c[  12 12 ] 0 sd 1296 1853 m 125 X s black
 gsave  2245 1622 11 544 C 1445.86 1765.47 t 0 r /Helvetica findfont 60.8983 sf 0 0 m (Z+HFjets) show NC gr  0.2 0.4 0.2 c 1296 1780 m 125 X s black
 gsave  2245 1622 11 544 C 1464.88 1693.18 t 0 r /Helvetica findfont 60.8983 sf 0 0 m (t) show NC gr [  ] 0 sd 3 lw 1465 1743 m 19 X s
 gsave  2245 1622 11 544 C 1445.86 1693.18 t 0 r /Helvetica findfont 60.8983 sf 0 0 m (t) show NC gr  1 0.8 0.2 c[  12 12 ] 0 sd 9 lw 1296 1707 m 125 X s black
 gsave  2245 1622 11 544 C 1445.86 1620.88 t 0 r /Helvetica findfont 60.8983 sf 0 0 m (Diboson) show NC gr  0 0 1 c 1296 1635 m 125 X s
 gr  gr showpage
end
%%EOF
