%!PS-Adobe-2.0 EPSF-2.0
%%BoundingBox:  0 0 567 544
%%Title: Results/M1Data_ss.eps: Region: ss
%%Creator: ROOT Version 6.08/06
%%CreationDate: Sun Oct 13 15:24:49 2019
%%DocumentNeededResources: ProcSet (FontSetInit)
%%EndComments
%%BeginProlog
80 dict begin
/s {stroke} def /l {lineto} def /m {moveto} def /t {translate} def
/r {rotate} def /rl {roll}  def /R {repeat} def
/d {rlineto} def /rm {rmoveto} def /gr {grestore} def /f {eofill} def
/c {setrgbcolor} def /black {0 setgray} def /sd {setdash} def
/cl {closepath} def /sf {scalefont setfont} def /lw {setlinewidth} def
/box {m dup 0 exch d exch 0 d 0 exch neg d cl} def
/NC{systemdict begin initclip end}def/C{NC box clip newpath}def
/bl {box s} def /bf {gsave box gsave f grestore 1 lw [] 0 sd s grestore} def /Y { 0 exch d} def /X { 0 d} def 
/K {{pop pop 0 moveto} exch kshow} bind def
/ita {/ang 15 def gsave [1 0 ang dup sin exch cos div 1 0 0] concat} def 
/mp {newpath /y exch def /x exch def} def
/side {[w .77 mul w .23 mul] .385 w mul sd w 0 l currentpoint t -144 r} def
/mr {mp x y w2 0 360 arc} def /m24 {mr s} def /m20 {mr f} def
/mb {mp x y w2 add m w2 neg 0 d 0 w neg d w 0 d 0 w d cl} def
/mt {mp x y w2 add m w2 neg w neg d w 0 d cl} def
/m21 {mb f} def /m25 {mb s} def /m22 {mt f} def /m26{mt s} def
/m23 {mp x y w2 sub m w2 w d w neg 0 d cl f} def
/m27 {mp x y w2 add m w3 neg w2 neg d w3 w2 neg d w3 w2 d cl s} def
/m28 {mp x w2 sub y w2 sub w3 add m w3 0 d  0 w3 neg d w3 0 d 0 w3 d w3 0 d  0 w3 d w3 neg 0 d 0 w3 d w3 neg 0 d 0 w3 neg d w3 neg 0 d cl s } def
/m29 {mp gsave x w2 sub y w2 add w3 sub m currentpoint t 4 {side} repeat cl fill gr} def
/m30 {mp gsave x w2 sub y w2 add w3 sub m currentpoint t 4 {side} repeat cl s gr} def
/m31 {mp x y w2 sub m 0 w d x w2 sub y m w 0 d x w2 sub y w2 add m w w neg d x w2 sub y w2 sub m w w d s} def
/m32 {mp x y w2 sub m w2 w d w neg 0 d cl s} def
/m33 {mp x y w2 add m w3 neg w2 neg d w3 w2 neg d w3 w2 d cl f} def
/m34 {mp x w2 sub y w2 sub w3 add m w3 0 d  0 w3 neg d w3 0 d 0 w3 d w3 0 d  0 w3 d w3 neg 0 d 0 w3 d w3 neg 0 d 0 w3 neg d w3 neg 0 d cl f } def
/m2 {mp x y w2 sub m 0 w d x w2 sub y m w 0 d s} def
/m5 {mp x w2 sub y w2 sub m w w d x w2 sub y w2 add m w w neg d s} def
%%IncludeResource: ProcSet (FontSetInit)
%%IncludeResource: font Times-Roman
%%IncludeResource: font Times-Italic
%%IncludeResource: font Times-Bold
%%IncludeResource: font Times-BoldItalic
%%IncludeResource: font Helvetica
%%IncludeResource: font Helvetica-Oblique
%%IncludeResource: font Helvetica-Bold
%%IncludeResource: font Helvetica-BoldOblique
%%IncludeResource: font Courier
%%IncludeResource: font Courier-Oblique
%%IncludeResource: font Courier-Bold
%%IncludeResource: font Courier-BoldOblique
%%IncludeResource: font Symbol
%%IncludeResource: font ZapfDingbats
/reEncode {exch findfont dup length dict begin {1 index /FID eq  {pop pop} {def} ifelse } forall /Encoding exch def currentdict end dup /FontName get exch definefont pop } def [/Times-Bold /Times-Italic /Times-BoldItalic /Helvetica /Helvetica-Oblique
 /Helvetica-Bold /Helvetica-BoldOblique /Courier /Courier-Oblique /Courier-Bold /Courier-BoldOblique /Times-Roman /AvantGarde-Book /AvantGarde-BookOblique /AvantGarde-Demi /AvantGarde-DemiOblique /Bookman-Demi /Bookman-DemiItalic /Bookman-Light
 /Bookman-LightItalic /Helvetica-Narrow /Helvetica-Narrow-Bold /Helvetica-Narrow-BoldOblique /Helvetica-Narrow-Oblique /NewCenturySchlbk-Roman /NewCenturySchlbk-Bold /NewCenturySchlbk-BoldItalic /NewCenturySchlbk-Italic /Palatino-Bold
 /Palatino-BoldItalic /Palatino-Italic /Palatino-Roman ] {ISOLatin1Encoding reEncode } forall
%%EndProlog
%%BeginSetup
%%EndSetup
newpath  gsave  .25 .25 scale  gsave  0 0 t black[  ] 0 sd 3 lw 1 1 1 c 2268 2176 0 0 bf black 1 1 1 c 2245 533 11 11 bf black 1 1 1 c 1661 288 371 224 bf black 1661 288 371 224 bl 371 224 m 1661 X s 371 512 m 1661 X s 371 224 m 288 Y s[ 4 8] 0 sd
 2032 224 m -1661 X s 2032 296 m -1661 X s 2032 368 m -1661 X s 2032 440 m -1661 X s 2032 512 m -1661 X s[  ] 0 sd 2032 224 m 288 Y s 371 224 m 1661 X s
 gsave  2245 533 11 11 C 1849.18 98.9272 t 0 r /Helvetica findfont 64.7479 sf 0 0 m ( [GeV]) show NC gr 
 gsave  2245 533 11 11 C 1803.52 76.0979 t 0 r /Helvetica findfont 41.8957 sf 0 0 m (12) show NC gr 
 gsave  2245 533 11 11 C 1750.25 98.9272 t 0 r /Helvetica findfont 64.7479 sf 0 0 m (m) show NC gr  371 236 m -12 Y s 430 230 m -6 Y s 489 230 m -6 Y s 549 230 m -6 Y s 608 230 m -6 Y s 667 236 m -12 Y s 727 230 m -6 Y s 786 230 m -6 Y s 845 230 m -6
 Y s 905 230 m -6 Y s 964 236 m -12 Y s 1023 230 m -6 Y s 1083 230 m -6 Y s 1142 230 m -6 Y s 1201 230 m -6 Y s 1261 236 m -12 Y s 1320 230 m -6 Y s 1379 230 m -6 Y s 1439 230 m -6 Y s 1498 230 m -6 Y s 1557 236 m -12 Y s 1617 230 m -6 Y s 1676 230 m
 -6 Y s 1735 230 m -6 Y s 1795 230 m -6 Y s 1854 236 m -12 Y s 1854 236 m -12 Y s 1913 230 m -6 Y s 1973 230 m -6 Y s
 gsave  2245 533 11 11 C 334.831 171.22 t 0 r /Helvetica findfont 57.1305 sf 0 0 m (50) show NC gr 
 gsave  2245 533 11 11 C 631.612 171.22 t 0 r /Helvetica findfont 57.1305 sf 0 0 m (60) show NC gr 
 gsave  2245 533 11 11 C 928.394 171.22 t 0 r /Helvetica findfont 57.1305 sf 0 0 m (70) show NC gr 
 gsave  2245 533 11 11 C 1225.18 171.22 t 0 r /Helvetica findfont 57.1305 sf 0 0 m (80) show NC gr 
 gsave  2245 533 11 11 C 1521.96 171.22 t 0 r /Helvetica findfont 57.1305 sf 0 0 m (90) show NC gr 
 gsave  2245 533 11 11 C 1803.52 171.22 t 0 r /Helvetica findfont 57.1305 sf 0 0 m (100) show NC gr  371 512 m 1661 X s 371 500 m 12 Y s 430 506 m 6 Y s 489 506 m 6 Y s 549 506 m 6 Y s 608 506 m 6 Y s 667 500 m 12 Y s 727 506 m 6 Y s 786 506 m 6 Y s
 845 506 m 6 Y s 905 506 m 6 Y s 964 500 m 12 Y s 1023 506 m 6 Y s 1083 506 m 6 Y s 1142 506 m 6 Y s 1201 506 m 6 Y s 1261 500 m 12 Y s 1320 506 m 6 Y s 1379 506 m 6 Y s 1439 506 m 6 Y s 1498 506 m 6 Y s 1557 500 m 12 Y s 1617 506 m 6 Y s 1676 506 m
 6 Y s 1735 506 m 6 Y s 1795 506 m 6 Y s 1854 500 m 12 Y s 1854 500 m 12 Y s 1913 506 m 6 Y s 1973 506 m 6 Y s 371 224 m 288 Y s
 gsave  2245 533 11 11 C 156.001 407.124 t 90 r /Helvetica findfont 64.7479 sf 0 0 m (Pull) show NC gr  407 224 m -36 X s 389 242 m -18 X s 389 260 m -18 X s 389 278 m -18 X s 407 296 m -36 X s 389 314 m -18 X s 389 332 m -18 X s 389 350 m -18 X s
 407 368 m -36 X s 389 386 m -18 X s 389 404 m -18 X s 389 422 m -18 X s 407 440 m -36 X s 389 458 m -18 X s 389 476 m -18 X s 389 494 m -18 X s 407 512 m -36 X s
 gsave  2245 533 11 11 C 327.221 201.659 t 0 r /Helvetica findfont 57.1305 sf 0 0 m (4) show NC gr 
 gsave  2245 533 11 11 C 292.977 201.659 t 0 r /Symbol findfont 57.1305 sf 0 0 m (-) show NC gr 
 gsave  2245 533 11 11 C 327.221 273.952 t 0 r /Helvetica findfont 57.1305 sf 0 0 m (2) show NC gr 
 gsave  2245 533 11 11 C 292.977 273.952 t 0 r /Symbol findfont 57.1305 sf 0 0 m (-) show NC gr 
 gsave  2245 533 11 11 C 327.221 346.245 t 0 r /Helvetica findfont 57.1305 sf 0 0 m (0) show NC gr 
 gsave  2245 533 11 11 C 327.221 418.538 t 0 r /Helvetica findfont 57.1305 sf 0 0 m (2) show NC gr 
 gsave  2245 533 11 11 C 327.221 490.831 t 0 r /Helvetica findfont 57.1305 sf 0 0 m (4) show NC gr  2032 224 m 288 Y s 1996 224 m 36 X s 2014 242 m 18 X s 2014 260 m 18 X s 2014 278 m 18 X s 1996 296 m 36 X s 2014 314 m 18 X s 2014 332 m 18 X s 2014
 350 m 18 X s 1996 368 m 36 X s 2014 386 m 18 X s 2014 404 m 18 X s 2014 422 m 18 X s 1996 440 m 36 X s 2014 458 m 18 X s 2014 476 m 18 X s 2014 494 m 18 X s 1996 512 m 36 X s 400 396 m 47 Y s 400 443 m cl s 400 396 m -36 Y s 400 360 m cl s 460 416 m
 46 Y s 460 462 m cl s 460 416 m -36 Y s 460 380 m cl s 519 366 m 36 Y s 519 402 m cl s 519 366 m -27 Y s 519 339 m cl s 578 323 m 36 Y s 578 359 m cl s 578 323 m -24 Y s 578 299 m cl s 638 387 m 47 Y s 638 434 m cl s 638 387 m -36 Y s 638 351 m cl s
 697 423 m 45 Y s 697 468 m cl s 697 423 m -36 Y s 697 387 m cl s 756 335 m 36 Y s 756 371 m cl s 756 335 m -26 Y s 756 309 m cl s 816 377 m 47 Y s 816 424 m cl s 816 377 m -36 Y s 816 341 m cl s 875 340 m 36 Y s 875 376 m cl s 875 340 m -27 Y s 875
 313 m cl s 934 371 m 47 Y s 934 418 m cl s 934 371 m -36 Y s 934 335 m cl s 994 417 m 45 Y s 994 462 m cl s 994 417 m -36 Y s 994 381 m cl s 1053 365 m 36 Y s 1053 401 m cl s 1053 365 m -27 Y s 1053 338 m cl s 1112 386 m 46 Y s 1112 432 m cl s 1112
 386 m -36 Y s 1112 350 m cl s 1172 401 m 45 Y s 1172 446 m cl s 1172 401 m -36 Y s 1172 365 m cl s 1231 382 m 45 Y s 1231 427 m cl s 1231 382 m -36 Y s 1231 346 m cl s 1290 376 m 45 Y s 1290 421 m cl s 1290 376 m -36 Y s 1290 340 m cl s 1350 428 m
 43 Y s 1350 471 m cl s 1350 428 m -36 Y s 1350 392 m cl s 1409 335 m 36 Y s 1409 371 m cl s 1409 335 m -30 Y s 1409 305 m cl s 1468 435 m 40 Y s 1468 475 m cl s 1468 435 m -36 Y s 1468 399 m cl s 1528 412 m 39 Y s 1528 451 m cl s 1528 412 m -36 Y s
 1528 376 m cl s 1587 349 m 36 Y s 1587 385 m cl s 1587 349 m -33 Y s 1587 316 m cl s 1646 340 m 36 Y s 1646 376 m cl s 1646 340 m -33 Y s 1646 307 m cl s 1706 350 m 36 Y s 1706 386 m cl s 1706 350 m -31 Y s 1706 319 m cl s 1765 333 m 36 Y s 1765 369
 m cl s 1765 333 m -29 Y s 1765 304 m cl s 1824 437 m 44 Y s 1824 481 m cl s 1824 437 m -36 Y s 1824 401 m cl s 1884 350 m 36 Y s 1884 386 m cl s 1884 350 m -26 Y s 1884 324 m cl s 1943 397 m 47 Y s 1943 444 m cl s 1943 397 m -36 Y s 1943 361 m cl s
 2002 372 m 51 Y s 2002 423 m cl s 2002 372 m -36 Y s 2002 336 m cl s /w 37 def /w2 {w 2 div} def /w3 {w 3 div} def 400 396 460 416 519 366 578 323 638 387 697 423 756 335 816 377 875 340 934 371 994 417 1053 365 1112 386 1172 401 1231 382 1290 376
 1350 428 1409 335 1468 435 1528 412 1587 349 1646 340 1706 350 1765 333 1824 437 1884 350 1943 397 2002 372 28 { m20} R 371 224 m 1661 X s 371 236 m -12 Y s 430 230 m -6 Y s 489 230 m -6 Y s 549 230 m -6 Y s 608 230 m -6 Y s 667 236 m -12 Y s 727
 230 m -6 Y s 786 230 m -6 Y s 845 230 m -6 Y s 905 230 m -6 Y s 964 236 m -12 Y s 1023 230 m -6 Y s 1083 230 m -6 Y s 1142 230 m -6 Y s 1201 230 m -6 Y s 1261 236 m -12 Y s 1320 230 m -6 Y s 1379 230 m -6 Y s 1439 230 m -6 Y s 1498 230 m -6 Y s 1557
 236 m -12 Y s 1617 230 m -6 Y s 1676 230 m -6 Y s 1735 230 m -6 Y s 1795 230 m -6 Y s 1854 236 m -12 Y s 1854 236 m -12 Y s 1913 230 m -6 Y s 1973 230 m -6 Y s 371 512 m 1661 X s 371 500 m 12 Y s 430 506 m 6 Y s 489 506 m 6 Y s 549 506 m 6 Y s 608
 506 m 6 Y s 667 500 m 12 Y s 727 506 m 6 Y s 786 506 m 6 Y s 845 506 m 6 Y s 905 506 m 6 Y s 964 500 m 12 Y s 1023 506 m 6 Y s 1083 506 m 6 Y s 1142 506 m 6 Y s 1201 506 m 6 Y s 1261 500 m 12 Y s 1320 506 m 6 Y s 1379 506 m 6 Y s 1439 506 m 6 Y s
 1498 506 m 6 Y s 1557 500 m 12 Y s 1617 506 m 6 Y s 1676 506 m 6 Y s 1735 506 m 6 Y s 1795 506 m 6 Y s 1854 500 m 12 Y s 1854 500 m 12 Y s 1913 506 m 6 Y s 1973 506 m 6 Y s 371 224 m 288 Y s 407 224 m -36 X s 389 242 m -18 X s 389 260 m -18 X s 389
 278 m -18 X s 407 296 m -36 X s 389 314 m -18 X s 389 332 m -18 X s 389 350 m -18 X s 407 368 m -36 X s 389 386 m -18 X s 389 404 m -18 X s 389 422 m -18 X s 407 440 m -36 X s 389 458 m -18 X s 389 476 m -18 X s 389 494 m -18 X s 407 512 m -36 X s
 2032 224 m 288 Y s 1996 224 m 36 X s 2014 242 m 18 X s 2014 260 m 18 X s 2014 278 m 18 X s 1996 296 m 36 X s 2014 314 m 18 X s 2014 332 m 18 X s 2014 350 m 18 X s 1996 368 m 36 X s 2014 386 m 18 X s 2014 404 m 18 X s 2014 422 m 18 X s 1996 440 m 36
 X s 2014 458 m 18 X s 2014 476 m 18 X s 2014 494 m 18 X s 1996 512 m 36 X s[  12 12 ] 0 sd 6 lw 371 368 m 1661 X s[  ] 0 sd 3 lw 1 1 1 c 2245 1622 11 544 bf black 1 1 1 c 1661 1507 371 577 bf black 1661 1507 371 577 bl 371 577 m 1661 X s 371 613 m
 -36 Y s 430 595 m -18 Y s 489 595 m -18 Y s 549 595 m -18 Y s 608 595 m -18 Y s 667 613 m -36 Y s 727 595 m -18 Y s 786 595 m -18 Y s 845 595 m -18 Y s 905 595 m -18 Y s 964 613 m -36 Y s 1023 595 m -18 Y s 1083 595 m -18 Y s 1142 595 m -18 Y s 1201
 595 m -18 Y s 1261 613 m -36 Y s 1320 595 m -18 Y s 1379 595 m -18 Y s 1439 595 m -18 Y s 1498 595 m -18 Y s 1557 613 m -36 Y s 1617 595 m -18 Y s 1676 595 m -18 Y s 1735 595 m -18 Y s 1795 595 m -18 Y s 1854 613 m -36 Y s 1854 613 m -36 Y s 1913
 595 m -18 Y s 1973 595 m -18 Y s 371 2084 m 1661 X s 371 2048 m 36 Y s 430 2066 m 18 Y s 489 2066 m 18 Y s 549 2066 m 18 Y s 608 2066 m 18 Y s 667 2048 m 36 Y s 727 2066 m 18 Y s 786 2066 m 18 Y s 845 2066 m 18 Y s 905 2066 m 18 Y s 964 2048 m 36 Y
 s 1023 2066 m 18 Y s 1083 2066 m 18 Y s 1142 2066 m 18 Y s 1201 2066 m 18 Y s 1261 2048 m 36 Y s 1320 2066 m 18 Y s 1379 2066 m 18 Y s 1439 2066 m 18 Y s 1498 2066 m 18 Y s 1557 2048 m 36 Y s 1617 2066 m 18 Y s 1676 2066 m 18 Y s 1735 2066 m 18 Y s
 1795 2066 m 18 Y s 1854 2048 m 36 Y s 1854 2048 m 36 Y s 1913 2066 m 18 Y s 1973 2066 m 18 Y s 371 577 m 1507 Y s
 gsave  2245 1622 11 544 C 152.196 1666.54 t 90 r /Helvetica findfont 64.7045 sf 0 0 m (Events / 2GeV) show NC gr  433 577 m -62 X s 402 610 m -31 X s 402 644 m -31 X s 402 678 m -31 X s 433 711 m -62 X s 402 745 m -31 X s 402 779 m -31 X s 402 813 m
 -31 X s 433 846 m -62 X s 402 880 m -31 X s 402 914 m -31 X s 402 948 m -31 X s 433 981 m -62 X s 402 1015 m -31 X s 402 1049 m -31 X s 402 1083 m -31 X s 433 1116 m -62 X s 402 1150 m -31 X s 402 1184 m -31 X s 402 1217 m -31 X s 433 1251 m -62 X s
 402 1285 m -31 X s 402 1319 m -31 X s 402 1352 m -31 X s 433 1386 m -62 X s 402 1420 m -31 X s 402 1454 m -31 X s 402 1487 m -31 X s 433 1521 m -62 X s 402 1555 m -31 X s 402 1588 m -31 X s 402 1622 m -31 X s 433 1656 m -62 X s 402 1690 m -31 X s
 402 1723 m -31 X s 402 1757 m -31 X s 433 1791 m -62 X s 402 1825 m -31 X s 402 1858 m -31 X s 402 1892 m -31 X s 433 1926 m -62 X s 402 1960 m -31 X s 402 1993 m -31 X s 402 2027 m -31 X s 433 2061 m -62 X s 433 2061 m -62 X s
 gsave  2245 1622 11 544 C 327.221 555.514 t 0 r /Helvetica findfont 57.0922 sf 0 0 m (0) show NC gr 
 gsave  2245 1622 11 544 C 292.977 688.686 t 0 r /Helvetica findfont 57.0922 sf 0 0 m (20) show NC gr 
 gsave  2245 1622 11 544 C 292.977 825.662 t 0 r /Helvetica findfont 57.0922 sf 0 0 m (40) show NC gr 
 gsave  2245 1622 11 544 C 292.977 958.833 t 0 r /Helvetica findfont 57.0922 sf 0 0 m (60) show NC gr 
 gsave  2245 1622 11 544 C 292.977 1095.81 t 0 r /Helvetica findfont 57.0922 sf 0 0 m (80) show NC gr 
 gsave  2245 1622 11 544 C 262.538 1228.98 t 0 r /Helvetica findfont 57.0922 sf 0 0 m (100) show NC gr 
 gsave  2245 1622 11 544 C 262.538 1365.96 t 0 r /Helvetica findfont 57.0922 sf 0 0 m (120) show NC gr 
 gsave  2245 1622 11 544 C 262.538 1499.13 t 0 r /Helvetica findfont 57.0922 sf 0 0 m (140) show NC gr 
 gsave  2245 1622 11 544 C 262.538 1636.1 t 0 r /Helvetica findfont 57.0922 sf 0 0 m (160) show NC gr 
 gsave  2245 1622 11 544 C 262.538 1769.28 t 0 r /Helvetica findfont 57.0922 sf 0 0 m (180) show NC gr 
 gsave  2245 1622 11 544 C 262.538 1906.25 t 0 r /Helvetica findfont 57.0922 sf 0 0 m (200) show NC gr 
 gsave  2245 1622 11 544 C 262.538 2039.42 t 0 r /Helvetica findfont 57.0922 sf 0 0 m (220) show NC gr  2032 577 m 1507 Y s 1969 577 m 63 X s 2001 610 m 31 X s 2001 644 m 31 X s 2001 678 m 31 X s 1969 711 m 63 X s 2001 745 m 31 X s 2001 779 m 31 X s
 2001 813 m 31 X s 1969 846 m 63 X s 2001 880 m 31 X s 2001 914 m 31 X s 2001 948 m 31 X s 1969 981 m 63 X s 2001 1015 m 31 X s 2001 1049 m 31 X s 2001 1083 m 31 X s 1969 1116 m 63 X s 2001 1150 m 31 X s 2001 1184 m 31 X s 2001 1217 m 31 X s 1969
 1251 m 63 X s 2001 1285 m 31 X s 2001 1319 m 31 X s 2001 1352 m 31 X s 1969 1386 m 63 X s 2001 1420 m 31 X s 2001 1454 m 31 X s 2001 1487 m 31 X s 1969 1521 m 63 X s 2001 1555 m 31 X s 2001 1588 m 31 X s 2001 1622 m 31 X s 1969 1656 m 63 X s 2001
 1690 m 31 X s 2001 1723 m 31 X s 2001 1757 m 31 X s 1969 1791 m 63 X s 2001 1825 m 31 X s 2001 1858 m 31 X s 2001 1892 m 31 X s 1969 1926 m 63 X s 2001 1960 m 31 X s 2001 1993 m 31 X s 2001 2027 m 31 X s 1969 2061 m 63 X s 1969 2061 m 63 X s 400 664
 m -29 X s 371 664 m cl s 400 664 m 30 X s 430 664 m cl s 400 664 m 32 Y s 400 696 m cl s 400 664 m -24 Y s 400 640 m cl s 460 684 m -30 X s 430 684 m cl s 460 684 m 29 X s 489 684 m cl s 460 684 m 35 Y s 460 719 m cl s 460 684 m -26 Y s 460 658 m cl
 s 519 651 m -30 X s 489 651 m cl s 519 651 m 30 X s 549 651 m cl s 519 651 m 30 Y s 519 681 m cl s 519 651 m -22 Y s 519 629 m cl s 578 624 m -29 X s 549 624 m cl s 578 624 m 30 X s 608 624 m cl s 578 624 m 25 Y s 578 649 m cl s 578 624 m -18 Y s
 578 606 m cl s 638 671 m -30 X s 608 671 m cl s 638 671 m 29 X s 667 671 m cl s 638 671 m 33 Y s 638 704 m cl s 638 671 m -25 Y s 638 646 m cl s 697 705 m -30 X s 667 705 m cl s 697 705 m 30 X s 727 705 m cl s 697 705 m 36 Y s 697 741 m cl s 697 705
 m -29 Y s 697 676 m cl s 756 637 m -29 X s 727 637 m cl s 756 637 m 30 X s 786 637 m cl s 756 637 m 28 Y s 756 665 m cl s 756 637 m -20 Y s 756 617 m cl s 816 671 m -30 X s 786 671 m cl s 816 671 m 29 X s 845 671 m cl s 816 671 m 33 Y s 816 704 m cl
 s 816 671 m -25 Y s 816 646 m cl s 875 644 m -30 X s 845 644 m cl s 875 644 m 30 X s 905 644 m cl s 875 644 m 29 Y s 875 673 m cl s 875 644 m -21 Y s 875 623 m cl s 934 671 m -29 X s 905 671 m cl s 934 671 m 30 X s 964 671 m cl s 934 671 m 33 Y s
 934 704 m cl s 934 671 m -25 Y s 934 646 m cl s 994 711 m -30 X s 964 711 m cl s 994 711 m 29 X s 1023 711 m cl s 994 711 m 38 Y s 994 749 m cl s 994 711 m -29 Y s 994 682 m cl s 1053 671 m -30 X s 1023 671 m cl s 1053 671 m 30 X s 1083 671 m cl s
 1053 671 m 33 Y s 1053 704 m cl s 1053 671 m -25 Y s 1053 646 m cl s 1112 691 m -29 X s 1083 691 m cl s 1112 691 m 30 X s 1142 691 m cl s 1112 691 m 35 Y s 1112 726 m cl s 1112 691 m -27 Y s 1112 664 m cl s 1172 711 m -30 X s 1142 711 m cl s 1172
 711 m 29 X s 1201 711 m cl s 1172 711 m 38 Y s 1172 749 m cl s 1172 711 m -29 Y s 1172 682 m cl s 1231 705 m -30 X s 1201 705 m cl s 1231 705 m 30 X s 1261 705 m cl s 1231 705 m 36 Y s 1231 741 m cl s 1231 705 m -29 Y s 1231 676 m cl s 1290 718 m
 -29 X s 1261 718 m cl s 1290 718 m 30 X s 1320 718 m cl s 1290 718 m 38 Y s 1290 756 m cl s 1290 718 m -30 Y s 1290 688 m cl s 1350 813 m -30 X s 1320 813 m cl s 1350 813 m 29 X s 1379 813 m cl s 1350 813 m 47 Y s 1350 860 m cl s 1350 813 m -40 Y s
 1350 773 m cl s 1409 779 m -30 X s 1379 779 m cl s 1409 779 m 30 X s 1439 779 m cl s 1409 779 m 44 Y s 1409 823 m cl s 1409 779 m -37 Y s 1409 742 m cl s 1468 1089 m -29 X s 1439 1089 m cl s 1468 1089 m 30 X s 1498 1089 m cl s 1468 1089 m 66 Y s
 1468 1155 m cl s 1468 1089 m -58 Y s 1468 1031 m cl s 1528 1373 m -30 X s 1498 1373 m cl s 1528 1373 m 29 X s 1557 1373 m cl s 1528 1373 m 76 Y s 1528 1449 m cl s 1528 1373 m -70 Y s 1528 1303 m cl s 1587 1454 m -30 X s 1557 1454 m cl s 1587 1454 m
 30 X s 1617 1454 m cl s 1587 1454 m 80 Y s 1587 1534 m cl s 1587 1454 m -74 Y s 1587 1380 m cl s 1646 1170 m -29 X s 1617 1170 m cl s 1646 1170 m 30 X s 1676 1170 m cl s 1646 1170 m 70 Y s 1646 1240 m cl s 1646 1170 m -63 Y s 1646 1107 m cl s 1706
 860 m -30 X s 1676 860 m cl s 1706 860 m 29 X s 1735 860 m cl s 1706 860 m 51 Y s 1706 911 m cl s 1706 860 m -44 Y s 1706 816 m cl s 1765 698 m -30 X s 1735 698 m cl s 1765 698 m 30 X s 1795 698 m cl s 1765 698 m 36 Y s 1765 734 m cl s 1765 698 m
 -28 Y s 1765 670 m cl s 1824 745 m -29 X s 1795 745 m cl s 1824 745 m 30 X s 1854 745 m cl s 1824 745 m 41 Y s 1824 786 m cl s 1824 745 m -33 Y s 1824 712 m cl s 1884 644 m -30 X s 1854 644 m cl s 1884 644 m 29 X s 1913 644 m cl s 1884 644 m 29 Y s
 1884 673 m cl s 1884 644 m -21 Y s 1884 623 m cl s 1943 664 m -30 X s 1913 664 m cl s 1943 664 m 30 X s 1973 664 m cl s 1943 664 m 32 Y s 1943 696 m cl s 1943 664 m -24 Y s 1943 640 m cl s 2002 637 m -29 X s 1973 637 m cl s 2002 637 m 30 X s 2032
 637 m cl s 2002 637 m 28 Y s 2002 665 m cl s 2002 637 m -20 Y s 2002 617 m cl s 400 664 460 684 519 651 578 624 638 671 697 705 756 637 816 671 875 644 934 671 994 711 1053 671 1112 691 1172 711 1231 705 1290 718 1350 813 1409 779 1468 1089 1528
 1373 1587 1454 1646 1170 1706 860 1765 698 1824 745 1884 644 1943 664 2002 637 28 { m20} R 0.8 0 0 c 9 lw black 0.8 0 0 c 371 644 m cl s 371 644 m 59 4 d 59 3 d 60 3 d 59 3 d 59 2 d 60 3 d 59 2 d 59 2 d 60 2 d 59 2 d 59 2 d 60 3 d 59 5 d 59 8 d 30 6
 d 30 7 d 29 11 d 30 14 d 15 9 d 15 11 d 14 14 d 15 16 d 15 19 d 15 24 d 15 29 d 7 17 d 8 19 d 7 21 d 7 22 d 8 25 d 7 28 d 8 31 d 7 33 d 7 35 d 8 39 d 15 83 d 15 86 d 14 83 d 8 36 d 7 33 d 4 14 d 4 12 d 7 19 d 4 7 d 3 4 d 4 2 d 4 X 4 -2 d 3 -5 d 4 -7
 d 4 -10 d 3 -12 d 4 -15 d 4 -16 d 4 -18 d 3 -19 d 4 -22 d 7 -46 d 15 -99 d 15 -100 d 7 -47 d 8 -46 d 7 -41 d 8 -39 d 7 -35 d 8 -32 d 7 -28 d 7 -26 d 8 -22 d 7 -20 d 8 -17 d 7 -15 d 15 -25 d 15 -18 d 15 -14 d 14 -11 d 15 -9 d 30 -13 d 30 -10 d 29 -7
 d 60 -12 d 59 -9 d s 0 1 0 c[  12 12 ] 0 sd black 0 1 0 c 371 577 m cl s 371 577 m 178 X 59 1 d 178 X 59 1 d 60 X 59 1 d 59 X 60 2 d 59 2 d 59 3 d 30 2 d 30 3 d 29 4 d 30 6 d 15 3 d 15 5 d 14 5 d 15 6 d 15 7 d 15 9 d 15 11 d 7 6 d 8 7 d 7 8 d 7 8 d
 8 9 d 7 11 d 8 11 d 7 12 d 7 12 d 8 14 d 15 29 d 15 30 d 7 14 d 7 13 d 8 11 d 7 10 d 4 4 d 4 3 d 3 3 d 4 2 d 4 2 d 11 X 4 -2 d 3 -2 d 4 -2 d 4 -4 d 3 -4 d 4 -5 d 4 -5 d 4 -5 d 3 -6 d 4 -7 d 7 -14 d 8 -15 d 7 -16 d 15 -33 d 15 -31 d 7 -14 d 8 -14 d 7
 -12 d 8 -11 d 7 -10 d 7 -9 d 8 -8 d 7 -7 d 8 -7 d 7 -5 d 15 -8 d 15 -7 d 15 -5 d 14 -3 d 15 -3 d 30 -4 d 30 -3 d 29 -2 d 60 -2 d 59 -1 d s 0.2 0.4 0.2 c black 0.2 0.4 0.2 c 371 578 m cl s 371 578 m 296 X 60 1 d 59 X 59 1 d 60 X 59 1 d 59 2 d 60 2 d
 59 3 d 59 5 d 30 4 d 30 5 d 29 6 d 30 9 d 15 6 d 15 7 d 14 8 d 15 10 d 15 12 d 15 14 d 15 18 d 7 10 d 8 11 d 7 12 d 7 14 d 8 15 d 7 16 d 8 18 d 7 19 d 7 21 d 8 22 d 15 47 d 15 48 d 7 22 d 7 22 d 8 18 d 7 15 d 4 7 d 4 5 d 3 4 d 4 4 d 4 2 d 3 1 d 4 X
 4 -1 d 4 -2 d 3 -3 d 4 -5 d 4 -5 d 3 -7 d 4 -7 d 4 -8 d 4 -9 d 3 -10 d 4 -11 d 7 -23 d 8 -24 d 7 -26 d 15 -52 d 15 -51 d 7 -23 d 8 -21 d 7 -20 d 8 -18 d 7 -17 d 7 -14 d 8 -13 d 7 -11 d 8 -10 d 7 -9 d 15 -14 d 15 -10 d 15 -8 d 14 -6 d 15 -4 d 30 -6 d
 30 -5 d 29 -3 d 60 -4 d 59 -2 d s 1 0.8 0.2 c black 1 0.8 0.2 c 371 640 m cl s 371 640 m 59 4 d 59 3 d 60 2 d 59 3 d 59 2 d 60 2 d 59 1 d 59 1 d 60 1 d 59 1 d 178 X 59 -1 d 60 -1 d 59 -1 d 59 -1 d 60 -2 d 59 -2 d 59 -3 d 60 -2 d 59 -3 d 59 -4 d 60
 -3 d 59 -4 d 59 -5 d 60 -4 d 59 -5 d s 0 0 1 c black 0 0 1 c 371 578 m cl s 371 578 m 59 1 d 415 X 60 -1 d 356 X 59 1 d 30 1 d 29 1 d 15 1 d 15 1 d 15 1 d 15 2 d 14 2 d 8 1 d 7 2 d 8 1 d 7 2 d 7 3 d 8 3 d 7 3 d 4 2 d 4 2 d 7 5 d 4 2 d 4 3 d 3 2 d 4
 3 d 7 7 d 8 7 d 7 8 d 8 7 d 7 7 d 4 3 d 3 3 d 4 2 d 4 2 d 4 2 d 7 X 4 -1 d 3 -1 d 4 -2 d 4 -3 d 4 -3 d 3 -4 d 4 -4 d 7 -8 d 4 -4 d 4 -5 d 2 -2 d 1 -3 d 4 -3 d 8 -8 d 3 -4 d 4 -3 d 4 -3 d 3 -2 d 4 -3 d 4 -2 d 4 -2 d 3 -2 d 4 -1 d 4 -2 d 7 -2 d 8 -2 d
 7 -2 d 7 -2 d 15 -2 d 15 -1 d 15 -2 d 15 X 15 -1 d 29 -1 d 30 -1 d 59 -1 d 60 X 59 -1 d s black[  ] 0 sd 3 lw 371 577 m 1661 X s 371 613 m -36 Y s 430 595 m -18 Y s 489 595 m -18 Y s 549 595 m -18 Y s 608 595 m -18 Y s 667 613 m -36 Y s 727 595 m
 -18 Y s 786 595 m -18 Y s 845 595 m -18 Y s 905 595 m -18 Y s 964 613 m -36 Y s 1023 595 m -18 Y s 1083 595 m -18 Y s 1142 595 m -18 Y s 1201 595 m -18 Y s 1261 613 m -36 Y s 1320 595 m -18 Y s 1379 595 m -18 Y s 1439 595 m -18 Y s 1498 595 m -18 Y
 s 1557 613 m -36 Y s 1617 595 m -18 Y s 1676 595 m -18 Y s 1735 595 m -18 Y s 1795 595 m -18 Y s 1854 613 m -36 Y s 1854 613 m -36 Y s 1913 595 m -18 Y s 1973 595 m -18 Y s 371 2084 m 1661 X s 371 2048 m 36 Y s 430 2066 m 18 Y s 489 2066 m 18 Y s
 549 2066 m 18 Y s 608 2066 m 18 Y s 667 2048 m 36 Y s 727 2066 m 18 Y s 786 2066 m 18 Y s 845 2066 m 18 Y s 905 2066 m 18 Y s 964 2048 m 36 Y s 1023 2066 m 18 Y s 1083 2066 m 18 Y s 1142 2066 m 18 Y s 1201 2066 m 18 Y s 1261 2048 m 36 Y s 1320 2066
 m 18 Y s 1379 2066 m 18 Y s 1439 2066 m 18 Y s 1498 2066 m 18 Y s 1557 2048 m 36 Y s 1617 2066 m 18 Y s 1676 2066 m 18 Y s 1735 2066 m 18 Y s 1795 2066 m 18 Y s 1854 2048 m 36 Y s 1854 2048 m 36 Y s 1913 2066 m 18 Y s 1973 2066 m 18 Y s 371 577 m
 1507 Y s 433 577 m -62 X s 402 610 m -31 X s 402 644 m -31 X s 402 678 m -31 X s 433 711 m -62 X s 402 745 m -31 X s 402 779 m -31 X s 402 813 m -31 X s 433 846 m -62 X s 402 880 m -31 X s 402 914 m -31 X s 402 948 m -31 X s 433 981 m -62 X s 402
 1015 m -31 X s 402 1049 m -31 X s 402 1083 m -31 X s 433 1116 m -62 X s 402 1150 m -31 X s 402 1184 m -31 X s 402 1217 m -31 X s 433 1251 m -62 X s 402 1285 m -31 X s 402 1319 m -31 X s 402 1352 m -31 X s 433 1386 m -62 X s 402 1420 m -31 X s 402
 1454 m -31 X s 402 1487 m -31 X s 433 1521 m -62 X s 402 1555 m -31 X s 402 1588 m -31 X s 402 1622 m -31 X s 433 1656 m -62 X s 402 1690 m -31 X s 402 1723 m -31 X s 402 1757 m -31 X s 433 1791 m -62 X s 402 1825 m -31 X s 402 1858 m -31 X s 402
 1892 m -31 X s 433 1926 m -62 X s 402 1960 m -31 X s 402 1993 m -31 X s 402 2027 m -31 X s 433 2061 m -62 X s 433 2061 m -62 X s 2032 577 m 1507 Y s 1969 577 m 63 X s 2001 610 m 31 X s 2001 644 m 31 X s 2001 678 m 31 X s 1969 711 m 63 X s 2001 745 m
 31 X s 2001 779 m 31 X s 2001 813 m 31 X s 1969 846 m 63 X s 2001 880 m 31 X s 2001 914 m 31 X s 2001 948 m 31 X s 1969 981 m 63 X s 2001 1015 m 31 X s 2001 1049 m 31 X s 2001 1083 m 31 X s 1969 1116 m 63 X s 2001 1150 m 31 X s 2001 1184 m 31 X s
 2001 1217 m 31 X s 1969 1251 m 63 X s 2001 1285 m 31 X s 2001 1319 m 31 X s 2001 1352 m 31 X s 1969 1386 m 63 X s 2001 1420 m 31 X s 2001 1454 m 31 X s 2001 1487 m 31 X s 1969 1521 m 63 X s 2001 1555 m 31 X s 2001 1588 m 31 X s 2001 1622 m 31 X s
 1969 1656 m 63 X s 2001 1690 m 31 X s 2001 1723 m 31 X s 2001 1757 m 31 X s 1969 1791 m 63 X s 2001 1825 m 31 X s 2001 1858 m 31 X s 2001 1892 m 31 X s 1969 1926 m 63 X s 2001 1960 m 31 X s 2001 1993 m 31 X s 2001 2027 m 31 X s 1969 2061 m 63 X s
 1969 2061 m 63 X s 1 1 1 c black
 gsave  2245 1622 11 544 C 662.051 1989.96 t 0 r /Helvetica findfont 60.8983 sf 0 0 m ( Internal) show NC gr 
 gsave  2245 1622 11 544 C 452.782 1989.96 t 0 r /Helvetica-BoldOblique findfont 60.8983 sf 0 0 m (ATLAS) show NC gr 
 gsave  2245 1622 11 544 C 452.782 1902.45 t 0 r /Helvetica findfont 60.8983 sf 0 0 m (data 2015\25518 + mc16a,d,e) show NC gr 
 gsave  2245 1622 11 544 C 1034.93 1818.74 t 0 r /Helvetica findfont 41.8676 sf 0 0 m (\2551) show NC gr 
 gsave  2245 1622 11 544 C 513.661 1792.1 t 0 r /Helvetica findfont 60.8983 sf 0 0 m (=13 TeV, 138.97 fb) show NC gr 
 gsave  2245 1622 11 544 C 483.221 1792.1 t 0 r /Helvetica findfont 60.8983 sf 0 0 m (s) show NC gr  6 lw 464 1826 m 8 -38 d s 3 lw 472 1788 m 4 57 d s 476 1845 m 38 X s
 gsave  2245 1622 11 544 C 452.782 1712.2 t 0 r /Helvetica findfont 60.8983 sf 0 0 m (Same Sign CR) show NC gr  1 1 1 c 718 438 1269 1598 bl 1269 1598 m 718 X s 1987 1598 m 438 Y s 1987 2036 m -718 X s 1269 2036 m -438 Y s black
 gsave  2245 1622 11 544 C 1445.86 1986.15 t 0 r /Helvetica findfont 60.8983 sf 0 0 m (Data) show NC gr  1296 1999 m 125 X s 1358 1977 m 44 Y s 1358 1999 m20
 gsave  2245 1622 11 544 C 1445.86 1910.06 t 0 r /Helvetica findfont 60.8983 sf 0 0 m (Total BG) show NC gr  0.8 0 0 c 9 lw 1296 1926 m 125 X s black
 gsave  2245 1622 11 544 C 1445.86 1837.76 t 0 r /Helvetica findfont 60.8983 sf 0 0 m (Z+LFjets) show NC gr  0 1 0 c[  12 12 ] 0 sd 1296 1853 m 125 X s black
 gsave  2245 1622 11 544 C 1445.86 1765.47 t 0 r /Helvetica findfont 60.8983 sf 0 0 m (Z+HFjets) show NC gr  0.2 0.4 0.2 c 1296 1780 m 125 X s black
 gsave  2245 1622 11 544 C 1464.88 1693.18 t 0 r /Helvetica findfont 60.8983 sf 0 0 m (t) show NC gr [  ] 0 sd 3 lw 1465 1743 m 19 X s
 gsave  2245 1622 11 544 C 1445.86 1693.18 t 0 r /Helvetica findfont 60.8983 sf 0 0 m (t) show NC gr  1 0.8 0.2 c[  12 12 ] 0 sd 9 lw 1296 1707 m 125 X s black
 gsave  2245 1622 11 544 C 1445.86 1620.88 t 0 r /Helvetica findfont 60.8983 sf 0 0 m (Diboson) show NC gr  0 0 1 c 1296 1635 m 125 X s
 gr  gr showpage
end
%%EOF
