%!PS-Adobe-2.0 EPSF-2.0
%%BoundingBox:  0 0 567 544
%%Title: Results/M1Data_invIso.eps: Region: invIso
%%Creator: ROOT Version 6.08/06
%%CreationDate: Sun Oct 13 15:24:48 2019
%%DocumentNeededResources: ProcSet (FontSetInit)
%%EndComments
%%BeginProlog
80 dict begin
/s {stroke} def /l {lineto} def /m {moveto} def /t {translate} def
/r {rotate} def /rl {roll}  def /R {repeat} def
/d {rlineto} def /rm {rmoveto} def /gr {grestore} def /f {eofill} def
/c {setrgbcolor} def /black {0 setgray} def /sd {setdash} def
/cl {closepath} def /sf {scalefont setfont} def /lw {setlinewidth} def
/box {m dup 0 exch d exch 0 d 0 exch neg d cl} def
/NC{systemdict begin initclip end}def/C{NC box clip newpath}def
/bl {box s} def /bf {gsave box gsave f grestore 1 lw [] 0 sd s grestore} def /Y { 0 exch d} def /X { 0 d} def 
/K {{pop pop 0 moveto} exch kshow} bind def
/ita {/ang 15 def gsave [1 0 ang dup sin exch cos div 1 0 0] concat} def 
/mp {newpath /y exch def /x exch def} def
/side {[w .77 mul w .23 mul] .385 w mul sd w 0 l currentpoint t -144 r} def
/mr {mp x y w2 0 360 arc} def /m24 {mr s} def /m20 {mr f} def
/mb {mp x y w2 add m w2 neg 0 d 0 w neg d w 0 d 0 w d cl} def
/mt {mp x y w2 add m w2 neg w neg d w 0 d cl} def
/m21 {mb f} def /m25 {mb s} def /m22 {mt f} def /m26{mt s} def
/m23 {mp x y w2 sub m w2 w d w neg 0 d cl f} def
/m27 {mp x y w2 add m w3 neg w2 neg d w3 w2 neg d w3 w2 d cl s} def
/m28 {mp x w2 sub y w2 sub w3 add m w3 0 d  0 w3 neg d w3 0 d 0 w3 d w3 0 d  0 w3 d w3 neg 0 d 0 w3 d w3 neg 0 d 0 w3 neg d w3 neg 0 d cl s } def
/m29 {mp gsave x w2 sub y w2 add w3 sub m currentpoint t 4 {side} repeat cl fill gr} def
/m30 {mp gsave x w2 sub y w2 add w3 sub m currentpoint t 4 {side} repeat cl s gr} def
/m31 {mp x y w2 sub m 0 w d x w2 sub y m w 0 d x w2 sub y w2 add m w w neg d x w2 sub y w2 sub m w w d s} def
/m32 {mp x y w2 sub m w2 w d w neg 0 d cl s} def
/m33 {mp x y w2 add m w3 neg w2 neg d w3 w2 neg d w3 w2 d cl f} def
/m34 {mp x w2 sub y w2 sub w3 add m w3 0 d  0 w3 neg d w3 0 d 0 w3 d w3 0 d  0 w3 d w3 neg 0 d 0 w3 d w3 neg 0 d 0 w3 neg d w3 neg 0 d cl f } def
/m2 {mp x y w2 sub m 0 w d x w2 sub y m w 0 d s} def
/m5 {mp x w2 sub y w2 sub m w w d x w2 sub y w2 add m w w neg d s} def
%%IncludeResource: ProcSet (FontSetInit)
%%IncludeResource: font Times-Roman
%%IncludeResource: font Times-Italic
%%IncludeResource: font Times-Bold
%%IncludeResource: font Times-BoldItalic
%%IncludeResource: font Helvetica
%%IncludeResource: font Helvetica-Oblique
%%IncludeResource: font Helvetica-Bold
%%IncludeResource: font Helvetica-BoldOblique
%%IncludeResource: font Courier
%%IncludeResource: font Courier-Oblique
%%IncludeResource: font Courier-Bold
%%IncludeResource: font Courier-BoldOblique
%%IncludeResource: font Symbol
%%IncludeResource: font ZapfDingbats
/reEncode {exch findfont dup length dict begin {1 index /FID eq  {pop pop} {def} ifelse } forall /Encoding exch def currentdict end dup /FontName get exch definefont pop } def [/Times-Bold /Times-Italic /Times-BoldItalic /Helvetica /Helvetica-Oblique
 /Helvetica-Bold /Helvetica-BoldOblique /Courier /Courier-Oblique /Courier-Bold /Courier-BoldOblique /Times-Roman /AvantGarde-Book /AvantGarde-BookOblique /AvantGarde-Demi /AvantGarde-DemiOblique /Bookman-Demi /Bookman-DemiItalic /Bookman-Light
 /Bookman-LightItalic /Helvetica-Narrow /Helvetica-Narrow-Bold /Helvetica-Narrow-BoldOblique /Helvetica-Narrow-Oblique /NewCenturySchlbk-Roman /NewCenturySchlbk-Bold /NewCenturySchlbk-BoldItalic /NewCenturySchlbk-Italic /Palatino-Bold
 /Palatino-BoldItalic /Palatino-Italic /Palatino-Roman ] {ISOLatin1Encoding reEncode } forall
%%EndProlog
%%BeginSetup
%%EndSetup
newpath  gsave  .25 .25 scale  gsave  0 0 t black[  ] 0 sd 3 lw 1 1 1 c 2268 2176 0 0 bf black 1 1 1 c 2245 533 11 11 bf black 1 1 1 c 1661 288 371 224 bf black 1661 288 371 224 bl 371 224 m 1661 X s 371 512 m 1661 X s 371 224 m 288 Y s[ 4 8] 0 sd
 2032 224 m -1661 X s 2032 296 m -1661 X s 2032 368 m -1661 X s 2032 440 m -1661 X s 2032 512 m -1661 X s[  ] 0 sd 2032 224 m 288 Y s 371 224 m 1661 X s
 gsave  2245 533 11 11 C 1849.18 98.9272 t 0 r /Helvetica findfont 64.7479 sf 0 0 m ( [GeV]) show NC gr 
 gsave  2245 533 11 11 C 1803.52 76.0979 t 0 r /Helvetica findfont 41.8957 sf 0 0 m (12) show NC gr 
 gsave  2245 533 11 11 C 1750.25 98.9272 t 0 r /Helvetica findfont 64.7479 sf 0 0 m (m) show NC gr  371 236 m -12 Y s 430 230 m -6 Y s 489 230 m -6 Y s 549 230 m -6 Y s 608 230 m -6 Y s 667 236 m -12 Y s 727 230 m -6 Y s 786 230 m -6 Y s 845 230 m -6
 Y s 905 230 m -6 Y s 964 236 m -12 Y s 1023 230 m -6 Y s 1083 230 m -6 Y s 1142 230 m -6 Y s 1201 230 m -6 Y s 1261 236 m -12 Y s 1320 230 m -6 Y s 1379 230 m -6 Y s 1439 230 m -6 Y s 1498 230 m -6 Y s 1557 236 m -12 Y s 1617 230 m -6 Y s 1676 230 m
 -6 Y s 1735 230 m -6 Y s 1795 230 m -6 Y s 1854 236 m -12 Y s 1854 236 m -12 Y s 1913 230 m -6 Y s 1973 230 m -6 Y s
 gsave  2245 533 11 11 C 334.831 171.22 t 0 r /Helvetica findfont 57.1305 sf 0 0 m (50) show NC gr 
 gsave  2245 533 11 11 C 631.612 171.22 t 0 r /Helvetica findfont 57.1305 sf 0 0 m (60) show NC gr 
 gsave  2245 533 11 11 C 928.394 171.22 t 0 r /Helvetica findfont 57.1305 sf 0 0 m (70) show NC gr 
 gsave  2245 533 11 11 C 1225.18 171.22 t 0 r /Helvetica findfont 57.1305 sf 0 0 m (80) show NC gr 
 gsave  2245 533 11 11 C 1521.96 171.22 t 0 r /Helvetica findfont 57.1305 sf 0 0 m (90) show NC gr 
 gsave  2245 533 11 11 C 1803.52 171.22 t 0 r /Helvetica findfont 57.1305 sf 0 0 m (100) show NC gr  371 512 m 1661 X s 371 500 m 12 Y s 430 506 m 6 Y s 489 506 m 6 Y s 549 506 m 6 Y s 608 506 m 6 Y s 667 500 m 12 Y s 727 506 m 6 Y s 786 506 m 6 Y s
 845 506 m 6 Y s 905 506 m 6 Y s 964 500 m 12 Y s 1023 506 m 6 Y s 1083 506 m 6 Y s 1142 506 m 6 Y s 1201 506 m 6 Y s 1261 500 m 12 Y s 1320 506 m 6 Y s 1379 506 m 6 Y s 1439 506 m 6 Y s 1498 506 m 6 Y s 1557 500 m 12 Y s 1617 506 m 6 Y s 1676 506 m
 6 Y s 1735 506 m 6 Y s 1795 506 m 6 Y s 1854 500 m 12 Y s 1854 500 m 12 Y s 1913 506 m 6 Y s 1973 506 m 6 Y s 371 224 m 288 Y s
 gsave  2245 533 11 11 C 156.001 407.124 t 90 r /Helvetica findfont 64.7479 sf 0 0 m (Pull) show NC gr  407 224 m -36 X s 389 242 m -18 X s 389 260 m -18 X s 389 278 m -18 X s 407 296 m -36 X s 389 314 m -18 X s 389 332 m -18 X s 389 350 m -18 X s
 407 368 m -36 X s 389 386 m -18 X s 389 404 m -18 X s 389 422 m -18 X s 407 440 m -36 X s 389 458 m -18 X s 389 476 m -18 X s 389 494 m -18 X s 407 512 m -36 X s
 gsave  2245 533 11 11 C 327.221 201.659 t 0 r /Helvetica findfont 57.1305 sf 0 0 m (4) show NC gr 
 gsave  2245 533 11 11 C 292.977 201.659 t 0 r /Symbol findfont 57.1305 sf 0 0 m (-) show NC gr 
 gsave  2245 533 11 11 C 327.221 273.952 t 0 r /Helvetica findfont 57.1305 sf 0 0 m (2) show NC gr 
 gsave  2245 533 11 11 C 292.977 273.952 t 0 r /Symbol findfont 57.1305 sf 0 0 m (-) show NC gr 
 gsave  2245 533 11 11 C 327.221 346.245 t 0 r /Helvetica findfont 57.1305 sf 0 0 m (0) show NC gr 
 gsave  2245 533 11 11 C 327.221 418.538 t 0 r /Helvetica findfont 57.1305 sf 0 0 m (2) show NC gr 
 gsave  2245 533 11 11 C 327.221 490.831 t 0 r /Helvetica findfont 57.1305 sf 0 0 m (4) show NC gr  2032 224 m 288 Y s 1996 224 m 36 X s 2014 242 m 18 X s 2014 260 m 18 X s 2014 278 m 18 X s 1996 296 m 36 X s 2014 314 m 18 X s 2014 332 m 18 X s 2014
 350 m 18 X s 1996 368 m 36 X s 2014 386 m 18 X s 2014 404 m 18 X s 2014 422 m 18 X s 1996 440 m 36 X s 2014 458 m 18 X s 2014 476 m 18 X s 2014 494 m 18 X s 1996 512 m 36 X s 400 372 m 64 Y s 400 436 m cl s 400 372 m -36 Y s 400 336 m cl s 460 337 m
 36 Y s 460 373 m cl s 460 337 m -13 Y s 460 324 m cl s 519 384 m 60 Y s 519 444 m cl s 519 384 m -36 Y s 519 348 m cl s 578 365 m 36 Y s 578 401 m cl s 578 365 m -20 Y s 578 345 m cl s 638 395 m 56 Y s 638 451 m cl s 638 395 m -36 Y s 638 359 m cl s
 697 393 m 57 Y s 697 450 m cl s 697 393 m -36 Y s 697 357 m cl s 756 392 m 57 Y s 756 449 m cl s 756 392 m -36 Y s 756 356 m cl s 816 375 m 60 Y s 816 435 m cl s 816 375 m -36 Y s 816 339 m cl s 875 414 m 53 Y s 875 467 m cl s 875 414 m -36 Y s 875
 378 m cl s 934 344 m 36 Y s 934 380 m cl s 934 344 m -18 Y s 934 326 m cl s 994 342 m 36 Y s 994 378 m cl s 994 342 m -17 Y s 994 325 m cl s 1053 340 m 36 Y s 1053 376 m cl s 1053 340 m -18 Y s 1053 322 m cl s 1112 405 m 52 Y s 1112 457 m cl s 1112
 405 m -36 Y s 1112 369 m cl s 1172 385 m 55 Y s 1172 440 m cl s 1172 385 m -36 Y s 1172 349 m cl s 1231 362 m 36 Y s 1231 398 m cl s 1231 362 m -23 Y s 1231 339 m cl s 1290 380 m 52 Y s 1290 432 m cl s 1290 380 m -36 Y s 1290 344 m cl s 1350 370 m
 50 Y s 1350 420 m cl s 1350 370 m -36 Y s 1350 334 m cl s 1409 372 m 46 Y s 1409 418 m cl s 1409 372 m -36 Y s 1409 336 m cl s 1468 335 m 36 Y s 1468 371 m cl s 1468 335 m -29 Y s 1468 306 m cl s 1528 365 m 36 Y s 1528 401 m cl s 1528 365 m -31 Y s
 1528 334 m cl s 1587 323 m 36 Y s 1587 359 m cl s 1587 323 m -32 Y s 1587 291 m cl s 1646 369 m 41 Y s 1646 410 m cl s 1646 369 m -36 Y s 1646 333 m cl s 1706 392 m 44 Y s 1706 436 m cl s 1706 392 m -36 Y s 1706 356 m cl s 1765 382 m 49 Y s 1765 431
 m cl s 1765 382 m -36 Y s 1765 346 m cl s 1824 360 m 36 Y s 1824 396 m cl s 1824 360 m -23 Y s 1824 337 m cl s 1884 239 m 36 Y s 1884 275 m cl s 1943 382 m 60 Y s 1943 442 m cl s 1943 382 m -36 Y s 1943 346 m cl s 2002 407 m 57 Y s 2002 464 m cl s
 2002 407 m -36 Y s 2002 371 m cl s /w 37 def /w2 {w 2 div} def /w3 {w 3 div} def 400 372 460 337 519 384 578 365 638 395 697 393 756 392 816 375 875 414 934 344 994 342 1053 340 1112 405 1172 385 1231 362 1290 380 1350 370 1409 372 1468 335 1528 365
 1587 323 1646 369 1706 392 1765 382 1824 360 1884 239 1943 382 2002 407 28 { m20} R 371 224 m 1661 X s 371 236 m -12 Y s 430 230 m -6 Y s 489 230 m -6 Y s 549 230 m -6 Y s 608 230 m -6 Y s 667 236 m -12 Y s 727 230 m -6 Y s 786 230 m -6 Y s 845 230
 m -6 Y s 905 230 m -6 Y s 964 236 m -12 Y s 1023 230 m -6 Y s 1083 230 m -6 Y s 1142 230 m -6 Y s 1201 230 m -6 Y s 1261 236 m -12 Y s 1320 230 m -6 Y s 1379 230 m -6 Y s 1439 230 m -6 Y s 1498 230 m -6 Y s 1557 236 m -12 Y s 1617 230 m -6 Y s 1676
 230 m -6 Y s 1735 230 m -6 Y s 1795 230 m -6 Y s 1854 236 m -12 Y s 1854 236 m -12 Y s 1913 230 m -6 Y s 1973 230 m -6 Y s 371 512 m 1661 X s 371 500 m 12 Y s 430 506 m 6 Y s 489 506 m 6 Y s 549 506 m 6 Y s 608 506 m 6 Y s 667 500 m 12 Y s 727 506 m
 6 Y s 786 506 m 6 Y s 845 506 m 6 Y s 905 506 m 6 Y s 964 500 m 12 Y s 1023 506 m 6 Y s 1083 506 m 6 Y s 1142 506 m 6 Y s 1201 506 m 6 Y s 1261 500 m 12 Y s 1320 506 m 6 Y s 1379 506 m 6 Y s 1439 506 m 6 Y s 1498 506 m 6 Y s 1557 500 m 12 Y s 1617
 506 m 6 Y s 1676 506 m 6 Y s 1735 506 m 6 Y s 1795 506 m 6 Y s 1854 500 m 12 Y s 1854 500 m 12 Y s 1913 506 m 6 Y s 1973 506 m 6 Y s 371 224 m 288 Y s 407 224 m -36 X s 389 242 m -18 X s 389 260 m -18 X s 389 278 m -18 X s 407 296 m -36 X s 389 314
 m -18 X s 389 332 m -18 X s 389 350 m -18 X s 407 368 m -36 X s 389 386 m -18 X s 389 404 m -18 X s 389 422 m -18 X s 407 440 m -36 X s 389 458 m -18 X s 389 476 m -18 X s 389 494 m -18 X s 407 512 m -36 X s 2032 224 m 288 Y s 1996 224 m 36 X s 2014
 242 m 18 X s 2014 260 m 18 X s 2014 278 m 18 X s 1996 296 m 36 X s 2014 314 m 18 X s 2014 332 m 18 X s 2014 350 m 18 X s 1996 368 m 36 X s 2014 386 m 18 X s 2014 404 m 18 X s 2014 422 m 18 X s 1996 440 m 36 X s 2014 458 m 18 X s 2014 476 m 18 X s
 2014 494 m 18 X s 1996 512 m 36 X s[  12 12 ] 0 sd 6 lw 371 368 m 1661 X s[  ] 0 sd 3 lw 1 1 1 c 2245 1622 11 544 bf black 1 1 1 c 1661 1507 371 577 bf black 1661 1507 371 577 bl 371 577 m 1661 X s 371 613 m -36 Y s 430 595 m -18 Y s 489 595 m -18 Y
 s 549 595 m -18 Y s 608 595 m -18 Y s 667 613 m -36 Y s 727 595 m -18 Y s 786 595 m -18 Y s 845 595 m -18 Y s 905 595 m -18 Y s 964 613 m -36 Y s 1023 595 m -18 Y s 1083 595 m -18 Y s 1142 595 m -18 Y s 1201 595 m -18 Y s 1261 613 m -36 Y s 1320 595
 m -18 Y s 1379 595 m -18 Y s 1439 595 m -18 Y s 1498 595 m -18 Y s 1557 613 m -36 Y s 1617 595 m -18 Y s 1676 595 m -18 Y s 1735 595 m -18 Y s 1795 595 m -18 Y s 1854 613 m -36 Y s 1854 613 m -36 Y s 1913 595 m -18 Y s 1973 595 m -18 Y s 371 2084 m
 1661 X s 371 2048 m 36 Y s 430 2066 m 18 Y s 489 2066 m 18 Y s 549 2066 m 18 Y s 608 2066 m 18 Y s 667 2048 m 36 Y s 727 2066 m 18 Y s 786 2066 m 18 Y s 845 2066 m 18 Y s 905 2066 m 18 Y s 964 2048 m 36 Y s 1023 2066 m 18 Y s 1083 2066 m 18 Y s 1142
 2066 m 18 Y s 1201 2066 m 18 Y s 1261 2048 m 36 Y s 1320 2066 m 18 Y s 1379 2066 m 18 Y s 1439 2066 m 18 Y s 1498 2066 m 18 Y s 1557 2048 m 36 Y s 1617 2066 m 18 Y s 1676 2066 m 18 Y s 1735 2066 m 18 Y s 1795 2066 m 18 Y s 1854 2048 m 36 Y s 1854
 2048 m 36 Y s 1913 2066 m 18 Y s 1973 2066 m 18 Y s 371 577 m 1507 Y s
 gsave  2245 1622 11 544 C 152.196 1666.54 t 90 r /Helvetica findfont 64.7045 sf 0 0 m (Events / 2GeV) show NC gr  433 577 m -62 X s 402 642 m -31 X s 402 707 m -31 X s 402 772 m -31 X s 433 838 m -62 X s 402 903 m -31 X s 402 968 m -31 X s 402 1034
 m -31 X s 433 1099 m -62 X s 402 1164 m -31 X s 402 1230 m -31 X s 402 1295 m -31 X s 433 1360 m -62 X s 402 1426 m -31 X s 402 1491 m -31 X s 402 1556 m -31 X s 433 1622 m -62 X s 402 1687 m -31 X s 402 1752 m -31 X s 402 1818 m -31 X s 433 1883 m
 -62 X s 433 1883 m -62 X s 402 1948 m -31 X s 402 2013 m -31 X s 402 2079 m -31 X s
 gsave  2245 1622 11 544 C 327.221 555.514 t 0 r /Helvetica findfont 57.0922 sf 0 0 m (0) show NC gr 
 gsave  2245 1622 11 544 C 292.977 818.052 t 0 r /Helvetica findfont 57.0922 sf 0 0 m (20) show NC gr 
 gsave  2245 1622 11 544 C 292.977 1076.78 t 0 r /Helvetica findfont 57.0922 sf 0 0 m (40) show NC gr 
 gsave  2245 1622 11 544 C 292.977 1339.32 t 0 r /Helvetica findfont 57.0922 sf 0 0 m (60) show NC gr 
 gsave  2245 1622 11 544 C 292.977 1601.86 t 0 r /Helvetica findfont 57.0922 sf 0 0 m (80) show NC gr 
 gsave  2245 1622 11 544 C 262.538 1860.59 t 0 r /Helvetica findfont 57.0922 sf 0 0 m (100) show NC gr  2032 577 m 1507 Y s 1969 577 m 63 X s 2001 642 m 31 X s 2001 707 m 31 X s 2001 772 m 31 X s 1969 838 m 63 X s 2001 903 m 31 X s 2001 968 m 31 X s
 2001 1034 m 31 X s 1969 1099 m 63 X s 2001 1164 m 31 X s 2001 1230 m 31 X s 2001 1295 m 31 X s 1969 1360 m 63 X s 2001 1426 m 31 X s 2001 1491 m 31 X s 2001 1556 m 31 X s 1969 1622 m 63 X s 2001 1687 m 31 X s 2001 1752 m 31 X s 2001 1818 m 31 X s
 1969 1883 m 63 X s 1969 1883 m 63 X s 2001 1948 m 31 X s 2001 2013 m 31 X s 2001 2079 m 31 X s 400 616 m -29 X s 371 616 m cl s 400 616 m 30 X s 430 616 m cl s 400 616 m 38 Y s 400 654 m cl s 400 616 m -22 Y s 400 594 m cl s 460 590 m -30 X s 430
 590 m cl s 460 590 m 29 X s 489 590 m cl s 460 590 m 30 Y s 460 620 m cl s 460 590 m -11 Y s 460 579 m cl s 519 629 m -30 X s 489 629 m cl s 519 629 m 30 X s 549 629 m cl s 519 629 m 41 Y s 519 670 m cl s 519 629 m -25 Y s 519 604 m cl s 578 616 m
 -29 X s 549 616 m cl s 578 616 m 30 X s 608 616 m cl s 578 616 m 38 Y s 578 654 m cl s 578 616 m -22 Y s 578 594 m cl s 638 642 m -30 X s 608 642 m cl s 638 642 m 29 X s 667 642 m cl s 638 642 m 44 Y s 638 686 m cl s 638 642 m -28 Y s 638 614 m cl s
 697 642 m -30 X s 667 642 m cl s 697 642 m 30 X s 727 642 m cl s 697 642 m 44 Y s 697 686 m cl s 697 642 m -28 Y s 697 614 m cl s 756 642 m -29 X s 727 642 m cl s 756 642 m 30 X s 786 642 m cl s 756 642 m 44 Y s 756 686 m cl s 756 642 m -28 Y s 756
 614 m cl s 816 629 m -30 X s 786 629 m cl s 816 629 m 29 X s 845 629 m cl s 816 629 m 41 Y s 816 670 m cl s 816 629 m -25 Y s 816 604 m cl s 875 668 m -30 X s 845 668 m cl s 875 668 m 30 X s 905 668 m cl s 875 668 m 49 Y s 875 717 m cl s 875 668 m
 -34 Y s 875 634 m cl s 934 603 m -29 X s 905 603 m cl s 934 603 m 30 X s 964 603 m cl s 934 603 m 34 Y s 934 637 m cl s 934 603 m -17 Y s 934 586 m cl s 994 603 m -30 X s 964 603 m cl s 994 603 m 29 X s 1023 603 m cl s 994 603 m 34 Y s 994 637 m cl
 s 994 603 m -17 Y s 994 586 m cl s 1053 603 m -30 X s 1023 603 m cl s 1053 603 m 30 X s 1083 603 m cl s 1053 603 m 34 Y s 1053 637 m cl s 1053 603 m -17 Y s 1053 586 m cl s 1112 668 m -29 X s 1083 668 m cl s 1112 668 m 30 X s 1142 668 m cl s 1112
 668 m 49 Y s 1112 717 m cl s 1112 668 m -34 Y s 1112 634 m cl s 1172 655 m -30 X s 1142 655 m cl s 1172 655 m 29 X s 1201 655 m cl s 1172 655 m 47 Y s 1172 702 m cl s 1172 655 m -31 Y s 1172 624 m cl s 1231 642 m -30 X s 1201 642 m cl s 1231 642 m
 30 X s 1261 642 m cl s 1231 642 m 44 Y s 1231 686 m cl s 1231 642 m -28 Y s 1231 614 m cl s 1290 681 m -29 X s 1261 681 m cl s 1290 681 m 30 X s 1320 681 m cl s 1290 681 m 52 Y s 1290 733 m cl s 1290 681 m -36 Y s 1290 645 m cl s 1350 707 m -30 X s
 1320 707 m cl s 1350 707 m 29 X s 1379 707 m cl s 1350 707 m 56 Y s 1350 763 m cl s 1350 707 m -40 Y s 1350 667 m cl s 1409 786 m -30 X s 1379 786 m cl s 1409 786 m 30 X s 1439 786 m cl s 1409 786 m 66 Y s 1409 852 m cl s 1409 786 m -52 Y s 1409 734
 m cl s 1468 877 m -29 X s 1439 877 m cl s 1468 877 m 30 X s 1498 877 m cl s 1468 877 m 77 Y s 1468 954 m cl s 1468 877 m -62 Y s 1468 815 m cl s 1528 1269 m -30 X s 1498 1269 m cl s 1528 1269 m 29 X s 1557 1269 m cl s 1528 1269 m 109 Y s 1528 1378 m
 cl s 1528 1269 m -95 Y s 1528 1174 m cl s 1587 1386 m -30 X s 1557 1386 m cl s 1587 1386 m 30 X s 1617 1386 m cl s 1587 1386 m 117 Y s 1587 1503 m cl s 1587 1386 m -102 Y s 1587 1284 m cl s 1646 1230 m -29 X s 1617 1230 m cl s 1646 1230 m 30 X s
 1676 1230 m cl s 1646 1230 m 106 Y s 1646 1336 m cl s 1646 1230 m -92 Y s 1646 1138 m cl s 1706 903 m -30 X s 1676 903 m cl s 1706 903 m 29 X s 1735 903 m cl s 1706 903 m 79 Y s 1706 982 m cl s 1706 903 m -65 Y s 1706 838 m cl s 1765 720 m -30 X s
 1735 720 m cl s 1765 720 m 30 X s 1795 720 m cl s 1765 720 m 58 Y s 1765 778 m cl s 1765 720 m -42 Y s 1765 678 m cl s 1824 642 m -29 X s 1795 642 m cl s 1824 642 m 30 X s 1854 642 m cl s 1824 642 m 44 Y s 1824 686 m cl s 1824 642 m -28 Y s 1824 614
 m cl s 1884 577 m -30 X s 1854 577 m cl s 1884 577 m 29 X s 1913 577 m cl s 1884 577 m 15 Y s 1884 592 m cl s 1943 629 m -30 X s 1913 629 m cl s 1943 629 m 30 X s 1973 629 m cl s 1943 629 m 41 Y s 1943 670 m cl s 1943 629 m -25 Y s 1943 604 m cl s
 2002 642 m -29 X s 1973 642 m cl s 2002 642 m 30 X s 2032 642 m cl s 2002 642 m 44 Y s 2002 686 m cl s 2002 642 m -28 Y s 2002 614 m cl s 400 616 460 590 519 629 578 616 638 642 697 642 756 642 816 629 875 668 934 603 994 603 1053 603 1112 668 1172
 655 1231 642 1290 681 1350 707 1409 786 1468 877 1528 1269 1587 1386 1646 1230 1706 903 1765 720 1824 642 1884 577 1943 629 2002 642 28 { m20} R 0.8 0 0 c 9 lw black 0.8 0 0 c 371 612 m cl s 371 612 m 59 2 d 59 3 d 60 1 d 59 2 d 59 1 d 60 2 d 59 X
 59 1 d 60 1 d 59 2 d 59 1 d 60 3 d 59 5 d 59 8 d 30 6 d 30 8 d 29 11 d 30 15 d 15 9 d 15 12 d 14 14 d 15 16 d 15 21 d 15 24 d 15 30 d 7 18 d 8 19 d 7 22 d 7 24 d 8 26 d 7 29 d 8 32 d 7 35 d 7 37 d 8 41 d 7 44 d 8 45 d 15 95 d 14 94 d 8 42 d 7 40 d 4
 17 d 4 15 d 7 26 d 4 11 d 3 6 d 4 4 d 4 2 d 4 -1 d 3 -4 d 4 -7 d 4 -11 d 3 -13 d 4 -16 d 4 -18 d 4 -21 d 3 -23 d 4 -25 d 7 -52 d 15 -115 d 15 -111 d 7 -52 d 8 -49 d 7 -44 d 8 -41 d 7 -37 d 8 -33 d 7 -30 d 7 -26 d 8 -23 d 7 -21 d 8 -17 d 7 -15 d 15
 -25 d 15 -19 d 15 -14 d 14 -11 d 15 -9 d 30 -12 d 30 -9 d 29 -6 d 60 -10 d 59 -6 d s 0 1 0 c[  12 12 ] 0 sd black 0 1 0 c 371 577 m cl s 371 577 m 59 X 59 1 d 238 X 59 1 d 59 X 60 1 d 59 1 d 59 1 d 60 1 d 59 3 d 59 4 d 30 3 d 30 4 d 29 5 d 30 7 d 15
 5 d 15 6 d 14 6 d 15 8 d 15 10 d 15 11 d 15 15 d 7 8 d 8 9 d 7 10 d 7 11 d 8 12 d 7 13 d 8 14 d 7 16 d 7 16 d 8 18 d 15 38 d 15 39 d 7 18 d 7 17 d 8 15 d 7 13 d 4 5 d 4 4 d 3 4 d 4 2 d 4 2 d 3 1 d 4 X 4 -1 d 4 -2 d 3 -2 d 4 -4 d 4 -4 d 3 -5 d 4 -6 d
 4 -7 d 4 -7 d 3 -8 d 4 -9 d 7 -18 d 8 -20 d 7 -21 d 15 -42 d 15 -41 d 7 -18 d 8 -18 d 7 -16 d 8 -15 d 7 -13 d 7 -12 d 8 -10 d 7 -9 d 8 -8 d 7 -7 d 15 -11 d 15 -9 d 15 -6 d 14 -4 d 15 -4 d 30 -5 d 30 -4 d 29 -2 d 60 -3 d 59 -2 d s 0.2 0.4 0.2 c black
 0.2 0.4 0.2 c 371 577 m cl s 371 577 m 118 X 60 1 d 178 X 59 1 d 59 X 60 1 d 59 X 59 2 d 60 1 d 59 3 d 59 4 d 30 3 d 30 4 d 29 5 d 30 7 d 15 5 d 15 5 d 14 7 d 15 7 d 15 10 d 15 11 d 15 14 d 7 8 d 8 9 d 7 10 d 7 11 d 8 11 d 7 13 d 8 14 d 7 16 d 7 16
 d 8 18 d 15 37 d 15 38 d 7 18 d 7 17 d 8 15 d 7 12 d 4 5 d 4 4 d 3 4 d 4 2 d 4 2 d 3 1 d 4 X 4 -1 d 4 -1 d 3 -3 d 4 -4 d 4 -4 d 3 -5 d 4 -6 d 4 -6 d 4 -8 d 3 -7 d 4 -9 d 7 -18 d 8 -20 d 7 -20 d 15 -42 d 15 -40 d 7 -18 d 8 -17 d 7 -16 d 8 -15 d 7 -13
 d 7 -11 d 8 -10 d 7 -9 d 8 -8 d 7 -7 d 15 -11 d 15 -8 d 15 -6 d 14 -5 d 15 -3 d 30 -6 d 30 -3 d 29 -2 d 60 -3 d 59 -2 d s 1 0.8 0.2 c black 1 0.8 0.2 c 371 605 m cl s 371 605 m 59 2 d 59 1 d 60 1 d 59 1 d 59 1 d 60 1 d 59 1 d 59 X 60 1 d 296 X 60 -1
 d 59 X 59 -1 d 60 -1 d 59 -1 d 59 -1 d 60 -1 d 59 -1 d 59 -2 d 60 -1 d 59 -2 d 59 -2 d 60 -2 d 59 -2 d s 0 0 1 c black 0 0 1 c 371 582 m cl s 371 582 m 59 X 59 1 d 60 X 59 1 d 59 X 60 -1 d 59 X 59 -1 d 60 X 59 -1 d 59 -1 d 178 X 60 1 d 59 1 d 30 1 d
 29 2 d 15 2 d 15 1 d 15 3 d 15 3 d 14 4 d 8 3 d 7 3 d 8 3 d 7 4 d 7 5 d 8 5 d 7 7 d 4 3 d 4 4 d 7 9 d 4 4 d 4 6 d 3 5 d 4 6 d 7 12 d 8 14 d 7 14 d 8 14 d 7 14 d 4 7 d 3 4 d 4 5 d 4 3 d 4 3 d 1 1 d 6 X 4 -2 d 3 -2 d 4 -4 d 4 -5 d 4 -6 d 3 -7 d 4 -8 d
 7 -16 d 4 -8 d 4 -9 d 2 -5 d 1 -4 d 4 -7 d 8 -15 d 3 -7 d 4 -6 d 4 -5 d 3 -6 d 4 -4 d 4 -4 d 4 -4 d 3 -4 d 4 -3 d 4 -3 d 7 -5 d 8 -4 d 7 -3 d 7 -3 d 15 -4 d 15 -3 d 15 -2 d 15 -2 d 15 -1 d 29 -2 d 30 -2 d 59 -1 d 60 -1 d 59 -1 d s black[  ] 0 sd 3
 lw 371 577 m 1661 X s 371 613 m -36 Y s 430 595 m -18 Y s 489 595 m -18 Y s 549 595 m -18 Y s 608 595 m -18 Y s 667 613 m -36 Y s 727 595 m -18 Y s 786 595 m -18 Y s 845 595 m -18 Y s 905 595 m -18 Y s 964 613 m -36 Y s 1023 595 m -18 Y s 1083 595 m
 -18 Y s 1142 595 m -18 Y s 1201 595 m -18 Y s 1261 613 m -36 Y s 1320 595 m -18 Y s 1379 595 m -18 Y s 1439 595 m -18 Y s 1498 595 m -18 Y s 1557 613 m -36 Y s 1617 595 m -18 Y s 1676 595 m -18 Y s 1735 595 m -18 Y s 1795 595 m -18 Y s 1854 613 m
 -36 Y s 1854 613 m -36 Y s 1913 595 m -18 Y s 1973 595 m -18 Y s 371 2084 m 1661 X s 371 2048 m 36 Y s 430 2066 m 18 Y s 489 2066 m 18 Y s 549 2066 m 18 Y s 608 2066 m 18 Y s 667 2048 m 36 Y s 727 2066 m 18 Y s 786 2066 m 18 Y s 845 2066 m 18 Y s
 905 2066 m 18 Y s 964 2048 m 36 Y s 1023 2066 m 18 Y s 1083 2066 m 18 Y s 1142 2066 m 18 Y s 1201 2066 m 18 Y s 1261 2048 m 36 Y s 1320 2066 m 18 Y s 1379 2066 m 18 Y s 1439 2066 m 18 Y s 1498 2066 m 18 Y s 1557 2048 m 36 Y s 1617 2066 m 18 Y s 1676
 2066 m 18 Y s 1735 2066 m 18 Y s 1795 2066 m 18 Y s 1854 2048 m 36 Y s 1854 2048 m 36 Y s 1913 2066 m 18 Y s 1973 2066 m 18 Y s 371 577 m 1507 Y s 433 577 m -62 X s 402 642 m -31 X s 402 707 m -31 X s 402 772 m -31 X s 433 838 m -62 X s 402 903 m
 -31 X s 402 968 m -31 X s 402 1034 m -31 X s 433 1099 m -62 X s 402 1164 m -31 X s 402 1230 m -31 X s 402 1295 m -31 X s 433 1360 m -62 X s 402 1426 m -31 X s 402 1491 m -31 X s 402 1556 m -31 X s 433 1622 m -62 X s 402 1687 m -31 X s 402 1752 m -31
 X s 402 1818 m -31 X s 433 1883 m -62 X s 433 1883 m -62 X s 402 1948 m -31 X s 402 2013 m -31 X s 402 2079 m -31 X s 2032 577 m 1507 Y s 1969 577 m 63 X s 2001 642 m 31 X s 2001 707 m 31 X s 2001 772 m 31 X s 1969 838 m 63 X s 2001 903 m 31 X s
 2001 968 m 31 X s 2001 1034 m 31 X s 1969 1099 m 63 X s 2001 1164 m 31 X s 2001 1230 m 31 X s 2001 1295 m 31 X s 1969 1360 m 63 X s 2001 1426 m 31 X s 2001 1491 m 31 X s 2001 1556 m 31 X s 1969 1622 m 63 X s 2001 1687 m 31 X s 2001 1752 m 31 X s
 2001 1818 m 31 X s 1969 1883 m 63 X s 1969 1883 m 63 X s 2001 1948 m 31 X s 2001 2013 m 31 X s 2001 2079 m 31 X s 1 1 1 c black
 gsave  2245 1622 11 544 C 662.051 1989.96 t 0 r /Helvetica findfont 60.8983 sf 0 0 m ( Internal) show NC gr 
 gsave  2245 1622 11 544 C 452.782 1989.96 t 0 r /Helvetica-BoldOblique findfont 60.8983 sf 0 0 m (ATLAS) show NC gr 
 gsave  2245 1622 11 544 C 452.782 1902.45 t 0 r /Helvetica findfont 60.8983 sf 0 0 m (data 2015\25518 + mc16a,d,e) show NC gr 
 gsave  2245 1622 11 544 C 1034.93 1818.74 t 0 r /Helvetica findfont 41.8676 sf 0 0 m (\2551) show NC gr 
 gsave  2245 1622 11 544 C 513.661 1792.1 t 0 r /Helvetica findfont 60.8983 sf 0 0 m (=13 TeV, 138.97 fb) show NC gr 
 gsave  2245 1622 11 544 C 483.221 1792.1 t 0 r /Helvetica findfont 60.8983 sf 0 0 m (s) show NC gr  6 lw 464 1826 m 8 -38 d s 3 lw 472 1788 m 4 57 d s 476 1845 m 38 X s
 gsave  2245 1622 11 544 C 452.782 1712.2 t 0 r /Helvetica findfont 60.8983 sf 0 0 m (Inverted isolation CR) show NC gr  1 1 1 c 718 438 1269 1598 bl 1269 1598 m 718 X s 1987 1598 m 438 Y s 1987 2036 m -718 X s 1269 2036 m -438 Y s black
 gsave  2245 1622 11 544 C 1445.86 1986.15 t 0 r /Helvetica findfont 60.8983 sf 0 0 m (Data) show NC gr  1296 1999 m 125 X s 1358 1977 m 44 Y s 1358 1999 m20
 gsave  2245 1622 11 544 C 1445.86 1910.06 t 0 r /Helvetica findfont 60.8983 sf 0 0 m (Total BG) show NC gr  0.8 0 0 c 9 lw 1296 1926 m 125 X s black
 gsave  2245 1622 11 544 C 1445.86 1837.76 t 0 r /Helvetica findfont 60.8983 sf 0 0 m (Z+LFjets) show NC gr  0 1 0 c[  12 12 ] 0 sd 1296 1853 m 125 X s black
 gsave  2245 1622 11 544 C 1445.86 1765.47 t 0 r /Helvetica findfont 60.8983 sf 0 0 m (Z+HFjets) show NC gr  0.2 0.4 0.2 c 1296 1780 m 125 X s black
 gsave  2245 1622 11 544 C 1464.88 1693.18 t 0 r /Helvetica findfont 60.8983 sf 0 0 m (t) show NC gr [  ] 0 sd 3 lw 1465 1743 m 19 X s
 gsave  2245 1622 11 544 C 1445.86 1693.18 t 0 r /Helvetica findfont 60.8983 sf 0 0 m (t) show NC gr  1 0.8 0.2 c[  12 12 ] 0 sd 9 lw 1296 1707 m 125 X s black
 gsave  2245 1622 11 544 C 1445.86 1620.88 t 0 r /Helvetica findfont 60.8983 sf 0 0 m (Diboson) show NC gr  0 0 1 c 1296 1635 m 125 X s
 gr  gr showpage
end
%%EOF
