%!PS-Adobe-2.0 EPSF-2.0
%%BoundingBox:  0 0 567 544
%%Title: Results/M1MC_emu.eps: Region: emu
%%Creator: ROOT Version 6.08/06
%%CreationDate: Sun Oct 13 15:24:42 2019
%%DocumentNeededResources: ProcSet (FontSetInit)
%%EndComments
%%BeginProlog
80 dict begin
/s {stroke} def /l {lineto} def /m {moveto} def /t {translate} def
/r {rotate} def /rl {roll}  def /R {repeat} def
/d {rlineto} def /rm {rmoveto} def /gr {grestore} def /f {eofill} def
/c {setrgbcolor} def /black {0 setgray} def /sd {setdash} def
/cl {closepath} def /sf {scalefont setfont} def /lw {setlinewidth} def
/box {m dup 0 exch d exch 0 d 0 exch neg d cl} def
/NC{systemdict begin initclip end}def/C{NC box clip newpath}def
/bl {box s} def /bf {gsave box gsave f grestore 1 lw [] 0 sd s grestore} def /Y { 0 exch d} def /X { 0 d} def 
/K {{pop pop 0 moveto} exch kshow} bind def
/ita {/ang 15 def gsave [1 0 ang dup sin exch cos div 1 0 0] concat} def 
/mp {newpath /y exch def /x exch def} def
/side {[w .77 mul w .23 mul] .385 w mul sd w 0 l currentpoint t -144 r} def
/mr {mp x y w2 0 360 arc} def /m24 {mr s} def /m20 {mr f} def
/mb {mp x y w2 add m w2 neg 0 d 0 w neg d w 0 d 0 w d cl} def
/mt {mp x y w2 add m w2 neg w neg d w 0 d cl} def
/m21 {mb f} def /m25 {mb s} def /m22 {mt f} def /m26{mt s} def
/m23 {mp x y w2 sub m w2 w d w neg 0 d cl f} def
/m27 {mp x y w2 add m w3 neg w2 neg d w3 w2 neg d w3 w2 d cl s} def
/m28 {mp x w2 sub y w2 sub w3 add m w3 0 d  0 w3 neg d w3 0 d 0 w3 d w3 0 d  0 w3 d w3 neg 0 d 0 w3 d w3 neg 0 d 0 w3 neg d w3 neg 0 d cl s } def
/m29 {mp gsave x w2 sub y w2 add w3 sub m currentpoint t 4 {side} repeat cl fill gr} def
/m30 {mp gsave x w2 sub y w2 add w3 sub m currentpoint t 4 {side} repeat cl s gr} def
/m31 {mp x y w2 sub m 0 w d x w2 sub y m w 0 d x w2 sub y w2 add m w w neg d x w2 sub y w2 sub m w w d s} def
/m32 {mp x y w2 sub m w2 w d w neg 0 d cl s} def
/m33 {mp x y w2 add m w3 neg w2 neg d w3 w2 neg d w3 w2 d cl f} def
/m34 {mp x w2 sub y w2 sub w3 add m w3 0 d  0 w3 neg d w3 0 d 0 w3 d w3 0 d  0 w3 d w3 neg 0 d 0 w3 d w3 neg 0 d 0 w3 neg d w3 neg 0 d cl f } def
/m2 {mp x y w2 sub m 0 w d x w2 sub y m w 0 d s} def
/m5 {mp x w2 sub y w2 sub m w w d x w2 sub y w2 add m w w neg d s} def
%%IncludeResource: ProcSet (FontSetInit)
%%IncludeResource: font Times-Roman
%%IncludeResource: font Times-Italic
%%IncludeResource: font Times-Bold
%%IncludeResource: font Times-BoldItalic
%%IncludeResource: font Helvetica
%%IncludeResource: font Helvetica-Oblique
%%IncludeResource: font Helvetica-Bold
%%IncludeResource: font Helvetica-BoldOblique
%%IncludeResource: font Courier
%%IncludeResource: font Courier-Oblique
%%IncludeResource: font Courier-Bold
%%IncludeResource: font Courier-BoldOblique
%%IncludeResource: font Symbol
%%IncludeResource: font ZapfDingbats
/reEncode {exch findfont dup length dict begin {1 index /FID eq  {pop pop} {def} ifelse } forall /Encoding exch def currentdict end dup /FontName get exch definefont pop } def [/Times-Bold /Times-Italic /Times-BoldItalic /Helvetica /Helvetica-Oblique
 /Helvetica-Bold /Helvetica-BoldOblique /Courier /Courier-Oblique /Courier-Bold /Courier-BoldOblique /Times-Roman /AvantGarde-Book /AvantGarde-BookOblique /AvantGarde-Demi /AvantGarde-DemiOblique /Bookman-Demi /Bookman-DemiItalic /Bookman-Light
 /Bookman-LightItalic /Helvetica-Narrow /Helvetica-Narrow-Bold /Helvetica-Narrow-BoldOblique /Helvetica-Narrow-Oblique /NewCenturySchlbk-Roman /NewCenturySchlbk-Bold /NewCenturySchlbk-BoldItalic /NewCenturySchlbk-Italic /Palatino-Bold
 /Palatino-BoldItalic /Palatino-Italic /Palatino-Roman ] {ISOLatin1Encoding reEncode } forall
%%EndProlog
%%BeginSetup
%%EndSetup
newpath  gsave  .25 .25 scale  gsave  0 0 t black[  ] 0 sd 3 lw 1 1 1 c 2268 2176 0 0 bf black 1 1 1 c 2245 533 11 11 bf black 1 1 1 c 1661 288 371 224 bf black 1661 288 371 224 bl 371 224 m 1661 X s 371 512 m 1661 X s 371 224 m 288 Y s[ 4 8] 0 sd
 2032 224 m -1661 X s 2032 296 m -1661 X s 2032 368 m -1661 X s 2032 440 m -1661 X s 2032 512 m -1661 X s[  ] 0 sd 2032 224 m 288 Y s 371 224 m 1661 X s
 gsave  2245 533 11 11 C 1849.18 98.9272 t 0 r /Helvetica findfont 64.7479 sf 0 0 m ( [GeV]) show NC gr 
 gsave  2245 533 11 11 C 1803.52 76.0979 t 0 r /Helvetica findfont 41.8957 sf 0 0 m (12) show NC gr 
 gsave  2245 533 11 11 C 1750.25 98.9272 t 0 r /Helvetica findfont 64.7479 sf 0 0 m (m) show NC gr  371 236 m -12 Y s 430 230 m -6 Y s 489 230 m -6 Y s 549 230 m -6 Y s 608 230 m -6 Y s 667 236 m -12 Y s 727 230 m -6 Y s 786 230 m -6 Y s 845 230 m -6
 Y s 905 230 m -6 Y s 964 236 m -12 Y s 1023 230 m -6 Y s 1083 230 m -6 Y s 1142 230 m -6 Y s 1201 230 m -6 Y s 1261 236 m -12 Y s 1320 230 m -6 Y s 1379 230 m -6 Y s 1439 230 m -6 Y s 1498 230 m -6 Y s 1557 236 m -12 Y s 1617 230 m -6 Y s 1676 230 m
 -6 Y s 1735 230 m -6 Y s 1795 230 m -6 Y s 1854 236 m -12 Y s 1854 236 m -12 Y s 1913 230 m -6 Y s 1973 230 m -6 Y s
 gsave  2245 533 11 11 C 334.831 171.22 t 0 r /Helvetica findfont 57.1305 sf 0 0 m (50) show NC gr 
 gsave  2245 533 11 11 C 631.612 171.22 t 0 r /Helvetica findfont 57.1305 sf 0 0 m (60) show NC gr 
 gsave  2245 533 11 11 C 928.394 171.22 t 0 r /Helvetica findfont 57.1305 sf 0 0 m (70) show NC gr 
 gsave  2245 533 11 11 C 1225.18 171.22 t 0 r /Helvetica findfont 57.1305 sf 0 0 m (80) show NC gr 
 gsave  2245 533 11 11 C 1521.96 171.22 t 0 r /Helvetica findfont 57.1305 sf 0 0 m (90) show NC gr 
 gsave  2245 533 11 11 C 1803.52 171.22 t 0 r /Helvetica findfont 57.1305 sf 0 0 m (100) show NC gr  371 512 m 1661 X s 371 500 m 12 Y s 430 506 m 6 Y s 489 506 m 6 Y s 549 506 m 6 Y s 608 506 m 6 Y s 667 500 m 12 Y s 727 506 m 6 Y s 786 506 m 6 Y s
 845 506 m 6 Y s 905 506 m 6 Y s 964 500 m 12 Y s 1023 506 m 6 Y s 1083 506 m 6 Y s 1142 506 m 6 Y s 1201 506 m 6 Y s 1261 500 m 12 Y s 1320 506 m 6 Y s 1379 506 m 6 Y s 1439 506 m 6 Y s 1498 506 m 6 Y s 1557 500 m 12 Y s 1617 506 m 6 Y s 1676 506 m
 6 Y s 1735 506 m 6 Y s 1795 506 m 6 Y s 1854 500 m 12 Y s 1854 500 m 12 Y s 1913 506 m 6 Y s 1973 506 m 6 Y s 371 224 m 288 Y s
 gsave  2245 533 11 11 C 156.001 407.124 t 90 r /Helvetica findfont 64.7479 sf 0 0 m (Pull) show NC gr  407 224 m -36 X s 389 242 m -18 X s 389 260 m -18 X s 389 278 m -18 X s 407 296 m -36 X s 389 314 m -18 X s 389 332 m -18 X s 389 350 m -18 X s
 407 368 m -36 X s 389 386 m -18 X s 389 404 m -18 X s 389 422 m -18 X s 407 440 m -36 X s 389 458 m -18 X s 389 476 m -18 X s 389 494 m -18 X s 407 512 m -36 X s
 gsave  2245 533 11 11 C 327.221 201.659 t 0 r /Helvetica findfont 57.1305 sf 0 0 m (4) show NC gr 
 gsave  2245 533 11 11 C 292.977 201.659 t 0 r /Symbol findfont 57.1305 sf 0 0 m (-) show NC gr 
 gsave  2245 533 11 11 C 327.221 273.952 t 0 r /Helvetica findfont 57.1305 sf 0 0 m (2) show NC gr 
 gsave  2245 533 11 11 C 292.977 273.952 t 0 r /Symbol findfont 57.1305 sf 0 0 m (-) show NC gr 
 gsave  2245 533 11 11 C 327.221 346.245 t 0 r /Helvetica findfont 57.1305 sf 0 0 m (0) show NC gr 
 gsave  2245 533 11 11 C 327.221 418.538 t 0 r /Helvetica findfont 57.1305 sf 0 0 m (2) show NC gr 
 gsave  2245 533 11 11 C 327.221 490.831 t 0 r /Helvetica findfont 57.1305 sf 0 0 m (4) show NC gr  2032 224 m 288 Y s 1996 224 m 36 X s 2014 242 m 18 X s 2014 260 m 18 X s 2014 278 m 18 X s 1996 296 m 36 X s 2014 314 m 18 X s 2014 332 m 18 X s 2014
 350 m 18 X s 1996 368 m 36 X s 2014 386 m 18 X s 2014 404 m 18 X s 2014 422 m 18 X s 1996 440 m 36 X s 2014 458 m 18 X s 2014 476 m 18 X s 2014 494 m 18 X s 1996 512 m 36 X s 400 395 m 36 Y s 400 431 m cl s 400 395 m -36 Y s 400 359 m cl s 460 331 m
 36 Y s 460 367 m cl s 460 331 m -36 Y s 460 295 m cl s 519 297 m 36 Y s 519 333 m cl s 519 297 m -36 Y s 519 261 m cl s 578 246 m 36 Y s 578 282 m cl s 578 246 m -22 Y s 578 224 m cl s 638 366 m 36 Y s 638 402 m cl s 638 366 m -36 Y s 638 330 m cl s
 697 393 m 36 Y s 697 429 m cl s 697 393 m -36 Y s 697 357 m cl s 756 384 m 36 Y s 756 420 m cl s 756 384 m -36 Y s 756 348 m cl s 816 363 m 36 Y s 816 399 m cl s 816 363 m -36 Y s 816 327 m cl s 875 259 m 36 Y s 875 295 m cl s 875 259 m -35 Y s 875
 224 m cl s 934 380 m 36 Y s 934 416 m cl s 934 380 m -36 Y s 934 344 m cl s 994 315 m 36 Y s 994 351 m cl s 994 315 m -36 Y s 994 279 m cl s 1053 322 m 36 Y s 1053 358 m cl s 1053 322 m -36 Y s 1053 286 m cl s 1112 381 m 36 Y s 1112 417 m cl s 1112
 381 m -36 Y s 1112 345 m cl s 1172 310 m 36 Y s 1172 346 m cl s 1172 310 m -36 Y s 1172 274 m cl s 1231 378 m 36 Y s 1231 414 m cl s 1231 378 m -36 Y s 1231 342 m cl s 1290 322 m 36 Y s 1290 358 m cl s 1290 322 m -36 Y s 1290 286 m cl s 1350 432 m
 36 Y s 1350 468 m cl s 1350 432 m -36 Y s 1350 396 m cl s 1409 362 m 36 Y s 1409 398 m cl s 1409 362 m -36 Y s 1409 326 m cl s 1468 391 m 36 Y s 1468 427 m cl s 1468 391 m -36 Y s 1468 355 m cl s 1528 459 m 36 Y s 1528 495 m cl s 1528 459 m -36 Y s
 1528 423 m cl s 1587 457 m 36 Y s 1587 493 m cl s 1587 457 m -36 Y s 1587 421 m cl s 1646 432 m 36 Y s 1646 468 m cl s 1646 432 m -36 Y s 1646 396 m cl s 1706 330 m 36 Y s 1706 366 m cl s 1706 330 m -36 Y s 1706 294 m cl s 1765 369 m 36 Y s 1765 405
 m cl s 1765 369 m -36 Y s 1765 333 m cl s 1824 317 m 36 Y s 1824 353 m cl s 1824 317 m -36 Y s 1824 281 m cl s 1884 253 m 36 Y s 1884 289 m cl s 1884 253 m -29 Y s 1884 224 m cl s 1943 339 m 36 Y s 1943 375 m cl s 1943 339 m -36 Y s 1943 303 m cl s
 2002 406 m 36 Y s 2002 442 m cl s 2002 406 m -36 Y s 2002 370 m cl s /w 37 def /w2 {w 2 div} def /w3 {w 3 div} def 400 395 460 331 519 297 578 246 638 366 697 393 756 384 816 363 875 259 934 380 994 315 1053 322 1112 381 1172 310 1231 378 1290 322
 1350 432 1409 362 1468 391 1528 459 1587 457 1646 432 1706 330 1765 369 1824 317 1884 253 1943 339 2002 406 28 { m20} R 371 224 m 1661 X s 371 236 m -12 Y s 430 230 m -6 Y s 489 230 m -6 Y s 549 230 m -6 Y s 608 230 m -6 Y s 667 236 m -12 Y s 727
 230 m -6 Y s 786 230 m -6 Y s 845 230 m -6 Y s 905 230 m -6 Y s 964 236 m -12 Y s 1023 230 m -6 Y s 1083 230 m -6 Y s 1142 230 m -6 Y s 1201 230 m -6 Y s 1261 236 m -12 Y s 1320 230 m -6 Y s 1379 230 m -6 Y s 1439 230 m -6 Y s 1498 230 m -6 Y s 1557
 236 m -12 Y s 1617 230 m -6 Y s 1676 230 m -6 Y s 1735 230 m -6 Y s 1795 230 m -6 Y s 1854 236 m -12 Y s 1854 236 m -12 Y s 1913 230 m -6 Y s 1973 230 m -6 Y s 371 512 m 1661 X s 371 500 m 12 Y s 430 506 m 6 Y s 489 506 m 6 Y s 549 506 m 6 Y s 608
 506 m 6 Y s 667 500 m 12 Y s 727 506 m 6 Y s 786 506 m 6 Y s 845 506 m 6 Y s 905 506 m 6 Y s 964 500 m 12 Y s 1023 506 m 6 Y s 1083 506 m 6 Y s 1142 506 m 6 Y s 1201 506 m 6 Y s 1261 500 m 12 Y s 1320 506 m 6 Y s 1379 506 m 6 Y s 1439 506 m 6 Y s
 1498 506 m 6 Y s 1557 500 m 12 Y s 1617 506 m 6 Y s 1676 506 m 6 Y s 1735 506 m 6 Y s 1795 506 m 6 Y s 1854 500 m 12 Y s 1854 500 m 12 Y s 1913 506 m 6 Y s 1973 506 m 6 Y s 371 224 m 288 Y s 407 224 m -36 X s 389 242 m -18 X s 389 260 m -18 X s 389
 278 m -18 X s 407 296 m -36 X s 389 314 m -18 X s 389 332 m -18 X s 389 350 m -18 X s 407 368 m -36 X s 389 386 m -18 X s 389 404 m -18 X s 389 422 m -18 X s 407 440 m -36 X s 389 458 m -18 X s 389 476 m -18 X s 389 494 m -18 X s 407 512 m -36 X s
 2032 224 m 288 Y s 1996 224 m 36 X s 2014 242 m 18 X s 2014 260 m 18 X s 2014 278 m 18 X s 1996 296 m 36 X s 2014 314 m 18 X s 2014 332 m 18 X s 2014 350 m 18 X s 1996 368 m 36 X s 2014 386 m 18 X s 2014 404 m 18 X s 2014 422 m 18 X s 1996 440 m 36
 X s 2014 458 m 18 X s 2014 476 m 18 X s 2014 494 m 18 X s 1996 512 m 36 X s[  12 12 ] 0 sd 6 lw 371 368 m 1661 X s[  ] 0 sd 3 lw 1 1 1 c 2245 1622 11 544 bf black 1 1 1 c 1661 1507 371 577 bf black 1661 1507 371 577 bl 371 577 m 1661 X s 371 613 m
 -36 Y s 430 595 m -18 Y s 489 595 m -18 Y s 549 595 m -18 Y s 608 595 m -18 Y s 667 613 m -36 Y s 727 595 m -18 Y s 786 595 m -18 Y s 845 595 m -18 Y s 905 595 m -18 Y s 964 613 m -36 Y s 1023 595 m -18 Y s 1083 595 m -18 Y s 1142 595 m -18 Y s 1201
 595 m -18 Y s 1261 613 m -36 Y s 1320 595 m -18 Y s 1379 595 m -18 Y s 1439 595 m -18 Y s 1498 595 m -18 Y s 1557 613 m -36 Y s 1617 595 m -18 Y s 1676 595 m -18 Y s 1735 595 m -18 Y s 1795 595 m -18 Y s 1854 613 m -36 Y s 1854 613 m -36 Y s 1913
 595 m -18 Y s 1973 595 m -18 Y s 371 2084 m 1661 X s 371 2048 m 36 Y s 430 2066 m 18 Y s 489 2066 m 18 Y s 549 2066 m 18 Y s 608 2066 m 18 Y s 667 2048 m 36 Y s 727 2066 m 18 Y s 786 2066 m 18 Y s 845 2066 m 18 Y s 905 2066 m 18 Y s 964 2048 m 36 Y
 s 1023 2066 m 18 Y s 1083 2066 m 18 Y s 1142 2066 m 18 Y s 1201 2066 m 18 Y s 1261 2048 m 36 Y s 1320 2066 m 18 Y s 1379 2066 m 18 Y s 1439 2066 m 18 Y s 1498 2066 m 18 Y s 1557 2048 m 36 Y s 1617 2066 m 18 Y s 1676 2066 m 18 Y s 1735 2066 m 18 Y s
 1795 2066 m 18 Y s 1854 2048 m 36 Y s 1854 2048 m 36 Y s 1913 2066 m 18 Y s 1973 2066 m 18 Y s 371 577 m 1507 Y s
 gsave  2245 1622 11 544 C 152.196 1666.54 t 90 r /Helvetica findfont 64.7045 sf 0 0 m (Events / 2GeV) show NC gr  433 577 m -62 X s 402 622 m -31 X s 402 668 m -31 X s 402 714 m -31 X s 402 759 m -31 X s 433 805 m -62 X s 402 851 m -31 X s 402 896 m
 -31 X s 402 942 m -31 X s 402 988 m -31 X s 433 1033 m -62 X s 402 1079 m -31 X s 402 1125 m -31 X s 402 1170 m -31 X s 402 1216 m -31 X s 433 1262 m -62 X s 402 1308 m -31 X s 402 1353 m -31 X s 402 1399 m -31 X s 402 1445 m -31 X s 433 1490 m -62
 X s 402 1536 m -31 X s 402 1582 m -31 X s 402 1627 m -31 X s 402 1673 m -31 X s 433 1719 m -62 X s 402 1764 m -31 X s 402 1810 m -31 X s 402 1856 m -31 X s 402 1901 m -31 X s 433 1947 m -62 X s 433 1947 m -62 X s 402 1993 m -31 X s 402 2038 m -31 X
 s 402 2084 m -31 X s
 gsave  2245 1622 11 544 C 327.221 555.514 t 0 r /Helvetica findfont 57.0922 sf 0 0 m (0) show NC gr 
 gsave  2245 1622 11 544 C 292.977 783.808 t 0 r /Helvetica findfont 57.0922 sf 0 0 m (50) show NC gr 
 gsave  2245 1622 11 544 C 262.538 1012.1 t 0 r /Helvetica findfont 57.0922 sf 0 0 m (100) show NC gr 
 gsave  2245 1622 11 544 C 262.538 1240.4 t 0 r /Helvetica findfont 57.0922 sf 0 0 m (150) show NC gr 
 gsave  2245 1622 11 544 C 262.538 1468.69 t 0 r /Helvetica findfont 57.0922 sf 0 0 m (200) show NC gr 
 gsave  2245 1622 11 544 C 262.538 1696.98 t 0 r /Helvetica findfont 57.0922 sf 0 0 m (250) show NC gr 
 gsave  2245 1622 11 544 C 262.538 1925.28 t 0 r /Helvetica findfont 57.0922 sf 0 0 m (300) show NC gr  2032 577 m 1507 Y s 1969 577 m 63 X s 2001 622 m 31 X s 2001 668 m 31 X s 2001 714 m 31 X s 2001 759 m 31 X s 1969 805 m 63 X s 2001 851 m 31 X s
 2001 896 m 31 X s 2001 942 m 31 X s 2001 988 m 31 X s 1969 1033 m 63 X s 2001 1079 m 31 X s 2001 1125 m 31 X s 2001 1170 m 31 X s 2001 1216 m 31 X s 1969 1262 m 63 X s 2001 1308 m 31 X s 2001 1353 m 31 X s 2001 1399 m 31 X s 2001 1445 m 31 X s 1969
 1490 m 63 X s 2001 1536 m 31 X s 2001 1582 m 31 X s 2001 1627 m 31 X s 2001 1673 m 31 X s 1969 1719 m 63 X s 2001 1764 m 31 X s 2001 1810 m 31 X s 2001 1856 m 31 X s 2001 1901 m 31 X s 1969 1947 m 63 X s 1969 1947 m 63 X s 2001 1993 m 31 X s 2001
 2038 m 31 X s 2001 2084 m 31 X s 400 1339 m -29 X s 371 1339 m cl s 400 1339 m 30 X s 430 1339 m cl s 400 1339 m 61 Y s 400 1400 m cl s 400 1339 m -62 Y s 400 1277 m cl s 460 1310 m -30 X s 430 1310 m cl s 460 1310 m 29 X s 489 1310 m cl s 460 1310
 m 14 Y s 460 1324 m cl s 460 1310 m -14 Y s 460 1296 m cl s 519 1333 m -30 X s 489 1333 m cl s 519 1333 m 30 X s 549 1333 m cl s 519 1333 m 10 Y s 519 1343 m cl s 519 1333 m -11 Y s 519 1322 m cl s 578 1349 m -29 X s 549 1349 m cl s 578 1349 m 30 X
 s 608 1349 m cl s 578 1349 m 9 Y s 578 1358 m cl s 578 1349 m -8 Y s 578 1341 m cl s 638 1400 m -30 X s 608 1400 m cl s 638 1400 m 29 X s 667 1400 m cl s 638 1400 m 14 Y s 638 1414 m cl s 638 1400 m -14 Y s 638 1386 m cl s 697 1435 m -30 X s 667
 1435 m cl s 697 1435 m 30 X s 727 1435 m cl s 697 1435 m 23 Y s 697 1458 m cl s 697 1435 m -22 Y s 697 1413 m cl s 756 1449 m -29 X s 727 1449 m cl s 756 1449 m 30 X s 786 1449 m cl s 756 1449 m 27 Y s 756 1476 m cl s 756 1449 m -28 Y s 756 1421 m
 cl s 816 1448 m -30 X s 786 1448 m cl s 816 1448 m 29 X s 845 1448 m cl s 816 1448 m 14 Y s 816 1462 m cl s 816 1448 m -14 Y s 816 1434 m cl s 875 1429 m -30 X s 845 1429 m cl s 875 1429 m 30 X s 905 1429 m cl s 875 1429 m 10 Y s 875 1439 m cl s 875
 1429 m -10 Y s 875 1419 m cl s 934 1484 m -29 X s 905 1484 m cl s 934 1484 m 30 X s 964 1484 m cl s 934 1484 m 50 Y s 934 1534 m cl s 934 1484 m -49 Y s 934 1435 m cl s 994 1453 m -30 X s 964 1453 m cl s 994 1453 m 29 X s 1023 1453 m cl s 994 1453 m
 13 Y s 994 1466 m cl s 994 1453 m -13 Y s 994 1440 m cl s 1053 1459 m -30 X s 1023 1459 m cl s 1053 1459 m 30 X s 1083 1459 m cl s 1053 1459 m 11 Y s 1053 1470 m cl s 1053 1459 m -11 Y s 1053 1448 m cl s 1112 1476 m -29 X s 1083 1476 m cl s 1112
 1476 m 30 X s 1142 1476 m cl s 1112 1476 m 12 Y s 1112 1488 m cl s 1112 1476 m -12 Y s 1112 1464 m cl s 1172 1450 m -30 X s 1142 1450 m cl s 1172 1450 m 29 X s 1201 1450 m cl s 1172 1450 m 10 Y s 1172 1460 m cl s 1172 1450 m -10 Y s 1172 1440 m cl s
 1231 1463 m -30 X s 1201 1463 m cl s 1231 1463 m 30 X s 1261 1463 m cl s 1231 1463 m 13 Y s 1231 1476 m cl s 1231 1463 m -14 Y s 1231 1449 m cl s 1290 1436 m -29 X s 1261 1436 m cl s 1290 1436 m 30 X s 1320 1436 m cl s 1290 1436 m 9 Y s 1290 1445 m
 cl s 1290 1436 m -9 Y s 1290 1427 m cl s 1350 1461 m -30 X s 1320 1461 m cl s 1350 1461 m 29 X s 1379 1461 m cl s 1350 1461 m 15 Y s 1350 1476 m cl s 1350 1461 m -15 Y s 1350 1446 m cl s 1409 1415 m -30 X s 1379 1415 m cl s 1409 1415 m 30 X s 1439
 1415 m cl s 1409 1415 m 9 Y s 1409 1424 m cl s 1409 1415 m -9 Y s 1409 1406 m cl s 1468 1403 m -29 X s 1439 1403 m cl s 1468 1403 m 30 X s 1498 1403 m cl s 1468 1403 m 10 Y s 1468 1413 m cl s 1468 1403 m -10 Y s 1468 1393 m cl s 1528 1395 m -30 X s
 1498 1395 m cl s 1528 1395 m 29 X s 1557 1395 m cl s 1528 1395 m 8 Y s 1528 1403 m cl s 1528 1395 m -9 Y s 1528 1386 m cl s 1587 1372 m -30 X s 1557 1372 m cl s 1587 1372 m 30 X s 1617 1372 m cl s 1587 1372 m 10 Y s 1587 1382 m cl s 1587 1372 m -10
 Y s 1587 1362 m cl s 1646 1331 m -29 X s 1617 1331 m cl s 1646 1331 m 30 X s 1676 1331 m cl s 1646 1331 m 8 Y s 1646 1339 m cl s 1646 1331 m -7 Y s 1646 1324 m cl s 1706 1279 m -30 X s 1676 1279 m cl s 1706 1279 m 29 X s 1735 1279 m cl s 1706 1279 m
 7 Y s 1706 1286 m cl s 1706 1279 m -7 Y s 1706 1272 m cl s 1765 1251 m -30 X s 1735 1251 m cl s 1765 1251 m 30 X s 1795 1251 m cl s 1765 1251 m 11 Y s 1765 1262 m cl s 1765 1251 m -11 Y s 1765 1240 m cl s 1824 1199 m -29 X s 1795 1199 m cl s 1824
 1199 m 30 X s 1854 1199 m cl s 1824 1199 m 10 Y s 1824 1209 m cl s 1824 1199 m -10 Y s 1824 1189 m cl s 1884 1151 m -30 X s 1854 1151 m cl s 1884 1151 m 29 X s 1913 1151 m cl s 1884 1151 m 7 Y s 1884 1158 m cl s 1884 1151 m -6 Y s 1884 1145 m cl s
 1943 1120 m -30 X s 1913 1120 m cl s 1943 1120 m 30 X s 1973 1120 m cl s 1943 1120 m 9 Y s 1943 1129 m cl s 1943 1120 m -9 Y s 1943 1111 m cl s 2002 1088 m -29 X s 1973 1088 m cl s 2002 1088 m 30 X s 2032 1088 m cl s 2002 1088 m 8 Y s 2002 1096 m cl
 s 2002 1088 m -8 Y s 2002 1080 m cl s 400 1339 460 1310 519 1333 578 1349 638 1400 697 1435 756 1449 816 1448 875 1429 934 1484 994 1453 1053 1459 1112 1476 1172 1450 1231 1463 1290 1436 1350 1461 1409 1415 1468 1403 1528 1395 1587 1372 1646 1331
 1706 1279 1765 1251 1824 1199 1884 1151 1943 1120 2002 1088 28 { m20} R 0.8 0 0 c 9 lw black 0.8 0 0 c 371 1276 m cl s 371 1276 m 59 33 d 59 30 d 60 27 d 59 24 d 59 21 d 60 18 d 59 15 d 59 12 d 60 9 d 59 6 d 59 2 d 60 X 59 -3 d 59 -7 d 60 -9 d 59
 -12 d 59 -16 d 60 -18 d 59 -22 d 59 -25 d 60 -27 d 59 -31 d 59 -34 d 60 -36 d 59 -40 d 59 -43 d 60 -46 d 59 -49 d s 0 1 0 c[  12 12 ] 0 sd black 0 1 0 c 371 587 m cl s 371 587 m 59 X 59 -1 d 238 X 59 -1 d 237 X 60 -1 d 178 X 59 -1 d 237 X 60 -1 d
 178 X 59 -1 d 178 X s 0.2 0.4 0.2 c black 0.2 0.4 0.2 c 371 620 m cl s 371 620 m 59 -1 d 59 -1 d 60 -1 d 59 -1 d 59 -1 d 60 -1 d 59 -1 d 59 -1 d 60 X 59 -1 d 59 -1 d 60 -1 d 59 -1 d 59 -1 d 60 -1 d 59 -1 d 59 -1 d 60 -1 d 59 X 59 -1 d 60 -1 d 59 -1
 d 59 -1 d 60 -1 d 59 -1 d 59 -1 d 60 -1 d 59 -1 d s 1 0.8 0.2 c black 1 0.8 0.2 c 371 1188 m cl s 371 1188 m 59 35 d 59 32 d 60 28 d 59 26 d 59 23 d 60 20 d 59 17 d 59 13 d 60 11 d 59 8 d 59 4 d 60 2 d 59 -2 d 59 -4 d 60 -8 d 59 -10 d 59 -14 d 60
 -17 d 59 -19 d 59 -23 d 60 -26 d 59 -29 d 59 -32 d 60 -35 d 59 -38 d 59 -41 d 60 -44 d 59 -47 d s 0 0 1 c black 0 0 1 c 371 611 m cl s 371 611 m 59 X 59 -1 d 60 -1 d 59 -1 d 59 X 60 -1 d 59 -1 d 59 X 60 -1 d 59 -1 d 59 -1 d 60 X 59 -1 d 59 -1 d 60
 -1 d 59 X 59 -1 d 60 -1 d 59 X 59 -1 d 60 -1 d 59 -1 d 59 X 60 -1 d 59 -1 d 59 -1 d 60 X 59 -1 d s black[  ] 0 sd 3 lw 371 577 m 1661 X s 371 613 m -36 Y s 430 595 m -18 Y s 489 595 m -18 Y s 549 595 m -18 Y s 608 595 m -18 Y s 667 613 m -36 Y s 727
 595 m -18 Y s 786 595 m -18 Y s 845 595 m -18 Y s 905 595 m -18 Y s 964 613 m -36 Y s 1023 595 m -18 Y s 1083 595 m -18 Y s 1142 595 m -18 Y s 1201 595 m -18 Y s 1261 613 m -36 Y s 1320 595 m -18 Y s 1379 595 m -18 Y s 1439 595 m -18 Y s 1498 595 m
 -18 Y s 1557 613 m -36 Y s 1617 595 m -18 Y s 1676 595 m -18 Y s 1735 595 m -18 Y s 1795 595 m -18 Y s 1854 613 m -36 Y s 1854 613 m -36 Y s 1913 595 m -18 Y s 1973 595 m -18 Y s 371 2084 m 1661 X s 371 2048 m 36 Y s 430 2066 m 18 Y s 489 2066 m 18
 Y s 549 2066 m 18 Y s 608 2066 m 18 Y s 667 2048 m 36 Y s 727 2066 m 18 Y s 786 2066 m 18 Y s 845 2066 m 18 Y s 905 2066 m 18 Y s 964 2048 m 36 Y s 1023 2066 m 18 Y s 1083 2066 m 18 Y s 1142 2066 m 18 Y s 1201 2066 m 18 Y s 1261 2048 m 36 Y s 1320
 2066 m 18 Y s 1379 2066 m 18 Y s 1439 2066 m 18 Y s 1498 2066 m 18 Y s 1557 2048 m 36 Y s 1617 2066 m 18 Y s 1676 2066 m 18 Y s 1735 2066 m 18 Y s 1795 2066 m 18 Y s 1854 2048 m 36 Y s 1854 2048 m 36 Y s 1913 2066 m 18 Y s 1973 2066 m 18 Y s 371 577
 m 1507 Y s 433 577 m -62 X s 402 622 m -31 X s 402 668 m -31 X s 402 714 m -31 X s 402 759 m -31 X s 433 805 m -62 X s 402 851 m -31 X s 402 896 m -31 X s 402 942 m -31 X s 402 988 m -31 X s 433 1033 m -62 X s 402 1079 m -31 X s 402 1125 m -31 X s
 402 1170 m -31 X s 402 1216 m -31 X s 433 1262 m -62 X s 402 1308 m -31 X s 402 1353 m -31 X s 402 1399 m -31 X s 402 1445 m -31 X s 433 1490 m -62 X s 402 1536 m -31 X s 402 1582 m -31 X s 402 1627 m -31 X s 402 1673 m -31 X s 433 1719 m -62 X s
 402 1764 m -31 X s 402 1810 m -31 X s 402 1856 m -31 X s 402 1901 m -31 X s 433 1947 m -62 X s 433 1947 m -62 X s 402 1993 m -31 X s 402 2038 m -31 X s 402 2084 m -31 X s 2032 577 m 1507 Y s 1969 577 m 63 X s 2001 622 m 31 X s 2001 668 m 31 X s 2001
 714 m 31 X s 2001 759 m 31 X s 1969 805 m 63 X s 2001 851 m 31 X s 2001 896 m 31 X s 2001 942 m 31 X s 2001 988 m 31 X s 1969 1033 m 63 X s 2001 1079 m 31 X s 2001 1125 m 31 X s 2001 1170 m 31 X s 2001 1216 m 31 X s 1969 1262 m 63 X s 2001 1308 m 31
 X s 2001 1353 m 31 X s 2001 1399 m 31 X s 2001 1445 m 31 X s 1969 1490 m 63 X s 2001 1536 m 31 X s 2001 1582 m 31 X s 2001 1627 m 31 X s 2001 1673 m 31 X s 1969 1719 m 63 X s 2001 1764 m 31 X s 2001 1810 m 31 X s 2001 1856 m 31 X s 2001 1901 m 31 X
 s 1969 1947 m 63 X s 1969 1947 m 63 X s 2001 1993 m 31 X s 2001 2038 m 31 X s 2001 2084 m 31 X s 1 1 1 c black
 gsave  2245 1622 11 544 C 662.051 1989.96 t 0 r /Helvetica findfont 60.8983 sf 0 0 m ( Internal) show NC gr 
 gsave  2245 1622 11 544 C 452.782 1989.96 t 0 r /Helvetica-BoldOblique findfont 60.8983 sf 0 0 m (ATLAS) show NC gr 
 gsave  2245 1622 11 544 C 452.782 1902.45 t 0 r /Helvetica findfont 60.8983 sf 0 0 m (data 2015\25518 + mc16a,d,e) show NC gr 
 gsave  2245 1622 11 544 C 1034.93 1818.74 t 0 r /Helvetica findfont 41.8676 sf 0 0 m (\2551) show NC gr 
 gsave  2245 1622 11 544 C 513.661 1792.1 t 0 r /Helvetica findfont 60.8983 sf 0 0 m (=13 TeV, 138.97 fb) show NC gr 
 gsave  2245 1622 11 544 C 483.221 1792.1 t 0 r /Helvetica findfont 60.8983 sf 0 0 m (s) show NC gr  6 lw 464 1826 m 8 -38 d s 3 lw 472 1788 m 4 57 d s 476 1845 m 38 X s
 gsave  2245 1622 11 544 C 635.417 1712.2 t 0 r /Helvetica findfont 60.8983 sf 0 0 m ( CR) show NC gr 
 gsave  2245 1622 11 544 C 597.368 1712.2 t 0 r /Symbol findfont 60.8983 sf 0 0 m (m) show NC gr 
 gsave  2245 1622 11 544 C 559.319 1712.2 t 0 r /Symbol findfont 60.8983 sf 0 0 m (m) show NC gr 
 gsave  2245 1622 11 544 C 525.075 1712.2 t 0 r /Helvetica findfont 60.8983 sf 0 0 m (+) show NC gr 
 gsave  2245 1622 11 544 C 487.026 1712.2 t 0 r /Symbol findfont 60.8983 sf 0 0 m (m) show NC gr 
 gsave  2245 1622 11 544 C 452.782 1712.2 t 0 r /Helvetica findfont 60.8983 sf 0 0 m (e) show NC gr  1 1 1 c 718 438 1269 1598 bl 1269 1598 m 718 X s 1987 1598 m 438 Y s 1987 2036 m -718 X s 1269 2036 m -438 Y s black
 gsave  2245 1622 11 544 C 1445.86 1986.15 t 0 r /Helvetica findfont 60.8983 sf 0 0 m (MC Data) show NC gr  1296 1999 m 125 X s 1358 1977 m 44 Y s 1358 1999 m20
 gsave  2245 1622 11 544 C 1445.86 1910.06 t 0 r /Helvetica findfont 60.8983 sf 0 0 m (Total BG) show NC gr  0.8 0 0 c 9 lw 1296 1926 m 125 X s black
 gsave  2245 1622 11 544 C 1445.86 1837.76 t 0 r /Helvetica findfont 60.8983 sf 0 0 m (Z+LFjets) show NC gr  0 1 0 c[  12 12 ] 0 sd 1296 1853 m 125 X s black
 gsave  2245 1622 11 544 C 1445.86 1765.47 t 0 r /Helvetica findfont 60.8983 sf 0 0 m (Z+HFjets) show NC gr  0.2 0.4 0.2 c 1296 1780 m 125 X s black
 gsave  2245 1622 11 544 C 1464.88 1693.18 t 0 r /Helvetica findfont 60.8983 sf 0 0 m (t) show NC gr [  ] 0 sd 3 lw 1465 1743 m 19 X s
 gsave  2245 1622 11 544 C 1445.86 1693.18 t 0 r /Helvetica findfont 60.8983 sf 0 0 m (t) show NC gr  1 0.8 0.2 c[  12 12 ] 0 sd 9 lw 1296 1707 m 125 X s black
 gsave  2245 1622 11 544 C 1445.86 1620.88 t 0 r /Helvetica findfont 60.8983 sf 0 0 m (Diboson) show NC gr  0 0 1 c 1296 1635 m 125 X s
 gr  gr showpage
end
%%EOF
