%!PS-Adobe-2.0 EPSF-2.0
%%BoundingBox:  0 0 567 544
%%Title: Results/M1MC_invD0.eps: Region: invD0
%%Creator: ROOT Version 6.08/06
%%CreationDate: Sun Oct 13 15:24:42 2019
%%DocumentNeededResources: ProcSet (FontSetInit)
%%EndComments
%%BeginProlog
80 dict begin
/s {stroke} def /l {lineto} def /m {moveto} def /t {translate} def
/r {rotate} def /rl {roll}  def /R {repeat} def
/d {rlineto} def /rm {rmoveto} def /gr {grestore} def /f {eofill} def
/c {setrgbcolor} def /black {0 setgray} def /sd {setdash} def
/cl {closepath} def /sf {scalefont setfont} def /lw {setlinewidth} def
/box {m dup 0 exch d exch 0 d 0 exch neg d cl} def
/NC{systemdict begin initclip end}def/C{NC box clip newpath}def
/bl {box s} def /bf {gsave box gsave f grestore 1 lw [] 0 sd s grestore} def /Y { 0 exch d} def /X { 0 d} def 
/K {{pop pop 0 moveto} exch kshow} bind def
/ita {/ang 15 def gsave [1 0 ang dup sin exch cos div 1 0 0] concat} def 
/mp {newpath /y exch def /x exch def} def
/side {[w .77 mul w .23 mul] .385 w mul sd w 0 l currentpoint t -144 r} def
/mr {mp x y w2 0 360 arc} def /m24 {mr s} def /m20 {mr f} def
/mb {mp x y w2 add m w2 neg 0 d 0 w neg d w 0 d 0 w d cl} def
/mt {mp x y w2 add m w2 neg w neg d w 0 d cl} def
/m21 {mb f} def /m25 {mb s} def /m22 {mt f} def /m26{mt s} def
/m23 {mp x y w2 sub m w2 w d w neg 0 d cl f} def
/m27 {mp x y w2 add m w3 neg w2 neg d w3 w2 neg d w3 w2 d cl s} def
/m28 {mp x w2 sub y w2 sub w3 add m w3 0 d  0 w3 neg d w3 0 d 0 w3 d w3 0 d  0 w3 d w3 neg 0 d 0 w3 d w3 neg 0 d 0 w3 neg d w3 neg 0 d cl s } def
/m29 {mp gsave x w2 sub y w2 add w3 sub m currentpoint t 4 {side} repeat cl fill gr} def
/m30 {mp gsave x w2 sub y w2 add w3 sub m currentpoint t 4 {side} repeat cl s gr} def
/m31 {mp x y w2 sub m 0 w d x w2 sub y m w 0 d x w2 sub y w2 add m w w neg d x w2 sub y w2 sub m w w d s} def
/m32 {mp x y w2 sub m w2 w d w neg 0 d cl s} def
/m33 {mp x y w2 add m w3 neg w2 neg d w3 w2 neg d w3 w2 d cl f} def
/m34 {mp x w2 sub y w2 sub w3 add m w3 0 d  0 w3 neg d w3 0 d 0 w3 d w3 0 d  0 w3 d w3 neg 0 d 0 w3 d w3 neg 0 d 0 w3 neg d w3 neg 0 d cl f } def
/m2 {mp x y w2 sub m 0 w d x w2 sub y m w 0 d s} def
/m5 {mp x w2 sub y w2 sub m w w d x w2 sub y w2 add m w w neg d s} def
%%IncludeResource: ProcSet (FontSetInit)
%%IncludeResource: font Times-Roman
%%IncludeResource: font Times-Italic
%%IncludeResource: font Times-Bold
%%IncludeResource: font Times-BoldItalic
%%IncludeResource: font Helvetica
%%IncludeResource: font Helvetica-Oblique
%%IncludeResource: font Helvetica-Bold
%%IncludeResource: font Helvetica-BoldOblique
%%IncludeResource: font Courier
%%IncludeResource: font Courier-Oblique
%%IncludeResource: font Courier-Bold
%%IncludeResource: font Courier-BoldOblique
%%IncludeResource: font Symbol
%%IncludeResource: font ZapfDingbats
/reEncode {exch findfont dup length dict begin {1 index /FID eq  {pop pop} {def} ifelse } forall /Encoding exch def currentdict end dup /FontName get exch definefont pop } def [/Times-Bold /Times-Italic /Times-BoldItalic /Helvetica /Helvetica-Oblique
 /Helvetica-Bold /Helvetica-BoldOblique /Courier /Courier-Oblique /Courier-Bold /Courier-BoldOblique /Times-Roman /AvantGarde-Book /AvantGarde-BookOblique /AvantGarde-Demi /AvantGarde-DemiOblique /Bookman-Demi /Bookman-DemiItalic /Bookman-Light
 /Bookman-LightItalic /Helvetica-Narrow /Helvetica-Narrow-Bold /Helvetica-Narrow-BoldOblique /Helvetica-Narrow-Oblique /NewCenturySchlbk-Roman /NewCenturySchlbk-Bold /NewCenturySchlbk-BoldItalic /NewCenturySchlbk-Italic /Palatino-Bold
 /Palatino-BoldItalic /Palatino-Italic /Palatino-Roman ] {ISOLatin1Encoding reEncode } forall
%%EndProlog
%%BeginSetup
%%EndSetup
newpath  gsave  .25 .25 scale  gsave  0 0 t black[  ] 0 sd 3 lw 1 1 1 c 2268 2176 0 0 bf black 1 1 1 c 2245 533 11 11 bf black 1 1 1 c 1661 288 371 224 bf black 1661 288 371 224 bl 371 224 m 1661 X s 371 512 m 1661 X s 371 224 m 288 Y s[ 4 8] 0 sd
 2032 224 m -1661 X s 2032 296 m -1661 X s 2032 368 m -1661 X s 2032 440 m -1661 X s 2032 512 m -1661 X s[  ] 0 sd 2032 224 m 288 Y s 371 224 m 1661 X s
 gsave  2245 533 11 11 C 1849.18 98.9272 t 0 r /Helvetica findfont 64.7479 sf 0 0 m ( [GeV]) show NC gr 
 gsave  2245 533 11 11 C 1803.52 76.0979 t 0 r /Helvetica findfont 41.8957 sf 0 0 m (12) show NC gr 
 gsave  2245 533 11 11 C 1750.25 98.9272 t 0 r /Helvetica findfont 64.7479 sf 0 0 m (m) show NC gr  371 236 m -12 Y s 430 230 m -6 Y s 489 230 m -6 Y s 549 230 m -6 Y s 608 230 m -6 Y s 667 236 m -12 Y s 727 230 m -6 Y s 786 230 m -6 Y s 845 230 m -6
 Y s 905 230 m -6 Y s 964 236 m -12 Y s 1023 230 m -6 Y s 1083 230 m -6 Y s 1142 230 m -6 Y s 1201 230 m -6 Y s 1261 236 m -12 Y s 1320 230 m -6 Y s 1379 230 m -6 Y s 1439 230 m -6 Y s 1498 230 m -6 Y s 1557 236 m -12 Y s 1617 230 m -6 Y s 1676 230 m
 -6 Y s 1735 230 m -6 Y s 1795 230 m -6 Y s 1854 236 m -12 Y s 1854 236 m -12 Y s 1913 230 m -6 Y s 1973 230 m -6 Y s
 gsave  2245 533 11 11 C 334.831 171.22 t 0 r /Helvetica findfont 57.1305 sf 0 0 m (50) show NC gr 
 gsave  2245 533 11 11 C 631.612 171.22 t 0 r /Helvetica findfont 57.1305 sf 0 0 m (60) show NC gr 
 gsave  2245 533 11 11 C 928.394 171.22 t 0 r /Helvetica findfont 57.1305 sf 0 0 m (70) show NC gr 
 gsave  2245 533 11 11 C 1225.18 171.22 t 0 r /Helvetica findfont 57.1305 sf 0 0 m (80) show NC gr 
 gsave  2245 533 11 11 C 1521.96 171.22 t 0 r /Helvetica findfont 57.1305 sf 0 0 m (90) show NC gr 
 gsave  2245 533 11 11 C 1803.52 171.22 t 0 r /Helvetica findfont 57.1305 sf 0 0 m (100) show NC gr  371 512 m 1661 X s 371 500 m 12 Y s 430 506 m 6 Y s 489 506 m 6 Y s 549 506 m 6 Y s 608 506 m 6 Y s 667 500 m 12 Y s 727 506 m 6 Y s 786 506 m 6 Y s
 845 506 m 6 Y s 905 506 m 6 Y s 964 500 m 12 Y s 1023 506 m 6 Y s 1083 506 m 6 Y s 1142 506 m 6 Y s 1201 506 m 6 Y s 1261 500 m 12 Y s 1320 506 m 6 Y s 1379 506 m 6 Y s 1439 506 m 6 Y s 1498 506 m 6 Y s 1557 500 m 12 Y s 1617 506 m 6 Y s 1676 506 m
 6 Y s 1735 506 m 6 Y s 1795 506 m 6 Y s 1854 500 m 12 Y s 1854 500 m 12 Y s 1913 506 m 6 Y s 1973 506 m 6 Y s 371 224 m 288 Y s
 gsave  2245 533 11 11 C 156.001 407.124 t 90 r /Helvetica findfont 64.7479 sf 0 0 m (Pull) show NC gr  407 224 m -36 X s 389 242 m -18 X s 389 260 m -18 X s 389 278 m -18 X s 407 296 m -36 X s 389 314 m -18 X s 389 332 m -18 X s 389 350 m -18 X s
 407 368 m -36 X s 389 386 m -18 X s 389 404 m -18 X s 389 422 m -18 X s 407 440 m -36 X s 389 458 m -18 X s 389 476 m -18 X s 389 494 m -18 X s 407 512 m -36 X s
 gsave  2245 533 11 11 C 327.221 201.659 t 0 r /Helvetica findfont 57.1305 sf 0 0 m (4) show NC gr 
 gsave  2245 533 11 11 C 292.977 201.659 t 0 r /Symbol findfont 57.1305 sf 0 0 m (-) show NC gr 
 gsave  2245 533 11 11 C 327.221 273.952 t 0 r /Helvetica findfont 57.1305 sf 0 0 m (2) show NC gr 
 gsave  2245 533 11 11 C 292.977 273.952 t 0 r /Symbol findfont 57.1305 sf 0 0 m (-) show NC gr 
 gsave  2245 533 11 11 C 327.221 346.245 t 0 r /Helvetica findfont 57.1305 sf 0 0 m (0) show NC gr 
 gsave  2245 533 11 11 C 327.221 418.538 t 0 r /Helvetica findfont 57.1305 sf 0 0 m (2) show NC gr 
 gsave  2245 533 11 11 C 327.221 490.831 t 0 r /Helvetica findfont 57.1305 sf 0 0 m (4) show NC gr  2032 224 m 288 Y s 1996 224 m 36 X s 2014 242 m 18 X s 2014 260 m 18 X s 2014 278 m 18 X s 1996 296 m 36 X s 2014 314 m 18 X s 2014 332 m 18 X s 2014
 350 m 18 X s 1996 368 m 36 X s 2014 386 m 18 X s 2014 404 m 18 X s 2014 422 m 18 X s 1996 440 m 36 X s 2014 458 m 18 X s 2014 476 m 18 X s 2014 494 m 18 X s 1996 512 m 36 X s 400 280 m 36 Y s 400 316 m cl s 400 280 m -36 Y s 400 244 m cl s 460 321 m
 36 Y s 460 357 m cl s 460 321 m -36 Y s 460 285 m cl s 519 374 m 36 Y s 519 410 m cl s 519 374 m -36 Y s 519 338 m cl s 578 353 m 36 Y s 578 389 m cl s 578 353 m -36 Y s 578 317 m cl s 638 374 m 36 Y s 638 410 m cl s 638 374 m -35 Y s 638 339 m cl s
 697 399 m 36 Y s 697 435 m cl s 697 399 m -36 Y s 697 363 m cl s 756 369 m 36 Y s 756 405 m cl s 756 369 m -36 Y s 756 333 m cl s 816 395 m 36 Y s 816 431 m cl s 816 395 m -36 Y s 816 359 m cl s 875 235 m 36 Y s 875 271 m cl s 875 235 m -11 Y s 875
 224 m cl s 934 364 m 36 Y s 934 400 m cl s 934 364 m -36 Y s 934 328 m cl s 994 243 m 36 Y s 994 279 m cl s 994 243 m -19 Y s 994 224 m cl s 1053 304 m 36 Y s 1053 340 m cl s 1053 304 m -36 Y s 1053 268 m cl s 1112 336 m 36 Y s 1112 372 m cl s 1112
 336 m -36 Y s 1112 300 m cl s 1172 232 m 36 Y s 1172 268 m cl s 1172 232 m -8 Y s 1172 224 m cl s 1231 402 m 36 Y s 1231 438 m cl s 1231 402 m -36 Y s 1231 366 m cl s 1290 379 m 36 Y s 1290 415 m cl s 1290 379 m -36 Y s 1290 343 m cl s 1350 355 m 36
 Y s 1350 391 m cl s 1350 355 m -36 Y s 1350 319 m cl s 1409 343 m 36 Y s 1409 379 m cl s 1409 343 m -36 Y s 1409 307 m cl s 1468 402 m 36 Y s 1468 438 m cl s 1468 402 m -36 Y s 1468 366 m cl s 1528 340 m 36 Y s 1528 376 m cl s 1528 340 m -36 Y s
 1528 304 m cl s 1587 330 m 36 Y s 1587 366 m cl s 1587 330 m -36 Y s 1587 294 m cl s 1646 342 m 36 Y s 1646 378 m cl s 1646 342 m -36 Y s 1646 306 m cl s 1706 432 m 36 Y s 1706 468 m cl s 1706 432 m -36 Y s 1706 396 m cl s 1765 463 m 36 Y s 1765 499
 m cl s 1765 463 m -36 Y s 1765 427 m cl s 1824 437 m 36 Y s 1824 473 m cl s 1824 437 m -36 Y s 1824 401 m cl s 1884 350 m 36 Y s 1884 386 m cl s 1884 350 m -36 Y s 1884 314 m cl s 1943 325 m 36 Y s 1943 361 m cl s 1943 325 m -36 Y s 1943 289 m cl s
 2002 337 m 36 Y s 2002 373 m cl s 2002 337 m -36 Y s 2002 301 m cl s /w 37 def /w2 {w 2 div} def /w3 {w 3 div} def 400 280 460 321 519 374 578 353 638 374 697 399 756 369 816 395 875 235 934 364 994 243 1053 304 1112 336 1172 232 1231 402 1290 379
 1350 355 1409 343 1468 402 1528 340 1587 330 1646 342 1706 432 1765 463 1824 437 1884 350 1943 325 2002 337 28 { m20} R 371 224 m 1661 X s 371 236 m -12 Y s 430 230 m -6 Y s 489 230 m -6 Y s 549 230 m -6 Y s 608 230 m -6 Y s 667 236 m -12 Y s 727
 230 m -6 Y s 786 230 m -6 Y s 845 230 m -6 Y s 905 230 m -6 Y s 964 236 m -12 Y s 1023 230 m -6 Y s 1083 230 m -6 Y s 1142 230 m -6 Y s 1201 230 m -6 Y s 1261 236 m -12 Y s 1320 230 m -6 Y s 1379 230 m -6 Y s 1439 230 m -6 Y s 1498 230 m -6 Y s 1557
 236 m -12 Y s 1617 230 m -6 Y s 1676 230 m -6 Y s 1735 230 m -6 Y s 1795 230 m -6 Y s 1854 236 m -12 Y s 1854 236 m -12 Y s 1913 230 m -6 Y s 1973 230 m -6 Y s 371 512 m 1661 X s 371 500 m 12 Y s 430 506 m 6 Y s 489 506 m 6 Y s 549 506 m 6 Y s 608
 506 m 6 Y s 667 500 m 12 Y s 727 506 m 6 Y s 786 506 m 6 Y s 845 506 m 6 Y s 905 506 m 6 Y s 964 500 m 12 Y s 1023 506 m 6 Y s 1083 506 m 6 Y s 1142 506 m 6 Y s 1201 506 m 6 Y s 1261 500 m 12 Y s 1320 506 m 6 Y s 1379 506 m 6 Y s 1439 506 m 6 Y s
 1498 506 m 6 Y s 1557 500 m 12 Y s 1617 506 m 6 Y s 1676 506 m 6 Y s 1735 506 m 6 Y s 1795 506 m 6 Y s 1854 500 m 12 Y s 1854 500 m 12 Y s 1913 506 m 6 Y s 1973 506 m 6 Y s 371 224 m 288 Y s 407 224 m -36 X s 389 242 m -18 X s 389 260 m -18 X s 389
 278 m -18 X s 407 296 m -36 X s 389 314 m -18 X s 389 332 m -18 X s 389 350 m -18 X s 407 368 m -36 X s 389 386 m -18 X s 389 404 m -18 X s 389 422 m -18 X s 407 440 m -36 X s 389 458 m -18 X s 389 476 m -18 X s 389 494 m -18 X s 407 512 m -36 X s
 2032 224 m 288 Y s 1996 224 m 36 X s 2014 242 m 18 X s 2014 260 m 18 X s 2014 278 m 18 X s 1996 296 m 36 X s 2014 314 m 18 X s 2014 332 m 18 X s 2014 350 m 18 X s 1996 368 m 36 X s 2014 386 m 18 X s 2014 404 m 18 X s 2014 422 m 18 X s 1996 440 m 36
 X s 2014 458 m 18 X s 2014 476 m 18 X s 2014 494 m 18 X s 1996 512 m 36 X s[  12 12 ] 0 sd 6 lw 371 368 m 1661 X s[  ] 0 sd 3 lw 1 1 1 c 2245 1622 11 544 bf black 1 1 1 c 1661 1507 371 577 bf black 1661 1507 371 577 bl 371 577 m 1661 X s 371 613 m
 -36 Y s 430 595 m -18 Y s 489 595 m -18 Y s 549 595 m -18 Y s 608 595 m -18 Y s 667 613 m -36 Y s 727 595 m -18 Y s 786 595 m -18 Y s 845 595 m -18 Y s 905 595 m -18 Y s 964 613 m -36 Y s 1023 595 m -18 Y s 1083 595 m -18 Y s 1142 595 m -18 Y s 1201
 595 m -18 Y s 1261 613 m -36 Y s 1320 595 m -18 Y s 1379 595 m -18 Y s 1439 595 m -18 Y s 1498 595 m -18 Y s 1557 613 m -36 Y s 1617 595 m -18 Y s 1676 595 m -18 Y s 1735 595 m -18 Y s 1795 595 m -18 Y s 1854 613 m -36 Y s 1854 613 m -36 Y s 1913
 595 m -18 Y s 1973 595 m -18 Y s 371 2084 m 1661 X s 371 2048 m 36 Y s 430 2066 m 18 Y s 489 2066 m 18 Y s 549 2066 m 18 Y s 608 2066 m 18 Y s 667 2048 m 36 Y s 727 2066 m 18 Y s 786 2066 m 18 Y s 845 2066 m 18 Y s 905 2066 m 18 Y s 964 2048 m 36 Y
 s 1023 2066 m 18 Y s 1083 2066 m 18 Y s 1142 2066 m 18 Y s 1201 2066 m 18 Y s 1261 2048 m 36 Y s 1320 2066 m 18 Y s 1379 2066 m 18 Y s 1439 2066 m 18 Y s 1498 2066 m 18 Y s 1557 2048 m 36 Y s 1617 2066 m 18 Y s 1676 2066 m 18 Y s 1735 2066 m 18 Y s
 1795 2066 m 18 Y s 1854 2048 m 36 Y s 1854 2048 m 36 Y s 1913 2066 m 18 Y s 1973 2066 m 18 Y s 371 577 m 1507 Y s
 gsave  2245 1622 11 544 C 152.196 1666.54 t 90 r /Helvetica findfont 64.7045 sf 0 0 m (Events / 2GeV) show NC gr  433 577 m -62 X s 402 637 m -31 X s 402 697 m -31 X s 402 757 m -31 X s 433 817 m -62 X s 402 877 m -31 X s 402 937 m -31 X s 402 997 m
 -31 X s 433 1057 m -62 X s 402 1117 m -31 X s 402 1178 m -31 X s 402 1238 m -31 X s 433 1298 m -62 X s 402 1358 m -31 X s 402 1418 m -31 X s 402 1478 m -31 X s 433 1538 m -62 X s 402 1598 m -31 X s 402 1658 m -31 X s 402 1719 m -31 X s 433 1779 m
 -62 X s 402 1839 m -31 X s 402 1899 m -31 X s 402 1959 m -31 X s 433 2019 m -62 X s 433 2019 m -62 X s 402 2079 m -31 X s
 gsave  2245 1622 11 544 C 327.221 555.514 t 0 r /Helvetica findfont 57.0922 sf 0 0 m (0) show NC gr 
 gsave  2245 1622 11 544 C 262.538 795.223 t 0 r /Helvetica findfont 57.0922 sf 0 0 m (200) show NC gr 
 gsave  2245 1622 11 544 C 262.538 1034.93 t 0 r /Helvetica findfont 57.0922 sf 0 0 m (400) show NC gr 
 gsave  2245 1622 11 544 C 262.538 1278.44 t 0 r /Helvetica findfont 57.0922 sf 0 0 m (600) show NC gr 
 gsave  2245 1622 11 544 C 262.538 1518.15 t 0 r /Helvetica findfont 57.0922 sf 0 0 m (800) show NC gr 
 gsave  2245 1622 11 544 C 232.099 1757.86 t 0 r /Helvetica findfont 57.0922 sf 0 0 m (1000) show NC gr 
 gsave  2245 1622 11 544 C 232.099 1997.57 t 0 r /Helvetica findfont 57.0922 sf 0 0 m (1200) show NC gr  2032 577 m 1507 Y s 1969 577 m 63 X s 2001 637 m 31 X s 2001 697 m 31 X s 2001 757 m 31 X s 1969 817 m 63 X s 2001 877 m 31 X s 2001 937 m 31 X s
 2001 997 m 31 X s 1969 1057 m 63 X s 2001 1117 m 31 X s 2001 1178 m 31 X s 2001 1238 m 31 X s 1969 1298 m 63 X s 2001 1358 m 31 X s 2001 1418 m 31 X s 2001 1478 m 31 X s 1969 1538 m 63 X s 2001 1598 m 31 X s 2001 1658 m 31 X s 2001 1719 m 31 X s
 1969 1779 m 63 X s 2001 1839 m 31 X s 2001 1899 m 31 X s 2001 1959 m 31 X s 1969 2019 m 63 X s 1969 2019 m 63 X s 2001 2079 m 31 X s 400 661 m -29 X s 371 661 m cl s 400 661 m 30 X s 430 661 m cl s 400 661 m 1 Y s 400 662 m cl s 400 661 m -2 Y s 400
 659 m cl s 460 667 m -30 X s 430 667 m cl s 460 667 m 29 X s 489 667 m cl s 460 667 m 1 Y s 460 668 m cl s 460 667 m -2 Y s 460 665 m cl s 519 673 m -30 X s 489 673 m cl s 519 673 m 30 X s 549 673 m cl s 519 673 m 1 Y s 519 674 m cl s 519 673 m -1 Y
 s 519 672 m cl s 578 676 m -29 X s 549 676 m cl s 578 676 m 30 X s 608 676 m cl s 578 676 m 2 Y s 578 678 m cl s 578 676 m -1 Y s 578 675 m cl s 638 681 m -30 X s 608 681 m cl s 638 681 m 29 X s 667 681 m cl s 638 681 m 2 Y s 638 683 m cl s 638 681
 m -2 Y s 638 679 m cl s 697 697 m -30 X s 667 697 m cl s 697 697 m 30 X s 727 697 m cl s 697 697 m 14 Y s 697 711 m cl s 697 697 m -14 Y s 697 683 m cl s 756 688 m -29 X s 727 688 m cl s 756 688 m 30 X s 786 688 m cl s 756 688 m 2 Y s 756 690 m cl s
 756 688 m -2 Y s 756 686 m cl s 816 693 m -30 X s 786 693 m cl s 816 693 m 29 X s 845 693 m cl s 816 693 m 2 Y s 816 695 m cl s 816 693 m -3 Y s 816 690 m cl s 875 688 m -30 X s 845 688 m cl s 875 688 m 30 X s 905 688 m cl s 875 688 m 2 Y s 875 690
 m cl s 875 688 m -1 Y s 875 687 m cl s 934 696 m -29 X s 905 696 m cl s 934 696 m 30 X s 964 696 m cl s 934 696 m 3 Y s 934 699 m cl s 934 696 m -3 Y s 934 693 m cl s 994 694 m -30 X s 964 694 m cl s 994 694 m 29 X s 1023 694 m cl s 994 694 m 1 Y s
 994 695 m cl s 994 694 m -1 Y s 994 693 m cl s 1053 700 m -30 X s 1023 700 m cl s 1053 700 m 30 X s 1083 700 m cl s 1053 700 m 1 Y s 1053 701 m cl s 1053 700 m -2 Y s 1053 698 m cl s 1112 705 m -29 X s 1083 705 m cl s 1112 705 m 30 X s 1142 705 m cl
 s 1112 705 m 2 Y s 1112 707 m cl s 1112 705 m -2 Y s 1112 703 m cl s 1172 706 m -30 X s 1142 706 m cl s 1172 706 m 29 X s 1201 706 m cl s 1172 706 m 2 Y s 1172 708 m cl s 1172 706 m -2 Y s 1172 704 m cl s 1231 726 m -30 X s 1201 726 m cl s 1231 726
 m 30 X s 1261 726 m cl s 1231 726 m 3 Y s 1231 729 m cl s 1231 726 m -4 Y s 1231 722 m cl s 1290 740 m -29 X s 1261 740 m cl s 1290 740 m 30 X s 1320 740 m cl s 1290 740 m 4 Y s 1290 744 m cl s 1290 740 m -3 Y s 1290 737 m cl s 1350 770 m -30 X s
 1320 770 m cl s 1350 770 m 29 X s 1379 770 m cl s 1350 770 m 4 Y s 1350 774 m cl s 1350 770 m -4 Y s 1350 766 m cl s 1409 837 m -30 X s 1379 837 m cl s 1409 837 m 30 X s 1439 837 m cl s 1409 837 m 4 Y s 1409 841 m cl s 1409 837 m -5 Y s 1409 832 m
 cl s 1468 1013 m -29 X s 1439 1013 m cl s 1468 1013 m 30 X s 1498 1013 m cl s 1468 1013 m 9 Y s 1468 1022 m cl s 1468 1013 m -9 Y s 1468 1004 m cl s 1528 1327 m -30 X s 1498 1327 m cl s 1528 1327 m 29 X s 1557 1327 m cl s 1528 1327 m 10 Y s 1528
 1337 m cl s 1528 1327 m -11 Y s 1528 1316 m cl s 1587 1514 m -30 X s 1557 1514 m cl s 1587 1514 m 30 X s 1617 1514 m cl s 1587 1514 m 17 Y s 1587 1531 m cl s 1587 1514 m -17 Y s 1587 1497 m cl s 1646 1221 m -29 X s 1617 1221 m cl s 1646 1221 m 30 X
 s 1676 1221 m cl s 1646 1221 m 10 Y s 1646 1231 m cl s 1646 1221 m -10 Y s 1646 1211 m cl s 1706 904 m -30 X s 1676 904 m cl s 1706 904 m 29 X s 1735 904 m cl s 1706 904 m 8 Y s 1706 912 m cl s 1706 904 m -9 Y s 1706 895 m cl s 1765 758 m -30 X s
 1735 758 m cl s 1765 758 m 30 X s 1795 758 m cl s 1765 758 m 4 Y s 1765 762 m cl s 1765 758 m -4 Y s 1765 754 m cl s 1824 705 m -29 X s 1795 705 m cl s 1824 705 m 30 X s 1854 705 m cl s 1824 705 m 4 Y s 1824 709 m cl s 1824 705 m -3 Y s 1824 702 m
 cl s 1884 675 m -30 X s 1854 675 m cl s 1884 675 m 29 X s 1913 675 m cl s 1884 675 m 2 Y s 1884 677 m cl s 1884 675 m -3 Y s 1884 672 m cl s 1943 661 m -30 X s 1913 661 m cl s 1943 661 m 30 X s 1973 661 m cl s 1943 661 m 1 Y s 1943 662 m cl s 1943
 661 m -1 Y s 1943 660 m cl s 2002 650 m -29 X s 1973 650 m cl s 2002 650 m 30 X s 2032 650 m cl s 2002 650 m 1 Y s 2002 651 m cl s 2002 650 m -1 Y s 2002 649 m cl s 400 661 460 667 519 673 578 676 638 681 697 697 756 688 816 693 875 688 934 696 994
 694 1053 700 1112 705 1172 706 1231 726 1290 740 1350 770 1409 837 1468 1013 1528 1327 1587 1514 1646 1221 1706 904 1765 758 1824 705 1884 675 1943 661 2002 650 28 { m20} R 0.8 0 0 c 9 lw black 0.8 0 0 c 371 661 m cl s 371 661 m 59 5 d 59 5 d 60 4 d
 59 4 d 59 4 d 60 3 d 59 3 d 59 3 d 60 3 d 59 2 d 59 3 d 60 4 d 59 5 d 59 8 d 30 5 d 30 8 d 29 9 d 30 14 d 15 8 d 15 10 d 14 13 d 15 15 d 15 18 d 15 23 d 15 28 d 7 17 d 8 19 d 7 21 d 7 24 d 8 26 d 7 29 d 8 33 d 7 36 d 7 39 d 8 41 d 15 90 d 15 92 d 7
 43 d 7 41 d 8 36 d 7 31 d 4 13 d 4 11 d 3 9 d 4 7 d 4 6 d 3 2 d 4 X 4 -2 d 4 -5 d 3 -7 d 4 -10 d 4 -12 d 3 -15 d 4 -16 d 4 -19 d 4 -20 d 3 -22 d 4 -24 d 7 -48 d 15 -106 d 15 -103 d 7 -47 d 8 -46 d 7 -41 d 8 -38 d 7 -34 d 8 -30 d 7 -27 d 7 -24 d 8
 -21 d 7 -18 d 8 -16 d 7 -14 d 15 -22 d 15 -17 d 15 -13 d 14 -10 d 15 -9 d 30 -12 d 30 -10 d 29 -8 d 60 -12 d 59 -10 d s 0 1 0 c[  12 12 ] 0 sd black 0 1 0 c 371 577 m cl s 371 577 m 919 X 30 1 d 59 X 15 1 d 15 X 15 1 d 22 X 7 1 d 8 X 7 1 d 8 X 7 1 d
 7 X 8 1 d 30 3 d 7 1 d 7 X 8 1 d 22 X 4 1 d 3 X 4 -1 d 22 X 4 -1 d 8 X 7 -1 d 7 X 15 -2 d 15 -1 d 7 -1 d 8 -1 d 7 X 8 -1 d 7 X 8 -1 d 7 X 7 -1 d 15 X 8 -1 d 37 X 15 -1 d 237 X s 0.2 0.4 0.2 c black 0.2 0.4 0.2 c 371 578 m cl s 371 578 m 59 X 59 1 d
 119 X 59 1 d 60 1 d 59 1 d 59 1 d 60 2 d 59 2 d 59 2 d 60 4 d 59 5 d 59 8 d 30 6 d 30 8 d 29 9 d 30 14 d 15 8 d 15 10 d 14 13 d 15 14 d 15 18 d 15 22 d 15 28 d 7 16 d 8 18 d 7 20 d 7 22 d 8 25 d 7 28 d 8 31 d 7 33 d 7 37 d 8 38 d 30 164 d 7 38 d 7
 35 d 8 29 d 7 24 d 4 9 d 4 8 d 3 5 d 4 4 d 4 3 d 3 X 4 -2 d 4 -4 d 4 -6 d 3 -7 d 4 -9 d 4 -11 d 3 -13 d 4 -14 d 8 -32 d 7 -38 d 7 -39 d 15 -87 d 15 -87 d 7 -41 d 8 -40 d 7 -36 d 8 -34 d 7 -31 d 8 -27 d 7 -25 d 7 -21 d 8 -19 d 7 -17 d 8 -14 d 7 -12 d
 15 -20 d 15 -14 d 15 -11 d 14 -9 d 15 -6 d 30 -10 d 30 -6 d 29 -5 d 60 -6 d 59 -3 d s 1 0.8 0.2 c black 1 0.8 0.2 c 371 657 m cl s 371 657 m 59 5 d 59 4 d 60 4 d 59 3 d 59 3 d 60 3 d 59 2 d 59 2 d 60 1 d 59 1 d 59 1 d 119 X 59 -1 d 60 -1 d 59 -1 d
 59 -2 d 60 -2 d 59 -3 d 59 -3 d 60 -3 d 59 -4 d 59 -4 d 60 -5 d 59 -5 d 59 -5 d 60 -6 d 59 -6 d s 0 0 1 c black 0 0 1 c 371 579 m cl s 371 579 m 118 X 60 1 d 178 X 59 -1 d 178 X 59 -1 d 238 X 59 1 d 30 1 d 29 1 d 15 1 d 15 X 15 2 d 15 1 d 14 2 d 8 1
 d 7 2 d 8 2 d 7 2 d 7 2 d 8 3 d 7 3 d 4 2 d 4 1 d 7 5 d 4 2 d 4 3 d 3 2 d 4 3 d 7 6 d 8 7 d 7 7 d 8 7 d 7 7 d 4 3 d 3 3 d 4 2 d 4 1 d 4 2 d 7 X 4 -1 d 3 -1 d 4 -2 d 4 -2 d 4 -3 d 3 -4 d 4 -4 d 7 -8 d 4 -4 d 4 -4 d 2 -2 d 1 -2 d 4 -4 d 8 -7 d 3 -4 d
 4 -3 d 4 -2 d 3 -3 d 4 -2 d 4 -2 d 4 -2 d 3 -2 d 4 -1 d 4 -2 d 7 -2 d 8 -2 d 7 -2 d 7 -1 d 15 -2 d 15 -2 d 15 -1 d 15 -1 d 15 X 29 -1 d 30 -1 d 59 -1 d 60 X 59 -1 d s black[  ] 0 sd 3 lw 371 577 m 1661 X s 371 613 m -36 Y s 430 595 m -18 Y s 489 595
 m -18 Y s 549 595 m -18 Y s 608 595 m -18 Y s 667 613 m -36 Y s 727 595 m -18 Y s 786 595 m -18 Y s 845 595 m -18 Y s 905 595 m -18 Y s 964 613 m -36 Y s 1023 595 m -18 Y s 1083 595 m -18 Y s 1142 595 m -18 Y s 1201 595 m -18 Y s 1261 613 m -36 Y s
 1320 595 m -18 Y s 1379 595 m -18 Y s 1439 595 m -18 Y s 1498 595 m -18 Y s 1557 613 m -36 Y s 1617 595 m -18 Y s 1676 595 m -18 Y s 1735 595 m -18 Y s 1795 595 m -18 Y s 1854 613 m -36 Y s 1854 613 m -36 Y s 1913 595 m -18 Y s 1973 595 m -18 Y s
 371 2084 m 1661 X s 371 2048 m 36 Y s 430 2066 m 18 Y s 489 2066 m 18 Y s 549 2066 m 18 Y s 608 2066 m 18 Y s 667 2048 m 36 Y s 727 2066 m 18 Y s 786 2066 m 18 Y s 845 2066 m 18 Y s 905 2066 m 18 Y s 964 2048 m 36 Y s 1023 2066 m 18 Y s 1083 2066 m
 18 Y s 1142 2066 m 18 Y s 1201 2066 m 18 Y s 1261 2048 m 36 Y s 1320 2066 m 18 Y s 1379 2066 m 18 Y s 1439 2066 m 18 Y s 1498 2066 m 18 Y s 1557 2048 m 36 Y s 1617 2066 m 18 Y s 1676 2066 m 18 Y s 1735 2066 m 18 Y s 1795 2066 m 18 Y s 1854 2048 m 36
 Y s 1854 2048 m 36 Y s 1913 2066 m 18 Y s 1973 2066 m 18 Y s 371 577 m 1507 Y s 433 577 m -62 X s 402 637 m -31 X s 402 697 m -31 X s 402 757 m -31 X s 433 817 m -62 X s 402 877 m -31 X s 402 937 m -31 X s 402 997 m -31 X s 433 1057 m -62 X s 402
 1117 m -31 X s 402 1178 m -31 X s 402 1238 m -31 X s 433 1298 m -62 X s 402 1358 m -31 X s 402 1418 m -31 X s 402 1478 m -31 X s 433 1538 m -62 X s 402 1598 m -31 X s 402 1658 m -31 X s 402 1719 m -31 X s 433 1779 m -62 X s 402 1839 m -31 X s 402
 1899 m -31 X s 402 1959 m -31 X s 433 2019 m -62 X s 433 2019 m -62 X s 402 2079 m -31 X s 2032 577 m 1507 Y s 1969 577 m 63 X s 2001 637 m 31 X s 2001 697 m 31 X s 2001 757 m 31 X s 1969 817 m 63 X s 2001 877 m 31 X s 2001 937 m 31 X s 2001 997 m
 31 X s 1969 1057 m 63 X s 2001 1117 m 31 X s 2001 1178 m 31 X s 2001 1238 m 31 X s 1969 1298 m 63 X s 2001 1358 m 31 X s 2001 1418 m 31 X s 2001 1478 m 31 X s 1969 1538 m 63 X s 2001 1598 m 31 X s 2001 1658 m 31 X s 2001 1719 m 31 X s 1969 1779 m 63
 X s 2001 1839 m 31 X s 2001 1899 m 31 X s 2001 1959 m 31 X s 1969 2019 m 63 X s 1969 2019 m 63 X s 2001 2079 m 31 X s 1 1 1 c black
 gsave  2245 1622 11 544 C 662.051 1989.96 t 0 r /Helvetica findfont 60.8983 sf 0 0 m ( Internal) show NC gr 
 gsave  2245 1622 11 544 C 452.782 1989.96 t 0 r /Helvetica-BoldOblique findfont 60.8983 sf 0 0 m (ATLAS) show NC gr 
 gsave  2245 1622 11 544 C 452.782 1902.45 t 0 r /Helvetica findfont 60.8983 sf 0 0 m (data 2015\25518 + mc16a,d,e) show NC gr 
 gsave  2245 1622 11 544 C 1034.93 1818.74 t 0 r /Helvetica findfont 41.8676 sf 0 0 m (\2551) show NC gr 
 gsave  2245 1622 11 544 C 513.661 1792.1 t 0 r /Helvetica findfont 60.8983 sf 0 0 m (=13 TeV, 138.97 fb) show NC gr 
 gsave  2245 1622 11 544 C 483.221 1792.1 t 0 r /Helvetica findfont 60.8983 sf 0 0 m (s) show NC gr  6 lw 464 1826 m 8 -38 d s 3 lw 472 1788 m 4 57 d s 476 1845 m 38 X s
 gsave  2245 1622 11 544 C 745.759 1712.2 t 0 r /Helvetica findfont 60.8983 sf 0 0 m ( CR) show NC gr 
 gsave  2245 1622 11 544 C 722.93 1689.37 t 0 r /Helvetica findfont 41.8676 sf 0 0 m (0) show NC gr 
 gsave  2245 1622 11 544 C 452.782 1712.2 t 0 r /Helvetica findfont 60.8983 sf 0 0 m (Inverted d) show NC gr  1 1 1 c 718 438 1269 1598 bl 1269 1598 m 718 X s 1987 1598 m 438 Y s 1987 2036 m -718 X s 1269 2036 m -438 Y s black
 gsave  2245 1622 11 544 C 1445.86 1986.15 t 0 r /Helvetica findfont 60.8983 sf 0 0 m (MC Data) show NC gr  1296 1999 m 125 X s 1358 1977 m 44 Y s 1358 1999 m20
 gsave  2245 1622 11 544 C 1445.86 1910.06 t 0 r /Helvetica findfont 60.8983 sf 0 0 m (Total BG) show NC gr  0.8 0 0 c 9 lw 1296 1926 m 125 X s black
 gsave  2245 1622 11 544 C 1445.86 1837.76 t 0 r /Helvetica findfont 60.8983 sf 0 0 m (Z+LFjets) show NC gr  0 1 0 c[  12 12 ] 0 sd 1296 1853 m 125 X s black
 gsave  2245 1622 11 544 C 1445.86 1765.47 t 0 r /Helvetica findfont 60.8983 sf 0 0 m (Z+HFjets) show NC gr  0.2 0.4 0.2 c 1296 1780 m 125 X s black
 gsave  2245 1622 11 544 C 1464.88 1693.18 t 0 r /Helvetica findfont 60.8983 sf 0 0 m (t) show NC gr [  ] 0 sd 3 lw 1465 1743 m 19 X s
 gsave  2245 1622 11 544 C 1445.86 1693.18 t 0 r /Helvetica findfont 60.8983 sf 0 0 m (t) show NC gr  1 0.8 0.2 c[  12 12 ] 0 sd 9 lw 1296 1707 m 125 X s black
 gsave  2245 1622 11 544 C 1445.86 1620.88 t 0 r /Helvetica findfont 60.8983 sf 0 0 m (Diboson) show NC gr  0 0 1 c 1296 1635 m 125 X s
 gr  gr showpage
end
%%EOF
