%!PS-Adobe-2.0 EPSF-2.0
%%BoundingBox:  0 0 567 544
%%Title: Results/M1MC_ss.eps: Region: ss
%%Creator: ROOT Version 6.08/06
%%CreationDate: Sun Oct 13 15:24:42 2019
%%DocumentNeededResources: ProcSet (FontSetInit)
%%EndComments
%%BeginProlog
80 dict begin
/s {stroke} def /l {lineto} def /m {moveto} def /t {translate} def
/r {rotate} def /rl {roll}  def /R {repeat} def
/d {rlineto} def /rm {rmoveto} def /gr {grestore} def /f {eofill} def
/c {setrgbcolor} def /black {0 setgray} def /sd {setdash} def
/cl {closepath} def /sf {scalefont setfont} def /lw {setlinewidth} def
/box {m dup 0 exch d exch 0 d 0 exch neg d cl} def
/NC{systemdict begin initclip end}def/C{NC box clip newpath}def
/bl {box s} def /bf {gsave box gsave f grestore 1 lw [] 0 sd s grestore} def /Y { 0 exch d} def /X { 0 d} def 
/K {{pop pop 0 moveto} exch kshow} bind def
/ita {/ang 15 def gsave [1 0 ang dup sin exch cos div 1 0 0] concat} def 
/mp {newpath /y exch def /x exch def} def
/side {[w .77 mul w .23 mul] .385 w mul sd w 0 l currentpoint t -144 r} def
/mr {mp x y w2 0 360 arc} def /m24 {mr s} def /m20 {mr f} def
/mb {mp x y w2 add m w2 neg 0 d 0 w neg d w 0 d 0 w d cl} def
/mt {mp x y w2 add m w2 neg w neg d w 0 d cl} def
/m21 {mb f} def /m25 {mb s} def /m22 {mt f} def /m26{mt s} def
/m23 {mp x y w2 sub m w2 w d w neg 0 d cl f} def
/m27 {mp x y w2 add m w3 neg w2 neg d w3 w2 neg d w3 w2 d cl s} def
/m28 {mp x w2 sub y w2 sub w3 add m w3 0 d  0 w3 neg d w3 0 d 0 w3 d w3 0 d  0 w3 d w3 neg 0 d 0 w3 d w3 neg 0 d 0 w3 neg d w3 neg 0 d cl s } def
/m29 {mp gsave x w2 sub y w2 add w3 sub m currentpoint t 4 {side} repeat cl fill gr} def
/m30 {mp gsave x w2 sub y w2 add w3 sub m currentpoint t 4 {side} repeat cl s gr} def
/m31 {mp x y w2 sub m 0 w d x w2 sub y m w 0 d x w2 sub y w2 add m w w neg d x w2 sub y w2 sub m w w d s} def
/m32 {mp x y w2 sub m w2 w d w neg 0 d cl s} def
/m33 {mp x y w2 add m w3 neg w2 neg d w3 w2 neg d w3 w2 d cl f} def
/m34 {mp x w2 sub y w2 sub w3 add m w3 0 d  0 w3 neg d w3 0 d 0 w3 d w3 0 d  0 w3 d w3 neg 0 d 0 w3 d w3 neg 0 d 0 w3 neg d w3 neg 0 d cl f } def
/m2 {mp x y w2 sub m 0 w d x w2 sub y m w 0 d s} def
/m5 {mp x w2 sub y w2 sub m w w d x w2 sub y w2 add m w w neg d s} def
%%IncludeResource: ProcSet (FontSetInit)
%%IncludeResource: font Times-Roman
%%IncludeResource: font Times-Italic
%%IncludeResource: font Times-Bold
%%IncludeResource: font Times-BoldItalic
%%IncludeResource: font Helvetica
%%IncludeResource: font Helvetica-Oblique
%%IncludeResource: font Helvetica-Bold
%%IncludeResource: font Helvetica-BoldOblique
%%IncludeResource: font Courier
%%IncludeResource: font Courier-Oblique
%%IncludeResource: font Courier-Bold
%%IncludeResource: font Courier-BoldOblique
%%IncludeResource: font Symbol
%%IncludeResource: font ZapfDingbats
/reEncode {exch findfont dup length dict begin {1 index /FID eq  {pop pop} {def} ifelse } forall /Encoding exch def currentdict end dup /FontName get exch definefont pop } def [/Times-Bold /Times-Italic /Times-BoldItalic /Helvetica /Helvetica-Oblique
 /Helvetica-Bold /Helvetica-BoldOblique /Courier /Courier-Oblique /Courier-Bold /Courier-BoldOblique /Times-Roman /AvantGarde-Book /AvantGarde-BookOblique /AvantGarde-Demi /AvantGarde-DemiOblique /Bookman-Demi /Bookman-DemiItalic /Bookman-Light
 /Bookman-LightItalic /Helvetica-Narrow /Helvetica-Narrow-Bold /Helvetica-Narrow-BoldOblique /Helvetica-Narrow-Oblique /NewCenturySchlbk-Roman /NewCenturySchlbk-Bold /NewCenturySchlbk-BoldItalic /NewCenturySchlbk-Italic /Palatino-Bold
 /Palatino-BoldItalic /Palatino-Italic /Palatino-Roman ] {ISOLatin1Encoding reEncode } forall
%%EndProlog
%%BeginSetup
%%EndSetup
newpath  gsave  .25 .25 scale  gsave  0 0 t black[  ] 0 sd 3 lw 1 1 1 c 2268 2176 0 0 bf black 1 1 1 c 2245 533 11 11 bf black 1 1 1 c 1661 288 371 224 bf black 1661 288 371 224 bl 371 224 m 1661 X s 371 512 m 1661 X s 371 224 m 288 Y s[ 4 8] 0 sd
 2032 224 m -1661 X s 2032 296 m -1661 X s 2032 368 m -1661 X s 2032 440 m -1661 X s 2032 512 m -1661 X s[  ] 0 sd 2032 224 m 288 Y s 371 224 m 1661 X s
 gsave  2245 533 11 11 C 1849.18 98.9272 t 0 r /Helvetica findfont 64.7479 sf 0 0 m ( [GeV]) show NC gr 
 gsave  2245 533 11 11 C 1803.52 76.0979 t 0 r /Helvetica findfont 41.8957 sf 0 0 m (12) show NC gr 
 gsave  2245 533 11 11 C 1750.25 98.9272 t 0 r /Helvetica findfont 64.7479 sf 0 0 m (m) show NC gr  371 236 m -12 Y s 430 230 m -6 Y s 489 230 m -6 Y s 549 230 m -6 Y s 608 230 m -6 Y s 667 236 m -12 Y s 727 230 m -6 Y s 786 230 m -6 Y s 845 230 m -6
 Y s 905 230 m -6 Y s 964 236 m -12 Y s 1023 230 m -6 Y s 1083 230 m -6 Y s 1142 230 m -6 Y s 1201 230 m -6 Y s 1261 236 m -12 Y s 1320 230 m -6 Y s 1379 230 m -6 Y s 1439 230 m -6 Y s 1498 230 m -6 Y s 1557 236 m -12 Y s 1617 230 m -6 Y s 1676 230 m
 -6 Y s 1735 230 m -6 Y s 1795 230 m -6 Y s 1854 236 m -12 Y s 1854 236 m -12 Y s 1913 230 m -6 Y s 1973 230 m -6 Y s
 gsave  2245 533 11 11 C 334.831 171.22 t 0 r /Helvetica findfont 57.1305 sf 0 0 m (50) show NC gr 
 gsave  2245 533 11 11 C 631.612 171.22 t 0 r /Helvetica findfont 57.1305 sf 0 0 m (60) show NC gr 
 gsave  2245 533 11 11 C 928.394 171.22 t 0 r /Helvetica findfont 57.1305 sf 0 0 m (70) show NC gr 
 gsave  2245 533 11 11 C 1225.18 171.22 t 0 r /Helvetica findfont 57.1305 sf 0 0 m (80) show NC gr 
 gsave  2245 533 11 11 C 1521.96 171.22 t 0 r /Helvetica findfont 57.1305 sf 0 0 m (90) show NC gr 
 gsave  2245 533 11 11 C 1803.52 171.22 t 0 r /Helvetica findfont 57.1305 sf 0 0 m (100) show NC gr  371 512 m 1661 X s 371 500 m 12 Y s 430 506 m 6 Y s 489 506 m 6 Y s 549 506 m 6 Y s 608 506 m 6 Y s 667 500 m 12 Y s 727 506 m 6 Y s 786 506 m 6 Y s
 845 506 m 6 Y s 905 506 m 6 Y s 964 500 m 12 Y s 1023 506 m 6 Y s 1083 506 m 6 Y s 1142 506 m 6 Y s 1201 506 m 6 Y s 1261 500 m 12 Y s 1320 506 m 6 Y s 1379 506 m 6 Y s 1439 506 m 6 Y s 1498 506 m 6 Y s 1557 500 m 12 Y s 1617 506 m 6 Y s 1676 506 m
 6 Y s 1735 506 m 6 Y s 1795 506 m 6 Y s 1854 500 m 12 Y s 1854 500 m 12 Y s 1913 506 m 6 Y s 1973 506 m 6 Y s 371 224 m 288 Y s
 gsave  2245 533 11 11 C 156.001 407.124 t 90 r /Helvetica findfont 64.7479 sf 0 0 m (Pull) show NC gr  407 224 m -36 X s 389 242 m -18 X s 389 260 m -18 X s 389 278 m -18 X s 407 296 m -36 X s 389 314 m -18 X s 389 332 m -18 X s 389 350 m -18 X s
 407 368 m -36 X s 389 386 m -18 X s 389 404 m -18 X s 389 422 m -18 X s 407 440 m -36 X s 389 458 m -18 X s 389 476 m -18 X s 389 494 m -18 X s 407 512 m -36 X s
 gsave  2245 533 11 11 C 327.221 201.659 t 0 r /Helvetica findfont 57.1305 sf 0 0 m (4) show NC gr 
 gsave  2245 533 11 11 C 292.977 201.659 t 0 r /Symbol findfont 57.1305 sf 0 0 m (-) show NC gr 
 gsave  2245 533 11 11 C 327.221 273.952 t 0 r /Helvetica findfont 57.1305 sf 0 0 m (2) show NC gr 
 gsave  2245 533 11 11 C 292.977 273.952 t 0 r /Symbol findfont 57.1305 sf 0 0 m (-) show NC gr 
 gsave  2245 533 11 11 C 327.221 346.245 t 0 r /Helvetica findfont 57.1305 sf 0 0 m (0) show NC gr 
 gsave  2245 533 11 11 C 327.221 418.538 t 0 r /Helvetica findfont 57.1305 sf 0 0 m (2) show NC gr 
 gsave  2245 533 11 11 C 327.221 490.831 t 0 r /Helvetica findfont 57.1305 sf 0 0 m (4) show NC gr  2032 224 m 288 Y s 1996 224 m 36 X s 2014 242 m 18 X s 2014 260 m 18 X s 2014 278 m 18 X s 1996 296 m 36 X s 2014 314 m 18 X s 2014 332 m 18 X s 2014
 350 m 18 X s 1996 368 m 36 X s 2014 386 m 18 X s 2014 404 m 18 X s 2014 422 m 18 X s 1996 440 m 36 X s 2014 458 m 18 X s 2014 476 m 18 X s 2014 494 m 18 X s 1996 512 m 36 X s 400 350 m 36 Y s 400 386 m cl s 400 350 m -36 Y s 400 314 m cl s 460 370 m
 36 Y s 460 406 m cl s 460 370 m -36 Y s 460 334 m cl s 519 341 m 36 Y s 519 377 m cl s 519 341 m -36 Y s 519 305 m cl s 578 398 m 36 Y s 578 434 m cl s 578 398 m -36 Y s 578 362 m cl s 638 404 m 36 Y s 638 440 m cl s 638 404 m -36 Y s 638 368 m cl s
 697 283 m 36 Y s 697 319 m cl s 697 283 m -36 Y s 697 247 m cl s 756 360 m 36 Y s 756 396 m cl s 756 360 m -36 Y s 756 324 m cl s 816 417 m 36 Y s 816 453 m cl s 816 417 m -36 Y s 816 381 m cl s 875 371 m 36 Y s 875 407 m cl s 875 371 m -36 Y s 875
 335 m cl s 934 391 m 36 Y s 934 427 m cl s 934 391 m -36 Y s 934 355 m cl s 994 381 m 36 Y s 994 417 m cl s 994 381 m -36 Y s 994 345 m cl s 1053 325 m 36 Y s 1053 361 m cl s 1053 325 m -36 Y s 1053 289 m cl s 1112 411 m 36 Y s 1112 447 m cl s 1112
 411 m -36 Y s 1112 375 m cl s 1172 358 m 36 Y s 1172 394 m cl s 1172 358 m -36 Y s 1172 322 m cl s 1231 264 m 36 Y s 1231 300 m cl s 1231 264 m -36 Y s 1231 228 m cl s 1290 319 m 36 Y s 1290 355 m cl s 1290 319 m -36 Y s 1290 283 m cl s 1350 309 m
 36 Y s 1350 345 m cl s 1350 309 m -36 Y s 1350 273 m cl s 1409 389 m 36 Y s 1409 425 m cl s 1409 389 m -36 Y s 1409 353 m cl s 1468 399 m 36 Y s 1468 435 m cl s 1468 399 m -36 Y s 1468 363 m cl s 1528 367 m 36 Y s 1528 403 m cl s 1528 367 m -36 Y s
 1528 331 m cl s 1587 349 m 36 Y s 1587 385 m cl s 1587 349 m -36 Y s 1587 313 m cl s 1646 332 m 36 Y s 1646 368 m cl s 1646 332 m -36 Y s 1646 296 m cl s 1706 402 m 36 Y s 1706 438 m cl s 1706 402 m -36 Y s 1706 366 m cl s 1765 353 m 36 Y s 1765 389
 m cl s 1765 353 m -36 Y s 1765 317 m cl s 1824 402 m 36 Y s 1824 438 m cl s 1824 402 m -36 Y s 1824 366 m cl s 1884 351 m 36 Y s 1884 387 m cl s 1884 351 m -36 Y s 1884 315 m cl s 2002 370 m 36 Y s 2002 406 m cl s 2002 370 m -36 Y s 2002 334 m cl s
 /w 37 def /w2 {w 2 div} def /w3 {w 3 div} def 400 350 460 370 519 341 578 398 638 404 697 283 756 360 816 417 875 371 934 391 994 381 1053 325 1112 411 1172 358 1231 264 1290 319 1350 309 1409 389 1468 399 1528 367 1587 349 1646 332 1706 402 1765
 353 1824 402 1884 351 26 { m20} R 2002 370 m20 371 224 m 1661 X s 371 236 m -12 Y s 430 230 m -6 Y s 489 230 m -6 Y s 549 230 m -6 Y s 608 230 m -6 Y s 667 236 m -12 Y s 727 230 m -6 Y s 786 230 m -6 Y s 845 230 m -6 Y s 905 230 m -6 Y s 964 236 m
 -12 Y s 1023 230 m -6 Y s 1083 230 m -6 Y s 1142 230 m -6 Y s 1201 230 m -6 Y s 1261 236 m -12 Y s 1320 230 m -6 Y s 1379 230 m -6 Y s 1439 230 m -6 Y s 1498 230 m -6 Y s 1557 236 m -12 Y s 1617 230 m -6 Y s 1676 230 m -6 Y s 1735 230 m -6 Y s 1795
 230 m -6 Y s 1854 236 m -12 Y s 1854 236 m -12 Y s 1913 230 m -6 Y s 1973 230 m -6 Y s 371 512 m 1661 X s 371 500 m 12 Y s 430 506 m 6 Y s 489 506 m 6 Y s 549 506 m 6 Y s 608 506 m 6 Y s 667 500 m 12 Y s 727 506 m 6 Y s 786 506 m 6 Y s 845 506 m 6 Y
 s 905 506 m 6 Y s 964 500 m 12 Y s 1023 506 m 6 Y s 1083 506 m 6 Y s 1142 506 m 6 Y s 1201 506 m 6 Y s 1261 500 m 12 Y s 1320 506 m 6 Y s 1379 506 m 6 Y s 1439 506 m 6 Y s 1498 506 m 6 Y s 1557 500 m 12 Y s 1617 506 m 6 Y s 1676 506 m 6 Y s 1735 506
 m 6 Y s 1795 506 m 6 Y s 1854 500 m 12 Y s 1854 500 m 12 Y s 1913 506 m 6 Y s 1973 506 m 6 Y s 371 224 m 288 Y s 407 224 m -36 X s 389 242 m -18 X s 389 260 m -18 X s 389 278 m -18 X s 407 296 m -36 X s 389 314 m -18 X s 389 332 m -18 X s 389 350 m
 -18 X s 407 368 m -36 X s 389 386 m -18 X s 389 404 m -18 X s 389 422 m -18 X s 407 440 m -36 X s 389 458 m -18 X s 389 476 m -18 X s 389 494 m -18 X s 407 512 m -36 X s 2032 224 m 288 Y s 1996 224 m 36 X s 2014 242 m 18 X s 2014 260 m 18 X s 2014
 278 m 18 X s 1996 296 m 36 X s 2014 314 m 18 X s 2014 332 m 18 X s 2014 350 m 18 X s 1996 368 m 36 X s 2014 386 m 18 X s 2014 404 m 18 X s 2014 422 m 18 X s 1996 440 m 36 X s 2014 458 m 18 X s 2014 476 m 18 X s 2014 494 m 18 X s 1996 512 m 36 X s[ 
 12 12 ] 0 sd 6 lw 371 368 m 1661 X s[  ] 0 sd 3 lw 1 1 1 c 2245 1622 11 544 bf black 1 1 1 c 1661 1507 371 577 bf black 1661 1507 371 577 bl 371 577 m 1661 X s 371 613 m -36 Y s 430 595 m -18 Y s 489 595 m -18 Y s 549 595 m -18 Y s 608 595 m -18 Y s
 667 613 m -36 Y s 727 595 m -18 Y s 786 595 m -18 Y s 845 595 m -18 Y s 905 595 m -18 Y s 964 613 m -36 Y s 1023 595 m -18 Y s 1083 595 m -18 Y s 1142 595 m -18 Y s 1201 595 m -18 Y s 1261 613 m -36 Y s 1320 595 m -18 Y s 1379 595 m -18 Y s 1439 595
 m -18 Y s 1498 595 m -18 Y s 1557 613 m -36 Y s 1617 595 m -18 Y s 1676 595 m -18 Y s 1735 595 m -18 Y s 1795 595 m -18 Y s 1854 613 m -36 Y s 1854 613 m -36 Y s 1913 595 m -18 Y s 1973 595 m -18 Y s 371 2084 m 1661 X s 371 2048 m 36 Y s 430 2066 m
 18 Y s 489 2066 m 18 Y s 549 2066 m 18 Y s 608 2066 m 18 Y s 667 2048 m 36 Y s 727 2066 m 18 Y s 786 2066 m 18 Y s 845 2066 m 18 Y s 905 2066 m 18 Y s 964 2048 m 36 Y s 1023 2066 m 18 Y s 1083 2066 m 18 Y s 1142 2066 m 18 Y s 1201 2066 m 18 Y s 1261
 2048 m 36 Y s 1320 2066 m 18 Y s 1379 2066 m 18 Y s 1439 2066 m 18 Y s 1498 2066 m 18 Y s 1557 2048 m 36 Y s 1617 2066 m 18 Y s 1676 2066 m 18 Y s 1735 2066 m 18 Y s 1795 2066 m 18 Y s 1854 2048 m 36 Y s 1854 2048 m 36 Y s 1913 2066 m 18 Y s 1973
 2066 m 18 Y s 371 577 m 1507 Y s
 gsave  2245 1622 11 544 C 152.196 1666.54 t 90 r /Helvetica findfont 64.7045 sf 0 0 m (Events / 2GeV) show NC gr  433 577 m -62 X s 402 616 m -31 X s 402 655 m -31 X s 402 694 m -31 X s 433 733 m -62 X s 402 772 m -31 X s 402 811 m -31 X s 402 850 m
 -31 X s 433 890 m -62 X s 402 929 m -31 X s 402 968 m -31 X s 402 1007 m -31 X s 433 1046 m -62 X s 402 1085 m -31 X s 402 1124 m -31 X s 402 1164 m -31 X s 433 1203 m -62 X s 402 1242 m -31 X s 402 1281 m -31 X s 402 1320 m -31 X s 433 1359 m -62 X
 s 402 1398 m -31 X s 402 1437 m -31 X s 402 1477 m -31 X s 433 1516 m -62 X s 402 1555 m -31 X s 402 1594 m -31 X s 402 1633 m -31 X s 433 1672 m -62 X s 402 1711 m -31 X s 402 1750 m -31 X s 402 1790 m -31 X s 433 1829 m -62 X s 402 1868 m -31 X s
 402 1907 m -31 X s 402 1946 m -31 X s 433 1985 m -62 X s 433 1985 m -62 X s 402 2024 m -31 X s 402 2064 m -31 X s
 gsave  2245 1622 11 544 C 327.221 555.514 t 0 r /Helvetica findfont 57.0922 sf 0 0 m (0) show NC gr 
 gsave  2245 1622 11 544 C 292.977 711.515 t 0 r /Helvetica findfont 57.0922 sf 0 0 m (20) show NC gr 
 gsave  2245 1622 11 544 C 292.977 867.516 t 0 r /Helvetica findfont 57.0922 sf 0 0 m (40) show NC gr 
 gsave  2245 1622 11 544 C 292.977 1023.52 t 0 r /Helvetica findfont 57.0922 sf 0 0 m (60) show NC gr 
 gsave  2245 1622 11 544 C 292.977 1183.32 t 0 r /Helvetica findfont 57.0922 sf 0 0 m (80) show NC gr 
 gsave  2245 1622 11 544 C 262.538 1339.32 t 0 r /Helvetica findfont 57.0922 sf 0 0 m (100) show NC gr 
 gsave  2245 1622 11 544 C 262.538 1495.32 t 0 r /Helvetica findfont 57.0922 sf 0 0 m (120) show NC gr 
 gsave  2245 1622 11 544 C 262.538 1651.32 t 0 r /Helvetica findfont 57.0922 sf 0 0 m (140) show NC gr 
 gsave  2245 1622 11 544 C 262.538 1807.32 t 0 r /Helvetica findfont 57.0922 sf 0 0 m (160) show NC gr 
 gsave  2245 1622 11 544 C 262.538 1963.33 t 0 r /Helvetica findfont 57.0922 sf 0 0 m (180) show NC gr  2032 577 m 1507 Y s 1969 577 m 63 X s 2001 616 m 31 X s 2001 655 m 31 X s 2001 694 m 31 X s 1969 733 m 63 X s 2001 772 m 31 X s 2001 811 m 31 X s
 2001 850 m 31 X s 1969 890 m 63 X s 2001 929 m 31 X s 2001 968 m 31 X s 2001 1007 m 31 X s 1969 1046 m 63 X s 2001 1085 m 31 X s 2001 1124 m 31 X s 2001 1164 m 31 X s 1969 1203 m 63 X s 2001 1242 m 31 X s 2001 1281 m 31 X s 2001 1320 m 31 X s 1969
 1359 m 63 X s 2001 1398 m 31 X s 2001 1437 m 31 X s 2001 1477 m 31 X s 1969 1516 m 63 X s 2001 1555 m 31 X s 2001 1594 m 31 X s 2001 1633 m 31 X s 1969 1672 m 63 X s 2001 1711 m 31 X s 2001 1750 m 31 X s 2001 1790 m 31 X s 1969 1829 m 63 X s 2001
 1868 m 31 X s 2001 1907 m 31 X s 2001 1946 m 31 X s 1969 1985 m 63 X s 1969 1985 m 63 X s 2001 2024 m 31 X s 2001 2064 m 31 X s 400 641 m -29 X s 371 641 m cl s 400 641 m 30 X s 430 641 m cl s 400 641 m 4 Y s 400 645 m cl s 400 641 m -5 Y s 400 636
 m cl s 460 647 m -30 X s 430 647 m cl s 460 647 m 29 X s 489 647 m cl s 460 647 m 5 Y s 460 652 m cl s 460 647 m -6 Y s 460 641 m cl s 519 646 m -30 X s 489 646 m cl s 519 646 m 30 X s 549 646 m cl s 519 646 m 5 Y s 519 651 m cl s 519 646 m -5 Y s
 519 641 m cl s 578 661 m -29 X s 549 661 m cl s 578 661 m 30 X s 608 661 m cl s 578 661 m 10 Y s 578 671 m cl s 578 661 m -10 Y s 578 651 m cl s 638 668 m -30 X s 608 668 m cl s 638 668 m 29 X s 667 668 m cl s 638 668 m 11 Y s 638 679 m cl s 638 668
 m -12 Y s 638 656 m cl s 697 650 m -30 X s 667 650 m cl s 697 650 m 30 X s 727 650 m cl s 697 650 m 4 Y s 697 654 m cl s 697 650 m -4 Y s 697 646 m cl s 756 661 m -29 X s 727 661 m cl s 756 661 m 30 X s 786 661 m cl s 756 661 m 4 Y s 756 665 m cl s
 756 661 m -5 Y s 756 656 m cl s 816 682 m -30 X s 786 682 m cl s 816 682 m 29 X s 845 682 m cl s 816 682 m 13 Y s 816 695 m cl s 816 682 m -13 Y s 816 669 m cl s 875 667 m -30 X s 845 667 m cl s 875 667 m 30 X s 905 667 m cl s 875 667 m 9 Y s 875
 676 m cl s 875 667 m -9 Y s 875 658 m cl s 934 674 m -29 X s 905 674 m cl s 934 674 m 30 X s 964 674 m cl s 934 674 m 8 Y s 934 682 m cl s 934 674 m -8 Y s 934 666 m cl s 994 676 m -30 X s 964 676 m cl s 994 676 m 29 X s 1023 676 m cl s 994 676 m 11
 Y s 994 687 m cl s 994 676 m -12 Y s 994 664 m cl s 1053 669 m -30 X s 1023 669 m cl s 1053 669 m 30 X s 1083 669 m cl s 1053 669 m 5 Y s 1053 674 m cl s 1053 669 m -5 Y s 1053 664 m cl s 1112 698 m -29 X s 1083 698 m cl s 1112 698 m 30 X s 1142 698
 m cl s 1112 698 m 17 Y s 1112 715 m cl s 1112 698 m -16 Y s 1112 682 m cl s 1172 682 m -30 X s 1142 682 m cl s 1172 682 m 29 X s 1201 682 m cl s 1172 682 m 13 Y s 1172 695 m cl s 1172 682 m -14 Y s 1172 668 m cl s 1231 674 m -30 X s 1201 674 m cl s
 1231 674 m 30 X s 1261 674 m cl s 1231 674 m 7 Y s 1231 681 m cl s 1231 674 m -7 Y s 1231 667 m cl s 1290 696 m -29 X s 1261 696 m cl s 1290 696 m 30 X s 1320 696 m cl s 1290 696 m 11 Y s 1290 707 m cl s 1290 696 m -12 Y s 1290 684 m cl s 1350 719 m
 -30 X s 1320 719 m cl s 1350 719 m 29 X s 1379 719 m cl s 1350 719 m 15 Y s 1350 734 m cl s 1350 719 m -14 Y s 1350 705 m cl s 1409 829 m -30 X s 1379 829 m cl s 1409 829 m 30 X s 1439 829 m cl s 1409 829 m 31 Y s 1409 860 m cl s 1409 829 m -32 Y s
 1409 797 m cl s 1468 1015 m -29 X s 1439 1015 m cl s 1468 1015 m 30 X s 1498 1015 m cl s 1468 1015 m 49 Y s 1468 1064 m cl s 1468 1015 m -49 Y s 1468 966 m cl s 1528 1298 m -30 X s 1498 1298 m cl s 1528 1298 m 29 X s 1557 1298 m cl s 1528 1298 m 59
 Y s 1528 1357 m cl s 1528 1298 m -58 Y s 1528 1240 m cl s 1587 1468 m -30 X s 1557 1468 m cl s 1587 1468 m 30 X s 1617 1468 m cl s 1587 1468 m 66 Y s 1587 1534 m cl s 1587 1468 m -66 Y s 1587 1402 m cl s 1646 1146 m -29 X s 1617 1146 m cl s 1646
 1146 m 30 X s 1676 1146 m cl s 1646 1146 m 54 Y s 1646 1200 m cl s 1646 1146 m -54 Y s 1646 1092 m cl s 1706 899 m -30 X s 1676 899 m cl s 1706 899 m 29 X s 1735 899 m cl s 1706 899 m 37 Y s 1706 936 m cl s 1706 899 m -37 Y s 1706 862 m cl s 1765
 718 m -30 X s 1735 718 m cl s 1765 718 m 30 X s 1795 718 m cl s 1765 718 m 17 Y s 1765 735 m cl s 1765 718 m -16 Y s 1765 702 m cl s 1824 746 m -29 X s 1795 746 m cl s 1824 746 m 30 X s 1854 746 m cl s 1824 746 m 73 Y s 1824 819 m cl s 1824 746 m
 -72 Y s 1824 674 m cl s 1884 651 m -30 X s 1854 651 m cl s 1884 651 m 29 X s 1913 651 m cl s 1884 651 m 13 Y s 1884 664 m cl s 1884 651 m -13 Y s 1884 638 m cl s 1943 630 m -30 X s 1913 630 m cl s 1943 630 m 30 X s 1973 630 m cl s 1943 630 m 3 Y s
 1943 633 m cl s 1943 630 m -3 Y s 1943 627 m cl s 2002 636 m -29 X s 1973 636 m cl s 2002 636 m 30 X s 2032 636 m cl s 2002 636 m 9 Y s 2002 645 m cl s 2002 636 m -9 Y s 2002 627 m cl s 400 641 460 647 519 646 578 661 638 668 697 650 756 661 816 682
 875 667 934 674 994 676 1053 669 1112 698 1172 682 1231 674 1290 696 1350 719 1409 829 1468 1015 1528 1298 1587 1468 1646 1146 1706 899 1765 718 1824 746 1884 651 1943 630 2002 636 28 { m20} R 0.8 0 0 c 9 lw black 0.8 0 0 c 371 641 m cl s 371 641 m
 59 4 d 59 3 d 60 3 d 59 4 d 59 3 d 60 3 d 59 2 d 59 2 d 60 3 d 59 2 d 59 3 d 60 3 d 59 6 d 59 7 d 30 6 d 30 7 d 29 9 d 30 14 d 15 8 d 15 10 d 14 12 d 15 15 d 15 18 d 15 23 d 15 28 d 7 16 d 8 19 d 7 20 d 7 24 d 8 26 d 7 29 d 8 32 d 7 35 d 7 39 d 8 41
 d 15 88 d 15 92 d 14 85 d 8 36 d 7 32 d 4 14 d 4 11 d 3 10 d 4 8 d 4 6 d 3 3 d 4 X 4 -1 d 4 -4 d 3 -7 d 4 -10 d 4 -12 d 3 -14 d 4 -17 d 4 -18 d 4 -20 d 3 -22 d 4 -24 d 7 -50 d 15 -106 d 15 -103 d 7 -47 d 8 -45 d 7 -41 d 8 -37 d 7 -33 d 8 -30 d 7 -27
 d 7 -23 d 8 -20 d 7 -18 d 8 -16 d 7 -13 d 15 -22 d 15 -16 d 15 -13 d 14 -10 d 15 -8 d 30 -12 d 30 -8 d 29 -7 d 60 -11 d 59 -9 d s 0 1 0 c[  12 12 ] 0 sd black 0 1 0 c 371 577 m cl s 371 577 m 356 X 59 1 d 178 X 59 1 d 60 X 59 1 d 59 2 d 30 1 d 30 1
 d 29 2 d 30 2 d 15 1 d 15 2 d 14 2 d 15 3 d 15 3 d 15 4 d 15 4 d 7 3 d 8 3 d 7 4 d 7 3 d 8 5 d 7 5 d 8 5 d 7 6 d 7 6 d 8 6 d 30 29 d 7 6 d 7 6 d 8 5 d 7 4 d 4 2 d 4 1 d 3 1 d 4 1 d 11 X 4 -1 d 4 -1 d 3 -1 d 4 -2 d 4 -1 d 3 -3 d 4 -2 d 8 -6 d 7 -6 d
 7 -7 d 15 -15 d 15 -15 d 7 -7 d 8 -7 d 7 -6 d 8 -6 d 7 -5 d 8 -5 d 7 -4 d 7 -4 d 8 -3 d 7 -3 d 8 -2 d 7 -2 d 15 -4 d 15 -2 d 15 -2 d 14 -1 d 15 -2 d 30 -1 d 30 -1 d 29 -1 d 60 -1 d 59 -1 d s 0.2 0.4 0.2 c black 0.2 0.4 0.2 c 371 578 m cl s 371 578 m
 178 X 59 1 d 59 1 d 60 X 59 1 d 59 1 d 60 1 d 59 2 d 59 2 d 60 3 d 59 4 d 59 7 d 30 4 d 30 7 d 29 8 d 30 10 d 15 7 d 15 9 d 14 10 d 15 11 d 15 15 d 15 18 d 15 22 d 7 13 d 8 15 d 7 16 d 7 19 d 8 20 d 7 23 d 8 25 d 7 27 d 7 30 d 8 31 d 30 133 d 7 31 d
 7 28 d 8 24 d 7 19 d 4 8 d 4 6 d 3 5 d 4 3 d 4 2 d 3 X 4 -1 d 4 -3 d 4 -5 d 3 -6 d 4 -8 d 4 -9 d 3 -10 d 4 -12 d 8 -26 d 7 -30 d 7 -32 d 15 -71 d 15 -71 d 7 -33 d 8 -32 d 7 -30 d 8 -28 d 7 -24 d 8 -23 d 7 -20 d 7 -17 d 8 -16 d 7 -13 d 8 -12 d 7 -10
 d 15 -16 d 15 -12 d 15 -9 d 14 -7 d 15 -5 d 30 -8 d 30 -5 d 29 -3 d 60 -5 d 59 -3 d s 1 0.8 0.2 c black 1 0.8 0.2 c 371 637 m cl s 371 637 m 59 3 d 59 3 d 60 3 d 59 3 d 59 2 d 60 2 d 59 2 d 59 1 d 60 1 d 59 1 d 59 X 60 1 d 59 -1 d 59 X 60 -1 d 59 -1
 d 59 -1 d 60 -2 d 59 -2 d 59 -2 d 60 -3 d 59 -2 d 59 -4 d 60 -3 d 59 -4 d 59 -4 d 60 -4 d 59 -5 d s 0 0 1 c black 0 0 1 c 371 579 m cl s 371 579 m 593 X 59 -1 d 178 X 60 1 d 59 1 d 30 X 29 2 d 15 1 d 15 1 d 15 1 d 15 2 d 14 2 d 8 2 d 7 2 d 8 2 d 7 2
 d 7 3 d 8 4 d 7 3 d 4 3 d 4 2 d 7 5 d 4 3 d 4 3 d 3 3 d 4 4 d 7 7 d 8 9 d 7 8 d 8 9 d 7 8 d 4 4 d 3 3 d 4 3 d 4 2 d 4 1 d 1 1 d 6 X 4 -1 d 3 -2 d 4 -2 d 4 -3 d 4 -4 d 3 -4 d 4 -5 d 7 -9 d 4 -5 d 4 -6 d 2 -2 d 1 -3 d 4 -4 d 8 -9 d 3 -4 d 4 -4 d 4 -3
 d 3 -4 d 4 -2 d 4 -3 d 4 -2 d 3 -2 d 4 -2 d 4 -2 d 7 -3 d 8 -2 d 7 -2 d 7 -2 d 15 -2 d 15 -2 d 15 -2 d 15 -1 d 15 X 29 -2 d 30 -1 d 59 -1 d 119 X s black[  ] 0 sd 3 lw 371 577 m 1661 X s 371 613 m -36 Y s 430 595 m -18 Y s 489 595 m -18 Y s 549 595
 m -18 Y s 608 595 m -18 Y s 667 613 m -36 Y s 727 595 m -18 Y s 786 595 m -18 Y s 845 595 m -18 Y s 905 595 m -18 Y s 964 613 m -36 Y s 1023 595 m -18 Y s 1083 595 m -18 Y s 1142 595 m -18 Y s 1201 595 m -18 Y s 1261 613 m -36 Y s 1320 595 m -18 Y s
 1379 595 m -18 Y s 1439 595 m -18 Y s 1498 595 m -18 Y s 1557 613 m -36 Y s 1617 595 m -18 Y s 1676 595 m -18 Y s 1735 595 m -18 Y s 1795 595 m -18 Y s 1854 613 m -36 Y s 1854 613 m -36 Y s 1913 595 m -18 Y s 1973 595 m -18 Y s 371 2084 m 1661 X s
 371 2048 m 36 Y s 430 2066 m 18 Y s 489 2066 m 18 Y s 549 2066 m 18 Y s 608 2066 m 18 Y s 667 2048 m 36 Y s 727 2066 m 18 Y s 786 2066 m 18 Y s 845 2066 m 18 Y s 905 2066 m 18 Y s 964 2048 m 36 Y s 1023 2066 m 18 Y s 1083 2066 m 18 Y s 1142 2066 m
 18 Y s 1201 2066 m 18 Y s 1261 2048 m 36 Y s 1320 2066 m 18 Y s 1379 2066 m 18 Y s 1439 2066 m 18 Y s 1498 2066 m 18 Y s 1557 2048 m 36 Y s 1617 2066 m 18 Y s 1676 2066 m 18 Y s 1735 2066 m 18 Y s 1795 2066 m 18 Y s 1854 2048 m 36 Y s 1854 2048 m 36
 Y s 1913 2066 m 18 Y s 1973 2066 m 18 Y s 371 577 m 1507 Y s 433 577 m -62 X s 402 616 m -31 X s 402 655 m -31 X s 402 694 m -31 X s 433 733 m -62 X s 402 772 m -31 X s 402 811 m -31 X s 402 850 m -31 X s 433 890 m -62 X s 402 929 m -31 X s 402 968
 m -31 X s 402 1007 m -31 X s 433 1046 m -62 X s 402 1085 m -31 X s 402 1124 m -31 X s 402 1164 m -31 X s 433 1203 m -62 X s 402 1242 m -31 X s 402 1281 m -31 X s 402 1320 m -31 X s 433 1359 m -62 X s 402 1398 m -31 X s 402 1437 m -31 X s 402 1477 m
 -31 X s 433 1516 m -62 X s 402 1555 m -31 X s 402 1594 m -31 X s 402 1633 m -31 X s 433 1672 m -62 X s 402 1711 m -31 X s 402 1750 m -31 X s 402 1790 m -31 X s 433 1829 m -62 X s 402 1868 m -31 X s 402 1907 m -31 X s 402 1946 m -31 X s 433 1985 m
 -62 X s 433 1985 m -62 X s 402 2024 m -31 X s 402 2064 m -31 X s 2032 577 m 1507 Y s 1969 577 m 63 X s 2001 616 m 31 X s 2001 655 m 31 X s 2001 694 m 31 X s 1969 733 m 63 X s 2001 772 m 31 X s 2001 811 m 31 X s 2001 850 m 31 X s 1969 890 m 63 X s
 2001 929 m 31 X s 2001 968 m 31 X s 2001 1007 m 31 X s 1969 1046 m 63 X s 2001 1085 m 31 X s 2001 1124 m 31 X s 2001 1164 m 31 X s 1969 1203 m 63 X s 2001 1242 m 31 X s 2001 1281 m 31 X s 2001 1320 m 31 X s 1969 1359 m 63 X s 2001 1398 m 31 X s 2001
 1437 m 31 X s 2001 1477 m 31 X s 1969 1516 m 63 X s 2001 1555 m 31 X s 2001 1594 m 31 X s 2001 1633 m 31 X s 1969 1672 m 63 X s 2001 1711 m 31 X s 2001 1750 m 31 X s 2001 1790 m 31 X s 1969 1829 m 63 X s 2001 1868 m 31 X s 2001 1907 m 31 X s 2001
 1946 m 31 X s 1969 1985 m 63 X s 1969 1985 m 63 X s 2001 2024 m 31 X s 2001 2064 m 31 X s 1 1 1 c black
 gsave  2245 1622 11 544 C 662.051 1989.96 t 0 r /Helvetica findfont 60.8983 sf 0 0 m ( Internal) show NC gr 
 gsave  2245 1622 11 544 C 452.782 1989.96 t 0 r /Helvetica-BoldOblique findfont 60.8983 sf 0 0 m (ATLAS) show NC gr 
 gsave  2245 1622 11 544 C 452.782 1902.45 t 0 r /Helvetica findfont 60.8983 sf 0 0 m (data 2015\25518 + mc16a,d,e) show NC gr 
 gsave  2245 1622 11 544 C 1034.93 1818.74 t 0 r /Helvetica findfont 41.8676 sf 0 0 m (\2551) show NC gr 
 gsave  2245 1622 11 544 C 513.661 1792.1 t 0 r /Helvetica findfont 60.8983 sf 0 0 m (=13 TeV, 138.97 fb) show NC gr 
 gsave  2245 1622 11 544 C 483.221 1792.1 t 0 r /Helvetica findfont 60.8983 sf 0 0 m (s) show NC gr  6 lw 464 1826 m 8 -38 d s 3 lw 472 1788 m 4 57 d s 476 1845 m 38 X s
 gsave  2245 1622 11 544 C 452.782 1712.2 t 0 r /Helvetica findfont 60.8983 sf 0 0 m (Same Sign CR) show NC gr  1 1 1 c 718 438 1269 1598 bl 1269 1598 m 718 X s 1987 1598 m 438 Y s 1987 2036 m -718 X s 1269 2036 m -438 Y s black
 gsave  2245 1622 11 544 C 1445.86 1986.15 t 0 r /Helvetica findfont 60.8983 sf 0 0 m (MC Data) show NC gr  1296 1999 m 125 X s 1358 1977 m 44 Y s 1358 1999 m20
 gsave  2245 1622 11 544 C 1445.86 1910.06 t 0 r /Helvetica findfont 60.8983 sf 0 0 m (Total BG) show NC gr  0.8 0 0 c 9 lw 1296 1926 m 125 X s black
 gsave  2245 1622 11 544 C 1445.86 1837.76 t 0 r /Helvetica findfont 60.8983 sf 0 0 m (Z+LFjets) show NC gr  0 1 0 c[  12 12 ] 0 sd 1296 1853 m 125 X s black
 gsave  2245 1622 11 544 C 1445.86 1765.47 t 0 r /Helvetica findfont 60.8983 sf 0 0 m (Z+HFjets) show NC gr  0.2 0.4 0.2 c 1296 1780 m 125 X s black
 gsave  2245 1622 11 544 C 1464.88 1693.18 t 0 r /Helvetica findfont 60.8983 sf 0 0 m (t) show NC gr [  ] 0 sd 3 lw 1465 1743 m 19 X s
 gsave  2245 1622 11 544 C 1445.86 1693.18 t 0 r /Helvetica findfont 60.8983 sf 0 0 m (t) show NC gr  1 0.8 0.2 c[  12 12 ] 0 sd 9 lw 1296 1707 m 125 X s black
 gsave  2245 1622 11 544 C 1445.86 1620.88 t 0 r /Helvetica findfont 60.8983 sf 0 0 m (Diboson) show NC gr  0 0 1 c 1296 1635 m 125 X s
 gr  gr showpage
end
%%EOF
