%!PS-Adobe-2.0 EPSF-2.0
%%BoundingBox:  0 0 567 544
%%Title: Results/M1MC_invIso.eps: Region: invIso
%%Creator: ROOT Version 6.08/06
%%CreationDate: Sun Oct 13 15:24:42 2019
%%DocumentNeededResources: ProcSet (FontSetInit)
%%EndComments
%%BeginProlog
80 dict begin
/s {stroke} def /l {lineto} def /m {moveto} def /t {translate} def
/r {rotate} def /rl {roll}  def /R {repeat} def
/d {rlineto} def /rm {rmoveto} def /gr {grestore} def /f {eofill} def
/c {setrgbcolor} def /black {0 setgray} def /sd {setdash} def
/cl {closepath} def /sf {scalefont setfont} def /lw {setlinewidth} def
/box {m dup 0 exch d exch 0 d 0 exch neg d cl} def
/NC{systemdict begin initclip end}def/C{NC box clip newpath}def
/bl {box s} def /bf {gsave box gsave f grestore 1 lw [] 0 sd s grestore} def /Y { 0 exch d} def /X { 0 d} def 
/K {{pop pop 0 moveto} exch kshow} bind def
/ita {/ang 15 def gsave [1 0 ang dup sin exch cos div 1 0 0] concat} def 
/mp {newpath /y exch def /x exch def} def
/side {[w .77 mul w .23 mul] .385 w mul sd w 0 l currentpoint t -144 r} def
/mr {mp x y w2 0 360 arc} def /m24 {mr s} def /m20 {mr f} def
/mb {mp x y w2 add m w2 neg 0 d 0 w neg d w 0 d 0 w d cl} def
/mt {mp x y w2 add m w2 neg w neg d w 0 d cl} def
/m21 {mb f} def /m25 {mb s} def /m22 {mt f} def /m26{mt s} def
/m23 {mp x y w2 sub m w2 w d w neg 0 d cl f} def
/m27 {mp x y w2 add m w3 neg w2 neg d w3 w2 neg d w3 w2 d cl s} def
/m28 {mp x w2 sub y w2 sub w3 add m w3 0 d  0 w3 neg d w3 0 d 0 w3 d w3 0 d  0 w3 d w3 neg 0 d 0 w3 d w3 neg 0 d 0 w3 neg d w3 neg 0 d cl s } def
/m29 {mp gsave x w2 sub y w2 add w3 sub m currentpoint t 4 {side} repeat cl fill gr} def
/m30 {mp gsave x w2 sub y w2 add w3 sub m currentpoint t 4 {side} repeat cl s gr} def
/m31 {mp x y w2 sub m 0 w d x w2 sub y m w 0 d x w2 sub y w2 add m w w neg d x w2 sub y w2 sub m w w d s} def
/m32 {mp x y w2 sub m w2 w d w neg 0 d cl s} def
/m33 {mp x y w2 add m w3 neg w2 neg d w3 w2 neg d w3 w2 d cl f} def
/m34 {mp x w2 sub y w2 sub w3 add m w3 0 d  0 w3 neg d w3 0 d 0 w3 d w3 0 d  0 w3 d w3 neg 0 d 0 w3 d w3 neg 0 d 0 w3 neg d w3 neg 0 d cl f } def
/m2 {mp x y w2 sub m 0 w d x w2 sub y m w 0 d s} def
/m5 {mp x w2 sub y w2 sub m w w d x w2 sub y w2 add m w w neg d s} def
%%IncludeResource: ProcSet (FontSetInit)
%%IncludeResource: font Times-Roman
%%IncludeResource: font Times-Italic
%%IncludeResource: font Times-Bold
%%IncludeResource: font Times-BoldItalic
%%IncludeResource: font Helvetica
%%IncludeResource: font Helvetica-Oblique
%%IncludeResource: font Helvetica-Bold
%%IncludeResource: font Helvetica-BoldOblique
%%IncludeResource: font Courier
%%IncludeResource: font Courier-Oblique
%%IncludeResource: font Courier-Bold
%%IncludeResource: font Courier-BoldOblique
%%IncludeResource: font Symbol
%%IncludeResource: font ZapfDingbats
/reEncode {exch findfont dup length dict begin {1 index /FID eq  {pop pop} {def} ifelse } forall /Encoding exch def currentdict end dup /FontName get exch definefont pop } def [/Times-Bold /Times-Italic /Times-BoldItalic /Helvetica /Helvetica-Oblique
 /Helvetica-Bold /Helvetica-BoldOblique /Courier /Courier-Oblique /Courier-Bold /Courier-BoldOblique /Times-Roman /AvantGarde-Book /AvantGarde-BookOblique /AvantGarde-Demi /AvantGarde-DemiOblique /Bookman-Demi /Bookman-DemiItalic /Bookman-Light
 /Bookman-LightItalic /Helvetica-Narrow /Helvetica-Narrow-Bold /Helvetica-Narrow-BoldOblique /Helvetica-Narrow-Oblique /NewCenturySchlbk-Roman /NewCenturySchlbk-Bold /NewCenturySchlbk-BoldItalic /NewCenturySchlbk-Italic /Palatino-Bold
 /Palatino-BoldItalic /Palatino-Italic /Palatino-Roman ] {ISOLatin1Encoding reEncode } forall
%%EndProlog
%%BeginSetup
%%EndSetup
newpath  gsave  .25 .25 scale  gsave  0 0 t black[  ] 0 sd 3 lw 1 1 1 c 2268 2176 0 0 bf black 1 1 1 c 2245 533 11 11 bf black 1 1 1 c 1661 288 371 224 bf black 1661 288 371 224 bl 371 224 m 1661 X s 371 512 m 1661 X s 371 224 m 288 Y s[ 4 8] 0 sd
 2032 224 m -1661 X s 2032 296 m -1661 X s 2032 368 m -1661 X s 2032 440 m -1661 X s 2032 512 m -1661 X s[  ] 0 sd 2032 224 m 288 Y s 371 224 m 1661 X s
 gsave  2245 533 11 11 C 1849.18 98.9272 t 0 r /Helvetica findfont 64.7479 sf 0 0 m ( [GeV]) show NC gr 
 gsave  2245 533 11 11 C 1803.52 76.0979 t 0 r /Helvetica findfont 41.8957 sf 0 0 m (12) show NC gr 
 gsave  2245 533 11 11 C 1750.25 98.9272 t 0 r /Helvetica findfont 64.7479 sf 0 0 m (m) show NC gr  371 236 m -12 Y s 430 230 m -6 Y s 489 230 m -6 Y s 549 230 m -6 Y s 608 230 m -6 Y s 667 236 m -12 Y s 727 230 m -6 Y s 786 230 m -6 Y s 845 230 m -6
 Y s 905 230 m -6 Y s 964 236 m -12 Y s 1023 230 m -6 Y s 1083 230 m -6 Y s 1142 230 m -6 Y s 1201 230 m -6 Y s 1261 236 m -12 Y s 1320 230 m -6 Y s 1379 230 m -6 Y s 1439 230 m -6 Y s 1498 230 m -6 Y s 1557 236 m -12 Y s 1617 230 m -6 Y s 1676 230 m
 -6 Y s 1735 230 m -6 Y s 1795 230 m -6 Y s 1854 236 m -12 Y s 1854 236 m -12 Y s 1913 230 m -6 Y s 1973 230 m -6 Y s
 gsave  2245 533 11 11 C 334.831 171.22 t 0 r /Helvetica findfont 57.1305 sf 0 0 m (50) show NC gr 
 gsave  2245 533 11 11 C 631.612 171.22 t 0 r /Helvetica findfont 57.1305 sf 0 0 m (60) show NC gr 
 gsave  2245 533 11 11 C 928.394 171.22 t 0 r /Helvetica findfont 57.1305 sf 0 0 m (70) show NC gr 
 gsave  2245 533 11 11 C 1225.18 171.22 t 0 r /Helvetica findfont 57.1305 sf 0 0 m (80) show NC gr 
 gsave  2245 533 11 11 C 1521.96 171.22 t 0 r /Helvetica findfont 57.1305 sf 0 0 m (90) show NC gr 
 gsave  2245 533 11 11 C 1803.52 171.22 t 0 r /Helvetica findfont 57.1305 sf 0 0 m (100) show NC gr  371 512 m 1661 X s 371 500 m 12 Y s 430 506 m 6 Y s 489 506 m 6 Y s 549 506 m 6 Y s 608 506 m 6 Y s 667 500 m 12 Y s 727 506 m 6 Y s 786 506 m 6 Y s
 845 506 m 6 Y s 905 506 m 6 Y s 964 500 m 12 Y s 1023 506 m 6 Y s 1083 506 m 6 Y s 1142 506 m 6 Y s 1201 506 m 6 Y s 1261 500 m 12 Y s 1320 506 m 6 Y s 1379 506 m 6 Y s 1439 506 m 6 Y s 1498 506 m 6 Y s 1557 500 m 12 Y s 1617 506 m 6 Y s 1676 506 m
 6 Y s 1735 506 m 6 Y s 1795 506 m 6 Y s 1854 500 m 12 Y s 1854 500 m 12 Y s 1913 506 m 6 Y s 1973 506 m 6 Y s 371 224 m 288 Y s
 gsave  2245 533 11 11 C 156.001 407.124 t 90 r /Helvetica findfont 64.7479 sf 0 0 m (Pull) show NC gr  407 224 m -36 X s 389 242 m -18 X s 389 260 m -18 X s 389 278 m -18 X s 407 296 m -36 X s 389 314 m -18 X s 389 332 m -18 X s 389 350 m -18 X s
 407 368 m -36 X s 389 386 m -18 X s 389 404 m -18 X s 389 422 m -18 X s 407 440 m -36 X s 389 458 m -18 X s 389 476 m -18 X s 389 494 m -18 X s 407 512 m -36 X s
 gsave  2245 533 11 11 C 327.221 201.659 t 0 r /Helvetica findfont 57.1305 sf 0 0 m (4) show NC gr 
 gsave  2245 533 11 11 C 292.977 201.659 t 0 r /Symbol findfont 57.1305 sf 0 0 m (-) show NC gr 
 gsave  2245 533 11 11 C 327.221 273.952 t 0 r /Helvetica findfont 57.1305 sf 0 0 m (2) show NC gr 
 gsave  2245 533 11 11 C 292.977 273.952 t 0 r /Symbol findfont 57.1305 sf 0 0 m (-) show NC gr 
 gsave  2245 533 11 11 C 327.221 346.245 t 0 r /Helvetica findfont 57.1305 sf 0 0 m (0) show NC gr 
 gsave  2245 533 11 11 C 327.221 418.538 t 0 r /Helvetica findfont 57.1305 sf 0 0 m (2) show NC gr 
 gsave  2245 533 11 11 C 327.221 490.831 t 0 r /Helvetica findfont 57.1305 sf 0 0 m (4) show NC gr  2032 224 m 288 Y s 1996 224 m 36 X s 2014 242 m 18 X s 2014 260 m 18 X s 2014 278 m 18 X s 1996 296 m 36 X s 2014 314 m 18 X s 2014 332 m 18 X s 2014
 350 m 18 X s 1996 368 m 36 X s 2014 386 m 18 X s 2014 404 m 18 X s 2014 422 m 18 X s 1996 440 m 36 X s 2014 458 m 18 X s 2014 476 m 18 X s 2014 494 m 18 X s 1996 512 m 36 X s 400 349 m 36 Y s 400 385 m cl s 400 349 m -36 Y s 400 313 m cl s 460 333 m
 36 Y s 460 369 m cl s 460 333 m -36 Y s 460 297 m cl s 519 376 m 36 Y s 519 412 m cl s 519 376 m -36 Y s 519 340 m cl s 578 381 m 36 Y s 578 417 m cl s 578 381 m -36 Y s 578 345 m cl s 638 417 m 36 Y s 638 453 m cl s 638 417 m -36 Y s 638 381 m cl s
 697 377 m 36 Y s 697 413 m cl s 697 377 m -36 Y s 697 341 m cl s 756 365 m 36 Y s 756 401 m cl s 756 365 m -36 Y s 756 329 m cl s 816 419 m 36 Y s 816 455 m cl s 816 419 m -36 Y s 816 383 m cl s 875 384 m 36 Y s 875 420 m cl s 875 384 m -36 Y s 875
 348 m cl s 934 377 m 36 Y s 934 413 m cl s 934 377 m -36 Y s 934 341 m cl s 994 384 m 36 Y s 994 420 m cl s 994 384 m -36 Y s 994 348 m cl s 1053 294 m 36 Y s 1053 330 m cl s 1053 294 m -36 Y s 1053 258 m cl s 1112 380 m 36 Y s 1112 416 m cl s 1112
 380 m -36 Y s 1112 344 m cl s 1172 327 m 36 Y s 1172 363 m cl s 1172 327 m -35 Y s 1172 292 m cl s 1231 404 m 36 Y s 1231 440 m cl s 1231 404 m -36 Y s 1231 368 m cl s 1290 344 m 36 Y s 1290 380 m cl s 1290 344 m -36 Y s 1290 308 m cl s 1350 403 m
 36 Y s 1350 439 m cl s 1350 403 m -36 Y s 1350 367 m cl s 1409 340 m 36 Y s 1409 376 m cl s 1409 340 m -36 Y s 1409 304 m cl s 1468 359 m 36 Y s 1468 395 m cl s 1468 359 m -36 Y s 1468 323 m cl s 1528 364 m 36 Y s 1528 400 m cl s 1528 364 m -36 Y s
 1528 328 m cl s 1587 359 m 36 Y s 1587 395 m cl s 1587 359 m -36 Y s 1587 323 m cl s 1646 380 m 36 Y s 1646 416 m cl s 1646 380 m -36 Y s 1646 344 m cl s 1706 294 m 36 Y s 1706 330 m cl s 1706 294 m -36 Y s 1706 258 m cl s 1765 394 m 36 Y s 1765 430
 m cl s 1765 394 m -36 Y s 1765 358 m cl s 1824 228 m 36 Y s 1824 264 m cl s 1824 228 m -4 Y s 1824 224 m cl s 1943 339 m 36 Y s 1943 375 m cl s 1943 339 m -36 Y s 1943 303 m cl s 2002 306 m 36 Y s 2002 342 m cl s 2002 306 m -36 Y s 2002 270 m cl s
 /w 37 def /w2 {w 2 div} def /w3 {w 3 div} def 400 349 460 333 519 376 578 381 638 417 697 377 756 365 816 419 875 384 934 377 994 384 1053 294 1112 380 1172 327 1231 404 1290 344 1350 403 1409 340 1468 359 1528 364 1587 359 1646 380 1706 294 1765
 394 1824 228 25 { m20} R 1943 339 2002 306 2 { m20} R 371 224 m 1661 X s 371 236 m -12 Y s 430 230 m -6 Y s 489 230 m -6 Y s 549 230 m -6 Y s 608 230 m -6 Y s 667 236 m -12 Y s 727 230 m -6 Y s 786 230 m -6 Y s 845 230 m -6 Y s 905 230 m -6 Y s 964
 236 m -12 Y s 1023 230 m -6 Y s 1083 230 m -6 Y s 1142 230 m -6 Y s 1201 230 m -6 Y s 1261 236 m -12 Y s 1320 230 m -6 Y s 1379 230 m -6 Y s 1439 230 m -6 Y s 1498 230 m -6 Y s 1557 236 m -12 Y s 1617 230 m -6 Y s 1676 230 m -6 Y s 1735 230 m -6 Y s
 1795 230 m -6 Y s 1854 236 m -12 Y s 1854 236 m -12 Y s 1913 230 m -6 Y s 1973 230 m -6 Y s 371 512 m 1661 X s 371 500 m 12 Y s 430 506 m 6 Y s 489 506 m 6 Y s 549 506 m 6 Y s 608 506 m 6 Y s 667 500 m 12 Y s 727 506 m 6 Y s 786 506 m 6 Y s 845 506
 m 6 Y s 905 506 m 6 Y s 964 500 m 12 Y s 1023 506 m 6 Y s 1083 506 m 6 Y s 1142 506 m 6 Y s 1201 506 m 6 Y s 1261 500 m 12 Y s 1320 506 m 6 Y s 1379 506 m 6 Y s 1439 506 m 6 Y s 1498 506 m 6 Y s 1557 500 m 12 Y s 1617 506 m 6 Y s 1676 506 m 6 Y s
 1735 506 m 6 Y s 1795 506 m 6 Y s 1854 500 m 12 Y s 1854 500 m 12 Y s 1913 506 m 6 Y s 1973 506 m 6 Y s 371 224 m 288 Y s 407 224 m -36 X s 389 242 m -18 X s 389 260 m -18 X s 389 278 m -18 X s 407 296 m -36 X s 389 314 m -18 X s 389 332 m -18 X s
 389 350 m -18 X s 407 368 m -36 X s 389 386 m -18 X s 389 404 m -18 X s 389 422 m -18 X s 407 440 m -36 X s 389 458 m -18 X s 389 476 m -18 X s 389 494 m -18 X s 407 512 m -36 X s 2032 224 m 288 Y s 1996 224 m 36 X s 2014 242 m 18 X s 2014 260 m 18
 X s 2014 278 m 18 X s 1996 296 m 36 X s 2014 314 m 18 X s 2014 332 m 18 X s 2014 350 m 18 X s 1996 368 m 36 X s 2014 386 m 18 X s 2014 404 m 18 X s 2014 422 m 18 X s 1996 440 m 36 X s 2014 458 m 18 X s 2014 476 m 18 X s 2014 494 m 18 X s 1996 512 m
 36 X s[  12 12 ] 0 sd 6 lw 371 368 m 1661 X s[  ] 0 sd 3 lw 1 1 1 c 2245 1622 11 544 bf black 1 1 1 c 1661 1507 371 577 bf black 1661 1507 371 577 bl 371 577 m 1661 X s 371 613 m -36 Y s 430 595 m -18 Y s 489 595 m -18 Y s 549 595 m -18 Y s 608 595
 m -18 Y s 667 613 m -36 Y s 727 595 m -18 Y s 786 595 m -18 Y s 845 595 m -18 Y s 905 595 m -18 Y s 964 613 m -36 Y s 1023 595 m -18 Y s 1083 595 m -18 Y s 1142 595 m -18 Y s 1201 595 m -18 Y s 1261 613 m -36 Y s 1320 595 m -18 Y s 1379 595 m -18 Y
 s 1439 595 m -18 Y s 1498 595 m -18 Y s 1557 613 m -36 Y s 1617 595 m -18 Y s 1676 595 m -18 Y s 1735 595 m -18 Y s 1795 595 m -18 Y s 1854 613 m -36 Y s 1854 613 m -36 Y s 1913 595 m -18 Y s 1973 595 m -18 Y s 371 2084 m 1661 X s 371 2048 m 36 Y s
 430 2066 m 18 Y s 489 2066 m 18 Y s 549 2066 m 18 Y s 608 2066 m 18 Y s 667 2048 m 36 Y s 727 2066 m 18 Y s 786 2066 m 18 Y s 845 2066 m 18 Y s 905 2066 m 18 Y s 964 2048 m 36 Y s 1023 2066 m 18 Y s 1083 2066 m 18 Y s 1142 2066 m 18 Y s 1201 2066 m
 18 Y s 1261 2048 m 36 Y s 1320 2066 m 18 Y s 1379 2066 m 18 Y s 1439 2066 m 18 Y s 1498 2066 m 18 Y s 1557 2048 m 36 Y s 1617 2066 m 18 Y s 1676 2066 m 18 Y s 1735 2066 m 18 Y s 1795 2066 m 18 Y s 1854 2048 m 36 Y s 1854 2048 m 36 Y s 1913 2066 m 18
 Y s 1973 2066 m 18 Y s 371 577 m 1507 Y s
 gsave  2245 1622 11 544 C 152.196 1666.54 t 90 r /Helvetica findfont 64.7045 sf 0 0 m (Events / 2GeV) show NC gr  433 577 m -62 X s 402 643 m -31 X s 402 710 m -31 X s 402 776 m -31 X s 433 843 m -62 X s 402 910 m -31 X s 402 976 m -31 X s 402 1043
 m -31 X s 433 1110 m -62 X s 402 1176 m -31 X s 402 1243 m -31 X s 402 1309 m -31 X s 433 1376 m -62 X s 402 1443 m -31 X s 402 1509 m -31 X s 402 1576 m -31 X s 433 1643 m -62 X s 402 1709 m -31 X s 402 1776 m -31 X s 402 1843 m -31 X s 433 1909 m
 -62 X s 433 1909 m -62 X s 402 1976 m -31 X s 402 2042 m -31 X s
 gsave  2245 1622 11 544 C 327.221 555.514 t 0 r /Helvetica findfont 57.0922 sf 0 0 m (0) show NC gr 
 gsave  2245 1622 11 544 C 292.977 821.857 t 0 r /Helvetica findfont 57.0922 sf 0 0 m (20) show NC gr 
 gsave  2245 1622 11 544 C 292.977 1088.2 t 0 r /Helvetica findfont 57.0922 sf 0 0 m (40) show NC gr 
 gsave  2245 1622 11 544 C 292.977 1354.54 t 0 r /Helvetica findfont 57.0922 sf 0 0 m (60) show NC gr 
 gsave  2245 1622 11 544 C 292.977 1620.88 t 0 r /Helvetica findfont 57.0922 sf 0 0 m (80) show NC gr 
 gsave  2245 1622 11 544 C 262.538 1887.23 t 0 r /Helvetica findfont 57.0922 sf 0 0 m (100) show NC gr  2032 577 m 1507 Y s 1969 577 m 63 X s 2001 643 m 31 X s 2001 710 m 31 X s 2001 776 m 31 X s 1969 843 m 63 X s 2001 910 m 31 X s 2001 976 m 31 X s
 2001 1043 m 31 X s 1969 1110 m 63 X s 2001 1176 m 31 X s 2001 1243 m 31 X s 2001 1309 m 31 X s 1969 1376 m 63 X s 2001 1443 m 31 X s 2001 1509 m 31 X s 2001 1576 m 31 X s 1969 1643 m 63 X s 2001 1709 m 31 X s 2001 1776 m 31 X s 2001 1843 m 31 X s
 1969 1909 m 63 X s 1969 1909 m 63 X s 2001 1976 m 31 X s 2001 2042 m 31 X s 400 607 m -29 X s 371 607 m cl s 400 607 m 30 X s 430 607 m cl s 400 607 m 3 Y s 400 610 m cl s 400 607 m -4 Y s 400 603 m cl s 460 608 m -30 X s 430 608 m cl s 460 608 m 29
 X s 489 608 m cl s 460 608 m 3 Y s 460 611 m cl s 460 608 m -3 Y s 460 605 m cl s 519 613 m -30 X s 489 613 m cl s 519 613 m 30 X s 549 613 m cl s 519 613 m 5 Y s 519 618 m cl s 519 613 m -4 Y s 519 609 m cl s 578 616 m -29 X s 549 616 m cl s 578
 616 m 30 X s 608 616 m cl s 578 616 m 5 Y s 578 621 m cl s 578 616 m -5 Y s 578 611 m cl s 638 640 m -30 X s 608 640 m cl s 638 640 m 29 X s 667 640 m cl s 638 640 m 18 Y s 638 658 m cl s 638 640 m -18 Y s 638 622 m cl s 697 619 m -30 X s 667 619 m
 cl s 697 619 m 30 X s 727 619 m cl s 697 619 m 4 Y s 697 623 m cl s 697 619 m -5 Y s 697 614 m cl s 756 618 m -29 X s 727 618 m cl s 756 618 m 30 X s 786 618 m cl s 756 618 m 5 Y s 756 623 m cl s 756 618 m -5 Y s 756 613 m cl s 816 641 m -30 X s 786
 641 m cl s 816 641 m 29 X s 845 641 m cl s 816 641 m 15 Y s 816 656 m cl s 816 641 m -15 Y s 816 626 m cl s 875 627 m -30 X s 845 627 m cl s 875 627 m 30 X s 905 627 m cl s 875 627 m 14 Y s 875 641 m cl s 875 627 m -14 Y s 875 613 m cl s 934 625 m
 -29 X s 905 625 m cl s 934 625 m 30 X s 964 625 m cl s 934 625 m 11 Y s 934 636 m cl s 934 625 m -11 Y s 934 614 m cl s 994 631 m -30 X s 964 631 m cl s 994 631 m 29 X s 1023 631 m cl s 994 631 m 17 Y s 994 648 m cl s 994 631 m -17 Y s 994 614 m cl
 s 1053 618 m -30 X s 1023 618 m cl s 1053 618 m 30 X s 1083 618 m cl s 1053 618 m 4 Y s 1053 622 m cl s 1053 618 m -4 Y s 1053 614 m cl s 1112 635 m -29 X s 1083 635 m cl s 1112 635 m 30 X s 1142 635 m cl s 1112 635 m 15 Y s 1112 650 m cl s 1112 635
 m -15 Y s 1112 620 m cl s 1172 630 m -30 X s 1142 630 m cl s 1172 630 m 29 X s 1201 630 m cl s 1172 630 m 5 Y s 1172 635 m cl s 1172 630 m -6 Y s 1172 624 m cl s 1231 670 m -30 X s 1201 670 m cl s 1231 670 m 30 X s 1261 670 m cl s 1231 670 m 24 Y s
 1231 694 m cl s 1231 670 m -25 Y s 1231 645 m cl s 1290 650 m -29 X s 1261 650 m cl s 1290 650 m 30 X s 1320 650 m cl s 1290 650 m 17 Y s 1290 667 m cl s 1290 650 m -17 Y s 1290 633 m cl s 1350 833 m -30 X s 1320 833 m cl s 1350 833 m 29 X s 1379
 833 m cl s 1350 833 m 147 Y s 1350 980 m cl s 1350 833 m -148 Y s 1350 685 m cl s 1409 731 m -30 X s 1379 731 m cl s 1409 731 m 30 X s 1439 731 m cl s 1409 731 m 33 Y s 1409 764 m cl s 1409 731 m -34 Y s 1409 697 m cl s 1468 901 m -29 X s 1439 901 m
 cl s 1468 901 m 30 X s 1498 901 m cl s 1468 901 m 47 Y s 1468 948 m cl s 1468 901 m -48 Y s 1468 853 m cl s 1528 1230 m -30 X s 1498 1230 m cl s 1528 1230 m 29 X s 1557 1230 m cl s 1528 1230 m 69 Y s 1528 1299 m cl s 1528 1230 m -69 Y s 1528 1161 m
 cl s 1587 1452 m -30 X s 1557 1452 m cl s 1587 1452 m 30 X s 1617 1452 m cl s 1587 1452 m 82 Y s 1587 1534 m cl s 1587 1452 m -82 Y s 1587 1370 m cl s 1646 1182 m -29 X s 1617 1182 m cl s 1646 1182 m 30 X s 1676 1182 m cl s 1646 1182 m 71 Y s 1646
 1253 m cl s 1646 1182 m -71 Y s 1646 1111 m cl s 1706 730 m -30 X s 1676 730 m cl s 1706 730 m 29 X s 1735 730 m cl s 1706 730 m 43 Y s 1706 773 m cl s 1706 730 m -43 Y s 1706 687 m cl s 1765 708 m -30 X s 1735 708 m cl s 1765 708 m 30 X s 1795 708
 m cl s 1765 708 m 31 Y s 1765 739 m cl s 1765 708 m -31 Y s 1765 677 m cl s 1824 625 m -29 X s 1795 625 m cl s 1824 625 m 30 X s 1854 625 m cl s 1824 625 m 5 Y s 1824 630 m cl s 1824 625 m -4 Y s 1824 621 m cl s 1884 609 m -30 X s 1854 609 m cl s
 1884 609 m 29 X s 1913 609 m cl s 1884 609 m 3 Y s 1884 612 m cl s 1884 609 m -4 Y s 1884 605 m cl s 1943 610 m -30 X s 1913 610 m cl s 1943 610 m 30 X s 1973 610 m cl s 1943 610 m 6 Y s 1943 616 m cl s 1943 610 m -6 Y s 1943 604 m cl s 2002 602 m
 -29 X s 1973 602 m cl s 2002 602 m 30 X s 2032 602 m cl s 2002 602 m 3 Y s 2002 605 m cl s 2002 602 m -3 Y s 2002 599 m cl s 400 607 460 608 519 613 578 616 638 640 697 619 756 618 816 641 875 627 934 625 994 631 1053 618 1112 635 1172 630 1231 670
 1290 650 1350 833 1409 731 1468 901 1528 1230 1587 1452 1646 1182 1706 730 1765 708 1824 625 1884 609 1943 610 2002 602 28 { m20} R 0.8 0 0 c 9 lw black 0.8 0 0 c 371 608 m cl s 371 608 m 59 2 d 59 2 d 60 1 d 59 2 d 59 2 d 60 1 d 59 1 d 59 1 d 60 1
 d 59 2 d 59 2 d 60 3 d 59 4 d 59 7 d 30 6 d 30 7 d 29 9 d 30 13 d 30 18 d 14 11 d 15 15 d 15 17 d 15 22 d 15 27 d 7 16 d 8 17 d 7 20 d 7 23 d 8 25 d 7 28 d 8 31 d 7 35 d 7 37 d 8 41 d 7 43 d 8 45 d 15 93 d 14 89 d 8 40 d 7 36 d 4 16 d 4 14 d 7 23 d
 4 8 d 3 5 d 4 3 d 4 X 4 -2 d 3 -6 d 4 -9 d 4 -11 d 3 -15 d 4 -17 d 4 -19 d 4 -21 d 3 -23 d 4 -26 d 7 -53 d 15 -112 d 8 -54 d 7 -53 d 7 -48 d 8 -45 d 7 -41 d 8 -37 d 7 -32 d 8 -29 d 7 -26 d 7 -23 d 8 -19 d 7 -17 d 8 -15 d 7 -13 d 15 -20 d 15 -16 d 15
 -11 d 14 -9 d 15 -8 d 30 -10 d 30 -8 d 29 -5 d 60 -8 d 59 -6 d s 0 1 0 c[  12 12 ] 0 sd black 0 1 0 c 371 577 m cl s 371 577 m 237 X 59 1 d 119 X 59 1 d 60 X 59 1 d 59 1 d 60 1 d 59 1 d 59 3 d 30 2 d 30 2 d 29 3 d 30 5 d 15 2 d 15 4 d 14 3 d 15 5 d
 15 6 d 15 7 d 15 8 d 7 6 d 8 5 d 7 7 d 7 7 d 8 8 d 7 9 d 8 9 d 7 11 d 7 12 d 8 12 d 30 52 d 7 12 d 7 11 d 8 9 d 7 8 d 4 3 d 4 2 d 3 2 d 4 2 d 11 X 4 -2 d 4 -1 d 3 -3 d 4 -3 d 4 -3 d 3 -4 d 4 -5 d 8 -10 d 7 -12 d 7 -12 d 15 -28 d 15 -28 d 7 -13 d 8
 -12 d 7 -12 d 8 -11 d 7 -9 d 8 -9 d 7 -8 d 7 -7 d 8 -6 d 7 -5 d 8 -5 d 7 -4 d 15 -6 d 15 -4 d 15 -4 d 14 -3 d 15 -2 d 30 -3 d 30 -2 d 29 -1 d 60 -2 d 59 -1 d s 0.2 0.4 0.2 c black 0.2 0.4 0.2 c 371 578 m cl s 371 578 m 237 X 59 1 d 60 X 59 1 d 59 1
 d 60 X 59 2 d 59 1 d 60 2 d 59 3 d 59 5 d 30 3 d 30 5 d 29 6 d 30 7 d 15 5 d 15 6 d 14 7 d 15 9 d 15 11 d 15 12 d 15 16 d 7 10 d 8 10 d 7 12 d 7 13 d 8 15 d 7 16 d 8 18 d 7 20 d 7 21 d 8 23 d 30 96 d 7 22 d 7 21 d 8 16 d 7 15 d 4 5 d 4 5 d 3 3 d 4 2
 d 4 2 d 3 X 4 -1 d 4 -3 d 4 -3 d 3 -4 d 4 -6 d 4 -6 d 3 -8 d 4 -8 d 8 -19 d 7 -22 d 7 -23 d 15 -51 d 15 -51 d 7 -24 d 8 -23 d 7 -21 d 8 -20 d 7 -18 d 8 -16 d 7 -15 d 7 -12 d 8 -11 d 7 -10 d 8 -8 d 7 -8 d 15 -11 d 15 -9 d 15 -6 d 14 -5 d 15 -4 d 30
 -5 d 30 -4 d 29 -3 d 60 -3 d 59 -3 d s 1 0.8 0.2 c black 1 0.8 0.2 c 371 601 m cl s 371 601 m 59 1 d 59 1 d 60 1 d 59 1 d 59 1 d 60 1 d 59 1 d 59 X 60 1 d 356 X 59 -1 d 59 X 60 -1 d 59 -1 d 59 -1 d 60 -1 d 59 -1 d 59 -1 d 60 -1 d 59 -2 d 59 -2 d 60
 -1 d 59 -2 d s 0 0 1 c black 0 0 1 c 371 582 m cl s 371 582 m 59 1 d 59 X 60 1 d 118 X 60 -1 d 59 X 59 -1 d 60 X 59 -1 d 59 X 60 -1 d 118 X 60 1 d 59 1 d 30 1 d 29 2 d 15 2 d 15 2 d 15 2 d 15 3 d 14 4 d 8 3 d 7 3 d 8 4 d 7 4 d 7 5 d 8 5 d 7 7 d 4 3
 d 4 4 d 7 9 d 4 5 d 4 5 d 3 6 d 4 6 d 7 12 d 8 14 d 7 15 d 8 14 d 7 14 d 4 7 d 3 5 d 4 4 d 4 4 d 4 3 d 1 1 d 6 X 4 -2 d 3 -3 d 4 -4 d 4 -5 d 4 -6 d 3 -7 d 4 -9 d 7 -16 d 4 -8 d 4 -9 d 2 -5 d 1 -4 d 4 -8 d 8 -14 d 3 -7 d 4 -7 d 4 -5 d 3 -5 d 4 -5 d 4
 -4 d 4 -4 d 3 -4 d 4 -3 d 4 -3 d 7 -5 d 8 -4 d 7 -3 d 7 -3 d 15 -4 d 15 -3 d 15 -3 d 15 -2 d 15 -1 d 29 -2 d 30 -1 d 59 -2 d 60 -1 d 59 -1 d s black[  ] 0 sd 3 lw 371 577 m 1661 X s 371 613 m -36 Y s 430 595 m -18 Y s 489 595 m -18 Y s 549 595 m -18
 Y s 608 595 m -18 Y s 667 613 m -36 Y s 727 595 m -18 Y s 786 595 m -18 Y s 845 595 m -18 Y s 905 595 m -18 Y s 964 613 m -36 Y s 1023 595 m -18 Y s 1083 595 m -18 Y s 1142 595 m -18 Y s 1201 595 m -18 Y s 1261 613 m -36 Y s 1320 595 m -18 Y s 1379
 595 m -18 Y s 1439 595 m -18 Y s 1498 595 m -18 Y s 1557 613 m -36 Y s 1617 595 m -18 Y s 1676 595 m -18 Y s 1735 595 m -18 Y s 1795 595 m -18 Y s 1854 613 m -36 Y s 1854 613 m -36 Y s 1913 595 m -18 Y s 1973 595 m -18 Y s 371 2084 m 1661 X s 371
 2048 m 36 Y s 430 2066 m 18 Y s 489 2066 m 18 Y s 549 2066 m 18 Y s 608 2066 m 18 Y s 667 2048 m 36 Y s 727 2066 m 18 Y s 786 2066 m 18 Y s 845 2066 m 18 Y s 905 2066 m 18 Y s 964 2048 m 36 Y s 1023 2066 m 18 Y s 1083 2066 m 18 Y s 1142 2066 m 18 Y
 s 1201 2066 m 18 Y s 1261 2048 m 36 Y s 1320 2066 m 18 Y s 1379 2066 m 18 Y s 1439 2066 m 18 Y s 1498 2066 m 18 Y s 1557 2048 m 36 Y s 1617 2066 m 18 Y s 1676 2066 m 18 Y s 1735 2066 m 18 Y s 1795 2066 m 18 Y s 1854 2048 m 36 Y s 1854 2048 m 36 Y s
 1913 2066 m 18 Y s 1973 2066 m 18 Y s 371 577 m 1507 Y s 433 577 m -62 X s 402 643 m -31 X s 402 710 m -31 X s 402 776 m -31 X s 433 843 m -62 X s 402 910 m -31 X s 402 976 m -31 X s 402 1043 m -31 X s 433 1110 m -62 X s 402 1176 m -31 X s 402 1243
 m -31 X s 402 1309 m -31 X s 433 1376 m -62 X s 402 1443 m -31 X s 402 1509 m -31 X s 402 1576 m -31 X s 433 1643 m -62 X s 402 1709 m -31 X s 402 1776 m -31 X s 402 1843 m -31 X s 433 1909 m -62 X s 433 1909 m -62 X s 402 1976 m -31 X s 402 2042 m
 -31 X s 2032 577 m 1507 Y s 1969 577 m 63 X s 2001 643 m 31 X s 2001 710 m 31 X s 2001 776 m 31 X s 1969 843 m 63 X s 2001 910 m 31 X s 2001 976 m 31 X s 2001 1043 m 31 X s 1969 1110 m 63 X s 2001 1176 m 31 X s 2001 1243 m 31 X s 2001 1309 m 31 X s
 1969 1376 m 63 X s 2001 1443 m 31 X s 2001 1509 m 31 X s 2001 1576 m 31 X s 1969 1643 m 63 X s 2001 1709 m 31 X s 2001 1776 m 31 X s 2001 1843 m 31 X s 1969 1909 m 63 X s 1969 1909 m 63 X s 2001 1976 m 31 X s 2001 2042 m 31 X s 1 1 1 c black
 gsave  2245 1622 11 544 C 662.051 1989.96 t 0 r /Helvetica findfont 60.8983 sf 0 0 m ( Internal) show NC gr 
 gsave  2245 1622 11 544 C 452.782 1989.96 t 0 r /Helvetica-BoldOblique findfont 60.8983 sf 0 0 m (ATLAS) show NC gr 
 gsave  2245 1622 11 544 C 452.782 1902.45 t 0 r /Helvetica findfont 60.8983 sf 0 0 m (data 2015\25518 + mc16a,d,e) show NC gr 
 gsave  2245 1622 11 544 C 1034.93 1818.74 t 0 r /Helvetica findfont 41.8676 sf 0 0 m (\2551) show NC gr 
 gsave  2245 1622 11 544 C 513.661 1792.1 t 0 r /Helvetica findfont 60.8983 sf 0 0 m (=13 TeV, 138.97 fb) show NC gr 
 gsave  2245 1622 11 544 C 483.221 1792.1 t 0 r /Helvetica findfont 60.8983 sf 0 0 m (s) show NC gr  6 lw 464 1826 m 8 -38 d s 3 lw 472 1788 m 4 57 d s 476 1845 m 38 X s
 gsave  2245 1622 11 544 C 452.782 1712.2 t 0 r /Helvetica findfont 60.8983 sf 0 0 m (Inverted isolation CR) show NC gr  1 1 1 c 718 438 1269 1598 bl 1269 1598 m 718 X s 1987 1598 m 438 Y s 1987 2036 m -718 X s 1269 2036 m -438 Y s black
 gsave  2245 1622 11 544 C 1445.86 1986.15 t 0 r /Helvetica findfont 60.8983 sf 0 0 m (MC Data) show NC gr  1296 1999 m 125 X s 1358 1977 m 44 Y s 1358 1999 m20
 gsave  2245 1622 11 544 C 1445.86 1910.06 t 0 r /Helvetica findfont 60.8983 sf 0 0 m (Total BG) show NC gr  0.8 0 0 c 9 lw 1296 1926 m 125 X s black
 gsave  2245 1622 11 544 C 1445.86 1837.76 t 0 r /Helvetica findfont 60.8983 sf 0 0 m (Z+LFjets) show NC gr  0 1 0 c[  12 12 ] 0 sd 1296 1853 m 125 X s black
 gsave  2245 1622 11 544 C 1445.86 1765.47 t 0 r /Helvetica findfont 60.8983 sf 0 0 m (Z+HFjets) show NC gr  0.2 0.4 0.2 c 1296 1780 m 125 X s black
 gsave  2245 1622 11 544 C 1464.88 1693.18 t 0 r /Helvetica findfont 60.8983 sf 0 0 m (t) show NC gr [  ] 0 sd 3 lw 1465 1743 m 19 X s
 gsave  2245 1622 11 544 C 1445.86 1693.18 t 0 r /Helvetica findfont 60.8983 sf 0 0 m (t) show NC gr  1 0.8 0.2 c[  12 12 ] 0 sd 9 lw 1296 1707 m 125 X s black
 gsave  2245 1622 11 544 C 1445.86 1620.88 t 0 r /Helvetica findfont 60.8983 sf 0 0 m (Diboson) show NC gr  0 0 1 c 1296 1635 m 125 X s
 gr  gr showpage
end
%%EOF
