%!PS-Adobe-2.0 EPSF-2.0
%%BoundingBox:  0 0 567 544
%%Title: Results/M2Data_ss.eps: Region: ss
%%Creator: ROOT Version 6.08/06
%%CreationDate: Mon Oct 14 09:43:40 2019
%%DocumentNeededResources: ProcSet (FontSetInit)
%%EndComments
%%BeginProlog
80 dict begin
/s {stroke} def /l {lineto} def /m {moveto} def /t {translate} def
/r {rotate} def /rl {roll}  def /R {repeat} def
/d {rlineto} def /rm {rmoveto} def /gr {grestore} def /f {eofill} def
/c {setrgbcolor} def /black {0 setgray} def /sd {setdash} def
/cl {closepath} def /sf {scalefont setfont} def /lw {setlinewidth} def
/box {m dup 0 exch d exch 0 d 0 exch neg d cl} def
/NC{systemdict begin initclip end}def/C{NC box clip newpath}def
/bl {box s} def /bf {gsave box gsave f grestore 1 lw [] 0 sd s grestore} def /Y { 0 exch d} def /X { 0 d} def 
/K {{pop pop 0 moveto} exch kshow} bind def
/ita {/ang 15 def gsave [1 0 ang dup sin exch cos div 1 0 0] concat} def 
/mp {newpath /y exch def /x exch def} def
/side {[w .77 mul w .23 mul] .385 w mul sd w 0 l currentpoint t -144 r} def
/mr {mp x y w2 0 360 arc} def /m24 {mr s} def /m20 {mr f} def
/mb {mp x y w2 add m w2 neg 0 d 0 w neg d w 0 d 0 w d cl} def
/mt {mp x y w2 add m w2 neg w neg d w 0 d cl} def
/m21 {mb f} def /m25 {mb s} def /m22 {mt f} def /m26{mt s} def
/m23 {mp x y w2 sub m w2 w d w neg 0 d cl f} def
/m27 {mp x y w2 add m w3 neg w2 neg d w3 w2 neg d w3 w2 d cl s} def
/m28 {mp x w2 sub y w2 sub w3 add m w3 0 d  0 w3 neg d w3 0 d 0 w3 d w3 0 d  0 w3 d w3 neg 0 d 0 w3 d w3 neg 0 d 0 w3 neg d w3 neg 0 d cl s } def
/m29 {mp gsave x w2 sub y w2 add w3 sub m currentpoint t 4 {side} repeat cl fill gr} def
/m30 {mp gsave x w2 sub y w2 add w3 sub m currentpoint t 4 {side} repeat cl s gr} def
/m31 {mp x y w2 sub m 0 w d x w2 sub y m w 0 d x w2 sub y w2 add m w w neg d x w2 sub y w2 sub m w w d s} def
/m32 {mp x y w2 sub m w2 w d w neg 0 d cl s} def
/m33 {mp x y w2 add m w3 neg w2 neg d w3 w2 neg d w3 w2 d cl f} def
/m34 {mp x w2 sub y w2 sub w3 add m w3 0 d  0 w3 neg d w3 0 d 0 w3 d w3 0 d  0 w3 d w3 neg 0 d 0 w3 d w3 neg 0 d 0 w3 neg d w3 neg 0 d cl f } def
/m2 {mp x y w2 sub m 0 w d x w2 sub y m w 0 d s} def
/m5 {mp x w2 sub y w2 sub m w w d x w2 sub y w2 add m w w neg d s} def
%%IncludeResource: ProcSet (FontSetInit)
%%IncludeResource: font Times-Roman
%%IncludeResource: font Times-Italic
%%IncludeResource: font Times-Bold
%%IncludeResource: font Times-BoldItalic
%%IncludeResource: font Helvetica
%%IncludeResource: font Helvetica-Oblique
%%IncludeResource: font Helvetica-Bold
%%IncludeResource: font Helvetica-BoldOblique
%%IncludeResource: font Courier
%%IncludeResource: font Courier-Oblique
%%IncludeResource: font Courier-Bold
%%IncludeResource: font Courier-BoldOblique
%%IncludeResource: font Symbol
%%IncludeResource: font ZapfDingbats
/reEncode {exch findfont dup length dict begin {1 index /FID eq  {pop pop} {def} ifelse } forall /Encoding exch def currentdict end dup /FontName get exch definefont pop } def [/Times-Bold /Times-Italic /Times-BoldItalic /Helvetica /Helvetica-Oblique
 /Helvetica-Bold /Helvetica-BoldOblique /Courier /Courier-Oblique /Courier-Bold /Courier-BoldOblique /Times-Roman /AvantGarde-Book /AvantGarde-BookOblique /AvantGarde-Demi /AvantGarde-DemiOblique /Bookman-Demi /Bookman-DemiItalic /Bookman-Light
 /Bookman-LightItalic /Helvetica-Narrow /Helvetica-Narrow-Bold /Helvetica-Narrow-BoldOblique /Helvetica-Narrow-Oblique /NewCenturySchlbk-Roman /NewCenturySchlbk-Bold /NewCenturySchlbk-BoldItalic /NewCenturySchlbk-Italic /Palatino-Bold
 /Palatino-BoldItalic /Palatino-Italic /Palatino-Roman ] {ISOLatin1Encoding reEncode } forall
%%EndProlog
%%BeginSetup
%%EndSetup
newpath  gsave  .25 .25 scale  gsave  0 0 t black[  ] 0 sd 3 lw 1 1 1 c 2268 2176 0 0 bf black 1 1 1 c 2245 533 11 11 bf black 1 1 1 c 1661 288 371 224 bf black 1661 288 371 224 bl 371 224 m 1661 X s 371 512 m 1661 X s 371 224 m 288 Y s[ 4 8] 0 sd
 2032 224 m -1661 X s 2032 296 m -1661 X s 2032 368 m -1661 X s 2032 440 m -1661 X s 2032 512 m -1661 X s[  ] 0 sd 2032 224 m 288 Y s 371 224 m 1661 X s
 gsave  2245 533 11 11 C 1849.18 98.9272 t 0 r /Helvetica findfont 64.7479 sf 0 0 m ( [GeV]) show NC gr 
 gsave  2245 533 11 11 C 1803.52 76.0979 t 0 r /Helvetica findfont 41.8957 sf 0 0 m (12) show NC gr 
 gsave  2245 533 11 11 C 1750.25 98.9272 t 0 r /Helvetica findfont 64.7479 sf 0 0 m (m) show NC gr  371 236 m -12 Y s 430 230 m -6 Y s 489 230 m -6 Y s 549 230 m -6 Y s 608 230 m -6 Y s 667 236 m -12 Y s 727 230 m -6 Y s 786 230 m -6 Y s 845 230 m -6
 Y s 905 230 m -6 Y s 964 236 m -12 Y s 1023 230 m -6 Y s 1083 230 m -6 Y s 1142 230 m -6 Y s 1201 230 m -6 Y s 1261 236 m -12 Y s 1320 230 m -6 Y s 1379 230 m -6 Y s 1439 230 m -6 Y s 1498 230 m -6 Y s 1557 236 m -12 Y s 1617 230 m -6 Y s 1676 230 m
 -6 Y s 1735 230 m -6 Y s 1795 230 m -6 Y s 1854 236 m -12 Y s 1854 236 m -12 Y s 1913 230 m -6 Y s 1973 230 m -6 Y s
 gsave  2245 533 11 11 C 334.831 171.22 t 0 r /Helvetica findfont 57.1305 sf 0 0 m (50) show NC gr 
 gsave  2245 533 11 11 C 631.612 171.22 t 0 r /Helvetica findfont 57.1305 sf 0 0 m (60) show NC gr 
 gsave  2245 533 11 11 C 928.394 171.22 t 0 r /Helvetica findfont 57.1305 sf 0 0 m (70) show NC gr 
 gsave  2245 533 11 11 C 1225.18 171.22 t 0 r /Helvetica findfont 57.1305 sf 0 0 m (80) show NC gr 
 gsave  2245 533 11 11 C 1521.96 171.22 t 0 r /Helvetica findfont 57.1305 sf 0 0 m (90) show NC gr 
 gsave  2245 533 11 11 C 1803.52 171.22 t 0 r /Helvetica findfont 57.1305 sf 0 0 m (100) show NC gr  371 512 m 1661 X s 371 500 m 12 Y s 430 506 m 6 Y s 489 506 m 6 Y s 549 506 m 6 Y s 608 506 m 6 Y s 667 500 m 12 Y s 727 506 m 6 Y s 786 506 m 6 Y s
 845 506 m 6 Y s 905 506 m 6 Y s 964 500 m 12 Y s 1023 506 m 6 Y s 1083 506 m 6 Y s 1142 506 m 6 Y s 1201 506 m 6 Y s 1261 500 m 12 Y s 1320 506 m 6 Y s 1379 506 m 6 Y s 1439 506 m 6 Y s 1498 506 m 6 Y s 1557 500 m 12 Y s 1617 506 m 6 Y s 1676 506 m
 6 Y s 1735 506 m 6 Y s 1795 506 m 6 Y s 1854 500 m 12 Y s 1854 500 m 12 Y s 1913 506 m 6 Y s 1973 506 m 6 Y s 371 224 m 288 Y s
 gsave  2245 533 11 11 C 156.001 407.124 t 90 r /Helvetica findfont 64.7479 sf 0 0 m (Pull) show NC gr  407 224 m -36 X s 389 242 m -18 X s 389 260 m -18 X s 389 278 m -18 X s 407 296 m -36 X s 389 314 m -18 X s 389 332 m -18 X s 389 350 m -18 X s
 407 368 m -36 X s 389 386 m -18 X s 389 404 m -18 X s 389 422 m -18 X s 407 440 m -36 X s 389 458 m -18 X s 389 476 m -18 X s 389 494 m -18 X s 407 512 m -36 X s
 gsave  2245 533 11 11 C 327.221 201.659 t 0 r /Helvetica findfont 57.1305 sf 0 0 m (4) show NC gr 
 gsave  2245 533 11 11 C 292.977 201.659 t 0 r /Symbol findfont 57.1305 sf 0 0 m (-) show NC gr 
 gsave  2245 533 11 11 C 327.221 273.952 t 0 r /Helvetica findfont 57.1305 sf 0 0 m (2) show NC gr 
 gsave  2245 533 11 11 C 292.977 273.952 t 0 r /Symbol findfont 57.1305 sf 0 0 m (-) show NC gr 
 gsave  2245 533 11 11 C 327.221 346.245 t 0 r /Helvetica findfont 57.1305 sf 0 0 m (0) show NC gr 
 gsave  2245 533 11 11 C 327.221 418.538 t 0 r /Helvetica findfont 57.1305 sf 0 0 m (2) show NC gr 
 gsave  2245 533 11 11 C 327.221 490.831 t 0 r /Helvetica findfont 57.1305 sf 0 0 m (4) show NC gr  2032 224 m 288 Y s 1996 224 m 36 X s 2014 242 m 18 X s 2014 260 m 18 X s 2014 278 m 18 X s 1996 296 m 36 X s 2014 314 m 18 X s 2014 332 m 18 X s 2014
 350 m 18 X s 1996 368 m 36 X s 2014 386 m 18 X s 2014 404 m 18 X s 2014 422 m 18 X s 1996 440 m 36 X s 2014 458 m 18 X s 2014 476 m 18 X s 2014 494 m 18 X s 1996 512 m 36 X s 400 393 m 40 Y s 400 433 m cl s 400 393 m -36 Y s 400 357 m cl s 460 392 m
 40 Y s 460 432 m cl s 460 392 m -36 Y s 460 356 m cl s 519 322 m 36 Y s 519 358 m cl s 519 322 m -32 Y s 519 290 m cl s 578 351 m 36 Y s 578 387 m cl s 578 351 m -32 Y s 578 319 m cl s 638 399 m 39 Y s 638 438 m cl s 638 399 m -36 Y s 638 363 m cl s
 697 320 m 36 Y s 697 356 m cl s 697 320 m -32 Y s 697 288 m cl s 756 352 m 36 Y s 756 388 m cl s 756 352 m -33 Y s 756 319 m cl s 816 362 m 36 Y s 816 398 m cl s 816 362 m -33 Y s 816 329 m cl s 875 306 m 36 Y s 875 342 m cl s 875 306 m -33 Y s 875
 273 m cl s 934 322 m 36 Y s 934 358 m cl s 934 322 m -32 Y s 934 290 m cl s 994 367 m 36 Y s 994 403 m cl s 994 367 m -32 Y s 994 335 m cl s 1053 341 m 36 Y s 1053 377 m cl s 1053 341 m -32 Y s 1053 309 m cl s 1112 386 m 40 Y s 1112 426 m cl s 1112
 386 m -36 Y s 1112 350 m cl s 1172 390 m 39 Y s 1172 429 m cl s 1172 390 m -36 Y s 1172 354 m cl s 1231 341 m 36 Y s 1231 377 m cl s 1231 341 m -33 Y s 1231 308 m cl s 1290 453 m 39 Y s 1290 492 m cl s 1290 453 m -36 Y s 1290 417 m cl s 1350 413 m
 39 Y s 1350 452 m cl s 1350 413 m -36 Y s 1350 377 m cl s 1409 328 m 36 Y s 1409 364 m cl s 1409 328 m -34 Y s 1409 294 m cl s 1468 439 m 38 Y s 1468 477 m cl s 1468 439 m -36 Y s 1468 403 m cl s 1528 417 m 38 Y s 1528 455 m cl s 1528 417 m -36 Y s
 1528 381 m cl s 1587 411 m 38 Y s 1587 449 m cl s 1587 411 m -36 Y s 1587 375 m cl s 1646 392 m 38 Y s 1646 430 m cl s 1646 392 m -36 Y s 1646 356 m cl s 1706 378 m 38 Y s 1706 416 m cl s 1706 378 m -36 Y s 1706 342 m cl s 1765 407 m 39 Y s 1765 446
 m cl s 1765 407 m -36 Y s 1765 371 m cl s 1824 379 m 40 Y s 1824 419 m cl s 1824 379 m -36 Y s 1824 343 m cl s 1884 370 m 40 Y s 1884 410 m cl s 1884 370 m -36 Y s 1884 334 m cl s 1943 331 m 36 Y s 1943 367 m cl s 1943 331 m -32 Y s 1943 299 m cl s
 2002 415 m 41 Y s 2002 456 m cl s 2002 415 m -36 Y s 2002 379 m cl s /w 37 def /w2 {w 2 div} def /w3 {w 3 div} def 400 393 460 392 519 322 578 351 638 399 697 320 756 352 816 362 875 306 934 322 994 367 1053 341 1112 386 1172 390 1231 341 1290 453
 1350 413 1409 328 1468 439 1528 417 1587 411 1646 392 1706 378 1765 407 1824 379 1884 370 1943 331 2002 415 28 { m20} R 371 224 m 1661 X s 371 236 m -12 Y s 430 230 m -6 Y s 489 230 m -6 Y s 549 230 m -6 Y s 608 230 m -6 Y s 667 236 m -12 Y s 727
 230 m -6 Y s 786 230 m -6 Y s 845 230 m -6 Y s 905 230 m -6 Y s 964 236 m -12 Y s 1023 230 m -6 Y s 1083 230 m -6 Y s 1142 230 m -6 Y s 1201 230 m -6 Y s 1261 236 m -12 Y s 1320 230 m -6 Y s 1379 230 m -6 Y s 1439 230 m -6 Y s 1498 230 m -6 Y s 1557
 236 m -12 Y s 1617 230 m -6 Y s 1676 230 m -6 Y s 1735 230 m -6 Y s 1795 230 m -6 Y s 1854 236 m -12 Y s 1854 236 m -12 Y s 1913 230 m -6 Y s 1973 230 m -6 Y s 371 512 m 1661 X s 371 500 m 12 Y s 430 506 m 6 Y s 489 506 m 6 Y s 549 506 m 6 Y s 608
 506 m 6 Y s 667 500 m 12 Y s 727 506 m 6 Y s 786 506 m 6 Y s 845 506 m 6 Y s 905 506 m 6 Y s 964 500 m 12 Y s 1023 506 m 6 Y s 1083 506 m 6 Y s 1142 506 m 6 Y s 1201 506 m 6 Y s 1261 500 m 12 Y s 1320 506 m 6 Y s 1379 506 m 6 Y s 1439 506 m 6 Y s
 1498 506 m 6 Y s 1557 500 m 12 Y s 1617 506 m 6 Y s 1676 506 m 6 Y s 1735 506 m 6 Y s 1795 506 m 6 Y s 1854 500 m 12 Y s 1854 500 m 12 Y s 1913 506 m 6 Y s 1973 506 m 6 Y s 371 224 m 288 Y s 407 224 m -36 X s 389 242 m -18 X s 389 260 m -18 X s 389
 278 m -18 X s 407 296 m -36 X s 389 314 m -18 X s 389 332 m -18 X s 389 350 m -18 X s 407 368 m -36 X s 389 386 m -18 X s 389 404 m -18 X s 389 422 m -18 X s 407 440 m -36 X s 389 458 m -18 X s 389 476 m -18 X s 389 494 m -18 X s 407 512 m -36 X s
 2032 224 m 288 Y s 1996 224 m 36 X s 2014 242 m 18 X s 2014 260 m 18 X s 2014 278 m 18 X s 1996 296 m 36 X s 2014 314 m 18 X s 2014 332 m 18 X s 2014 350 m 18 X s 1996 368 m 36 X s 2014 386 m 18 X s 2014 404 m 18 X s 2014 422 m 18 X s 1996 440 m 36
 X s 2014 458 m 18 X s 2014 476 m 18 X s 2014 494 m 18 X s 1996 512 m 36 X s[  12 12 ] 0 sd 6 lw 371 368 m 1661 X s[  ] 0 sd 3 lw 1 1 1 c 2245 1622 11 544 bf black 1 1 1 c 1661 1507 371 577 bf black 1661 1507 371 577 bl 371 577 m 1661 X s 371 613 m
 -36 Y s 430 595 m -18 Y s 489 595 m -18 Y s 549 595 m -18 Y s 608 595 m -18 Y s 667 613 m -36 Y s 727 595 m -18 Y s 786 595 m -18 Y s 845 595 m -18 Y s 905 595 m -18 Y s 964 613 m -36 Y s 1023 595 m -18 Y s 1083 595 m -18 Y s 1142 595 m -18 Y s 1201
 595 m -18 Y s 1261 613 m -36 Y s 1320 595 m -18 Y s 1379 595 m -18 Y s 1439 595 m -18 Y s 1498 595 m -18 Y s 1557 613 m -36 Y s 1617 595 m -18 Y s 1676 595 m -18 Y s 1735 595 m -18 Y s 1795 595 m -18 Y s 1854 613 m -36 Y s 1854 613 m -36 Y s 1913
 595 m -18 Y s 1973 595 m -18 Y s 371 2084 m 1661 X s 371 2048 m 36 Y s 430 2066 m 18 Y s 489 2066 m 18 Y s 549 2066 m 18 Y s 608 2066 m 18 Y s 667 2048 m 36 Y s 727 2066 m 18 Y s 786 2066 m 18 Y s 845 2066 m 18 Y s 905 2066 m 18 Y s 964 2048 m 36 Y
 s 1023 2066 m 18 Y s 1083 2066 m 18 Y s 1142 2066 m 18 Y s 1201 2066 m 18 Y s 1261 2048 m 36 Y s 1320 2066 m 18 Y s 1379 2066 m 18 Y s 1439 2066 m 18 Y s 1498 2066 m 18 Y s 1557 2048 m 36 Y s 1617 2066 m 18 Y s 1676 2066 m 18 Y s 1735 2066 m 18 Y s
 1795 2066 m 18 Y s 1854 2048 m 36 Y s 1854 2048 m 36 Y s 1913 2066 m 18 Y s 1973 2066 m 18 Y s 371 577 m 1507 Y s
 gsave  2245 1622 11 544 C 152.196 1666.54 t 90 r /Helvetica findfont 64.7045 sf 0 0 m (Events / 2GeV) show NC gr  433 577 m -62 X s 402 649 m -31 X s 402 721 m -31 X s 402 794 m -31 X s 433 866 m -62 X s 402 938 m -31 X s 402 1011 m -31 X s 402 1083
 m -31 X s 433 1155 m -62 X s 402 1228 m -31 X s 402 1300 m -31 X s 402 1372 m -31 X s 433 1445 m -62 X s 402 1517 m -31 X s 402 1589 m -31 X s 402 1662 m -31 X s 433 1734 m -62 X s 402 1806 m -31 X s 402 1879 m -31 X s 402 1951 m -31 X s 433 2023 m
 -62 X s 433 2023 m -62 X s
 gsave  2245 1622 11 544 C 327.221 555.514 t 0 r /Helvetica findfont 57.0922 sf 0 0 m (0) show NC gr 
 gsave  2245 1622 11 544 C 262.538 844.686 t 0 r /Helvetica findfont 57.0922 sf 0 0 m (200) show NC gr 
 gsave  2245 1622 11 544 C 262.538 1133.86 t 0 r /Helvetica findfont 57.0922 sf 0 0 m (400) show NC gr 
 gsave  2245 1622 11 544 C 262.538 1423.03 t 0 r /Helvetica findfont 57.0922 sf 0 0 m (600) show NC gr 
 gsave  2245 1622 11 544 C 262.538 1712.2 t 0 r /Helvetica findfont 57.0922 sf 0 0 m (800) show NC gr 
 gsave  2245 1622 11 544 C 232.099 2001.37 t 0 r /Helvetica findfont 57.0922 sf 0 0 m (1000) show NC gr  2032 577 m 1507 Y s 1969 577 m 63 X s 2001 649 m 31 X s 2001 721 m 31 X s 2001 794 m 31 X s 1969 866 m 63 X s 2001 938 m 31 X s 2001 1011 m 31 X
 s 2001 1083 m 31 X s 1969 1155 m 63 X s 2001 1228 m 31 X s 2001 1300 m 31 X s 2001 1372 m 31 X s 1969 1445 m 63 X s 2001 1517 m 31 X s 2001 1589 m 31 X s 2001 1662 m 31 X s 1969 1734 m 63 X s 2001 1806 m 31 X s 2001 1879 m 31 X s 2001 1951 m 31 X s
 1969 2023 m 63 X s 1969 2023 m 63 X s 400 701 m -29 X s 371 701 m cl s 400 701 m 30 X s 430 701 m cl s 400 701 m 15 Y s 400 716 m cl s 400 701 m -13 Y s 400 688 m cl s 460 707 m -30 X s 430 707 m cl s 460 707 m 29 X s 489 707 m cl s 460 707 m 15 Y s
 460 722 m cl s 460 707 m -14 Y s 460 693 m cl s 519 685 m -30 X s 489 685 m cl s 519 685 m 30 X s 549 685 m cl s 519 685 m 14 Y s 519 699 m cl s 519 685 m -12 Y s 519 673 m cl s 578 701 m -29 X s 549 701 m cl s 578 701 m 30 X s 608 701 m cl s 578
 701 m 15 Y s 578 716 m cl s 578 701 m -13 Y s 578 688 m cl s 638 724 m -30 X s 608 724 m cl s 638 724 m 29 X s 667 724 m cl s 638 724 m 15 Y s 638 739 m cl s 638 724 m -14 Y s 638 710 m cl s 697 697 m -30 X s 667 697 m cl s 697 697 m 30 X s 727 697
 m cl s 697 697 m 14 Y s 697 711 m cl s 697 697 m -14 Y s 697 683 m cl s 756 713 m -29 X s 727 713 m cl s 756 713 m 30 X s 786 713 m cl s 756 713 m 15 Y s 756 728 m cl s 756 713 m -14 Y s 756 699 m cl s 816 720 m -30 X s 786 720 m cl s 816 720 m 29 X
 s 845 720 m cl s 816 720 m 16 Y s 816 736 m cl s 816 720 m -15 Y s 816 705 m cl s 875 700 m -30 X s 845 700 m cl s 875 700 m 30 X s 905 700 m cl s 875 700 m 14 Y s 875 714 m cl s 875 700 m -14 Y s 875 686 m cl s 934 708 m -29 X s 905 708 m cl s 934
 708 m 30 X s 964 708 m cl s 934 708 m 15 Y s 934 723 m cl s 934 708 m -14 Y s 934 694 m cl s 994 730 m -30 X s 964 730 m cl s 994 730 m 29 X s 1023 730 m cl s 994 730 m 16 Y s 994 746 m cl s 994 730 m -14 Y s 994 716 m cl s 1053 721 m -30 X s 1023
 721 m cl s 1053 721 m 30 X s 1083 721 m cl s 1053 721 m 16 Y s 1053 737 m cl s 1053 721 m -14 Y s 1053 707 m cl s 1112 744 m -29 X s 1083 744 m cl s 1112 744 m 30 X s 1142 744 m cl s 1112 744 m 17 Y s 1112 761 m cl s 1112 744 m -15 Y s 1112 729 m cl
 s 1172 752 m -30 X s 1142 752 m cl s 1172 752 m 29 X s 1201 752 m cl s 1172 752 m 16 Y s 1172 768 m cl s 1172 752 m -16 Y s 1172 736 m cl s 1231 739 m -30 X s 1201 739 m cl s 1231 739 m 30 X s 1261 739 m cl s 1231 739 m 16 Y s 1231 755 m cl s 1231
 739 m -15 Y s 1231 724 m cl s 1290 808 m -29 X s 1261 808 m cl s 1290 808 m 30 X s 1320 808 m cl s 1290 808 m 19 Y s 1290 827 m cl s 1290 808 m -18 Y s 1290 790 m cl s 1350 820 m -30 X s 1320 820 m cl s 1350 820 m 29 X s 1379 820 m cl s 1350 820 m
 19 Y s 1350 839 m cl s 1350 820 m -18 Y s 1350 802 m cl s 1409 837 m -30 X s 1379 837 m cl s 1409 837 m 30 X s 1439 837 m cl s 1409 837 m 20 Y s 1409 857 m cl s 1409 837 m -19 Y s 1409 818 m cl s 1468 1045 m -29 X s 1439 1045 m cl s 1468 1045 m 30 X
 s 1498 1045 m cl s 1468 1045 m 27 Y s 1468 1072 m cl s 1468 1045 m -25 Y s 1468 1020 m cl s 1528 1303 m -30 X s 1498 1303 m cl s 1528 1303 m 29 X s 1557 1303 m cl s 1528 1303 m 33 Y s 1528 1336 m cl s 1528 1303 m -32 Y s 1528 1271 m cl s 1587 1497 m
 -30 X s 1557 1497 m cl s 1587 1497 m 30 X s 1617 1497 m cl s 1587 1497 m 37 Y s 1587 1534 m cl s 1587 1497 m -36 Y s 1587 1461 m cl s 1646 1222 m -29 X s 1617 1222 m cl s 1646 1222 m 30 X s 1676 1222 m cl s 1646 1222 m 31 Y s 1646 1253 m cl s 1646
 1222 m -30 Y s 1646 1192 m cl s 1706 904 m -30 X s 1676 904 m cl s 1706 904 m 29 X s 1735 904 m cl s 1706 904 m 22 Y s 1706 926 m cl s 1706 904 m -22 Y s 1706 882 m cl s 1765 783 m -30 X s 1735 783 m cl s 1765 783 m 30 X s 1795 783 m cl s 1765 783 m
 18 Y s 1765 801 m cl s 1765 783 m -16 Y s 1765 767 m cl s 1824 723 m -29 X s 1795 723 m cl s 1824 723 m 30 X s 1854 723 m cl s 1824 723 m 15 Y s 1824 738 m cl s 1824 723 m -14 Y s 1824 709 m cl s 1884 697 m -30 X s 1854 697 m cl s 1884 697 m 29 X s
 1913 697 m cl s 1884 697 m 14 Y s 1884 711 m cl s 1884 697 m -14 Y s 1884 683 m cl s 1943 668 m -30 X s 1913 668 m cl s 1943 668 m 30 X s 1973 668 m cl s 1943 668 m 13 Y s 1943 681 m cl s 1943 668 m -12 Y s 1943 656 m cl s 2002 685 m -29 X s 1973
 685 m cl s 2002 685 m 30 X s 2032 685 m cl s 2002 685 m 14 Y s 2002 699 m cl s 2002 685 m -12 Y s 2002 673 m cl s 400 701 460 707 519 685 578 701 638 724 697 697 756 713 816 720 875 700 934 708 994 730 1053 721 1112 744 1172 752 1231 739 1290 808
 1350 820 1409 837 1468 1045 1528 1303 1587 1497 1646 1222 1706 904 1765 783 1824 723 1884 697 1943 668 2002 685 28 { m20} R 0.8 0 0 c 9 lw black 0.8 0 0 c 371 689 m cl s 371 689 m 59 6 d 59 5 d 60 6 d 59 4 d 59 4 d 60 4 d 59 3 d 59 3 d 60 2 d 59 3 d
 59 2 d 60 4 d 59 4 d 59 7 d 30 5 d 30 7 d 29 9 d 30 12 d 15 8 d 15 10 d 14 12 d 15 13 d 15 17 d 15 21 d 15 24 d 15 30 d 7 18 d 7 19 d 8 21 d 7 24 d 8 25 d 7 28 d 7 30 d 8 33 d 7 35 d 8 36 d 15 76 d 14 75 d 8 33 d 7 30 d 4 13 d 4 11 d 7 19 d 4 7 d 3
 4 d 4 2 d 4 1 d 4 -2 d 3 -4 d 4 -7 d 4 -9 d 3 -11 d 4 -14 d 4 -14 d 4 -17 d 59 -348 d 7 -37 d 8 -34 d 7 -31 d 8 -28 d 7 -25 d 7 -22 d 8 -19 d 7 -18 d 8 -14 d 7 -13 d 15 -22 d 15 -16 d 15 -12 d 14 -10 d 15 -9 d 30 -12 d 30 -10 d 29 -8 d 60 -13 d 59
 -12 d s 0.2 0.4 0.2 c[  12 12 ] 0 sd black 0.2 0.4 0.2 c 371 578 m cl s 371 578 m 178 X 59 1 d 59 X 60 1 d 59 1 d 59 X 60 2 d 59 1 d 59 2 d 60 3 d 59 5 d 59 8 d 30 5 d 30 8 d 29 9 d 30 13 d 15 9 d 15 9 d 14 12 d 15 14 d 15 16 d 15 20 d 15 24 d 7 14
 d 8 15 d 7 17 d 7 18 d 8 20 d 7 23 d 8 23 d 7 26 d 7 28 d 8 30 d 15 64 d 15 66 d 14 61 d 8 25 d 7 22 d 4 9 d 4 8 d 3 6 d 4 5 d 4 3 d 3 2 d 4 X 4 -2 d 4 -3 d 3 -5 d 4 -6 d 4 -8 d 3 -9 d 4 -11 d 4 -12 d 4 -12 d 3 -14 d 4 -16 d 7 -32 d 8 -35 d 7 -36 d
 15 -74 d 15 -70 d 7 -31 d 8 -30 d 7 -28 d 8 -25 d 7 -22 d 7 -19 d 8 -18 d 7 -15 d 8 -13 d 7 -12 d 15 -18 d 15 -14 d 15 -10 d 14 -8 d 15 -6 d 30 -8 d 30 -6 d 29 -4 d 60 -5 d 59 -4 d s 1 0.8 0.2 c black 1 0.8 0.2 c 371 685 m cl s 371 685 m 59 5 d 59 6
 d 60 4 d 59 4 d 59 4 d 60 3 d 59 3 d 59 2 d 60 2 d 59 1 d 59 1 d 119 X 59 -1 d 60 -2 d 59 -2 d 59 -2 d 60 -3 d 59 -3 d 59 -4 d 60 -5 d 59 -5 d 59 -5 d 60 -6 d 59 -7 d 59 -7 d 60 -7 d 59 -8 d s 0 0 1 c black 0 0 1 c 371 579 m cl s 371 579 m 59 X 59 1
 d 297 X 59 -1 d 178 X 60 -1 d 118 X 60 1 d 59 1 d 30 1 d 29 1 d 15 1 d 15 1 d 15 1 d 15 2 d 14 2 d 8 2 d 7 2 d 8 2 d 7 2 d 7 3 d 8 3 d 7 4 d 4 2 d 4 3 d 7 5 d 4 3 d 4 3 d 3 3 d 4 4 d 7 7 d 8 8 d 7 9 d 8 8 d 7 9 d 4 4 d 3 3 d 4 2 d 4 2 d 4 2 d 1 1 d
 2 X 4 -1 d 4 X 3 -2 d 4 -3 d 4 -2 d 4 -4 d 3 -4 d 4 -5 d 7 -10 d 4 -5 d 4 -5 d 2 -3 d 1 -2 d 4 -5 d 8 -8 d 3 -5 d 4 -3 d 4 -4 d 3 -3 d 4 -2 d 4 -3 d 4 -2 d 3 -2 d 4 -2 d 4 -2 d 7 -3 d 8 -2 d 7 -2 d 7 -2 d 15 -2 d 15 -2 d 15 -2 d 15 -1 d 15 X 29 -2 d
 30 -1 d 59 -1 d 119 X s black[  ] 0 sd 3 lw 371 577 m 1661 X s 371 613 m -36 Y s 430 595 m -18 Y s 489 595 m -18 Y s 549 595 m -18 Y s 608 595 m -18 Y s 667 613 m -36 Y s 727 595 m -18 Y s 786 595 m -18 Y s 845 595 m -18 Y s 905 595 m -18 Y s 964
 613 m -36 Y s 1023 595 m -18 Y s 1083 595 m -18 Y s 1142 595 m -18 Y s 1201 595 m -18 Y s 1261 613 m -36 Y s 1320 595 m -18 Y s 1379 595 m -18 Y s 1439 595 m -18 Y s 1498 595 m -18 Y s 1557 613 m -36 Y s 1617 595 m -18 Y s 1676 595 m -18 Y s 1735
 595 m -18 Y s 1795 595 m -18 Y s 1854 613 m -36 Y s 1854 613 m -36 Y s 1913 595 m -18 Y s 1973 595 m -18 Y s 371 2084 m 1661 X s 371 2048 m 36 Y s 430 2066 m 18 Y s 489 2066 m 18 Y s 549 2066 m 18 Y s 608 2066 m 18 Y s 667 2048 m 36 Y s 727 2066 m
 18 Y s 786 2066 m 18 Y s 845 2066 m 18 Y s 905 2066 m 18 Y s 964 2048 m 36 Y s 1023 2066 m 18 Y s 1083 2066 m 18 Y s 1142 2066 m 18 Y s 1201 2066 m 18 Y s 1261 2048 m 36 Y s 1320 2066 m 18 Y s 1379 2066 m 18 Y s 1439 2066 m 18 Y s 1498 2066 m 18 Y s
 1557 2048 m 36 Y s 1617 2066 m 18 Y s 1676 2066 m 18 Y s 1735 2066 m 18 Y s 1795 2066 m 18 Y s 1854 2048 m 36 Y s 1854 2048 m 36 Y s 1913 2066 m 18 Y s 1973 2066 m 18 Y s 371 577 m 1507 Y s 433 577 m -62 X s 402 649 m -31 X s 402 721 m -31 X s 402
 794 m -31 X s 433 866 m -62 X s 402 938 m -31 X s 402 1011 m -31 X s 402 1083 m -31 X s 433 1155 m -62 X s 402 1228 m -31 X s 402 1300 m -31 X s 402 1372 m -31 X s 433 1445 m -62 X s 402 1517 m -31 X s 402 1589 m -31 X s 402 1662 m -31 X s 433 1734
 m -62 X s 402 1806 m -31 X s 402 1879 m -31 X s 402 1951 m -31 X s 433 2023 m -62 X s 433 2023 m -62 X s 2032 577 m 1507 Y s 1969 577 m 63 X s 2001 649 m 31 X s 2001 721 m 31 X s 2001 794 m 31 X s 1969 866 m 63 X s 2001 938 m 31 X s 2001 1011 m 31 X
 s 2001 1083 m 31 X s 1969 1155 m 63 X s 2001 1228 m 31 X s 2001 1300 m 31 X s 2001 1372 m 31 X s 1969 1445 m 63 X s 2001 1517 m 31 X s 2001 1589 m 31 X s 2001 1662 m 31 X s 1969 1734 m 63 X s 2001 1806 m 31 X s 2001 1879 m 31 X s 2001 1951 m 31 X s
 1969 2023 m 63 X s 1969 2023 m 63 X s 1 1 1 c black
 gsave  2245 1622 11 544 C 662.051 1989.96 t 0 r /Helvetica findfont 60.8983 sf 0 0 m ( Internal) show NC gr 
 gsave  2245 1622 11 544 C 452.782 1989.96 t 0 r /Helvetica-BoldOblique findfont 60.8983 sf 0 0 m (ATLAS) show NC gr 
 gsave  2245 1622 11 544 C 452.782 1902.45 t 0 r /Helvetica findfont 60.8983 sf 0 0 m (data 2015\25518 + mc16a,d,e) show NC gr 
 gsave  2245 1622 11 544 C 1034.93 1818.74 t 0 r /Helvetica findfont 41.8676 sf 0 0 m (\2551) show NC gr 
 gsave  2245 1622 11 544 C 513.661 1792.1 t 0 r /Helvetica findfont 60.8983 sf 0 0 m (=13 TeV, 138.97 fb) show NC gr 
 gsave  2245 1622 11 544 C 483.221 1792.1 t 0 r /Helvetica findfont 60.8983 sf 0 0 m (s) show NC gr  6 lw 464 1826 m 8 -38 d s 3 lw 472 1788 m 4 57 d s 476 1845 m 38 X s
 gsave  2245 1622 11 544 C 452.782 1712.2 t 0 r /Helvetica findfont 60.8983 sf 0 0 m (Same Sign CR) show NC gr  1 1 1 c 718 438 1269 1598 bl 1269 1598 m 718 X s 1987 1598 m 438 Y s 1987 2036 m -718 X s 1269 2036 m -438 Y s black
 gsave  2245 1622 11 544 C 1445.86 1974.74 t 0 r /Helvetica findfont 72.3167 sf 0 0 m (Data) show NC gr  1296 1992 m 125 X s 1358 1966 m 52 Y s 1358 1992 m20
 gsave  2245 1622 11 544 C 1445.86 1887.23 t 0 r /Helvetica findfont 72.3167 sf 0 0 m (Total BG) show NC gr  0.8 0 0 c 9 lw 1296 1904 m 125 X s black
 gsave  2245 1622 11 544 C 1445.86 1799.71 t 0 r /Helvetica findfont 72.3167 sf 0 0 m (Z+HFjets) show NC gr  0.2 0.4 0.2 c[  12 12 ] 0 sd 1296 1817 m 125 X s black
 gsave  2245 1622 11 544 C 1468.69 1712.2 t 0 r /Helvetica findfont 72.3167 sf 0 0 m (t) show NC gr [  ] 0 sd 6 lw 1469 1769 m 23 X s
 gsave  2245 1622 11 544 C 1445.86 1712.2 t 0 r /Helvetica findfont 72.3167 sf 0 0 m (t) show NC gr  1 0.8 0.2 c[  12 12 ] 0 sd 9 lw 1296 1729 m 125 X s black
 gsave  2245 1622 11 544 C 1445.86 1624.69 t 0 r /Helvetica findfont 72.3167 sf 0 0 m (Diboson) show NC gr  0 0 1 c 1296 1642 m 125 X s
 gr  gr showpage
end
%%EOF
