%!PS-Adobe-2.0 EPSF-2.0
%%BoundingBox:  0 0 567 544
%%Title: Results/M2Data_invD0.eps: Region: invD0
%%Creator: ROOT Version 6.08/06
%%CreationDate: Mon Oct 14 09:43:40 2019
%%DocumentNeededResources: ProcSet (FontSetInit)
%%EndComments
%%BeginProlog
80 dict begin
/s {stroke} def /l {lineto} def /m {moveto} def /t {translate} def
/r {rotate} def /rl {roll}  def /R {repeat} def
/d {rlineto} def /rm {rmoveto} def /gr {grestore} def /f {eofill} def
/c {setrgbcolor} def /black {0 setgray} def /sd {setdash} def
/cl {closepath} def /sf {scalefont setfont} def /lw {setlinewidth} def
/box {m dup 0 exch d exch 0 d 0 exch neg d cl} def
/NC{systemdict begin initclip end}def/C{NC box clip newpath}def
/bl {box s} def /bf {gsave box gsave f grestore 1 lw [] 0 sd s grestore} def /Y { 0 exch d} def /X { 0 d} def 
/K {{pop pop 0 moveto} exch kshow} bind def
/ita {/ang 15 def gsave [1 0 ang dup sin exch cos div 1 0 0] concat} def 
/mp {newpath /y exch def /x exch def} def
/side {[w .77 mul w .23 mul] .385 w mul sd w 0 l currentpoint t -144 r} def
/mr {mp x y w2 0 360 arc} def /m24 {mr s} def /m20 {mr f} def
/mb {mp x y w2 add m w2 neg 0 d 0 w neg d w 0 d 0 w d cl} def
/mt {mp x y w2 add m w2 neg w neg d w 0 d cl} def
/m21 {mb f} def /m25 {mb s} def /m22 {mt f} def /m26{mt s} def
/m23 {mp x y w2 sub m w2 w d w neg 0 d cl f} def
/m27 {mp x y w2 add m w3 neg w2 neg d w3 w2 neg d w3 w2 d cl s} def
/m28 {mp x w2 sub y w2 sub w3 add m w3 0 d  0 w3 neg d w3 0 d 0 w3 d w3 0 d  0 w3 d w3 neg 0 d 0 w3 d w3 neg 0 d 0 w3 neg d w3 neg 0 d cl s } def
/m29 {mp gsave x w2 sub y w2 add w3 sub m currentpoint t 4 {side} repeat cl fill gr} def
/m30 {mp gsave x w2 sub y w2 add w3 sub m currentpoint t 4 {side} repeat cl s gr} def
/m31 {mp x y w2 sub m 0 w d x w2 sub y m w 0 d x w2 sub y w2 add m w w neg d x w2 sub y w2 sub m w w d s} def
/m32 {mp x y w2 sub m w2 w d w neg 0 d cl s} def
/m33 {mp x y w2 add m w3 neg w2 neg d w3 w2 neg d w3 w2 d cl f} def
/m34 {mp x w2 sub y w2 sub w3 add m w3 0 d  0 w3 neg d w3 0 d 0 w3 d w3 0 d  0 w3 d w3 neg 0 d 0 w3 d w3 neg 0 d 0 w3 neg d w3 neg 0 d cl f } def
/m2 {mp x y w2 sub m 0 w d x w2 sub y m w 0 d s} def
/m5 {mp x w2 sub y w2 sub m w w d x w2 sub y w2 add m w w neg d s} def
%%IncludeResource: ProcSet (FontSetInit)
%%IncludeResource: font Times-Roman
%%IncludeResource: font Times-Italic
%%IncludeResource: font Times-Bold
%%IncludeResource: font Times-BoldItalic
%%IncludeResource: font Helvetica
%%IncludeResource: font Helvetica-Oblique
%%IncludeResource: font Helvetica-Bold
%%IncludeResource: font Helvetica-BoldOblique
%%IncludeResource: font Courier
%%IncludeResource: font Courier-Oblique
%%IncludeResource: font Courier-Bold
%%IncludeResource: font Courier-BoldOblique
%%IncludeResource: font Symbol
%%IncludeResource: font ZapfDingbats
/reEncode {exch findfont dup length dict begin {1 index /FID eq  {pop pop} {def} ifelse } forall /Encoding exch def currentdict end dup /FontName get exch definefont pop } def [/Times-Bold /Times-Italic /Times-BoldItalic /Helvetica /Helvetica-Oblique
 /Helvetica-Bold /Helvetica-BoldOblique /Courier /Courier-Oblique /Courier-Bold /Courier-BoldOblique /Times-Roman /AvantGarde-Book /AvantGarde-BookOblique /AvantGarde-Demi /AvantGarde-DemiOblique /Bookman-Demi /Bookman-DemiItalic /Bookman-Light
 /Bookman-LightItalic /Helvetica-Narrow /Helvetica-Narrow-Bold /Helvetica-Narrow-BoldOblique /Helvetica-Narrow-Oblique /NewCenturySchlbk-Roman /NewCenturySchlbk-Bold /NewCenturySchlbk-BoldItalic /NewCenturySchlbk-Italic /Palatino-Bold
 /Palatino-BoldItalic /Palatino-Italic /Palatino-Roman ] {ISOLatin1Encoding reEncode } forall
%%EndProlog
%%BeginSetup
%%EndSetup
newpath  gsave  .25 .25 scale  gsave  0 0 t black[  ] 0 sd 3 lw 1 1 1 c 2268 2176 0 0 bf black 1 1 1 c 2245 533 11 11 bf black 1 1 1 c 1661 288 371 224 bf black 1661 288 371 224 bl 371 224 m 1661 X s 371 512 m 1661 X s 371 224 m 288 Y s[ 4 8] 0 sd
 2032 224 m -1661 X s 2032 296 m -1661 X s 2032 368 m -1661 X s 2032 440 m -1661 X s 2032 512 m -1661 X s[  ] 0 sd 2032 224 m 288 Y s 371 224 m 1661 X s
 gsave  2245 533 11 11 C 1849.18 98.9272 t 0 r /Helvetica findfont 64.7479 sf 0 0 m ( [GeV]) show NC gr 
 gsave  2245 533 11 11 C 1803.52 76.0979 t 0 r /Helvetica findfont 41.8957 sf 0 0 m (12) show NC gr 
 gsave  2245 533 11 11 C 1750.25 98.9272 t 0 r /Helvetica findfont 64.7479 sf 0 0 m (m) show NC gr  371 236 m -12 Y s 430 230 m -6 Y s 489 230 m -6 Y s 549 230 m -6 Y s 608 230 m -6 Y s 667 236 m -12 Y s 727 230 m -6 Y s 786 230 m -6 Y s 845 230 m -6
 Y s 905 230 m -6 Y s 964 236 m -12 Y s 1023 230 m -6 Y s 1083 230 m -6 Y s 1142 230 m -6 Y s 1201 230 m -6 Y s 1261 236 m -12 Y s 1320 230 m -6 Y s 1379 230 m -6 Y s 1439 230 m -6 Y s 1498 230 m -6 Y s 1557 236 m -12 Y s 1617 230 m -6 Y s 1676 230 m
 -6 Y s 1735 230 m -6 Y s 1795 230 m -6 Y s 1854 236 m -12 Y s 1854 236 m -12 Y s 1913 230 m -6 Y s 1973 230 m -6 Y s
 gsave  2245 533 11 11 C 334.831 171.22 t 0 r /Helvetica findfont 57.1305 sf 0 0 m (50) show NC gr 
 gsave  2245 533 11 11 C 631.612 171.22 t 0 r /Helvetica findfont 57.1305 sf 0 0 m (60) show NC gr 
 gsave  2245 533 11 11 C 928.394 171.22 t 0 r /Helvetica findfont 57.1305 sf 0 0 m (70) show NC gr 
 gsave  2245 533 11 11 C 1225.18 171.22 t 0 r /Helvetica findfont 57.1305 sf 0 0 m (80) show NC gr 
 gsave  2245 533 11 11 C 1521.96 171.22 t 0 r /Helvetica findfont 57.1305 sf 0 0 m (90) show NC gr 
 gsave  2245 533 11 11 C 1803.52 171.22 t 0 r /Helvetica findfont 57.1305 sf 0 0 m (100) show NC gr  371 512 m 1661 X s 371 500 m 12 Y s 430 506 m 6 Y s 489 506 m 6 Y s 549 506 m 6 Y s 608 506 m 6 Y s 667 500 m 12 Y s 727 506 m 6 Y s 786 506 m 6 Y s
 845 506 m 6 Y s 905 506 m 6 Y s 964 500 m 12 Y s 1023 506 m 6 Y s 1083 506 m 6 Y s 1142 506 m 6 Y s 1201 506 m 6 Y s 1261 500 m 12 Y s 1320 506 m 6 Y s 1379 506 m 6 Y s 1439 506 m 6 Y s 1498 506 m 6 Y s 1557 500 m 12 Y s 1617 506 m 6 Y s 1676 506 m
 6 Y s 1735 506 m 6 Y s 1795 506 m 6 Y s 1854 500 m 12 Y s 1854 500 m 12 Y s 1913 506 m 6 Y s 1973 506 m 6 Y s 371 224 m 288 Y s
 gsave  2245 533 11 11 C 156.001 407.124 t 90 r /Helvetica findfont 64.7479 sf 0 0 m (Pull) show NC gr  407 224 m -36 X s 389 242 m -18 X s 389 260 m -18 X s 389 278 m -18 X s 407 296 m -36 X s 389 314 m -18 X s 389 332 m -18 X s 389 350 m -18 X s
 407 368 m -36 X s 389 386 m -18 X s 389 404 m -18 X s 389 422 m -18 X s 407 440 m -36 X s 389 458 m -18 X s 389 476 m -18 X s 389 494 m -18 X s 407 512 m -36 X s
 gsave  2245 533 11 11 C 327.221 201.659 t 0 r /Helvetica findfont 57.1305 sf 0 0 m (4) show NC gr 
 gsave  2245 533 11 11 C 292.977 201.659 t 0 r /Symbol findfont 57.1305 sf 0 0 m (-) show NC gr 
 gsave  2245 533 11 11 C 327.221 273.952 t 0 r /Helvetica findfont 57.1305 sf 0 0 m (2) show NC gr 
 gsave  2245 533 11 11 C 292.977 273.952 t 0 r /Symbol findfont 57.1305 sf 0 0 m (-) show NC gr 
 gsave  2245 533 11 11 C 327.221 346.245 t 0 r /Helvetica findfont 57.1305 sf 0 0 m (0) show NC gr 
 gsave  2245 533 11 11 C 327.221 418.538 t 0 r /Helvetica findfont 57.1305 sf 0 0 m (2) show NC gr 
 gsave  2245 533 11 11 C 327.221 490.831 t 0 r /Helvetica findfont 57.1305 sf 0 0 m (4) show NC gr  2032 224 m 288 Y s 1996 224 m 36 X s 2014 242 m 18 X s 2014 260 m 18 X s 2014 278 m 18 X s 1996 296 m 36 X s 2014 314 m 18 X s 2014 332 m 18 X s 2014
 350 m 18 X s 1996 368 m 36 X s 2014 386 m 18 X s 2014 404 m 18 X s 2014 422 m 18 X s 1996 440 m 36 X s 2014 458 m 18 X s 2014 476 m 18 X s 2014 494 m 18 X s 1996 512 m 36 X s 400 427 m 40 Y s 400 467 m cl s 400 427 m -36 Y s 400 391 m cl s 460 431 m
 40 Y s 460 471 m cl s 460 431 m -36 Y s 460 395 m cl s 519 362 m 36 Y s 519 398 m cl s 519 362 m -32 Y s 519 330 m cl s 578 350 m 36 Y s 578 386 m cl s 578 350 m -33 Y s 578 317 m cl s 638 349 m 36 Y s 638 385 m cl s 638 349 m -33 Y s 638 316 m cl s
 697 352 m 36 Y s 697 388 m cl s 697 352 m -32 Y s 697 320 m cl s 756 349 m 36 Y s 756 385 m cl s 756 349 m -32 Y s 756 317 m cl s 816 341 m 36 Y s 816 377 m cl s 816 341 m -32 Y s 816 309 m cl s 875 361 m 36 Y s 875 397 m cl s 875 361 m -32 Y s 875
 329 m cl s 934 371 m 40 Y s 934 411 m cl s 934 371 m -36 Y s 934 335 m cl s 994 289 m 36 Y s 994 325 m cl s 994 289 m -32 Y s 994 257 m cl s 1053 368 m 36 Y s 1053 404 m cl s 1053 368 m -33 Y s 1053 335 m cl s 1112 357 m 36 Y s 1112 393 m cl s 1112
 357 m -33 Y s 1112 324 m cl s 1172 352 m 36 Y s 1172 388 m cl s 1172 352 m -33 Y s 1172 319 m cl s 1231 320 m 36 Y s 1231 356 m cl s 1231 320 m -33 Y s 1231 287 m cl s 1290 378 m 39 Y s 1290 417 m cl s 1290 378 m -36 Y s 1290 342 m cl s 1350 312 m
 36 Y s 1350 348 m cl s 1350 312 m -34 Y s 1350 278 m cl s 1409 314 m 36 Y s 1409 350 m cl s 1409 314 m -34 Y s 1409 280 m cl s 1468 351 m 36 Y s 1468 387 m cl s 1468 351 m -34 Y s 1468 317 m cl s 1528 242 m 36 Y s 1528 278 m cl s 1528 242 m -18 Y s
 1528 224 m cl s 1587 305 m 36 Y s 1587 341 m cl s 1587 305 m -35 Y s 1587 270 m cl s 1646 294 m 36 Y s 1646 330 m cl s 1646 294 m -35 Y s 1646 259 m cl s 1706 391 m 38 Y s 1706 429 m cl s 1706 391 m -36 Y s 1706 355 m cl s 1765 430 m 39 Y s 1765 469
 m cl s 1765 430 m -36 Y s 1765 394 m cl s 1824 270 m 36 Y s 1824 306 m cl s 1824 270 m -33 Y s 1824 237 m cl s 1884 407 m 40 Y s 1884 447 m cl s 1884 407 m -36 Y s 1884 371 m cl s 1943 376 m 40 Y s 1943 416 m cl s 1943 376 m -36 Y s 1943 340 m cl s
 2002 345 m 36 Y s 2002 381 m cl s 2002 345 m -32 Y s 2002 313 m cl s /w 37 def /w2 {w 2 div} def /w3 {w 3 div} def 400 427 460 431 519 362 578 350 638 349 697 352 756 349 816 341 875 361 934 371 994 289 1053 368 1112 357 1172 352 1231 320 1290 378
 1350 312 1409 314 1468 351 1528 242 1587 305 1646 294 1706 391 1765 430 1824 270 1884 407 1943 376 2002 345 28 { m20} R 371 224 m 1661 X s 371 236 m -12 Y s 430 230 m -6 Y s 489 230 m -6 Y s 549 230 m -6 Y s 608 230 m -6 Y s 667 236 m -12 Y s 727
 230 m -6 Y s 786 230 m -6 Y s 845 230 m -6 Y s 905 230 m -6 Y s 964 236 m -12 Y s 1023 230 m -6 Y s 1083 230 m -6 Y s 1142 230 m -6 Y s 1201 230 m -6 Y s 1261 236 m -12 Y s 1320 230 m -6 Y s 1379 230 m -6 Y s 1439 230 m -6 Y s 1498 230 m -6 Y s 1557
 236 m -12 Y s 1617 230 m -6 Y s 1676 230 m -6 Y s 1735 230 m -6 Y s 1795 230 m -6 Y s 1854 236 m -12 Y s 1854 236 m -12 Y s 1913 230 m -6 Y s 1973 230 m -6 Y s 371 512 m 1661 X s 371 500 m 12 Y s 430 506 m 6 Y s 489 506 m 6 Y s 549 506 m 6 Y s 608
 506 m 6 Y s 667 500 m 12 Y s 727 506 m 6 Y s 786 506 m 6 Y s 845 506 m 6 Y s 905 506 m 6 Y s 964 500 m 12 Y s 1023 506 m 6 Y s 1083 506 m 6 Y s 1142 506 m 6 Y s 1201 506 m 6 Y s 1261 500 m 12 Y s 1320 506 m 6 Y s 1379 506 m 6 Y s 1439 506 m 6 Y s
 1498 506 m 6 Y s 1557 500 m 12 Y s 1617 506 m 6 Y s 1676 506 m 6 Y s 1735 506 m 6 Y s 1795 506 m 6 Y s 1854 500 m 12 Y s 1854 500 m 12 Y s 1913 506 m 6 Y s 1973 506 m 6 Y s 371 224 m 288 Y s 407 224 m -36 X s 389 242 m -18 X s 389 260 m -18 X s 389
 278 m -18 X s 407 296 m -36 X s 389 314 m -18 X s 389 332 m -18 X s 389 350 m -18 X s 407 368 m -36 X s 389 386 m -18 X s 389 404 m -18 X s 389 422 m -18 X s 407 440 m -36 X s 389 458 m -18 X s 389 476 m -18 X s 389 494 m -18 X s 407 512 m -36 X s
 2032 224 m 288 Y s 1996 224 m 36 X s 2014 242 m 18 X s 2014 260 m 18 X s 2014 278 m 18 X s 1996 296 m 36 X s 2014 314 m 18 X s 2014 332 m 18 X s 2014 350 m 18 X s 1996 368 m 36 X s 2014 386 m 18 X s 2014 404 m 18 X s 2014 422 m 18 X s 1996 440 m 36
 X s 2014 458 m 18 X s 2014 476 m 18 X s 2014 494 m 18 X s 1996 512 m 36 X s[  12 12 ] 0 sd 6 lw 371 368 m 1661 X s[  ] 0 sd 3 lw 1 1 1 c 2245 1622 11 544 bf black 1 1 1 c 1661 1507 371 577 bf black 1661 1507 371 577 bl 371 577 m 1661 X s 371 613 m
 -36 Y s 430 595 m -18 Y s 489 595 m -18 Y s 549 595 m -18 Y s 608 595 m -18 Y s 667 613 m -36 Y s 727 595 m -18 Y s 786 595 m -18 Y s 845 595 m -18 Y s 905 595 m -18 Y s 964 613 m -36 Y s 1023 595 m -18 Y s 1083 595 m -18 Y s 1142 595 m -18 Y s 1201
 595 m -18 Y s 1261 613 m -36 Y s 1320 595 m -18 Y s 1379 595 m -18 Y s 1439 595 m -18 Y s 1498 595 m -18 Y s 1557 613 m -36 Y s 1617 595 m -18 Y s 1676 595 m -18 Y s 1735 595 m -18 Y s 1795 595 m -18 Y s 1854 613 m -36 Y s 1854 613 m -36 Y s 1913
 595 m -18 Y s 1973 595 m -18 Y s 371 2084 m 1661 X s 371 2048 m 36 Y s 430 2066 m 18 Y s 489 2066 m 18 Y s 549 2066 m 18 Y s 608 2066 m 18 Y s 667 2048 m 36 Y s 727 2066 m 18 Y s 786 2066 m 18 Y s 845 2066 m 18 Y s 905 2066 m 18 Y s 964 2048 m 36 Y
 s 1023 2066 m 18 Y s 1083 2066 m 18 Y s 1142 2066 m 18 Y s 1201 2066 m 18 Y s 1261 2048 m 36 Y s 1320 2066 m 18 Y s 1379 2066 m 18 Y s 1439 2066 m 18 Y s 1498 2066 m 18 Y s 1557 2048 m 36 Y s 1617 2066 m 18 Y s 1676 2066 m 18 Y s 1735 2066 m 18 Y s
 1795 2066 m 18 Y s 1854 2048 m 36 Y s 1854 2048 m 36 Y s 1913 2066 m 18 Y s 1973 2066 m 18 Y s 371 577 m 1507 Y s
 gsave  2245 1622 11 544 C 152.196 1666.54 t 90 r /Helvetica findfont 64.7045 sf 0 0 m (Events / 2GeV) show NC gr  433 577 m -62 X s 402 638 m -31 X s 402 699 m -31 X s 402 760 m -31 X s 433 821 m -62 X s 402 882 m -31 X s 402 943 m -31 X s 402 1004
 m -31 X s 433 1066 m -62 X s 402 1127 m -31 X s 402 1188 m -31 X s 402 1249 m -31 X s 433 1310 m -62 X s 402 1371 m -31 X s 402 1432 m -31 X s 402 1494 m -31 X s 433 1555 m -62 X s 402 1616 m -31 X s 402 1677 m -31 X s 402 1738 m -31 X s 433 1799 m
 -62 X s 402 1860 m -31 X s 402 1922 m -31 X s 402 1983 m -31 X s 433 2044 m -62 X s 433 2044 m -62 X s
 gsave  2245 1622 11 544 C 327.221 555.514 t 0 r /Helvetica findfont 57.0922 sf 0 0 m (0) show NC gr 
 gsave  2245 1622 11 544 C 262.538 799.028 t 0 r /Helvetica findfont 57.0922 sf 0 0 m (200) show NC gr 
 gsave  2245 1622 11 544 C 262.538 1046.35 t 0 r /Helvetica findfont 57.0922 sf 0 0 m (400) show NC gr 
 gsave  2245 1622 11 544 C 262.538 1289.86 t 0 r /Helvetica findfont 57.0922 sf 0 0 m (600) show NC gr 
 gsave  2245 1622 11 544 C 262.538 1533.37 t 0 r /Helvetica findfont 57.0922 sf 0 0 m (800) show NC gr 
 gsave  2245 1622 11 544 C 232.099 1776.89 t 0 r /Helvetica findfont 57.0922 sf 0 0 m (1000) show NC gr 
 gsave  2245 1622 11 544 C 232.099 2024.2 t 0 r /Helvetica findfont 57.0922 sf 0 0 m (1200) show NC gr  2032 577 m 1507 Y s 1969 577 m 63 X s 2001 638 m 31 X s 2001 699 m 31 X s 2001 760 m 31 X s 1969 821 m 63 X s 2001 882 m 31 X s 2001 943 m 31 X s
 2001 1004 m 31 X s 1969 1066 m 63 X s 2001 1127 m 31 X s 2001 1188 m 31 X s 2001 1249 m 31 X s 1969 1310 m 63 X s 2001 1371 m 31 X s 2001 1432 m 31 X s 2001 1494 m 31 X s 1969 1555 m 63 X s 2001 1616 m 31 X s 2001 1677 m 31 X s 2001 1738 m 31 X s
 1969 1799 m 63 X s 2001 1860 m 31 X s 2001 1922 m 31 X s 2001 1983 m 31 X s 1969 2044 m 63 X s 1969 2044 m 63 X s 400 701 m -29 X s 371 701 m cl s 400 701 m 30 X s 430 701 m cl s 400 701 m 13 Y s 400 714 m cl s 400 701 m -12 Y s 400 689 m cl s 460
 709 m -30 X s 430 709 m cl s 460 709 m 29 X s 489 709 m cl s 460 709 m 13 Y s 460 722 m cl s 460 709 m -13 Y s 460 696 m cl s 519 690 m -30 X s 489 690 m cl s 519 690 m 30 X s 549 690 m cl s 519 690 m 13 Y s 519 703 m cl s 519 690 m -12 Y s 519 678
 m cl s 578 690 m -29 X s 549 690 m cl s 578 690 m 30 X s 608 690 m cl s 578 690 m 13 Y s 578 703 m cl s 578 690 m -12 Y s 578 678 m cl s 638 694 m -30 X s 608 694 m cl s 638 694 m 29 X s 667 694 m cl s 638 694 m 13 Y s 638 707 m cl s 638 694 m -12 Y
 s 638 682 m cl s 697 699 m -30 X s 667 699 m cl s 697 699 m 30 X s 727 699 m cl s 697 699 m 13 Y s 697 712 m cl s 697 699 m -12 Y s 697 687 m cl s 756 701 m -29 X s 727 701 m cl s 756 701 m 30 X s 786 701 m cl s 756 701 m 13 Y s 756 714 m cl s 756
 701 m -12 Y s 756 689 m cl s 816 701 m -30 X s 786 701 m cl s 816 701 m 29 X s 845 701 m cl s 816 701 m 13 Y s 816 714 m cl s 816 701 m -12 Y s 816 689 m cl s 875 711 m -30 X s 845 711 m cl s 875 711 m 30 X s 905 711 m cl s 875 711 m 13 Y s 875 724
 m cl s 875 711 m -12 Y s 875 699 m cl s 934 717 m -29 X s 905 717 m cl s 934 717 m 30 X s 964 717 m cl s 934 717 m 14 Y s 934 731 m cl s 934 717 m -12 Y s 934 705 m cl s 994 690 m -30 X s 964 690 m cl s 994 690 m 29 X s 1023 690 m cl s 994 690 m 13
 Y s 994 703 m cl s 994 690 m -12 Y s 994 678 m cl s 1053 722 m -30 X s 1023 722 m cl s 1053 722 m 30 X s 1083 722 m cl s 1053 722 m 14 Y s 1053 736 m cl s 1053 722 m -13 Y s 1053 709 m cl s 1112 722 m -29 X s 1083 722 m cl s 1112 722 m 30 X s 1142
 722 m cl s 1112 722 m 14 Y s 1112 736 m cl s 1112 722 m -13 Y s 1112 709 m cl s 1172 727 m -30 X s 1142 727 m cl s 1172 727 m 29 X s 1201 727 m cl s 1172 727 m 14 Y s 1172 741 m cl s 1172 727 m -13 Y s 1172 714 m cl s 1231 724 m -30 X s 1201 724 m
 cl s 1231 724 m 30 X s 1261 724 m cl s 1231 724 m 15 Y s 1231 739 m cl s 1231 724 m -12 Y s 1231 712 m cl s 1290 766 m -29 X s 1261 766 m cl s 1290 766 m 30 X s 1320 766 m cl s 1290 766 m 16 Y s 1290 782 m cl s 1290 766 m -15 Y s 1290 751 m cl s
 1350 772 m -30 X s 1320 772 m cl s 1350 772 m 29 X s 1379 772 m cl s 1350 772 m 16 Y s 1350 788 m cl s 1350 772 m -15 Y s 1350 757 m cl s 1409 842 m -30 X s 1379 842 m cl s 1409 842 m 30 X s 1439 842 m cl s 1409 842 m 18 Y s 1409 860 m cl s 1409 842
 m -18 Y s 1409 824 m cl s 1468 1015 m -29 X s 1439 1015 m cl s 1468 1015 m 30 X s 1498 1015 m cl s 1468 1015 m 24 Y s 1468 1039 m cl s 1468 1015 m -22 Y s 1468 993 m cl s 1528 1225 m -30 X s 1498 1225 m cl s 1528 1225 m 29 X s 1557 1225 m cl s 1528
 1225 m 28 Y s 1528 1253 m cl s 1528 1225 m -28 Y s 1528 1197 m cl s 1587 1474 m -30 X s 1557 1474 m cl s 1587 1474 m 30 X s 1617 1474 m cl s 1587 1474 m 34 Y s 1587 1508 m cl s 1587 1474 m -33 Y s 1587 1441 m cl s 1646 1199 m -29 X s 1617 1199 m cl
 s 1646 1199 m 30 X s 1676 1199 m cl s 1646 1199 m 28 Y s 1646 1227 m cl s 1646 1199 m -27 Y s 1646 1172 m cl s 1706 930 m -30 X s 1676 930 m cl s 1706 930 m 29 X s 1735 930 m cl s 1706 930 m 21 Y s 1706 951 m cl s 1706 930 m -20 Y s 1706 910 m cl s
 1765 794 m -30 X s 1735 794 m cl s 1765 794 m 30 X s 1795 794 m cl s 1765 794 m 17 Y s 1765 811 m cl s 1765 794 m -16 Y s 1765 778 m cl s 1824 680 m -29 X s 1795 680 m cl s 1824 680 m 30 X s 1854 680 m cl s 1824 680 m 13 Y s 1824 693 m cl s 1824 680
 m -11 Y s 1824 669 m cl s 1884 704 m -30 X s 1854 704 m cl s 1884 704 m 29 X s 1913 704 m cl s 1884 704 m 13 Y s 1884 717 m cl s 1884 704 m -12 Y s 1884 692 m cl s 1943 678 m -30 X s 1913 678 m cl s 1943 678 m 30 X s 1973 678 m cl s 1943 678 m 12 Y
 s 1943 690 m cl s 1943 678 m -11 Y s 1943 667 m cl s 2002 656 m -29 X s 1973 656 m cl s 2002 656 m 30 X s 2032 656 m cl s 2002 656 m 11 Y s 2002 667 m cl s 2002 656 m -10 Y s 2002 646 m cl s 400 701 460 709 519 690 578 690 638 694 697 699 756 701
 816 701 875 711 934 717 994 690 1053 722 1112 722 1172 727 1231 724 1290 766 1350 772 1409 842 1468 1015 1528 1225 1587 1474 1646 1199 1706 930 1765 794 1824 680 1884 704 1943 678 2002 656 28 { m20} R 0.8 0 0 c 9 lw black 0.8 0 0 c 371 679 m cl s
 371 679 m 59 6 d 59 5 d 60 5 d 59 4 d 59 4 d 60 3 d 59 4 d 59 2 d 60 3 d 59 2 d 59 3 d 60 4 d 59 5 d 59 8 d 30 6 d 30 8 d 29 11 d 30 15 d 15 9 d 15 11 d 14 14 d 15 16 d 15 19 d 15 24 d 15 29 d 7 16 d 8 18 d 7 20 d 7 23 d 8 24 d 7 27 d 8 29 d 7 32 d
 7 34 d 8 37 d 7 40 d 8 41 d 15 86 d 14 82 d 8 36 d 7 32 d 4 14 d 4 12 d 7 19 d 4 7 d 3 4 d 4 2 d 4 X 4 -3 d 3 -5 d 4 -8 d 4 -10 d 3 -12 d 4 -15 d 4 -16 d 4 -19 d 3 -20 d 4 -22 d 7 -46 d 15 -101 d 15 -101 d 7 -47 d 8 -45 d 7 -42 d 8 -38 d 7 -35 d 8
 -32 d 7 -28 d 7 -25 d 8 -22 d 7 -20 d 8 -16 d 7 -15 d 15 -24 d 15 -18 d 15 -14 d 14 -11 d 15 -9 d 30 -14 d 30 -10 d 29 -9 d 60 -13 d 59 -12 d s 0.2 0.4 0.2 c[  12 12 ] 0 sd black 0.2 0.4 0.2 c 371 578 m cl s 371 578 m 59 X 59 1 d 119 X 59 1 d 60 X
 59 1 d 59 1 d 60 2 d 59 1 d 59 3 d 60 4 d 59 5 d 59 9 d 30 6 d 30 9 d 29 11 d 30 15 d 15 10 d 15 12 d 14 13 d 15 16 d 15 20 d 15 23 d 15 28 d 7 16 d 8 18 d 7 19 d 7 22 d 8 23 d 7 26 d 8 28 d 7 30 d 7 33 d 8 34 d 15 75 d 15 77 d 14 71 d 8 30 d 7 25 d
 4 11 d 4 9 d 3 7 d 4 5 d 4 4 d 3 2 d 4 X 4 -2 d 4 -3 d 3 -6 d 4 -7 d 4 -9 d 3 -11 d 4 -13 d 4 -13 d 4 -15 d 3 -17 d 4 -17 d 7 -38 d 8 -41 d 7 -42 d 15 -86 d 15 -82 d 7 -37 d 8 -35 d 7 -32 d 8 -29 d 7 -26 d 7 -22 d 8 -21 d 7 -17 d 8 -16 d 7 -13 d 15
 -22 d 15 -16 d 15 -12 d 14 -9 d 15 -7 d 30 -10 d 30 -6 d 29 -5 d 60 -6 d 59 -4 d s 1 0.8 0.2 c black 1 0.8 0.2 c 371 675 m cl s 371 675 m 59 5 d 59 5 d 60 4 d 59 4 d 59 4 d 60 2 d 59 3 d 59 2 d 60 1 d 59 2 d 178 X 59 -1 d 60 -1 d 59 -2 d 59 -2 d 60
 -3 d 59 -3 d 59 -3 d 60 -4 d 59 -5 d 59 -5 d 60 -5 d 59 -6 d 59 -7 d 60 -6 d 59 -8 d s 0 0 1 c black 0 0 1 c 371 579 m cl s 371 579 m 118 X 60 1 d 178 X 59 -1 d 178 X 59 -1 d 178 X 60 1 d 59 X 30 1 d 29 1 d 15 1 d 15 1 d 15 1 d 15 1 d 14 2 d 8 2 d 7
 1 d 8 2 d 7 2 d 7 2 d 8 3 d 7 3 d 4 2 d 4 2 d 7 4 d 4 3 d 4 2 d 3 3 d 4 3 d 7 6 d 8 7 d 7 7 d 8 7 d 7 7 d 4 3 d 3 3 d 4 2 d 4 2 d 4 1 d 1 1 d 6 X 4 -1 d 3 -2 d 4 -2 d 4 -2 d 4 -3 d 3 -3 d 4 -5 d 7 -8 d 4 -4 d 4 -4 d 2 -2 d 1 -2 d 4 -4 d 8 -7 d 3 -4
 d 4 -3 d 4 -3 d 3 -2 d 4 -3 d 4 -2 d 4 -2 d 3 -2 d 4 -1 d 4 -1 d 7 -3 d 8 -2 d 7 -2 d 7 -1 d 15 -2 d 15 -2 d 15 -1 d 15 -1 d 15 X 29 -1 d 30 -1 d 59 -1 d 60 X 59 -1 d s black[  ] 0 sd 3 lw 371 577 m 1661 X s 371 613 m -36 Y s 430 595 m -18 Y s 489
 595 m -18 Y s 549 595 m -18 Y s 608 595 m -18 Y s 667 613 m -36 Y s 727 595 m -18 Y s 786 595 m -18 Y s 845 595 m -18 Y s 905 595 m -18 Y s 964 613 m -36 Y s 1023 595 m -18 Y s 1083 595 m -18 Y s 1142 595 m -18 Y s 1201 595 m -18 Y s 1261 613 m -36
 Y s 1320 595 m -18 Y s 1379 595 m -18 Y s 1439 595 m -18 Y s 1498 595 m -18 Y s 1557 613 m -36 Y s 1617 595 m -18 Y s 1676 595 m -18 Y s 1735 595 m -18 Y s 1795 595 m -18 Y s 1854 613 m -36 Y s 1854 613 m -36 Y s 1913 595 m -18 Y s 1973 595 m -18 Y
 s 371 2084 m 1661 X s 371 2048 m 36 Y s 430 2066 m 18 Y s 489 2066 m 18 Y s 549 2066 m 18 Y s 608 2066 m 18 Y s 667 2048 m 36 Y s 727 2066 m 18 Y s 786 2066 m 18 Y s 845 2066 m 18 Y s 905 2066 m 18 Y s 964 2048 m 36 Y s 1023 2066 m 18 Y s 1083 2066
 m 18 Y s 1142 2066 m 18 Y s 1201 2066 m 18 Y s 1261 2048 m 36 Y s 1320 2066 m 18 Y s 1379 2066 m 18 Y s 1439 2066 m 18 Y s 1498 2066 m 18 Y s 1557 2048 m 36 Y s 1617 2066 m 18 Y s 1676 2066 m 18 Y s 1735 2066 m 18 Y s 1795 2066 m 18 Y s 1854 2048 m
 36 Y s 1854 2048 m 36 Y s 1913 2066 m 18 Y s 1973 2066 m 18 Y s 371 577 m 1507 Y s 433 577 m -62 X s 402 638 m -31 X s 402 699 m -31 X s 402 760 m -31 X s 433 821 m -62 X s 402 882 m -31 X s 402 943 m -31 X s 402 1004 m -31 X s 433 1066 m -62 X s
 402 1127 m -31 X s 402 1188 m -31 X s 402 1249 m -31 X s 433 1310 m -62 X s 402 1371 m -31 X s 402 1432 m -31 X s 402 1494 m -31 X s 433 1555 m -62 X s 402 1616 m -31 X s 402 1677 m -31 X s 402 1738 m -31 X s 433 1799 m -62 X s 402 1860 m -31 X s
 402 1922 m -31 X s 402 1983 m -31 X s 433 2044 m -62 X s 433 2044 m -62 X s 2032 577 m 1507 Y s 1969 577 m 63 X s 2001 638 m 31 X s 2001 699 m 31 X s 2001 760 m 31 X s 1969 821 m 63 X s 2001 882 m 31 X s 2001 943 m 31 X s 2001 1004 m 31 X s 1969
 1066 m 63 X s 2001 1127 m 31 X s 2001 1188 m 31 X s 2001 1249 m 31 X s 1969 1310 m 63 X s 2001 1371 m 31 X s 2001 1432 m 31 X s 2001 1494 m 31 X s 1969 1555 m 63 X s 2001 1616 m 31 X s 2001 1677 m 31 X s 2001 1738 m 31 X s 1969 1799 m 63 X s 2001
 1860 m 31 X s 2001 1922 m 31 X s 2001 1983 m 31 X s 1969 2044 m 63 X s 1969 2044 m 63 X s 1 1 1 c black
 gsave  2245 1622 11 544 C 662.051 1989.96 t 0 r /Helvetica findfont 60.8983 sf 0 0 m ( Internal) show NC gr 
 gsave  2245 1622 11 544 C 452.782 1989.96 t 0 r /Helvetica-BoldOblique findfont 60.8983 sf 0 0 m (ATLAS) show NC gr 
 gsave  2245 1622 11 544 C 452.782 1902.45 t 0 r /Helvetica findfont 60.8983 sf 0 0 m (data 2015\25518 + mc16a,d,e) show NC gr 
 gsave  2245 1622 11 544 C 1034.93 1818.74 t 0 r /Helvetica findfont 41.8676 sf 0 0 m (\2551) show NC gr 
 gsave  2245 1622 11 544 C 513.661 1792.1 t 0 r /Helvetica findfont 60.8983 sf 0 0 m (=13 TeV, 138.97 fb) show NC gr 
 gsave  2245 1622 11 544 C 483.221 1792.1 t 0 r /Helvetica findfont 60.8983 sf 0 0 m (s) show NC gr  6 lw 464 1826 m 8 -38 d s 3 lw 472 1788 m 4 57 d s 476 1845 m 38 X s
 gsave  2245 1622 11 544 C 745.759 1712.2 t 0 r /Helvetica findfont 60.8983 sf 0 0 m ( CR) show NC gr 
 gsave  2245 1622 11 544 C 722.93 1689.37 t 0 r /Helvetica findfont 41.8676 sf 0 0 m (0) show NC gr 
 gsave  2245 1622 11 544 C 452.782 1712.2 t 0 r /Helvetica findfont 60.8983 sf 0 0 m (Inverted d) show NC gr  1 1 1 c 718 438 1269 1598 bl 1269 1598 m 718 X s 1987 1598 m 438 Y s 1987 2036 m -718 X s 1269 2036 m -438 Y s black
 gsave  2245 1622 11 544 C 1445.86 1974.74 t 0 r /Helvetica findfont 72.3167 sf 0 0 m (Data) show NC gr  1296 1992 m 125 X s 1358 1966 m 52 Y s 1358 1992 m20
 gsave  2245 1622 11 544 C 1445.86 1887.23 t 0 r /Helvetica findfont 72.3167 sf 0 0 m (Total BG) show NC gr  0.8 0 0 c 9 lw 1296 1904 m 125 X s black
 gsave  2245 1622 11 544 C 1445.86 1799.71 t 0 r /Helvetica findfont 72.3167 sf 0 0 m (Z+HFjets) show NC gr  0.2 0.4 0.2 c[  12 12 ] 0 sd 1296 1817 m 125 X s black
 gsave  2245 1622 11 544 C 1468.69 1712.2 t 0 r /Helvetica findfont 72.3167 sf 0 0 m (t) show NC gr [  ] 0 sd 6 lw 1469 1769 m 23 X s
 gsave  2245 1622 11 544 C 1445.86 1712.2 t 0 r /Helvetica findfont 72.3167 sf 0 0 m (t) show NC gr  1 0.8 0.2 c[  12 12 ] 0 sd 9 lw 1296 1729 m 125 X s black
 gsave  2245 1622 11 544 C 1445.86 1624.69 t 0 r /Helvetica findfont 72.3167 sf 0 0 m (Diboson) show NC gr  0 0 1 c 1296 1642 m 125 X s
 gr  gr showpage
end
%%EOF
