%!PS-Adobe-2.0 EPSF-2.0
%%BoundingBox:  0 0 567 544
%%Title: Results/M2Data_invIso.eps: Region: invIso
%%Creator: ROOT Version 6.08/06
%%CreationDate: Mon Oct 14 09:43:40 2019
%%DocumentNeededResources: ProcSet (FontSetInit)
%%EndComments
%%BeginProlog
80 dict begin
/s {stroke} def /l {lineto} def /m {moveto} def /t {translate} def
/r {rotate} def /rl {roll}  def /R {repeat} def
/d {rlineto} def /rm {rmoveto} def /gr {grestore} def /f {eofill} def
/c {setrgbcolor} def /black {0 setgray} def /sd {setdash} def
/cl {closepath} def /sf {scalefont setfont} def /lw {setlinewidth} def
/box {m dup 0 exch d exch 0 d 0 exch neg d cl} def
/NC{systemdict begin initclip end}def/C{NC box clip newpath}def
/bl {box s} def /bf {gsave box gsave f grestore 1 lw [] 0 sd s grestore} def /Y { 0 exch d} def /X { 0 d} def 
/K {{pop pop 0 moveto} exch kshow} bind def
/ita {/ang 15 def gsave [1 0 ang dup sin exch cos div 1 0 0] concat} def 
/mp {newpath /y exch def /x exch def} def
/side {[w .77 mul w .23 mul] .385 w mul sd w 0 l currentpoint t -144 r} def
/mr {mp x y w2 0 360 arc} def /m24 {mr s} def /m20 {mr f} def
/mb {mp x y w2 add m w2 neg 0 d 0 w neg d w 0 d 0 w d cl} def
/mt {mp x y w2 add m w2 neg w neg d w 0 d cl} def
/m21 {mb f} def /m25 {mb s} def /m22 {mt f} def /m26{mt s} def
/m23 {mp x y w2 sub m w2 w d w neg 0 d cl f} def
/m27 {mp x y w2 add m w3 neg w2 neg d w3 w2 neg d w3 w2 d cl s} def
/m28 {mp x w2 sub y w2 sub w3 add m w3 0 d  0 w3 neg d w3 0 d 0 w3 d w3 0 d  0 w3 d w3 neg 0 d 0 w3 d w3 neg 0 d 0 w3 neg d w3 neg 0 d cl s } def
/m29 {mp gsave x w2 sub y w2 add w3 sub m currentpoint t 4 {side} repeat cl fill gr} def
/m30 {mp gsave x w2 sub y w2 add w3 sub m currentpoint t 4 {side} repeat cl s gr} def
/m31 {mp x y w2 sub m 0 w d x w2 sub y m w 0 d x w2 sub y w2 add m w w neg d x w2 sub y w2 sub m w w d s} def
/m32 {mp x y w2 sub m w2 w d w neg 0 d cl s} def
/m33 {mp x y w2 add m w3 neg w2 neg d w3 w2 neg d w3 w2 d cl f} def
/m34 {mp x w2 sub y w2 sub w3 add m w3 0 d  0 w3 neg d w3 0 d 0 w3 d w3 0 d  0 w3 d w3 neg 0 d 0 w3 d w3 neg 0 d 0 w3 neg d w3 neg 0 d cl f } def
/m2 {mp x y w2 sub m 0 w d x w2 sub y m w 0 d s} def
/m5 {mp x w2 sub y w2 sub m w w d x w2 sub y w2 add m w w neg d s} def
%%IncludeResource: ProcSet (FontSetInit)
%%IncludeResource: font Times-Roman
%%IncludeResource: font Times-Italic
%%IncludeResource: font Times-Bold
%%IncludeResource: font Times-BoldItalic
%%IncludeResource: font Helvetica
%%IncludeResource: font Helvetica-Oblique
%%IncludeResource: font Helvetica-Bold
%%IncludeResource: font Helvetica-BoldOblique
%%IncludeResource: font Courier
%%IncludeResource: font Courier-Oblique
%%IncludeResource: font Courier-Bold
%%IncludeResource: font Courier-BoldOblique
%%IncludeResource: font Symbol
%%IncludeResource: font ZapfDingbats
/reEncode {exch findfont dup length dict begin {1 index /FID eq  {pop pop} {def} ifelse } forall /Encoding exch def currentdict end dup /FontName get exch definefont pop } def [/Times-Bold /Times-Italic /Times-BoldItalic /Helvetica /Helvetica-Oblique
 /Helvetica-Bold /Helvetica-BoldOblique /Courier /Courier-Oblique /Courier-Bold /Courier-BoldOblique /Times-Roman /AvantGarde-Book /AvantGarde-BookOblique /AvantGarde-Demi /AvantGarde-DemiOblique /Bookman-Demi /Bookman-DemiItalic /Bookman-Light
 /Bookman-LightItalic /Helvetica-Narrow /Helvetica-Narrow-Bold /Helvetica-Narrow-BoldOblique /Helvetica-Narrow-Oblique /NewCenturySchlbk-Roman /NewCenturySchlbk-Bold /NewCenturySchlbk-BoldItalic /NewCenturySchlbk-Italic /Palatino-Bold
 /Palatino-BoldItalic /Palatino-Italic /Palatino-Roman ] {ISOLatin1Encoding reEncode } forall
%%EndProlog
%%BeginSetup
%%EndSetup
newpath  gsave  .25 .25 scale  gsave  0 0 t black[  ] 0 sd 3 lw 1 1 1 c 2268 2176 0 0 bf black 1 1 1 c 2245 533 11 11 bf black 1 1 1 c 1661 288 371 224 bf black 1661 288 371 224 bl 371 224 m 1661 X s 371 512 m 1661 X s 371 224 m 288 Y s[ 4 8] 0 sd
 2032 224 m -1661 X s 2032 296 m -1661 X s 2032 368 m -1661 X s 2032 440 m -1661 X s 2032 512 m -1661 X s[  ] 0 sd 2032 224 m 288 Y s 371 224 m 1661 X s
 gsave  2245 533 11 11 C 1849.18 98.9272 t 0 r /Helvetica findfont 64.7479 sf 0 0 m ( [GeV]) show NC gr 
 gsave  2245 533 11 11 C 1803.52 76.0979 t 0 r /Helvetica findfont 41.8957 sf 0 0 m (12) show NC gr 
 gsave  2245 533 11 11 C 1750.25 98.9272 t 0 r /Helvetica findfont 64.7479 sf 0 0 m (m) show NC gr  371 236 m -12 Y s 430 230 m -6 Y s 489 230 m -6 Y s 549 230 m -6 Y s 608 230 m -6 Y s 667 236 m -12 Y s 727 230 m -6 Y s 786 230 m -6 Y s 845 230 m -6
 Y s 905 230 m -6 Y s 964 236 m -12 Y s 1023 230 m -6 Y s 1083 230 m -6 Y s 1142 230 m -6 Y s 1201 230 m -6 Y s 1261 236 m -12 Y s 1320 230 m -6 Y s 1379 230 m -6 Y s 1439 230 m -6 Y s 1498 230 m -6 Y s 1557 236 m -12 Y s 1617 230 m -6 Y s 1676 230 m
 -6 Y s 1735 230 m -6 Y s 1795 230 m -6 Y s 1854 236 m -12 Y s 1854 236 m -12 Y s 1913 230 m -6 Y s 1973 230 m -6 Y s
 gsave  2245 533 11 11 C 334.831 171.22 t 0 r /Helvetica findfont 57.1305 sf 0 0 m (50) show NC gr 
 gsave  2245 533 11 11 C 631.612 171.22 t 0 r /Helvetica findfont 57.1305 sf 0 0 m (60) show NC gr 
 gsave  2245 533 11 11 C 928.394 171.22 t 0 r /Helvetica findfont 57.1305 sf 0 0 m (70) show NC gr 
 gsave  2245 533 11 11 C 1225.18 171.22 t 0 r /Helvetica findfont 57.1305 sf 0 0 m (80) show NC gr 
 gsave  2245 533 11 11 C 1521.96 171.22 t 0 r /Helvetica findfont 57.1305 sf 0 0 m (90) show NC gr 
 gsave  2245 533 11 11 C 1803.52 171.22 t 0 r /Helvetica findfont 57.1305 sf 0 0 m (100) show NC gr  371 512 m 1661 X s 371 500 m 12 Y s 430 506 m 6 Y s 489 506 m 6 Y s 549 506 m 6 Y s 608 506 m 6 Y s 667 500 m 12 Y s 727 506 m 6 Y s 786 506 m 6 Y s
 845 506 m 6 Y s 905 506 m 6 Y s 964 500 m 12 Y s 1023 506 m 6 Y s 1083 506 m 6 Y s 1142 506 m 6 Y s 1201 506 m 6 Y s 1261 500 m 12 Y s 1320 506 m 6 Y s 1379 506 m 6 Y s 1439 506 m 6 Y s 1498 506 m 6 Y s 1557 500 m 12 Y s 1617 506 m 6 Y s 1676 506 m
 6 Y s 1735 506 m 6 Y s 1795 506 m 6 Y s 1854 500 m 12 Y s 1854 500 m 12 Y s 1913 506 m 6 Y s 1973 506 m 6 Y s 371 224 m 288 Y s
 gsave  2245 533 11 11 C 156.001 407.124 t 90 r /Helvetica findfont 64.7479 sf 0 0 m (Pull) show NC gr  407 224 m -36 X s 389 242 m -18 X s 389 260 m -18 X s 389 278 m -18 X s 407 296 m -36 X s 389 314 m -18 X s 389 332 m -18 X s 389 350 m -18 X s
 407 368 m -36 X s 389 386 m -18 X s 389 404 m -18 X s 389 422 m -18 X s 407 440 m -36 X s 389 458 m -18 X s 389 476 m -18 X s 389 494 m -18 X s 407 512 m -36 X s
 gsave  2245 533 11 11 C 327.221 201.659 t 0 r /Helvetica findfont 57.1305 sf 0 0 m (4) show NC gr 
 gsave  2245 533 11 11 C 292.977 201.659 t 0 r /Symbol findfont 57.1305 sf 0 0 m (-) show NC gr 
 gsave  2245 533 11 11 C 327.221 273.952 t 0 r /Helvetica findfont 57.1305 sf 0 0 m (2) show NC gr 
 gsave  2245 533 11 11 C 292.977 273.952 t 0 r /Symbol findfont 57.1305 sf 0 0 m (-) show NC gr 
 gsave  2245 533 11 11 C 327.221 346.245 t 0 r /Helvetica findfont 57.1305 sf 0 0 m (0) show NC gr 
 gsave  2245 533 11 11 C 327.221 418.538 t 0 r /Helvetica findfont 57.1305 sf 0 0 m (2) show NC gr 
 gsave  2245 533 11 11 C 327.221 490.831 t 0 r /Helvetica findfont 57.1305 sf 0 0 m (4) show NC gr  2032 224 m 288 Y s 1996 224 m 36 X s 2014 242 m 18 X s 2014 260 m 18 X s 2014 278 m 18 X s 1996 296 m 36 X s 2014 314 m 18 X s 2014 332 m 18 X s 2014
 350 m 18 X s 1996 368 m 36 X s 2014 386 m 18 X s 2014 404 m 18 X s 2014 422 m 18 X s 1996 440 m 36 X s 2014 458 m 18 X s 2014 476 m 18 X s 2014 494 m 18 X s 1996 512 m 36 X s 400 390 m 44 Y s 400 434 m cl s 400 390 m -36 Y s 400 354 m cl s 460 359 m
 36 Y s 460 395 m cl s 460 359 m -29 Y s 460 330 m cl s 519 371 m 44 Y s 519 415 m cl s 519 371 m -36 Y s 519 335 m cl s 578 379 m 44 Y s 578 423 m cl s 578 379 m -36 Y s 578 343 m cl s 638 418 m 43 Y s 638 461 m cl s 638 418 m -36 Y s 638 382 m cl s
 697 378 m 44 Y s 697 422 m cl s 697 378 m -36 Y s 697 342 m cl s 756 377 m 43 Y s 756 420 m cl s 756 377 m -36 Y s 756 341 m cl s 816 363 m 36 Y s 816 399 m cl s 816 363 m -29 Y s 816 334 m cl s 875 409 m 43 Y s 875 452 m cl s 875 409 m -36 Y s 875
 373 m cl s 934 364 m 36 Y s 934 400 m cl s 934 364 m -29 Y s 934 335 m cl s 994 338 m 36 Y s 994 374 m cl s 994 338 m -29 Y s 994 309 m cl s 1053 336 m 36 Y s 1053 372 m cl s 1053 336 m -29 Y s 1053 307 m cl s 1112 396 m 44 Y s 1112 440 m cl s 1112
 396 m -36 Y s 1112 360 m cl s 1172 392 m 44 Y s 1172 436 m cl s 1172 392 m -36 Y s 1172 356 m cl s 1231 449 m 42 Y s 1231 491 m cl s 1231 449 m -36 Y s 1231 413 m cl s 1290 416 m 42 Y s 1290 458 m cl s 1290 416 m -36 Y s 1290 380 m cl s 1350 410 m
 42 Y s 1350 452 m cl s 1350 410 m -36 Y s 1350 374 m cl s 1409 374 m 41 Y s 1409 415 m cl s 1409 374 m -36 Y s 1409 338 m cl s 1468 411 m 39 Y s 1468 450 m cl s 1468 411 m -36 Y s 1468 375 m cl s 1528 449 m 39 Y s 1528 488 m cl s 1528 449 m -36 Y s
 1528 413 m cl s 1587 411 m 38 Y s 1587 449 m cl s 1587 411 m -36 Y s 1587 375 m cl s 1646 329 m 36 Y s 1646 365 m cl s 1646 329 m -34 Y s 1646 295 m cl s 1706 445 m 39 Y s 1706 484 m cl s 1706 445 m -36 Y s 1706 409 m cl s 1765 401 m 41 Y s 1765 442
 m cl s 1765 401 m -36 Y s 1765 365 m cl s 1824 365 m 36 Y s 1824 401 m cl s 1824 365 m -30 Y s 1824 335 m cl s 1884 316 m 36 Y s 1884 352 m cl s 1884 316 m -28 Y s 1884 288 m cl s 1943 343 m 36 Y s 1943 379 m cl s 1943 343 m -27 Y s 1943 316 m cl s
 2002 389 m 46 Y s 2002 435 m cl s 2002 389 m -36 Y s 2002 353 m cl s /w 37 def /w2 {w 2 div} def /w3 {w 3 div} def 400 390 460 359 519 371 578 379 638 418 697 378 756 377 816 363 875 409 934 364 994 338 1053 336 1112 396 1172 392 1231 449 1290 416
 1350 410 1409 374 1468 411 1528 449 1587 411 1646 329 1706 445 1765 401 1824 365 1884 316 1943 343 2002 389 28 { m20} R 371 224 m 1661 X s 371 236 m -12 Y s 430 230 m -6 Y s 489 230 m -6 Y s 549 230 m -6 Y s 608 230 m -6 Y s 667 236 m -12 Y s 727
 230 m -6 Y s 786 230 m -6 Y s 845 230 m -6 Y s 905 230 m -6 Y s 964 236 m -12 Y s 1023 230 m -6 Y s 1083 230 m -6 Y s 1142 230 m -6 Y s 1201 230 m -6 Y s 1261 236 m -12 Y s 1320 230 m -6 Y s 1379 230 m -6 Y s 1439 230 m -6 Y s 1498 230 m -6 Y s 1557
 236 m -12 Y s 1617 230 m -6 Y s 1676 230 m -6 Y s 1735 230 m -6 Y s 1795 230 m -6 Y s 1854 236 m -12 Y s 1854 236 m -12 Y s 1913 230 m -6 Y s 1973 230 m -6 Y s 371 512 m 1661 X s 371 500 m 12 Y s 430 506 m 6 Y s 489 506 m 6 Y s 549 506 m 6 Y s 608
 506 m 6 Y s 667 500 m 12 Y s 727 506 m 6 Y s 786 506 m 6 Y s 845 506 m 6 Y s 905 506 m 6 Y s 964 500 m 12 Y s 1023 506 m 6 Y s 1083 506 m 6 Y s 1142 506 m 6 Y s 1201 506 m 6 Y s 1261 500 m 12 Y s 1320 506 m 6 Y s 1379 506 m 6 Y s 1439 506 m 6 Y s
 1498 506 m 6 Y s 1557 500 m 12 Y s 1617 506 m 6 Y s 1676 506 m 6 Y s 1735 506 m 6 Y s 1795 506 m 6 Y s 1854 500 m 12 Y s 1854 500 m 12 Y s 1913 506 m 6 Y s 1973 506 m 6 Y s 371 224 m 288 Y s 407 224 m -36 X s 389 242 m -18 X s 389 260 m -18 X s 389
 278 m -18 X s 407 296 m -36 X s 389 314 m -18 X s 389 332 m -18 X s 389 350 m -18 X s 407 368 m -36 X s 389 386 m -18 X s 389 404 m -18 X s 389 422 m -18 X s 407 440 m -36 X s 389 458 m -18 X s 389 476 m -18 X s 389 494 m -18 X s 407 512 m -36 X s
 2032 224 m 288 Y s 1996 224 m 36 X s 2014 242 m 18 X s 2014 260 m 18 X s 2014 278 m 18 X s 1996 296 m 36 X s 2014 314 m 18 X s 2014 332 m 18 X s 2014 350 m 18 X s 1996 368 m 36 X s 2014 386 m 18 X s 2014 404 m 18 X s 2014 422 m 18 X s 1996 440 m 36
 X s 2014 458 m 18 X s 2014 476 m 18 X s 2014 494 m 18 X s 1996 512 m 36 X s[  12 12 ] 0 sd 6 lw 371 368 m 1661 X s[  ] 0 sd 3 lw 1 1 1 c 2245 1622 11 544 bf black 1 1 1 c 1661 1507 371 577 bf black 1661 1507 371 577 bl 371 577 m 1661 X s 371 613 m
 -36 Y s 430 595 m -18 Y s 489 595 m -18 Y s 549 595 m -18 Y s 608 595 m -18 Y s 667 613 m -36 Y s 727 595 m -18 Y s 786 595 m -18 Y s 845 595 m -18 Y s 905 595 m -18 Y s 964 613 m -36 Y s 1023 595 m -18 Y s 1083 595 m -18 Y s 1142 595 m -18 Y s 1201
 595 m -18 Y s 1261 613 m -36 Y s 1320 595 m -18 Y s 1379 595 m -18 Y s 1439 595 m -18 Y s 1498 595 m -18 Y s 1557 613 m -36 Y s 1617 595 m -18 Y s 1676 595 m -18 Y s 1735 595 m -18 Y s 1795 595 m -18 Y s 1854 613 m -36 Y s 1854 613 m -36 Y s 1913
 595 m -18 Y s 1973 595 m -18 Y s 371 2084 m 1661 X s 371 2048 m 36 Y s 430 2066 m 18 Y s 489 2066 m 18 Y s 549 2066 m 18 Y s 608 2066 m 18 Y s 667 2048 m 36 Y s 727 2066 m 18 Y s 786 2066 m 18 Y s 845 2066 m 18 Y s 905 2066 m 18 Y s 964 2048 m 36 Y
 s 1023 2066 m 18 Y s 1083 2066 m 18 Y s 1142 2066 m 18 Y s 1201 2066 m 18 Y s 1261 2048 m 36 Y s 1320 2066 m 18 Y s 1379 2066 m 18 Y s 1439 2066 m 18 Y s 1498 2066 m 18 Y s 1557 2048 m 36 Y s 1617 2066 m 18 Y s 1676 2066 m 18 Y s 1735 2066 m 18 Y s
 1795 2066 m 18 Y s 1854 2048 m 36 Y s 1854 2048 m 36 Y s 1913 2066 m 18 Y s 1973 2066 m 18 Y s 371 577 m 1507 Y s
 gsave  2245 1622 11 544 C 152.196 1666.54 t 90 r /Helvetica findfont 64.7045 sf 0 0 m (Events / 2GeV) show NC gr  433 577 m -62 X s 402 631 m -31 X s 402 685 m -31 X s 402 739 m -31 X s 402 793 m -31 X s 433 847 m -62 X s 402 901 m -31 X s 402 955 m
 -31 X s 402 1009 m -31 X s 402 1064 m -31 X s 433 1118 m -62 X s 402 1172 m -31 X s 402 1226 m -31 X s 402 1280 m -31 X s 402 1334 m -31 X s 433 1388 m -62 X s 402 1442 m -31 X s 402 1497 m -31 X s 402 1551 m -31 X s 402 1605 m -31 X s 433 1659 m
 -62 X s 402 1713 m -31 X s 402 1767 m -31 X s 402 1821 m -31 X s 402 1875 m -31 X s 433 1930 m -62 X s 433 1930 m -62 X s 402 1984 m -31 X s 402 2038 m -31 X s
 gsave  2245 1622 11 544 C 327.221 555.514 t 0 r /Helvetica findfont 57.0922 sf 0 0 m (0) show NC gr 
 gsave  2245 1622 11 544 C 262.538 825.662 t 0 r /Helvetica findfont 57.0922 sf 0 0 m (100) show NC gr 
 gsave  2245 1622 11 544 C 262.538 1095.81 t 0 r /Helvetica findfont 57.0922 sf 0 0 m (200) show NC gr 
 gsave  2245 1622 11 544 C 262.538 1365.96 t 0 r /Helvetica findfont 57.0922 sf 0 0 m (300) show NC gr 
 gsave  2245 1622 11 544 C 262.538 1636.1 t 0 r /Helvetica findfont 57.0922 sf 0 0 m (400) show NC gr 
 gsave  2245 1622 11 544 C 262.538 1910.06 t 0 r /Helvetica findfont 57.0922 sf 0 0 m (500) show NC gr  2032 577 m 1507 Y s 1969 577 m 63 X s 2001 631 m 31 X s 2001 685 m 31 X s 2001 739 m 31 X s 2001 793 m 31 X s 1969 847 m 63 X s 2001 901 m 31 X s
 2001 955 m 31 X s 2001 1009 m 31 X s 2001 1064 m 31 X s 1969 1118 m 63 X s 2001 1172 m 31 X s 2001 1226 m 31 X s 2001 1280 m 31 X s 2001 1334 m 31 X s 1969 1388 m 63 X s 2001 1442 m 31 X s 2001 1497 m 31 X s 2001 1551 m 31 X s 2001 1605 m 31 X s
 1969 1659 m 63 X s 2001 1713 m 31 X s 2001 1767 m 31 X s 2001 1821 m 31 X s 2001 1875 m 31 X s 1969 1930 m 63 X s 1969 1930 m 63 X s 2001 1984 m 31 X s 2001 2038 m 31 X s 400 639 m -29 X s 371 639 m cl s 400 639 m 30 X s 430 639 m cl s 400 639 m 16
 Y s 400 655 m cl s 400 639 m -13 Y s 400 626 m cl s 460 631 m -30 X s 430 631 m cl s 460 631 m 29 X s 489 631 m cl s 460 631 m 15 Y s 460 646 m cl s 460 631 m -12 Y s 460 619 m cl s 519 639 m -30 X s 489 639 m cl s 519 639 m 30 X s 549 639 m cl s
 519 639 m 16 Y s 519 655 m cl s 519 639 m -13 Y s 519 626 m cl s 578 644 m -29 X s 549 644 m cl s 578 644 m 30 X s 608 644 m cl s 578 644 m 17 Y s 578 661 m cl s 578 644 m -13 Y s 578 631 m cl s 638 663 m -30 X s 608 663 m cl s 638 663 m 29 X s 667
 663 m cl s 638 663 m 18 Y s 638 681 m cl s 638 663 m -15 Y s 638 648 m cl s 697 647 m -30 X s 667 647 m cl s 697 647 m 30 X s 727 647 m cl s 697 647 m 17 Y s 697 664 m cl s 697 647 m -14 Y s 697 633 m cl s 756 647 m -29 X s 727 647 m cl s 756 647 m
 30 X s 786 647 m cl s 756 647 m 17 Y s 756 664 m cl s 756 647 m -14 Y s 756 633 m cl s 816 641 m -30 X s 786 641 m cl s 816 641 m 29 X s 845 641 m cl s 816 641 m 17 Y s 816 658 m cl s 816 641 m -13 Y s 816 628 m cl s 875 660 m -30 X s 845 660 m cl s
 875 660 m 30 X s 905 660 m cl s 875 660 m 18 Y s 875 678 m cl s 875 660 m -15 Y s 875 645 m cl s 934 641 m -29 X s 905 641 m cl s 934 641 m 30 X s 964 641 m cl s 934 641 m 17 Y s 934 658 m cl s 934 641 m -13 Y s 934 628 m cl s 994 631 m -30 X s 964
 631 m cl s 994 631 m 29 X s 1023 631 m cl s 994 631 m 15 Y s 994 646 m cl s 994 631 m -12 Y s 994 619 m cl s 1053 631 m -30 X s 1023 631 m cl s 1053 631 m 30 X s 1083 631 m cl s 1053 631 m 15 Y s 1053 646 m cl s 1053 631 m -12 Y s 1053 619 m cl s
 1112 658 m -29 X s 1083 658 m cl s 1112 658 m 30 X s 1142 658 m cl s 1112 658 m 17 Y s 1112 675 m cl s 1112 658 m -15 Y s 1112 643 m cl s 1172 660 m -30 X s 1142 660 m cl s 1172 660 m 29 X s 1201 660 m cl s 1172 660 m 18 Y s 1172 678 m cl s 1172 660
 m -15 Y s 1172 645 m cl s 1231 698 m -30 X s 1201 698 m cl s 1231 698 m 30 X s 1261 698 m cl s 1231 698 m 21 Y s 1231 719 m cl s 1231 698 m -18 Y s 1231 680 m cl s 1290 696 m -29 X s 1261 696 m cl s 1290 696 m 30 X s 1320 696 m cl s 1290 696 m 20 Y
 s 1290 716 m cl s 1290 696 m -18 Y s 1290 678 m cl s 1350 723 m -30 X s 1320 723 m cl s 1350 723 m 29 X s 1379 723 m cl s 1350 723 m 22 Y s 1350 745 m cl s 1350 723 m -20 Y s 1350 703 m cl s 1409 761 m -30 X s 1379 761 m cl s 1409 761 m 30 X s 1439
 761 m cl s 1409 761 m 25 Y s 1409 786 m cl s 1409 761 m -23 Y s 1409 738 m cl s 1468 920 m -29 X s 1439 920 m cl s 1468 920 m 30 X s 1498 920 m cl s 1468 920 m 32 Y s 1468 952 m cl s 1468 920 m -29 Y s 1468 891 m cl s 1528 1250 m -30 X s 1498 1250 m
 cl s 1528 1250 m 29 X s 1557 1250 m cl s 1528 1250 m 44 Y s 1528 1294 m cl s 1528 1250 m -41 Y s 1528 1209 m cl s 1587 1483 m -30 X s 1557 1483 m cl s 1587 1483 m 30 X s 1617 1483 m cl s 1587 1483 m 51 Y s 1587 1534 m cl s 1587 1483 m -48 Y s 1587
 1435 m cl s 1646 1093 m -29 X s 1617 1093 m cl s 1646 1093 m 30 X s 1676 1093 m cl s 1646 1093 m 39 Y s 1646 1132 m cl s 1646 1093 m -36 Y s 1646 1057 m cl s 1706 871 m -30 X s 1676 871 m cl s 1706 871 m 29 X s 1735 871 m cl s 1706 871 m 30 Y s 1706
 901 m cl s 1706 871 m -26 Y s 1706 845 m cl s 1765 709 m -30 X s 1735 709 m cl s 1765 709 m 30 X s 1795 709 m cl s 1765 709 m 22 Y s 1765 731 m cl s 1765 709 m -19 Y s 1765 690 m cl s 1824 650 m -29 X s 1795 650 m cl s 1824 650 m 30 X s 1854 650 m
 cl s 1824 650 m 17 Y s 1824 667 m cl s 1824 650 m -14 Y s 1824 636 m cl s 1884 614 m -30 X s 1854 614 m cl s 1884 614 m 29 X s 1913 614 m cl s 1884 614 m 13 Y s 1884 627 m cl s 1884 614 m -10 Y s 1884 604 m cl s 1943 614 m -30 X s 1913 614 m cl s
 1943 614 m 30 X s 1973 614 m cl s 1943 614 m 13 Y s 1943 627 m cl s 1943 614 m -10 Y s 1943 604 m cl s 2002 623 m -29 X s 1973 623 m cl s 2002 623 m 30 X s 2032 623 m cl s 2002 623 m 14 Y s 2002 637 m cl s 2002 623 m -12 Y s 2002 611 m cl s 400 639
 460 631 519 639 578 644 638 663 697 647 756 647 816 641 875 660 934 641 994 631 1053 631 1112 658 1172 660 1231 698 1290 696 1350 723 1409 761 1468 920 1528 1250 1587 1483 1646 1093 1706 871 1765 709 1824 650 1884 614 1943 614 2002 623 28 { m20} R
 0.8 0 0 c 9 lw black 0.8 0 0 c 371 629 m cl s 371 629 m 59 4 d 59 3 d 60 3 d 59 2 d 59 2 d 60 1 d 118 X 60 -1 d 118 X 60 2 d 59 3 d 59 5 d 30 4 d 30 6 d 29 9 d 30 11 d 30 16 d 14 11 d 15 13 d 15 15 d 15 19 d 15 23 d 15 28 d 7 17 d 7 18 d 8 20 d 7 23
 d 8 24 d 7 28 d 7 30 d 8 33 d 7 35 d 8 38 d 7 41 d 8 42 d 14 87 d 15 83 d 4 19 d 4 17 d 7 30 d 4 13 d 3 9 d 4 7 d 4 4 d 4 2 d 3 -2 d 4 -6 d 4 -9 d 3 -12 d 4 -15 d 4 -17 d 4 -20 d 3 -23 d 4 -25 d 7 -52 d 15 -111 d 8 -53 d 3 -27 d 4 -24 d 7 -47 d 8
 -42 d 7 -38 d 8 -34 d 7 -30 d 8 -27 d 7 -23 d 7 -21 d 8 -18 d 7 -16 d 8 -13 d 7 -12 d 15 -19 d 15 -14 d 15 -11 d 14 -9 d 15 -7 d 30 -10 d 30 -8 d 29 -5 d 60 -9 d 59 -6 d s 0.2 0.4 0.2 c[  12 12 ] 0 sd black 0.2 0.4 0.2 c 371 578 m cl s 371 578 m 237
 X 59 1 d 60 X 59 1 d 59 X 60 1 d 59 2 d 59 1 d 60 3 d 59 4 d 59 6 d 30 4 d 30 6 d 29 8 d 30 11 d 15 7 d 15 8 d 14 9 d 15 11 d 15 14 d 15 16 d 15 19 d 7 12 d 8 12 d 7 14 d 7 14 d 8 17 d 7 18 d 8 19 d 7 21 d 7 23 d 8 24 d 15 52 d 15 53 d 14 50 d 8 20
 d 7 18 d 4 8 d 4 6 d 3 5 d 4 4 d 4 2 d 3 2 d 4 X 4 -2 d 4 -2 d 3 -4 d 4 -5 d 4 -6 d 3 -8 d 4 -9 d 4 -9 d 4 -11 d 3 -11 d 4 -12 d 7 -26 d 8 -29 d 7 -29 d 15 -60 d 15 -57 d 7 -26 d 8 -24 d 7 -22 d 8 -20 d 7 -18 d 7 -16 d 8 -14 d 7 -13 d 8 -10 d 7 -10
 d 15 -15 d 15 -11 d 15 -8 d 14 -6 d 15 -5 d 30 -7 d 30 -5 d 29 -3 d 60 -5 d 59 -2 d s 1 0.8 0.2 c black 1 0.8 0.2 c 371 614 m cl s 371 614 m 59 2 d 59 2 d 60 1 d 59 2 d 59 1 d 60 1 d 59 1 d 59 1 d 60 X 59 1 d 237 X 60 -1 d 59 X 59 -1 d 60 -1 d 59 -1
 d 59 -2 d 60 -1 d 59 -2 d 59 -2 d 60 -2 d 59 -2 d 59 -3 d 60 -2 d 59 -3 d s 0 0 1 c black 0 0 1 c 371 590 m cl s 371 590 m 59 2 d 59 2 d 60 1 d 118 X 60 -1 d 59 -1 d 59 -2 d 60 -1 d 59 -2 d 59 -2 d 60 -1 d 59 -1 d 59 -1 d 60 1 d 59 2 d 30 2 d 29 3 d
 15 2 d 15 3 d 15 4 d 15 5 d 14 6 d 8 4 d 7 5 d 8 5 d 7 7 d 7 7 d 8 9 d 7 11 d 4 5 d 4 6 d 7 14 d 4 8 d 4 8 d 3 9 d 4 9 d 7 20 d 8 21 d 7 24 d 8 22 d 7 22 d 4 10 d 3 8 d 4 7 d 4 6 d 4 4 d 1 2 d 2 X 4 -1 d 4 -2 d 3 -5 d 4 -6 d 4 -8 d 4 -9 d 3 -11 d 4
 -13 d 7 -26 d 4 -13 d 4 -14 d 2 -7 d 1 -7 d 4 -12 d 8 -23 d 3 -11 d 4 -10 d 4 -9 d 3 -8 d 4 -7 d 4 -7 d 4 -6 d 3 -6 d 4 -5 d 4 -4 d 7 -8 d 8 -6 d 7 -6 d 7 -4 d 15 -7 d 15 -5 d 15 -3 d 15 -3 d 15 -2 d 29 -3 d 30 -3 d 59 -2 d 60 -2 d 59 -1 d s black[ 
 ] 0 sd 3 lw 371 577 m 1661 X s 371 613 m -36 Y s 430 595 m -18 Y s 489 595 m -18 Y s 549 595 m -18 Y s 608 595 m -18 Y s 667 613 m -36 Y s 727 595 m -18 Y s 786 595 m -18 Y s 845 595 m -18 Y s 905 595 m -18 Y s 964 613 m -36 Y s 1023 595 m -18 Y s
 1083 595 m -18 Y s 1142 595 m -18 Y s 1201 595 m -18 Y s 1261 613 m -36 Y s 1320 595 m -18 Y s 1379 595 m -18 Y s 1439 595 m -18 Y s 1498 595 m -18 Y s 1557 613 m -36 Y s 1617 595 m -18 Y s 1676 595 m -18 Y s 1735 595 m -18 Y s 1795 595 m -18 Y s
 1854 613 m -36 Y s 1854 613 m -36 Y s 1913 595 m -18 Y s 1973 595 m -18 Y s 371 2084 m 1661 X s 371 2048 m 36 Y s 430 2066 m 18 Y s 489 2066 m 18 Y s 549 2066 m 18 Y s 608 2066 m 18 Y s 667 2048 m 36 Y s 727 2066 m 18 Y s 786 2066 m 18 Y s 845 2066
 m 18 Y s 905 2066 m 18 Y s 964 2048 m 36 Y s 1023 2066 m 18 Y s 1083 2066 m 18 Y s 1142 2066 m 18 Y s 1201 2066 m 18 Y s 1261 2048 m 36 Y s 1320 2066 m 18 Y s 1379 2066 m 18 Y s 1439 2066 m 18 Y s 1498 2066 m 18 Y s 1557 2048 m 36 Y s 1617 2066 m 18
 Y s 1676 2066 m 18 Y s 1735 2066 m 18 Y s 1795 2066 m 18 Y s 1854 2048 m 36 Y s 1854 2048 m 36 Y s 1913 2066 m 18 Y s 1973 2066 m 18 Y s 371 577 m 1507 Y s 433 577 m -62 X s 402 631 m -31 X s 402 685 m -31 X s 402 739 m -31 X s 402 793 m -31 X s 433
 847 m -62 X s 402 901 m -31 X s 402 955 m -31 X s 402 1009 m -31 X s 402 1064 m -31 X s 433 1118 m -62 X s 402 1172 m -31 X s 402 1226 m -31 X s 402 1280 m -31 X s 402 1334 m -31 X s 433 1388 m -62 X s 402 1442 m -31 X s 402 1497 m -31 X s 402 1551
 m -31 X s 402 1605 m -31 X s 433 1659 m -62 X s 402 1713 m -31 X s 402 1767 m -31 X s 402 1821 m -31 X s 402 1875 m -31 X s 433 1930 m -62 X s 433 1930 m -62 X s 402 1984 m -31 X s 402 2038 m -31 X s 2032 577 m 1507 Y s 1969 577 m 63 X s 2001 631 m
 31 X s 2001 685 m 31 X s 2001 739 m 31 X s 2001 793 m 31 X s 1969 847 m 63 X s 2001 901 m 31 X s 2001 955 m 31 X s 2001 1009 m 31 X s 2001 1064 m 31 X s 1969 1118 m 63 X s 2001 1172 m 31 X s 2001 1226 m 31 X s 2001 1280 m 31 X s 2001 1334 m 31 X s
 1969 1388 m 63 X s 2001 1442 m 31 X s 2001 1497 m 31 X s 2001 1551 m 31 X s 2001 1605 m 31 X s 1969 1659 m 63 X s 2001 1713 m 31 X s 2001 1767 m 31 X s 2001 1821 m 31 X s 2001 1875 m 31 X s 1969 1930 m 63 X s 1969 1930 m 63 X s 2001 1984 m 31 X s
 2001 2038 m 31 X s 1 1 1 c black
 gsave  2245 1622 11 544 C 662.051 1989.96 t 0 r /Helvetica findfont 60.8983 sf 0 0 m ( Internal) show NC gr 
 gsave  2245 1622 11 544 C 452.782 1989.96 t 0 r /Helvetica-BoldOblique findfont 60.8983 sf 0 0 m (ATLAS) show NC gr 
 gsave  2245 1622 11 544 C 452.782 1902.45 t 0 r /Helvetica findfont 60.8983 sf 0 0 m (data 2015\25518 + mc16a,d,e) show NC gr 
 gsave  2245 1622 11 544 C 1034.93 1818.74 t 0 r /Helvetica findfont 41.8676 sf 0 0 m (\2551) show NC gr 
 gsave  2245 1622 11 544 C 513.661 1792.1 t 0 r /Helvetica findfont 60.8983 sf 0 0 m (=13 TeV, 138.97 fb) show NC gr 
 gsave  2245 1622 11 544 C 483.221 1792.1 t 0 r /Helvetica findfont 60.8983 sf 0 0 m (s) show NC gr  6 lw 464 1826 m 8 -38 d s 3 lw 472 1788 m 4 57 d s 476 1845 m 38 X s
 gsave  2245 1622 11 544 C 452.782 1712.2 t 0 r /Helvetica findfont 60.8983 sf 0 0 m (Inverted isolation CR) show NC gr  1 1 1 c 718 438 1269 1598 bl 1269 1598 m 718 X s 1987 1598 m 438 Y s 1987 2036 m -718 X s 1269 2036 m -438 Y s black
 gsave  2245 1622 11 544 C 1445.86 1974.74 t 0 r /Helvetica findfont 72.3167 sf 0 0 m (Data) show NC gr  1296 1992 m 125 X s 1358 1966 m 52 Y s 1358 1992 m20
 gsave  2245 1622 11 544 C 1445.86 1887.23 t 0 r /Helvetica findfont 72.3167 sf 0 0 m (Total BG) show NC gr  0.8 0 0 c 9 lw 1296 1904 m 125 X s black
 gsave  2245 1622 11 544 C 1445.86 1799.71 t 0 r /Helvetica findfont 72.3167 sf 0 0 m (Z+HFjets) show NC gr  0.2 0.4 0.2 c[  12 12 ] 0 sd 1296 1817 m 125 X s black
 gsave  2245 1622 11 544 C 1468.69 1712.2 t 0 r /Helvetica findfont 72.3167 sf 0 0 m (t) show NC gr [  ] 0 sd 6 lw 1469 1769 m 23 X s
 gsave  2245 1622 11 544 C 1445.86 1712.2 t 0 r /Helvetica findfont 72.3167 sf 0 0 m (t) show NC gr  1 0.8 0.2 c[  12 12 ] 0 sd 9 lw 1296 1729 m 125 X s black
 gsave  2245 1622 11 544 C 1445.86 1624.69 t 0 r /Helvetica findfont 72.3167 sf 0 0 m (Diboson) show NC gr  0 0 1 c 1296 1642 m 125 X s
 gr  gr showpage
end
%%EOF
