%!PS-Adobe-2.0 EPSF-2.0
%%BoundingBox:  0 0 567 544
%%Title: Results/M2MC_ss.eps: Region: ss
%%Creator: ROOT Version 6.08/06
%%CreationDate: Mon Oct 14 09:43:31 2019
%%DocumentNeededResources: ProcSet (FontSetInit)
%%EndComments
%%BeginProlog
80 dict begin
/s {stroke} def /l {lineto} def /m {moveto} def /t {translate} def
/r {rotate} def /rl {roll}  def /R {repeat} def
/d {rlineto} def /rm {rmoveto} def /gr {grestore} def /f {eofill} def
/c {setrgbcolor} def /black {0 setgray} def /sd {setdash} def
/cl {closepath} def /sf {scalefont setfont} def /lw {setlinewidth} def
/box {m dup 0 exch d exch 0 d 0 exch neg d cl} def
/NC{systemdict begin initclip end}def/C{NC box clip newpath}def
/bl {box s} def /bf {gsave box gsave f grestore 1 lw [] 0 sd s grestore} def /Y { 0 exch d} def /X { 0 d} def 
/K {{pop pop 0 moveto} exch kshow} bind def
/ita {/ang 15 def gsave [1 0 ang dup sin exch cos div 1 0 0] concat} def 
/mp {newpath /y exch def /x exch def} def
/side {[w .77 mul w .23 mul] .385 w mul sd w 0 l currentpoint t -144 r} def
/mr {mp x y w2 0 360 arc} def /m24 {mr s} def /m20 {mr f} def
/mb {mp x y w2 add m w2 neg 0 d 0 w neg d w 0 d 0 w d cl} def
/mt {mp x y w2 add m w2 neg w neg d w 0 d cl} def
/m21 {mb f} def /m25 {mb s} def /m22 {mt f} def /m26{mt s} def
/m23 {mp x y w2 sub m w2 w d w neg 0 d cl f} def
/m27 {mp x y w2 add m w3 neg w2 neg d w3 w2 neg d w3 w2 d cl s} def
/m28 {mp x w2 sub y w2 sub w3 add m w3 0 d  0 w3 neg d w3 0 d 0 w3 d w3 0 d  0 w3 d w3 neg 0 d 0 w3 d w3 neg 0 d 0 w3 neg d w3 neg 0 d cl s } def
/m29 {mp gsave x w2 sub y w2 add w3 sub m currentpoint t 4 {side} repeat cl fill gr} def
/m30 {mp gsave x w2 sub y w2 add w3 sub m currentpoint t 4 {side} repeat cl s gr} def
/m31 {mp x y w2 sub m 0 w d x w2 sub y m w 0 d x w2 sub y w2 add m w w neg d x w2 sub y w2 sub m w w d s} def
/m32 {mp x y w2 sub m w2 w d w neg 0 d cl s} def
/m33 {mp x y w2 add m w3 neg w2 neg d w3 w2 neg d w3 w2 d cl f} def
/m34 {mp x w2 sub y w2 sub w3 add m w3 0 d  0 w3 neg d w3 0 d 0 w3 d w3 0 d  0 w3 d w3 neg 0 d 0 w3 d w3 neg 0 d 0 w3 neg d w3 neg 0 d cl f } def
/m2 {mp x y w2 sub m 0 w d x w2 sub y m w 0 d s} def
/m5 {mp x w2 sub y w2 sub m w w d x w2 sub y w2 add m w w neg d s} def
%%IncludeResource: ProcSet (FontSetInit)
%%IncludeResource: font Times-Roman
%%IncludeResource: font Times-Italic
%%IncludeResource: font Times-Bold
%%IncludeResource: font Times-BoldItalic
%%IncludeResource: font Helvetica
%%IncludeResource: font Helvetica-Oblique
%%IncludeResource: font Helvetica-Bold
%%IncludeResource: font Helvetica-BoldOblique
%%IncludeResource: font Courier
%%IncludeResource: font Courier-Oblique
%%IncludeResource: font Courier-Bold
%%IncludeResource: font Courier-BoldOblique
%%IncludeResource: font Symbol
%%IncludeResource: font ZapfDingbats
/reEncode {exch findfont dup length dict begin {1 index /FID eq  {pop pop} {def} ifelse } forall /Encoding exch def currentdict end dup /FontName get exch definefont pop } def [/Times-Bold /Times-Italic /Times-BoldItalic /Helvetica /Helvetica-Oblique
 /Helvetica-Bold /Helvetica-BoldOblique /Courier /Courier-Oblique /Courier-Bold /Courier-BoldOblique /Times-Roman /AvantGarde-Book /AvantGarde-BookOblique /AvantGarde-Demi /AvantGarde-DemiOblique /Bookman-Demi /Bookman-DemiItalic /Bookman-Light
 /Bookman-LightItalic /Helvetica-Narrow /Helvetica-Narrow-Bold /Helvetica-Narrow-BoldOblique /Helvetica-Narrow-Oblique /NewCenturySchlbk-Roman /NewCenturySchlbk-Bold /NewCenturySchlbk-BoldItalic /NewCenturySchlbk-Italic /Palatino-Bold
 /Palatino-BoldItalic /Palatino-Italic /Palatino-Roman ] {ISOLatin1Encoding reEncode } forall
%%EndProlog
%%BeginSetup
%%EndSetup
newpath  gsave  .25 .25 scale  gsave  0 0 t black[  ] 0 sd 3 lw 1 1 1 c 2268 2176 0 0 bf black 1 1 1 c 2245 533 11 11 bf black 1 1 1 c 1661 288 371 224 bf black 1661 288 371 224 bl 371 224 m 1661 X s 371 512 m 1661 X s 371 224 m 288 Y s[ 4 8] 0 sd
 2032 224 m -1661 X s 2032 296 m -1661 X s 2032 368 m -1661 X s 2032 440 m -1661 X s 2032 512 m -1661 X s[  ] 0 sd 2032 224 m 288 Y s 371 224 m 1661 X s
 gsave  2245 533 11 11 C 1849.18 98.9272 t 0 r /Helvetica findfont 64.7479 sf 0 0 m ( [GeV]) show NC gr 
 gsave  2245 533 11 11 C 1803.52 76.0979 t 0 r /Helvetica findfont 41.8957 sf 0 0 m (12) show NC gr 
 gsave  2245 533 11 11 C 1750.25 98.9272 t 0 r /Helvetica findfont 64.7479 sf 0 0 m (m) show NC gr  371 236 m -12 Y s 430 230 m -6 Y s 489 230 m -6 Y s 549 230 m -6 Y s 608 230 m -6 Y s 667 236 m -12 Y s 727 230 m -6 Y s 786 230 m -6 Y s 845 230 m -6
 Y s 905 230 m -6 Y s 964 236 m -12 Y s 1023 230 m -6 Y s 1083 230 m -6 Y s 1142 230 m -6 Y s 1201 230 m -6 Y s 1261 236 m -12 Y s 1320 230 m -6 Y s 1379 230 m -6 Y s 1439 230 m -6 Y s 1498 230 m -6 Y s 1557 236 m -12 Y s 1617 230 m -6 Y s 1676 230 m
 -6 Y s 1735 230 m -6 Y s 1795 230 m -6 Y s 1854 236 m -12 Y s 1854 236 m -12 Y s 1913 230 m -6 Y s 1973 230 m -6 Y s
 gsave  2245 533 11 11 C 334.831 171.22 t 0 r /Helvetica findfont 57.1305 sf 0 0 m (50) show NC gr 
 gsave  2245 533 11 11 C 631.612 171.22 t 0 r /Helvetica findfont 57.1305 sf 0 0 m (60) show NC gr 
 gsave  2245 533 11 11 C 928.394 171.22 t 0 r /Helvetica findfont 57.1305 sf 0 0 m (70) show NC gr 
 gsave  2245 533 11 11 C 1225.18 171.22 t 0 r /Helvetica findfont 57.1305 sf 0 0 m (80) show NC gr 
 gsave  2245 533 11 11 C 1521.96 171.22 t 0 r /Helvetica findfont 57.1305 sf 0 0 m (90) show NC gr 
 gsave  2245 533 11 11 C 1803.52 171.22 t 0 r /Helvetica findfont 57.1305 sf 0 0 m (100) show NC gr  371 512 m 1661 X s 371 500 m 12 Y s 430 506 m 6 Y s 489 506 m 6 Y s 549 506 m 6 Y s 608 506 m 6 Y s 667 500 m 12 Y s 727 506 m 6 Y s 786 506 m 6 Y s
 845 506 m 6 Y s 905 506 m 6 Y s 964 500 m 12 Y s 1023 506 m 6 Y s 1083 506 m 6 Y s 1142 506 m 6 Y s 1201 506 m 6 Y s 1261 500 m 12 Y s 1320 506 m 6 Y s 1379 506 m 6 Y s 1439 506 m 6 Y s 1498 506 m 6 Y s 1557 500 m 12 Y s 1617 506 m 6 Y s 1676 506 m
 6 Y s 1735 506 m 6 Y s 1795 506 m 6 Y s 1854 500 m 12 Y s 1854 500 m 12 Y s 1913 506 m 6 Y s 1973 506 m 6 Y s 371 224 m 288 Y s
 gsave  2245 533 11 11 C 156.001 407.124 t 90 r /Helvetica findfont 64.7479 sf 0 0 m (Pull) show NC gr  407 224 m -36 X s 389 242 m -18 X s 389 260 m -18 X s 389 278 m -18 X s 407 296 m -36 X s 389 314 m -18 X s 389 332 m -18 X s 389 350 m -18 X s
 407 368 m -36 X s 389 386 m -18 X s 389 404 m -18 X s 389 422 m -18 X s 407 440 m -36 X s 389 458 m -18 X s 389 476 m -18 X s 389 494 m -18 X s 407 512 m -36 X s
 gsave  2245 533 11 11 C 327.221 201.659 t 0 r /Helvetica findfont 57.1305 sf 0 0 m (4) show NC gr 
 gsave  2245 533 11 11 C 292.977 201.659 t 0 r /Symbol findfont 57.1305 sf 0 0 m (-) show NC gr 
 gsave  2245 533 11 11 C 327.221 273.952 t 0 r /Helvetica findfont 57.1305 sf 0 0 m (2) show NC gr 
 gsave  2245 533 11 11 C 292.977 273.952 t 0 r /Symbol findfont 57.1305 sf 0 0 m (-) show NC gr 
 gsave  2245 533 11 11 C 327.221 346.245 t 0 r /Helvetica findfont 57.1305 sf 0 0 m (0) show NC gr 
 gsave  2245 533 11 11 C 327.221 418.538 t 0 r /Helvetica findfont 57.1305 sf 0 0 m (2) show NC gr 
 gsave  2245 533 11 11 C 327.221 490.831 t 0 r /Helvetica findfont 57.1305 sf 0 0 m (4) show NC gr  2032 224 m 288 Y s 1996 224 m 36 X s 2014 242 m 18 X s 2014 260 m 18 X s 2014 278 m 18 X s 1996 296 m 36 X s 2014 314 m 18 X s 2014 332 m 18 X s 2014
 350 m 18 X s 1996 368 m 36 X s 2014 386 m 18 X s 2014 404 m 18 X s 2014 422 m 18 X s 1996 440 m 36 X s 2014 458 m 18 X s 2014 476 m 18 X s 2014 494 m 18 X s 1996 512 m 36 X s 400 456 m 36 Y s 400 492 m cl s 400 456 m -36 Y s 400 420 m cl s 460 352 m
 36 Y s 460 388 m cl s 460 352 m -36 Y s 460 316 m cl s 519 424 m 36 Y s 519 460 m cl s 519 424 m -36 Y s 519 388 m cl s 578 366 m 36 Y s 578 402 m cl s 578 366 m -36 Y s 578 330 m cl s 638 370 m 36 Y s 638 406 m cl s 638 370 m -36 Y s 638 334 m cl s
 697 252 m 36 Y s 697 288 m cl s 697 252 m -28 Y s 697 224 m cl s 756 265 m 36 Y s 756 301 m cl s 756 265 m -36 Y s 756 229 m cl s 816 402 m 36 Y s 816 438 m cl s 816 402 m -36 Y s 816 366 m cl s 875 275 m 36 Y s 875 311 m cl s 875 275 m -36 Y s 875
 239 m cl s 934 286 m 36 Y s 934 322 m cl s 934 286 m -36 Y s 934 250 m cl s 994 341 m 36 Y s 994 377 m cl s 994 341 m -36 Y s 994 305 m cl s 1053 298 m 36 Y s 1053 334 m cl s 1053 298 m -36 Y s 1053 262 m cl s 1112 388 m 36 Y s 1112 424 m cl s 1112
 388 m -36 Y s 1112 352 m cl s 1172 342 m 36 Y s 1172 378 m cl s 1172 342 m -36 Y s 1172 306 m cl s 1231 228 m 36 Y s 1231 264 m cl s 1231 228 m -4 Y s 1231 224 m cl s 1290 361 m 36 Y s 1290 397 m cl s 1290 361 m -36 Y s 1290 325 m cl s 1350 338 m 36
 Y s 1350 374 m cl s 1350 338 m -36 Y s 1350 302 m cl s 1409 403 m 36 Y s 1409 439 m cl s 1409 403 m -36 Y s 1409 367 m cl s 1468 381 m 36 Y s 1468 417 m cl s 1468 381 m -36 Y s 1468 345 m cl s 1528 358 m 36 Y s 1528 394 m cl s 1528 358 m -36 Y s
 1528 322 m cl s 1587 351 m 36 Y s 1587 387 m cl s 1587 351 m -36 Y s 1587 315 m cl s 1646 300 m 36 Y s 1646 336 m cl s 1646 300 m -36 Y s 1646 264 m cl s 1706 431 m 36 Y s 1706 467 m cl s 1706 431 m -36 Y s 1706 395 m cl s 1765 505 m 7 Y s 1765 512
 m cl s 1765 505 m -36 Y s 1765 469 m cl s 1824 402 m 36 Y s 1824 438 m cl s 1824 402 m -36 Y s 1824 366 m cl s 1884 343 m 36 Y s 1884 379 m cl s 1884 343 m -36 Y s 1884 307 m cl s 1943 311 m 36 Y s 1943 347 m cl s 1943 311 m -36 Y s 1943 275 m cl s
 2002 291 m 36 Y s 2002 327 m cl s 2002 291 m -36 Y s 2002 255 m cl s /w 37 def /w2 {w 2 div} def /w3 {w 3 div} def 400 456 460 352 519 424 578 366 638 370 697 252 756 265 816 402 875 275 934 286 994 341 1053 298 1112 388 1172 342 1231 228 1290 361
 1350 338 1409 403 1468 381 1528 358 1587 351 1646 300 1706 431 1765 505 1824 402 1884 343 1943 311 2002 291 28 { m20} R 371 224 m 1661 X s 371 236 m -12 Y s 430 230 m -6 Y s 489 230 m -6 Y s 549 230 m -6 Y s 608 230 m -6 Y s 667 236 m -12 Y s 727
 230 m -6 Y s 786 230 m -6 Y s 845 230 m -6 Y s 905 230 m -6 Y s 964 236 m -12 Y s 1023 230 m -6 Y s 1083 230 m -6 Y s 1142 230 m -6 Y s 1201 230 m -6 Y s 1261 236 m -12 Y s 1320 230 m -6 Y s 1379 230 m -6 Y s 1439 230 m -6 Y s 1498 230 m -6 Y s 1557
 236 m -12 Y s 1617 230 m -6 Y s 1676 230 m -6 Y s 1735 230 m -6 Y s 1795 230 m -6 Y s 1854 236 m -12 Y s 1854 236 m -12 Y s 1913 230 m -6 Y s 1973 230 m -6 Y s 371 512 m 1661 X s 371 500 m 12 Y s 430 506 m 6 Y s 489 506 m 6 Y s 549 506 m 6 Y s 608
 506 m 6 Y s 667 500 m 12 Y s 727 506 m 6 Y s 786 506 m 6 Y s 845 506 m 6 Y s 905 506 m 6 Y s 964 500 m 12 Y s 1023 506 m 6 Y s 1083 506 m 6 Y s 1142 506 m 6 Y s 1201 506 m 6 Y s 1261 500 m 12 Y s 1320 506 m 6 Y s 1379 506 m 6 Y s 1439 506 m 6 Y s
 1498 506 m 6 Y s 1557 500 m 12 Y s 1617 506 m 6 Y s 1676 506 m 6 Y s 1735 506 m 6 Y s 1795 506 m 6 Y s 1854 500 m 12 Y s 1854 500 m 12 Y s 1913 506 m 6 Y s 1973 506 m 6 Y s 371 224 m 288 Y s 407 224 m -36 X s 389 242 m -18 X s 389 260 m -18 X s 389
 278 m -18 X s 407 296 m -36 X s 389 314 m -18 X s 389 332 m -18 X s 389 350 m -18 X s 407 368 m -36 X s 389 386 m -18 X s 389 404 m -18 X s 389 422 m -18 X s 407 440 m -36 X s 389 458 m -18 X s 389 476 m -18 X s 389 494 m -18 X s 407 512 m -36 X s
 2032 224 m 288 Y s 1996 224 m 36 X s 2014 242 m 18 X s 2014 260 m 18 X s 2014 278 m 18 X s 1996 296 m 36 X s 2014 314 m 18 X s 2014 332 m 18 X s 2014 350 m 18 X s 1996 368 m 36 X s 2014 386 m 18 X s 2014 404 m 18 X s 2014 422 m 18 X s 1996 440 m 36
 X s 2014 458 m 18 X s 2014 476 m 18 X s 2014 494 m 18 X s 1996 512 m 36 X s[  12 12 ] 0 sd 6 lw 371 368 m 1661 X s[  ] 0 sd 3 lw 1 1 1 c 2245 1622 11 544 bf black 1 1 1 c 1661 1507 371 577 bf black 1661 1507 371 577 bl 371 577 m 1661 X s 371 613 m
 -36 Y s 430 595 m -18 Y s 489 595 m -18 Y s 549 595 m -18 Y s 608 595 m -18 Y s 667 613 m -36 Y s 727 595 m -18 Y s 786 595 m -18 Y s 845 595 m -18 Y s 905 595 m -18 Y s 964 613 m -36 Y s 1023 595 m -18 Y s 1083 595 m -18 Y s 1142 595 m -18 Y s 1201
 595 m -18 Y s 1261 613 m -36 Y s 1320 595 m -18 Y s 1379 595 m -18 Y s 1439 595 m -18 Y s 1498 595 m -18 Y s 1557 613 m -36 Y s 1617 595 m -18 Y s 1676 595 m -18 Y s 1735 595 m -18 Y s 1795 595 m -18 Y s 1854 613 m -36 Y s 1854 613 m -36 Y s 1913
 595 m -18 Y s 1973 595 m -18 Y s 371 2084 m 1661 X s 371 2048 m 36 Y s 430 2066 m 18 Y s 489 2066 m 18 Y s 549 2066 m 18 Y s 608 2066 m 18 Y s 667 2048 m 36 Y s 727 2066 m 18 Y s 786 2066 m 18 Y s 845 2066 m 18 Y s 905 2066 m 18 Y s 964 2048 m 36 Y
 s 1023 2066 m 18 Y s 1083 2066 m 18 Y s 1142 2066 m 18 Y s 1201 2066 m 18 Y s 1261 2048 m 36 Y s 1320 2066 m 18 Y s 1379 2066 m 18 Y s 1439 2066 m 18 Y s 1498 2066 m 18 Y s 1557 2048 m 36 Y s 1617 2066 m 18 Y s 1676 2066 m 18 Y s 1735 2066 m 18 Y s
 1795 2066 m 18 Y s 1854 2048 m 36 Y s 1854 2048 m 36 Y s 1913 2066 m 18 Y s 1973 2066 m 18 Y s 371 577 m 1507 Y s
 gsave  2245 1622 11 544 C 152.196 1666.54 t 90 r /Helvetica findfont 64.7045 sf 0 0 m (Events / 2GeV) show NC gr  433 577 m -62 X s 402 609 m -31 X s 402 642 m -31 X s 402 674 m -31 X s 402 707 m -31 X s 433 739 m -62 X s 402 772 m -31 X s 402 804 m
 -31 X s 402 837 m -31 X s 402 869 m -31 X s 433 902 m -62 X s 402 934 m -31 X s 402 967 m -31 X s 402 999 m -31 X s 402 1032 m -31 X s 433 1064 m -62 X s 402 1097 m -31 X s 402 1129 m -31 X s 402 1162 m -31 X s 402 1194 m -31 X s 433 1227 m -62 X s
 402 1259 m -31 X s 402 1292 m -31 X s 402 1324 m -31 X s 402 1357 m -31 X s 433 1389 m -62 X s 402 1422 m -31 X s 402 1454 m -31 X s 402 1487 m -31 X s 402 1519 m -31 X s 433 1552 m -62 X s 402 1585 m -31 X s 402 1617 m -31 X s 402 1650 m -31 X s
 402 1682 m -31 X s 433 1715 m -62 X s 402 1747 m -31 X s 402 1780 m -31 X s 402 1812 m -31 X s 402 1845 m -31 X s 433 1877 m -62 X s 402 1910 m -31 X s 402 1942 m -31 X s 402 1975 m -31 X s 402 2007 m -31 X s 433 2040 m -62 X s 433 2040 m -62 X s
 402 2072 m -31 X s
 gsave  2245 1622 11 544 C 327.221 555.514 t 0 r /Helvetica findfont 57.0922 sf 0 0 m (0) show NC gr 
 gsave  2245 1622 11 544 C 262.538 719.125 t 0 r /Helvetica findfont 57.0922 sf 0 0 m (100) show NC gr 
 gsave  2245 1622 11 544 C 262.538 878.93 t 0 r /Helvetica findfont 57.0922 sf 0 0 m (200) show NC gr 
 gsave  2245 1622 11 544 C 262.538 1042.54 t 0 r /Helvetica findfont 57.0922 sf 0 0 m (300) show NC gr 
 gsave  2245 1622 11 544 C 262.538 1206.15 t 0 r /Helvetica findfont 57.0922 sf 0 0 m (400) show NC gr 
 gsave  2245 1622 11 544 C 262.538 1369.76 t 0 r /Helvetica findfont 57.0922 sf 0 0 m (500) show NC gr 
 gsave  2245 1622 11 544 C 262.538 1529.57 t 0 r /Helvetica findfont 57.0922 sf 0 0 m (600) show NC gr 
 gsave  2245 1622 11 544 C 262.538 1693.18 t 0 r /Helvetica findfont 57.0922 sf 0 0 m (700) show NC gr 
 gsave  2245 1622 11 544 C 262.538 1856.79 t 0 r /Helvetica findfont 57.0922 sf 0 0 m (800) show NC gr 
 gsave  2245 1622 11 544 C 262.538 2020.4 t 0 r /Helvetica findfont 57.0922 sf 0 0 m (900) show NC gr  2032 577 m 1507 Y s 1969 577 m 63 X s 2001 609 m 31 X s 2001 642 m 31 X s 2001 674 m 31 X s 2001 707 m 31 X s 1969 739 m 63 X s 2001 772 m 31 X s
 2001 804 m 31 X s 2001 837 m 31 X s 2001 869 m 31 X s 1969 902 m 63 X s 2001 934 m 31 X s 2001 967 m 31 X s 2001 999 m 31 X s 2001 1032 m 31 X s 1969 1064 m 63 X s 2001 1097 m 31 X s 2001 1129 m 31 X s 2001 1162 m 31 X s 2001 1194 m 31 X s 1969 1227
 m 63 X s 2001 1259 m 31 X s 2001 1292 m 31 X s 2001 1324 m 31 X s 2001 1357 m 31 X s 1969 1389 m 63 X s 2001 1422 m 31 X s 2001 1454 m 31 X s 2001 1487 m 31 X s 2001 1519 m 31 X s 1969 1552 m 63 X s 2001 1585 m 31 X s 2001 1617 m 31 X s 2001 1650 m
 31 X s 2001 1682 m 31 X s 1969 1715 m 63 X s 2001 1747 m 31 X s 2001 1780 m 31 X s 2001 1812 m 31 X s 2001 1845 m 31 X s 1969 1877 m 63 X s 2001 1910 m 31 X s 2001 1942 m 31 X s 2001 1975 m 31 X s 2001 2007 m 31 X s 1969 2040 m 63 X s 1969 2040 m 63
 X s 2001 2072 m 31 X s 400 688 m -29 X s 371 688 m cl s 400 688 m 30 X s 430 688 m cl s 400 688 m 2 Y s 400 690 m cl s 400 688 m -2 Y s 400 686 m cl s 460 689 m -30 X s 430 689 m cl s 460 689 m 29 X s 489 689 m cl s 460 689 m 2 Y s 460 691 m cl s
 460 689 m -2 Y s 460 687 m cl s 519 702 m -30 X s 489 702 m cl s 519 702 m 30 X s 549 702 m cl s 519 702 m 4 Y s 519 706 m cl s 519 702 m -4 Y s 519 698 m cl s 578 700 m -29 X s 549 700 m cl s 578 700 m 30 X s 608 700 m cl s 578 700 m 3 Y s 578 703
 m cl s 578 700 m -2 Y s 578 698 m cl s 638 705 m -30 X s 608 705 m cl s 638 705 m 29 X s 667 705 m cl s 638 705 m 3 Y s 638 708 m cl s 638 705 m -2 Y s 638 703 m cl s 697 704 m -30 X s 667 704 m cl s 697 704 m 30 X s 727 704 m cl s 697 704 m 2 Y s
 697 706 m cl s 697 704 m -2 Y s 697 702 m cl s 756 709 m -29 X s 727 709 m cl s 756 709 m 30 X s 786 709 m cl s 756 709 m 1 Y s 756 710 m cl s 756 709 m -2 Y s 756 707 m cl s 816 720 m -30 X s 786 720 m cl s 816 720 m 29 X s 845 720 m cl s 816 720 m
 2 Y s 816 722 m cl s 816 720 m -3 Y s 816 717 m cl s 875 714 m -30 X s 845 714 m cl s 875 714 m 30 X s 905 714 m cl s 875 714 m 2 Y s 875 716 m cl s 875 714 m -3 Y s 875 711 m cl s 934 718 m -29 X s 905 718 m cl s 934 718 m 30 X s 964 718 m cl s 934
 718 m 2 Y s 934 720 m cl s 934 718 m -3 Y s 934 715 m cl s 994 724 m -30 X s 964 724 m cl s 994 724 m 29 X s 1023 724 m cl s 994 724 m 3 Y s 994 727 m cl s 994 724 m -4 Y s 994 720 m cl s 1053 724 m -30 X s 1023 724 m cl s 1053 724 m 30 X s 1083 724
 m cl s 1053 724 m 3 Y s 1053 727 m cl s 1053 724 m -2 Y s 1053 722 m cl s 1112 736 m -29 X s 1083 736 m cl s 1112 736 m 30 X s 1142 736 m cl s 1112 736 m 4 Y s 1112 740 m cl s 1112 736 m -5 Y s 1112 731 m cl s 1172 736 m -30 X s 1142 736 m cl s 1172
 736 m 29 X s 1201 736 m cl s 1172 736 m 4 Y s 1172 740 m cl s 1172 736 m -4 Y s 1172 732 m cl s 1231 740 m -30 X s 1201 740 m cl s 1231 740 m 30 X s 1261 740 m cl s 1231 740 m 2 Y s 1231 742 m cl s 1231 740 m -3 Y s 1231 737 m cl s 1290 762 m -29 X
 s 1261 762 m cl s 1290 762 m 30 X s 1320 762 m cl s 1290 762 m 5 Y s 1290 767 m cl s 1290 762 m -5 Y s 1290 757 m cl s 1350 788 m -30 X s 1320 788 m cl s 1350 788 m 29 X s 1379 788 m cl s 1350 788 m 6 Y s 1350 794 m cl s 1350 788 m -5 Y s 1350 783 m
 cl s 1409 867 m -30 X s 1379 867 m cl s 1409 867 m 30 X s 1439 867 m cl s 1409 867 m 8 Y s 1409 875 m cl s 1409 867 m -9 Y s 1409 858 m cl s 1468 1025 m -29 X s 1439 1025 m cl s 1468 1025 m 30 X s 1498 1025 m cl s 1468 1025 m 13 Y s 1468 1038 m cl s
 1468 1025 m -13 Y s 1468 1012 m cl s 1528 1329 m -30 X s 1498 1329 m cl s 1528 1329 m 29 X s 1557 1329 m cl s 1528 1329 m 18 Y s 1528 1347 m cl s 1528 1329 m -18 Y s 1528 1311 m cl s 1587 1514 m -30 X s 1557 1514 m cl s 1587 1514 m 30 X s 1617 1514
 m cl s 1587 1514 m 20 Y s 1587 1534 m cl s 1587 1514 m -19 Y s 1587 1495 m cl s 1646 1211 m -29 X s 1617 1211 m cl s 1646 1211 m 30 X s 1676 1211 m cl s 1646 1211 m 15 Y s 1646 1226 m cl s 1646 1211 m -15 Y s 1646 1196 m cl s 1706 938 m -30 X s 1676
 938 m cl s 1706 938 m 29 X s 1735 938 m cl s 1706 938 m 14 Y s 1706 952 m cl s 1706 938 m -14 Y s 1706 924 m cl s 1765 804 m -30 X s 1735 804 m cl s 1765 804 m 30 X s 1795 804 m cl s 1765 804 m 9 Y s 1765 813 m cl s 1765 804 m -9 Y s 1765 795 m cl s
 1824 722 m -29 X s 1795 722 m cl s 1824 722 m 30 X s 1854 722 m cl s 1824 722 m 5 Y s 1824 727 m cl s 1824 722 m -4 Y s 1824 718 m cl s 1884 691 m -30 X s 1854 691 m cl s 1884 691 m 29 X s 1913 691 m cl s 1884 691 m 4 Y s 1884 695 m cl s 1884 691 m
 -3 Y s 1884 688 m cl s 1943 674 m -30 X s 1913 674 m cl s 1943 674 m 30 X s 1973 674 m cl s 1943 674 m 3 Y s 1943 677 m cl s 1943 674 m -3 Y s 1943 671 m cl s 2002 662 m -29 X s 1973 662 m cl s 2002 662 m 30 X s 2032 662 m cl s 2002 662 m 2 Y s 2002
 664 m cl s 2002 662 m -1 Y s 2002 661 m cl s 400 688 460 689 519 702 578 700 638 705 697 704 756 709 816 720 875 714 934 718 994 724 1053 724 1112 736 1172 736 1231 740 1290 762 1350 788 1409 867 1468 1025 1528 1329 1587 1514 1646 1211 1706 938 1765
 804 1824 722 1884 691 1943 674 2002 662 28 { m20} R 0.8 0 0 c 9 lw black 0.8 0 0 c 371 680 m cl s 371 680 m 59 7 d 59 6 d 60 5 d 59 5 d 59 5 d 60 4 d 59 4 d 59 3 d 60 3 d 59 3 d 59 3 d 60 3 d 59 5 d 59 7 d 60 11 d 29 9 d 30 12 d 30 18 d 14 11 d 15
 15 d 15 17 d 15 22 d 15 28 d 7 17 d 8 18 d 7 21 d 7 24 d 8 26 d 7 29 d 8 32 d 7 35 d 7 38 d 8 39 d 30 169 d 14 78 d 8 34 d 7 29 d 4 13 d 4 11 d 7 16 d 4 6 d 3 3 d 4 1 d 4 -1 d 4 -4 d 3 -6 d 4 -8 d 4 -11 d 3 -14 d 4 -15 d 4 -17 d 4 -19 d 3 -21 d 4
 -23 d 7 -46 d 15 -100 d 15 -98 d 7 -46 d 8 -43 d 7 -40 d 8 -36 d 7 -33 d 8 -30 d 7 -27 d 7 -24 d 8 -21 d 7 -18 d 8 -17 d 7 -14 d 15 -23 d 15 -18 d 15 -14 d 14 -11 d 15 -9 d 30 -14 d 30 -10 d 29 -9 d 60 -14 d 59 -11 d s 0.2 0.4 0.2 c[  12 12 ] 0 sd
 black 0.2 0.4 0.2 c 371 578 m cl s 371 578 m 118 X 60 1 d 59 X 59 1 d 60 1 d 59 1 d 59 1 d 60 2 d 59 2 d 59 2 d 60 3 d 59 5 d 59 8 d 30 5 d 30 7 d 29 9 d 30 13 d 15 8 d 15 10 d 14 11 d 15 14 d 15 18 d 15 21 d 15 27 d 7 16 d 8 18 d 7 20 d 7 22 d 8 25
 d 7 27 d 8 31 d 7 32 d 15 72 d 15 75 d 15 73 d 7 33 d 7 30 d 8 25 d 7 21 d 4 8 d 4 6 d 3 5 d 4 3 d 4 2 d 3 -1 d 4 -1 d 4 -4 d 4 -5 d 3 -6 d 4 -9 d 4 -9 d 7 -24 d 8 -28 d 7 -32 d 7 -35 d 15 -77 d 15 -79 d 15 -74 d 7 -34 d 8 -32 d 7 -29 d 8 -26 d 7
 -24 d 7 -22 d 8 -18 d 7 -17 d 8 -14 d 7 -13 d 15 -21 d 15 -15 d 15 -11 d 14 -9 d 15 -7 d 30 -9 d 30 -7 d 29 -4 d 60 -6 d 59 -4 d s 1 0.8 0.2 c black 1 0.8 0.2 c 371 676 m cl s 371 676 m 59 6 d 59 5 d 60 5 d 59 4 d 59 4 d 60 4 d 59 2 d 59 3 d 60 2 d
 59 1 d 59 1 d 119 X 59 -1 d 60 -1 d 59 -2 d 59 -2 d 60 -3 d 59 -3 d 59 -4 d 60 -4 d 59 -5 d 59 -5 d 60 -6 d 59 -6 d 59 -7 d 60 -8 d 59 -7 d s 0 0 1 c black 0 0 1 c 371 579 m cl s 371 579 m 59 1 d 415 X 60 -1 d 356 X 59 1 d 30 1 d 29 1 d 15 1 d 15 2
 d 15 1 d 15 2 d 14 3 d 8 2 d 7 2 d 8 2 d 7 3 d 7 3 d 8 4 d 7 4 d 4 2 d 4 3 d 7 6 d 4 3 d 4 4 d 3 3 d 4 4 d 7 9 d 8 9 d 7 10 d 8 9 d 7 9 d 4 5 d 3 3 d 4 3 d 4 2 d 4 2 d 1 1 d 6 X 4 -1 d 3 -2 d 4 -3 d 4 -3 d 4 -4 d 3 -5 d 4 -5 d 7 -11 d 4 -6 d 4 -6 d
 2 -3 d 1 -2 d 4 -6 d 8 -9 d 3 -5 d 4 -4 d 4 -4 d 3 -3 d 4 -3 d 4 -3 d 4 -3 d 3 -2 d 4 -2 d 4 -2 d 7 -4 d 8 -2 d 7 -2 d 7 -2 d 15 -3 d 15 -2 d 15 -2 d 15 -1 d 15 -1 d 29 -1 d 30 -1 d 59 -1 d 60 -1 d 59 X s black[  ] 0 sd 3 lw 371 577 m 1661 X s 371
 613 m -36 Y s 430 595 m -18 Y s 489 595 m -18 Y s 549 595 m -18 Y s 608 595 m -18 Y s 667 613 m -36 Y s 727 595 m -18 Y s 786 595 m -18 Y s 845 595 m -18 Y s 905 595 m -18 Y s 964 613 m -36 Y s 1023 595 m -18 Y s 1083 595 m -18 Y s 1142 595 m -18 Y
 s 1201 595 m -18 Y s 1261 613 m -36 Y s 1320 595 m -18 Y s 1379 595 m -18 Y s 1439 595 m -18 Y s 1498 595 m -18 Y s 1557 613 m -36 Y s 1617 595 m -18 Y s 1676 595 m -18 Y s 1735 595 m -18 Y s 1795 595 m -18 Y s 1854 613 m -36 Y s 1854 613 m -36 Y s
 1913 595 m -18 Y s 1973 595 m -18 Y s 371 2084 m 1661 X s 371 2048 m 36 Y s 430 2066 m 18 Y s 489 2066 m 18 Y s 549 2066 m 18 Y s 608 2066 m 18 Y s 667 2048 m 36 Y s 727 2066 m 18 Y s 786 2066 m 18 Y s 845 2066 m 18 Y s 905 2066 m 18 Y s 964 2048 m
 36 Y s 1023 2066 m 18 Y s 1083 2066 m 18 Y s 1142 2066 m 18 Y s 1201 2066 m 18 Y s 1261 2048 m 36 Y s 1320 2066 m 18 Y s 1379 2066 m 18 Y s 1439 2066 m 18 Y s 1498 2066 m 18 Y s 1557 2048 m 36 Y s 1617 2066 m 18 Y s 1676 2066 m 18 Y s 1735 2066 m 18
 Y s 1795 2066 m 18 Y s 1854 2048 m 36 Y s 1854 2048 m 36 Y s 1913 2066 m 18 Y s 1973 2066 m 18 Y s 371 577 m 1507 Y s 433 577 m -62 X s 402 609 m -31 X s 402 642 m -31 X s 402 674 m -31 X s 402 707 m -31 X s 433 739 m -62 X s 402 772 m -31 X s 402
 804 m -31 X s 402 837 m -31 X s 402 869 m -31 X s 433 902 m -62 X s 402 934 m -31 X s 402 967 m -31 X s 402 999 m -31 X s 402 1032 m -31 X s 433 1064 m -62 X s 402 1097 m -31 X s 402 1129 m -31 X s 402 1162 m -31 X s 402 1194 m -31 X s 433 1227 m
 -62 X s 402 1259 m -31 X s 402 1292 m -31 X s 402 1324 m -31 X s 402 1357 m -31 X s 433 1389 m -62 X s 402 1422 m -31 X s 402 1454 m -31 X s 402 1487 m -31 X s 402 1519 m -31 X s 433 1552 m -62 X s 402 1585 m -31 X s 402 1617 m -31 X s 402 1650 m
 -31 X s 402 1682 m -31 X s 433 1715 m -62 X s 402 1747 m -31 X s 402 1780 m -31 X s 402 1812 m -31 X s 402 1845 m -31 X s 433 1877 m -62 X s 402 1910 m -31 X s 402 1942 m -31 X s 402 1975 m -31 X s 402 2007 m -31 X s 433 2040 m -62 X s 433 2040 m
 -62 X s 402 2072 m -31 X s 2032 577 m 1507 Y s 1969 577 m 63 X s 2001 609 m 31 X s 2001 642 m 31 X s 2001 674 m 31 X s 2001 707 m 31 X s 1969 739 m 63 X s 2001 772 m 31 X s 2001 804 m 31 X s 2001 837 m 31 X s 2001 869 m 31 X s 1969 902 m 63 X s 2001
 934 m 31 X s 2001 967 m 31 X s 2001 999 m 31 X s 2001 1032 m 31 X s 1969 1064 m 63 X s 2001 1097 m 31 X s 2001 1129 m 31 X s 2001 1162 m 31 X s 2001 1194 m 31 X s 1969 1227 m 63 X s 2001 1259 m 31 X s 2001 1292 m 31 X s 2001 1324 m 31 X s 2001 1357
 m 31 X s 1969 1389 m 63 X s 2001 1422 m 31 X s 2001 1454 m 31 X s 2001 1487 m 31 X s 2001 1519 m 31 X s 1969 1552 m 63 X s 2001 1585 m 31 X s 2001 1617 m 31 X s 2001 1650 m 31 X s 2001 1682 m 31 X s 1969 1715 m 63 X s 2001 1747 m 31 X s 2001 1780 m
 31 X s 2001 1812 m 31 X s 2001 1845 m 31 X s 1969 1877 m 63 X s 2001 1910 m 31 X s 2001 1942 m 31 X s 2001 1975 m 31 X s 2001 2007 m 31 X s 1969 2040 m 63 X s 1969 2040 m 63 X s 2001 2072 m 31 X s 1 1 1 c black
 gsave  2245 1622 11 544 C 662.051 1989.96 t 0 r /Helvetica findfont 60.8983 sf 0 0 m ( Internal) show NC gr 
 gsave  2245 1622 11 544 C 452.782 1989.96 t 0 r /Helvetica-BoldOblique findfont 60.8983 sf 0 0 m (ATLAS) show NC gr 
 gsave  2245 1622 11 544 C 452.782 1902.45 t 0 r /Helvetica findfont 60.8983 sf 0 0 m (data 2015\25518 + mc16a,d,e) show NC gr 
 gsave  2245 1622 11 544 C 1034.93 1818.74 t 0 r /Helvetica findfont 41.8676 sf 0 0 m (\2551) show NC gr 
 gsave  2245 1622 11 544 C 513.661 1792.1 t 0 r /Helvetica findfont 60.8983 sf 0 0 m (=13 TeV, 138.97 fb) show NC gr 
 gsave  2245 1622 11 544 C 483.221 1792.1 t 0 r /Helvetica findfont 60.8983 sf 0 0 m (s) show NC gr  6 lw 464 1826 m 8 -38 d s 3 lw 472 1788 m 4 57 d s 476 1845 m 38 X s
 gsave  2245 1622 11 544 C 452.782 1712.2 t 0 r /Helvetica findfont 60.8983 sf 0 0 m (Same Sign CR) show NC gr  1 1 1 c 718 438 1269 1598 bl 1269 1598 m 718 X s 1987 1598 m 438 Y s 1987 2036 m -718 X s 1269 2036 m -438 Y s black
 gsave  2245 1622 11 544 C 1445.86 1974.74 t 0 r /Helvetica findfont 72.3167 sf 0 0 m (MC Data) show NC gr  1296 1992 m 125 X s 1358 1966 m 52 Y s 1358 1992 m20
 gsave  2245 1622 11 544 C 1445.86 1887.23 t 0 r /Helvetica findfont 72.3167 sf 0 0 m (Total BG) show NC gr  0.8 0 0 c 9 lw 1296 1904 m 125 X s black
 gsave  2245 1622 11 544 C 1445.86 1799.71 t 0 r /Helvetica findfont 72.3167 sf 0 0 m (Z+HFjets) show NC gr  0.2 0.4 0.2 c[  12 12 ] 0 sd 1296 1817 m 125 X s black
 gsave  2245 1622 11 544 C 1468.69 1712.2 t 0 r /Helvetica findfont 72.3167 sf 0 0 m (t) show NC gr [  ] 0 sd 6 lw 1469 1769 m 23 X s
 gsave  2245 1622 11 544 C 1445.86 1712.2 t 0 r /Helvetica findfont 72.3167 sf 0 0 m (t) show NC gr  1 0.8 0.2 c[  12 12 ] 0 sd 9 lw 1296 1729 m 125 X s black
 gsave  2245 1622 11 544 C 1445.86 1624.69 t 0 r /Helvetica findfont 72.3167 sf 0 0 m (Diboson) show NC gr  0 0 1 c 1296 1642 m 125 X s
 gr  gr showpage
end
%%EOF
