%!PS-Adobe-2.0 EPSF-2.0
%%BoundingBox:  0 0 567 544
%%Title: Results/M2MC_invD0.eps: Region: invD0
%%Creator: ROOT Version 6.08/06
%%CreationDate: Mon Oct 14 09:43:31 2019
%%DocumentNeededResources: ProcSet (FontSetInit)
%%EndComments
%%BeginProlog
80 dict begin
/s {stroke} def /l {lineto} def /m {moveto} def /t {translate} def
/r {rotate} def /rl {roll}  def /R {repeat} def
/d {rlineto} def /rm {rmoveto} def /gr {grestore} def /f {eofill} def
/c {setrgbcolor} def /black {0 setgray} def /sd {setdash} def
/cl {closepath} def /sf {scalefont setfont} def /lw {setlinewidth} def
/box {m dup 0 exch d exch 0 d 0 exch neg d cl} def
/NC{systemdict begin initclip end}def/C{NC box clip newpath}def
/bl {box s} def /bf {gsave box gsave f grestore 1 lw [] 0 sd s grestore} def /Y { 0 exch d} def /X { 0 d} def 
/K {{pop pop 0 moveto} exch kshow} bind def
/ita {/ang 15 def gsave [1 0 ang dup sin exch cos div 1 0 0] concat} def 
/mp {newpath /y exch def /x exch def} def
/side {[w .77 mul w .23 mul] .385 w mul sd w 0 l currentpoint t -144 r} def
/mr {mp x y w2 0 360 arc} def /m24 {mr s} def /m20 {mr f} def
/mb {mp x y w2 add m w2 neg 0 d 0 w neg d w 0 d 0 w d cl} def
/mt {mp x y w2 add m w2 neg w neg d w 0 d cl} def
/m21 {mb f} def /m25 {mb s} def /m22 {mt f} def /m26{mt s} def
/m23 {mp x y w2 sub m w2 w d w neg 0 d cl f} def
/m27 {mp x y w2 add m w3 neg w2 neg d w3 w2 neg d w3 w2 d cl s} def
/m28 {mp x w2 sub y w2 sub w3 add m w3 0 d  0 w3 neg d w3 0 d 0 w3 d w3 0 d  0 w3 d w3 neg 0 d 0 w3 d w3 neg 0 d 0 w3 neg d w3 neg 0 d cl s } def
/m29 {mp gsave x w2 sub y w2 add w3 sub m currentpoint t 4 {side} repeat cl fill gr} def
/m30 {mp gsave x w2 sub y w2 add w3 sub m currentpoint t 4 {side} repeat cl s gr} def
/m31 {mp x y w2 sub m 0 w d x w2 sub y m w 0 d x w2 sub y w2 add m w w neg d x w2 sub y w2 sub m w w d s} def
/m32 {mp x y w2 sub m w2 w d w neg 0 d cl s} def
/m33 {mp x y w2 add m w3 neg w2 neg d w3 w2 neg d w3 w2 d cl f} def
/m34 {mp x w2 sub y w2 sub w3 add m w3 0 d  0 w3 neg d w3 0 d 0 w3 d w3 0 d  0 w3 d w3 neg 0 d 0 w3 d w3 neg 0 d 0 w3 neg d w3 neg 0 d cl f } def
/m2 {mp x y w2 sub m 0 w d x w2 sub y m w 0 d s} def
/m5 {mp x w2 sub y w2 sub m w w d x w2 sub y w2 add m w w neg d s} def
%%IncludeResource: ProcSet (FontSetInit)
%%IncludeResource: font Times-Roman
%%IncludeResource: font Times-Italic
%%IncludeResource: font Times-Bold
%%IncludeResource: font Times-BoldItalic
%%IncludeResource: font Helvetica
%%IncludeResource: font Helvetica-Oblique
%%IncludeResource: font Helvetica-Bold
%%IncludeResource: font Helvetica-BoldOblique
%%IncludeResource: font Courier
%%IncludeResource: font Courier-Oblique
%%IncludeResource: font Courier-Bold
%%IncludeResource: font Courier-BoldOblique
%%IncludeResource: font Symbol
%%IncludeResource: font ZapfDingbats
/reEncode {exch findfont dup length dict begin {1 index /FID eq  {pop pop} {def} ifelse } forall /Encoding exch def currentdict end dup /FontName get exch definefont pop } def [/Times-Bold /Times-Italic /Times-BoldItalic /Helvetica /Helvetica-Oblique
 /Helvetica-Bold /Helvetica-BoldOblique /Courier /Courier-Oblique /Courier-Bold /Courier-BoldOblique /Times-Roman /AvantGarde-Book /AvantGarde-BookOblique /AvantGarde-Demi /AvantGarde-DemiOblique /Bookman-Demi /Bookman-DemiItalic /Bookman-Light
 /Bookman-LightItalic /Helvetica-Narrow /Helvetica-Narrow-Bold /Helvetica-Narrow-BoldOblique /Helvetica-Narrow-Oblique /NewCenturySchlbk-Roman /NewCenturySchlbk-Bold /NewCenturySchlbk-BoldItalic /NewCenturySchlbk-Italic /Palatino-Bold
 /Palatino-BoldItalic /Palatino-Italic /Palatino-Roman ] {ISOLatin1Encoding reEncode } forall
%%EndProlog
%%BeginSetup
%%EndSetup
newpath  gsave  .25 .25 scale  gsave  0 0 t black[  ] 0 sd 3 lw 1 1 1 c 2268 2176 0 0 bf black 1 1 1 c 2245 533 11 11 bf black 1 1 1 c 1661 288 371 224 bf black 1661 288 371 224 bl 371 224 m 1661 X s 371 512 m 1661 X s 371 224 m 288 Y s[ 4 8] 0 sd
 2032 224 m -1661 X s 2032 296 m -1661 X s 2032 368 m -1661 X s 2032 440 m -1661 X s 2032 512 m -1661 X s[  ] 0 sd 2032 224 m 288 Y s 371 224 m 1661 X s
 gsave  2245 533 11 11 C 1849.18 98.9272 t 0 r /Helvetica findfont 64.7479 sf 0 0 m ( [GeV]) show NC gr 
 gsave  2245 533 11 11 C 1803.52 76.0979 t 0 r /Helvetica findfont 41.8957 sf 0 0 m (12) show NC gr 
 gsave  2245 533 11 11 C 1750.25 98.9272 t 0 r /Helvetica findfont 64.7479 sf 0 0 m (m) show NC gr  371 236 m -12 Y s 430 230 m -6 Y s 489 230 m -6 Y s 549 230 m -6 Y s 608 230 m -6 Y s 667 236 m -12 Y s 727 230 m -6 Y s 786 230 m -6 Y s 845 230 m -6
 Y s 905 230 m -6 Y s 964 236 m -12 Y s 1023 230 m -6 Y s 1083 230 m -6 Y s 1142 230 m -6 Y s 1201 230 m -6 Y s 1261 236 m -12 Y s 1320 230 m -6 Y s 1379 230 m -6 Y s 1439 230 m -6 Y s 1498 230 m -6 Y s 1557 236 m -12 Y s 1617 230 m -6 Y s 1676 230 m
 -6 Y s 1735 230 m -6 Y s 1795 230 m -6 Y s 1854 236 m -12 Y s 1854 236 m -12 Y s 1913 230 m -6 Y s 1973 230 m -6 Y s
 gsave  2245 533 11 11 C 334.831 171.22 t 0 r /Helvetica findfont 57.1305 sf 0 0 m (50) show NC gr 
 gsave  2245 533 11 11 C 631.612 171.22 t 0 r /Helvetica findfont 57.1305 sf 0 0 m (60) show NC gr 
 gsave  2245 533 11 11 C 928.394 171.22 t 0 r /Helvetica findfont 57.1305 sf 0 0 m (70) show NC gr 
 gsave  2245 533 11 11 C 1225.18 171.22 t 0 r /Helvetica findfont 57.1305 sf 0 0 m (80) show NC gr 
 gsave  2245 533 11 11 C 1521.96 171.22 t 0 r /Helvetica findfont 57.1305 sf 0 0 m (90) show NC gr 
 gsave  2245 533 11 11 C 1803.52 171.22 t 0 r /Helvetica findfont 57.1305 sf 0 0 m (100) show NC gr  371 512 m 1661 X s 371 500 m 12 Y s 430 506 m 6 Y s 489 506 m 6 Y s 549 506 m 6 Y s 608 506 m 6 Y s 667 500 m 12 Y s 727 506 m 6 Y s 786 506 m 6 Y s
 845 506 m 6 Y s 905 506 m 6 Y s 964 500 m 12 Y s 1023 506 m 6 Y s 1083 506 m 6 Y s 1142 506 m 6 Y s 1201 506 m 6 Y s 1261 500 m 12 Y s 1320 506 m 6 Y s 1379 506 m 6 Y s 1439 506 m 6 Y s 1498 506 m 6 Y s 1557 500 m 12 Y s 1617 506 m 6 Y s 1676 506 m
 6 Y s 1735 506 m 6 Y s 1795 506 m 6 Y s 1854 500 m 12 Y s 1854 500 m 12 Y s 1913 506 m 6 Y s 1973 506 m 6 Y s 371 224 m 288 Y s
 gsave  2245 533 11 11 C 156.001 407.124 t 90 r /Helvetica findfont 64.7479 sf 0 0 m (Pull) show NC gr  407 224 m -36 X s 389 242 m -18 X s 389 260 m -18 X s 389 278 m -18 X s 407 296 m -36 X s 389 314 m -18 X s 389 332 m -18 X s 389 350 m -18 X s
 407 368 m -36 X s 389 386 m -18 X s 389 404 m -18 X s 389 422 m -18 X s 407 440 m -36 X s 389 458 m -18 X s 389 476 m -18 X s 389 494 m -18 X s 407 512 m -36 X s
 gsave  2245 533 11 11 C 327.221 201.659 t 0 r /Helvetica findfont 57.1305 sf 0 0 m (4) show NC gr 
 gsave  2245 533 11 11 C 292.977 201.659 t 0 r /Symbol findfont 57.1305 sf 0 0 m (-) show NC gr 
 gsave  2245 533 11 11 C 327.221 273.952 t 0 r /Helvetica findfont 57.1305 sf 0 0 m (2) show NC gr 
 gsave  2245 533 11 11 C 292.977 273.952 t 0 r /Symbol findfont 57.1305 sf 0 0 m (-) show NC gr 
 gsave  2245 533 11 11 C 327.221 346.245 t 0 r /Helvetica findfont 57.1305 sf 0 0 m (0) show NC gr 
 gsave  2245 533 11 11 C 327.221 418.538 t 0 r /Helvetica findfont 57.1305 sf 0 0 m (2) show NC gr 
 gsave  2245 533 11 11 C 327.221 490.831 t 0 r /Helvetica findfont 57.1305 sf 0 0 m (4) show NC gr  2032 224 m 288 Y s 1996 224 m 36 X s 2014 242 m 18 X s 2014 260 m 18 X s 2014 278 m 18 X s 1996 296 m 36 X s 2014 314 m 18 X s 2014 332 m 18 X s 2014
 350 m 18 X s 1996 368 m 36 X s 2014 386 m 18 X s 2014 404 m 18 X s 2014 422 m 18 X s 1996 440 m 36 X s 2014 458 m 18 X s 2014 476 m 18 X s 2014 494 m 18 X s 1996 512 m 36 X s 400 313 m 36 Y s 400 349 m cl s 400 313 m -36 Y s 400 277 m cl s 460 351 m
 36 Y s 460 387 m cl s 460 351 m -36 Y s 460 315 m cl s 519 399 m 36 Y s 519 435 m cl s 519 399 m -36 Y s 519 363 m cl s 578 375 m 36 Y s 578 411 m cl s 578 375 m -36 Y s 578 339 m cl s 638 387 m 36 Y s 638 423 m cl s 638 387 m -36 Y s 638 351 m cl s
 697 341 m 36 Y s 697 377 m cl s 697 341 m -36 Y s 697 305 m cl s 756 364 m 36 Y s 756 400 m cl s 756 364 m -36 Y s 756 328 m cl s 816 400 m 36 Y s 816 436 m cl s 816 400 m -36 Y s 816 364 m cl s 875 242 m 36 Y s 875 278 m cl s 875 242 m -18 Y s 875
 224 m cl s 934 367 m 36 Y s 934 403 m cl s 934 367 m -36 Y s 934 331 m cl s 994 247 m 36 Y s 994 283 m cl s 994 247 m -23 Y s 994 224 m cl s 1053 312 m 36 Y s 1053 348 m cl s 1053 312 m -36 Y s 1053 276 m cl s 1112 343 m 36 Y s 1112 379 m cl s 1112
 343 m -36 Y s 1112 307 m cl s 1172 243 m 36 Y s 1172 279 m cl s 1172 243 m -19 Y s 1172 224 m cl s 1231 399 m 36 Y s 1231 435 m cl s 1231 399 m -36 Y s 1231 363 m cl s 1290 393 m 36 Y s 1290 429 m cl s 1290 393 m -36 Y s 1290 357 m cl s 1350 376 m
 36 Y s 1350 412 m cl s 1350 376 m -36 Y s 1350 340 m cl s 1409 363 m 36 Y s 1409 399 m cl s 1409 363 m -36 Y s 1409 327 m cl s 1468 381 m 36 Y s 1468 417 m cl s 1468 381 m -36 Y s 1468 345 m cl s 1528 347 m 36 Y s 1528 383 m cl s 1528 347 m -36 Y s
 1528 311 m cl s 1587 325 m 36 Y s 1587 361 m cl s 1587 325 m -36 Y s 1587 289 m cl s 1646 364 m 36 Y s 1646 400 m cl s 1646 364 m -36 Y s 1646 328 m cl s 1706 394 m 36 Y s 1706 430 m cl s 1706 394 m -36 Y s 1706 358 m cl s 1765 448 m 36 Y s 1765 484
 m cl s 1765 448 m -36 Y s 1765 412 m cl s 1824 451 m 36 Y s 1824 487 m cl s 1824 451 m -36 Y s 1824 415 m cl s 1884 349 m 36 Y s 1884 385 m cl s 1884 349 m -36 Y s 1884 313 m cl s 1943 338 m 36 Y s 1943 374 m cl s 1943 338 m -36 Y s 1943 302 m cl s
 2002 355 m 36 Y s 2002 391 m cl s 2002 355 m -36 Y s 2002 319 m cl s /w 37 def /w2 {w 2 div} def /w3 {w 3 div} def 400 313 460 351 519 399 578 375 638 387 697 341 756 364 816 400 875 242 934 367 994 247 1053 312 1112 343 1172 243 1231 399 1290 393
 1350 376 1409 363 1468 381 1528 347 1587 325 1646 364 1706 394 1765 448 1824 451 1884 349 1943 338 2002 355 28 { m20} R 371 224 m 1661 X s 371 236 m -12 Y s 430 230 m -6 Y s 489 230 m -6 Y s 549 230 m -6 Y s 608 230 m -6 Y s 667 236 m -12 Y s 727
 230 m -6 Y s 786 230 m -6 Y s 845 230 m -6 Y s 905 230 m -6 Y s 964 236 m -12 Y s 1023 230 m -6 Y s 1083 230 m -6 Y s 1142 230 m -6 Y s 1201 230 m -6 Y s 1261 236 m -12 Y s 1320 230 m -6 Y s 1379 230 m -6 Y s 1439 230 m -6 Y s 1498 230 m -6 Y s 1557
 236 m -12 Y s 1617 230 m -6 Y s 1676 230 m -6 Y s 1735 230 m -6 Y s 1795 230 m -6 Y s 1854 236 m -12 Y s 1854 236 m -12 Y s 1913 230 m -6 Y s 1973 230 m -6 Y s 371 512 m 1661 X s 371 500 m 12 Y s 430 506 m 6 Y s 489 506 m 6 Y s 549 506 m 6 Y s 608
 506 m 6 Y s 667 500 m 12 Y s 727 506 m 6 Y s 786 506 m 6 Y s 845 506 m 6 Y s 905 506 m 6 Y s 964 500 m 12 Y s 1023 506 m 6 Y s 1083 506 m 6 Y s 1142 506 m 6 Y s 1201 506 m 6 Y s 1261 500 m 12 Y s 1320 506 m 6 Y s 1379 506 m 6 Y s 1439 506 m 6 Y s
 1498 506 m 6 Y s 1557 500 m 12 Y s 1617 506 m 6 Y s 1676 506 m 6 Y s 1735 506 m 6 Y s 1795 506 m 6 Y s 1854 500 m 12 Y s 1854 500 m 12 Y s 1913 506 m 6 Y s 1973 506 m 6 Y s 371 224 m 288 Y s 407 224 m -36 X s 389 242 m -18 X s 389 260 m -18 X s 389
 278 m -18 X s 407 296 m -36 X s 389 314 m -18 X s 389 332 m -18 X s 389 350 m -18 X s 407 368 m -36 X s 389 386 m -18 X s 389 404 m -18 X s 389 422 m -18 X s 407 440 m -36 X s 389 458 m -18 X s 389 476 m -18 X s 389 494 m -18 X s 407 512 m -36 X s
 2032 224 m 288 Y s 1996 224 m 36 X s 2014 242 m 18 X s 2014 260 m 18 X s 2014 278 m 18 X s 1996 296 m 36 X s 2014 314 m 18 X s 2014 332 m 18 X s 2014 350 m 18 X s 1996 368 m 36 X s 2014 386 m 18 X s 2014 404 m 18 X s 2014 422 m 18 X s 1996 440 m 36
 X s 2014 458 m 18 X s 2014 476 m 18 X s 2014 494 m 18 X s 1996 512 m 36 X s[  12 12 ] 0 sd 6 lw 371 368 m 1661 X s[  ] 0 sd 3 lw 1 1 1 c 2245 1622 11 544 bf black 1 1 1 c 1661 1507 371 577 bf black 1661 1507 371 577 bl 371 577 m 1661 X s 371 613 m
 -36 Y s 430 595 m -18 Y s 489 595 m -18 Y s 549 595 m -18 Y s 608 595 m -18 Y s 667 613 m -36 Y s 727 595 m -18 Y s 786 595 m -18 Y s 845 595 m -18 Y s 905 595 m -18 Y s 964 613 m -36 Y s 1023 595 m -18 Y s 1083 595 m -18 Y s 1142 595 m -18 Y s 1201
 595 m -18 Y s 1261 613 m -36 Y s 1320 595 m -18 Y s 1379 595 m -18 Y s 1439 595 m -18 Y s 1498 595 m -18 Y s 1557 613 m -36 Y s 1617 595 m -18 Y s 1676 595 m -18 Y s 1735 595 m -18 Y s 1795 595 m -18 Y s 1854 613 m -36 Y s 1854 613 m -36 Y s 1913
 595 m -18 Y s 1973 595 m -18 Y s 371 2084 m 1661 X s 371 2048 m 36 Y s 430 2066 m 18 Y s 489 2066 m 18 Y s 549 2066 m 18 Y s 608 2066 m 18 Y s 667 2048 m 36 Y s 727 2066 m 18 Y s 786 2066 m 18 Y s 845 2066 m 18 Y s 905 2066 m 18 Y s 964 2048 m 36 Y
 s 1023 2066 m 18 Y s 1083 2066 m 18 Y s 1142 2066 m 18 Y s 1201 2066 m 18 Y s 1261 2048 m 36 Y s 1320 2066 m 18 Y s 1379 2066 m 18 Y s 1439 2066 m 18 Y s 1498 2066 m 18 Y s 1557 2048 m 36 Y s 1617 2066 m 18 Y s 1676 2066 m 18 Y s 1735 2066 m 18 Y s
 1795 2066 m 18 Y s 1854 2048 m 36 Y s 1854 2048 m 36 Y s 1913 2066 m 18 Y s 1973 2066 m 18 Y s 371 577 m 1507 Y s
 gsave  2245 1622 11 544 C 152.196 1666.54 t 90 r /Helvetica findfont 64.7045 sf 0 0 m (Events / 2GeV) show NC gr  433 577 m -62 X s 402 639 m -31 X s 402 701 m -31 X s 402 763 m -31 X s 433 825 m -62 X s 402 887 m -31 X s 402 949 m -31 X s 402 1011
 m -31 X s 433 1073 m -62 X s 402 1135 m -31 X s 402 1197 m -31 X s 402 1259 m -31 X s 433 1321 m -62 X s 402 1383 m -31 X s 402 1445 m -31 X s 402 1507 m -31 X s 433 1569 m -62 X s 402 1631 m -31 X s 402 1693 m -31 X s 402 1755 m -31 X s 433 1817 m
 -62 X s 402 1879 m -31 X s 402 1941 m -31 X s 402 2004 m -31 X s 433 2066 m -62 X s 433 2066 m -62 X s
 gsave  2245 1622 11 544 C 327.221 555.514 t 0 r /Helvetica findfont 57.0922 sf 0 0 m (0) show NC gr 
 gsave  2245 1622 11 544 C 262.538 802.833 t 0 r /Helvetica findfont 57.0922 sf 0 0 m (200) show NC gr 
 gsave  2245 1622 11 544 C 262.538 1050.15 t 0 r /Helvetica findfont 57.0922 sf 0 0 m (400) show NC gr 
 gsave  2245 1622 11 544 C 262.538 1301.27 t 0 r /Helvetica findfont 57.0922 sf 0 0 m (600) show NC gr 
 gsave  2245 1622 11 544 C 262.538 1548.59 t 0 r /Helvetica findfont 57.0922 sf 0 0 m (800) show NC gr 
 gsave  2245 1622 11 544 C 232.099 1795.91 t 0 r /Helvetica findfont 57.0922 sf 0 0 m (1000) show NC gr 
 gsave  2245 1622 11 544 C 232.099 2043.23 t 0 r /Helvetica findfont 57.0922 sf 0 0 m (1200) show NC gr  2032 577 m 1507 Y s 1969 577 m 63 X s 2001 639 m 31 X s 2001 701 m 31 X s 2001 763 m 31 X s 1969 825 m 63 X s 2001 887 m 31 X s 2001 949 m 31 X s
 2001 1011 m 31 X s 1969 1073 m 63 X s 2001 1135 m 31 X s 2001 1197 m 31 X s 2001 1259 m 31 X s 1969 1321 m 63 X s 2001 1383 m 31 X s 2001 1445 m 31 X s 2001 1507 m 31 X s 1969 1569 m 63 X s 2001 1631 m 31 X s 2001 1693 m 31 X s 2001 1755 m 31 X s
 1969 1817 m 63 X s 2001 1879 m 31 X s 2001 1941 m 31 X s 2001 2004 m 31 X s 1969 2066 m 63 X s 1969 2066 m 63 X s 400 663 m -29 X s 371 663 m cl s 400 663 m 30 X s 430 663 m cl s 400 663 m 1 Y s 400 664 m cl s 400 663 m -1 Y s 400 662 m cl s 460 670
 m -30 X s 430 670 m cl s 460 670 m 29 X s 489 670 m cl s 460 670 m 1 Y s 460 671 m cl s 460 670 m -2 Y s 460 668 m cl s 519 676 m -30 X s 489 676 m cl s 519 676 m 30 X s 549 676 m cl s 519 676 m 2 Y s 519 678 m cl s 519 676 m -1 Y s 519 675 m cl s
 578 680 m -29 X s 549 680 m cl s 578 680 m 30 X s 608 680 m cl s 578 680 m 1 Y s 578 681 m cl s 578 680 m -2 Y s 578 678 m cl s 638 685 m -30 X s 608 685 m cl s 638 685 m 29 X s 667 685 m cl s 638 685 m 2 Y s 638 687 m cl s 638 685 m -3 Y s 638 682
 m cl s 697 686 m -30 X s 667 686 m cl s 697 686 m 30 X s 727 686 m cl s 697 686 m 2 Y s 697 688 m cl s 697 686 m -2 Y s 697 684 m cl s 756 691 m -29 X s 727 691 m cl s 756 691 m 30 X s 786 691 m cl s 756 691 m 2 Y s 756 693 m cl s 756 691 m -2 Y s
 756 689 m cl s 816 697 m -30 X s 786 697 m cl s 816 697 m 29 X s 845 697 m cl s 816 697 m 2 Y s 816 699 m cl s 816 697 m -3 Y s 816 694 m cl s 875 692 m -30 X s 845 692 m cl s 875 692 m 30 X s 905 692 m cl s 875 692 m 1 Y s 875 693 m cl s 875 692 m
 -2 Y s 875 690 m cl s 934 700 m -29 X s 905 700 m cl s 934 700 m 30 X s 964 700 m cl s 934 700 m 3 Y s 934 703 m cl s 934 700 m -3 Y s 934 697 m cl s 994 698 m -30 X s 964 698 m cl s 994 698 m 29 X s 1023 698 m cl s 994 698 m 1 Y s 994 699 m cl s
 994 698 m -2 Y s 994 696 m cl s 1053 704 m -30 X s 1023 704 m cl s 1053 704 m 30 X s 1083 704 m cl s 1053 704 m 1 Y s 1053 705 m cl s 1053 704 m -2 Y s 1053 702 m cl s 1112 709 m -29 X s 1083 709 m cl s 1112 709 m 30 X s 1142 709 m cl s 1112 709 m 2
 Y s 1112 711 m cl s 1112 709 m -2 Y s 1112 707 m cl s 1172 710 m -30 X s 1142 710 m cl s 1172 710 m 29 X s 1201 710 m cl s 1172 710 m 2 Y s 1172 712 m cl s 1172 710 m -2 Y s 1172 708 m cl s 1231 729 m -30 X s 1201 729 m cl s 1231 729 m 30 X s 1261
 729 m cl s 1231 729 m 3 Y s 1231 732 m cl s 1231 729 m -3 Y s 1231 726 m cl s 1290 745 m -29 X s 1261 745 m cl s 1290 745 m 30 X s 1320 745 m cl s 1290 745 m 4 Y s 1290 749 m cl s 1290 745 m -3 Y s 1290 742 m cl s 1350 776 m -30 X s 1320 776 m cl s
 1350 776 m 29 X s 1379 776 m cl s 1350 776 m 4 Y s 1350 780 m cl s 1350 776 m -4 Y s 1350 772 m cl s 1409 845 m -30 X s 1379 845 m cl s 1409 845 m 30 X s 1439 845 m cl s 1409 845 m 4 Y s 1409 849 m cl s 1409 845 m -5 Y s 1409 840 m cl s 1468 1022 m
 -29 X s 1439 1022 m cl s 1468 1022 m 30 X s 1498 1022 m cl s 1468 1022 m 9 Y s 1468 1031 m cl s 1468 1022 m -9 Y s 1468 1013 m cl s 1528 1341 m -30 X s 1498 1341 m cl s 1528 1341 m 29 X s 1557 1341 m cl s 1528 1341 m 11 Y s 1528 1352 m cl s 1528
 1341 m -10 Y s 1528 1331 m cl s 1587 1519 m -30 X s 1557 1519 m cl s 1587 1519 m 30 X s 1617 1519 m cl s 1587 1519 m 11 Y s 1587 1530 m cl s 1587 1519 m -10 Y s 1587 1509 m cl s 1646 1242 m -29 X s 1617 1242 m cl s 1646 1242 m 30 X s 1676 1242 m cl
 s 1646 1242 m 10 Y s 1646 1252 m cl s 1646 1242 m -9 Y s 1646 1233 m cl s 1706 914 m -30 X s 1676 914 m cl s 1706 914 m 29 X s 1735 914 m cl s 1706 914 m 8 Y s 1706 922 m cl s 1706 914 m -9 Y s 1706 905 m cl s 1765 765 m -30 X s 1735 765 m cl s 1765
 765 m 30 X s 1795 765 m cl s 1765 765 m 4 Y s 1765 769 m cl s 1765 765 m -4 Y s 1765 761 m cl s 1824 711 m -29 X s 1795 711 m cl s 1824 711 m 30 X s 1854 711 m cl s 1824 711 m 3 Y s 1824 714 m cl s 1824 711 m -4 Y s 1824 707 m cl s 1884 678 m -30 X
 s 1854 678 m cl s 1884 678 m 29 X s 1913 678 m cl s 1884 678 m 2 Y s 1884 680 m cl s 1884 678 m -3 Y s 1884 675 m cl s 1943 663 m -30 X s 1913 663 m cl s 1943 663 m 30 X s 1973 663 m cl s 1943 663 m 2 Y s 1943 665 m cl s 1943 663 m -1 Y s 1943 662 m
 cl s 2002 652 m -29 X s 1973 652 m cl s 2002 652 m 30 X s 2032 652 m cl s 2002 652 m 1 Y s 2002 653 m cl s 2002 652 m -1 Y s 2002 651 m cl s 400 663 460 670 519 676 578 680 638 685 697 686 756 691 816 697 875 692 934 700 994 698 1053 704 1112 709
 1172 710 1231 729 1290 745 1350 776 1409 845 1468 1022 1528 1341 1587 1519 1646 1242 1706 914 1765 765 1824 711 1884 678 1943 663 2002 652 28 { m20} R 0.8 0 0 c 9 lw black 0.8 0 0 c 371 663 m cl s 371 663 m 59 5 d 59 5 d 60 4 d 59 4 d 59 5 d 60 3 d
 59 4 d 59 3 d 60 2 d 59 3 d 59 3 d 60 4 d 59 5 d 59 8 d 30 5 d 30 7 d 29 10 d 30 13 d 15 9 d 15 10 d 14 13 d 15 15 d 15 19 d 15 24 d 15 29 d 7 18 d 8 20 d 7 22 d 7 25 d 8 28 d 7 31 d 8 34 d 7 37 d 7 40 d 8 42 d 30 176 d 7 40 d 7 39 d 8 33 d 7 30 d 4
 12 d 4 10 d 7 15 d 4 5 d 3 2 d 4 X 4 -2 d 4 -4 d 3 -7 d 4 -9 d 4 -12 d 3 -14 d 4 -15 d 4 -17 d 4 -19 d 59 -383 d 7 -41 d 8 -38 d 7 -34 d 8 -32 d 7 -28 d 7 -25 d 8 -22 d 7 -19 d 8 -17 d 7 -15 d 15 -25 d 15 -18 d 15 -15 d 14 -11 d 15 -9 d 30 -14 d 30
 -10 d 29 -8 d 60 -13 d 59 -11 d s 0.2 0.4 0.2 c[  12 12 ] 0 sd black 0.2 0.4 0.2 c 371 579 m cl s 371 579 m 59 -1 d 59 1 d 119 X 59 1 d 60 2 d 59 1 d 59 1 d 60 1 d 59 2 d 59 3 d 60 4 d 59 5 d 59 8 d 30 6 d 30 7 d 29 10 d 30 14 d 15 9 d 15 10 d 14 13
 d 15 15 d 15 19 d 15 23 d 15 29 d 7 17 d 8 20 d 7 21 d 7 24 d 8 27 d 7 30 d 8 33 d 7 35 d 15 77 d 15 82 d 15 79 d 7 36 d 7 32 d 8 27 d 7 22 d 4 9 d 4 7 d 3 5 d 4 3 d 4 2 d 3 X 4 -2 d 4 -4 d 4 -5 d 3 -7 d 4 -9 d 4 -10 d 7 -26 d 8 -30 d 7 -35 d 7 -38
 d 15 -83 d 15 -85 d 15 -81 d 7 -36 d 8 -35 d 7 -31 d 8 -29 d 7 -26 d 7 -23 d 8 -20 d 7 -18 d 8 -16 d 7 -14 d 15 -22 d 15 -16 d 15 -13 d 14 -9 d 15 -7 d 30 -11 d 30 -7 d 29 -5 d 60 -6 d 59 -4 d s 1 0.8 0.2 c black 1 0.8 0.2 c 371 658 m cl s 371 658 m
 59 5 d 59 5 d 60 4 d 59 3 d 59 3 d 60 3 d 59 3 d 59 2 d 60 1 d 59 1 d 59 1 d 119 X 59 -1 d 60 -1 d 59 -1 d 59 -2 d 60 -2 d 59 -3 d 59 -3 d 60 -4 d 59 -4 d 59 -4 d 60 -5 d 59 -5 d 59 -6 d 60 -6 d 59 -6 d s 0 0 1 c black 0 0 1 c 371 579 m cl s 371 579
 m 59 X 59 1 d 238 X 59 -1 d 178 X 59 -1 d 178 X 60 1 d 59 X 30 1 d 29 1 d 15 1 d 15 1 d 15 1 d 15 1 d 14 2 d 8 2 d 7 1 d 8 2 d 7 2 d 7 3 d 8 2 d 7 4 d 4 1 d 4 2 d 7 5 d 4 2 d 4 3 d 3 3 d 4 3 d 7 6 d 8 7 d 7 7 d 8 7 d 7 7 d 4 4 d 3 2 d 4 2 d 4 2 d 4
 2 d 7 X 4 -1 d 3 -1 d 4 -2 d 4 -3 d 4 -3 d 3 -3 d 4 -5 d 7 -8 d 4 -4 d 4 -4 d 2 -3 d 1 -2 d 4 -3 d 8 -8 d 3 -3 d 4 -3 d 4 -3 d 3 -3 d 4 -2 d 4 -2 d 4 -2 d 3 -2 d 4 -2 d 4 -1 d 7 -3 d 8 -2 d 7 -1 d 7 -2 d 15 -2 d 15 -1 d 15 -2 d 15 -1 d 15 X 29 -1 d
 30 -1 d 59 -1 d 60 X 59 -1 d s black[  ] 0 sd 3 lw 371 577 m 1661 X s 371 613 m -36 Y s 430 595 m -18 Y s 489 595 m -18 Y s 549 595 m -18 Y s 608 595 m -18 Y s 667 613 m -36 Y s 727 595 m -18 Y s 786 595 m -18 Y s 845 595 m -18 Y s 905 595 m -18 Y s
 964 613 m -36 Y s 1023 595 m -18 Y s 1083 595 m -18 Y s 1142 595 m -18 Y s 1201 595 m -18 Y s 1261 613 m -36 Y s 1320 595 m -18 Y s 1379 595 m -18 Y s 1439 595 m -18 Y s 1498 595 m -18 Y s 1557 613 m -36 Y s 1617 595 m -18 Y s 1676 595 m -18 Y s
 1735 595 m -18 Y s 1795 595 m -18 Y s 1854 613 m -36 Y s 1854 613 m -36 Y s 1913 595 m -18 Y s 1973 595 m -18 Y s 371 2084 m 1661 X s 371 2048 m 36 Y s 430 2066 m 18 Y s 489 2066 m 18 Y s 549 2066 m 18 Y s 608 2066 m 18 Y s 667 2048 m 36 Y s 727
 2066 m 18 Y s 786 2066 m 18 Y s 845 2066 m 18 Y s 905 2066 m 18 Y s 964 2048 m 36 Y s 1023 2066 m 18 Y s 1083 2066 m 18 Y s 1142 2066 m 18 Y s 1201 2066 m 18 Y s 1261 2048 m 36 Y s 1320 2066 m 18 Y s 1379 2066 m 18 Y s 1439 2066 m 18 Y s 1498 2066 m
 18 Y s 1557 2048 m 36 Y s 1617 2066 m 18 Y s 1676 2066 m 18 Y s 1735 2066 m 18 Y s 1795 2066 m 18 Y s 1854 2048 m 36 Y s 1854 2048 m 36 Y s 1913 2066 m 18 Y s 1973 2066 m 18 Y s 371 577 m 1507 Y s 433 577 m -62 X s 402 639 m -31 X s 402 701 m -31 X
 s 402 763 m -31 X s 433 825 m -62 X s 402 887 m -31 X s 402 949 m -31 X s 402 1011 m -31 X s 433 1073 m -62 X s 402 1135 m -31 X s 402 1197 m -31 X s 402 1259 m -31 X s 433 1321 m -62 X s 402 1383 m -31 X s 402 1445 m -31 X s 402 1507 m -31 X s 433
 1569 m -62 X s 402 1631 m -31 X s 402 1693 m -31 X s 402 1755 m -31 X s 433 1817 m -62 X s 402 1879 m -31 X s 402 1941 m -31 X s 402 2004 m -31 X s 433 2066 m -62 X s 433 2066 m -62 X s 2032 577 m 1507 Y s 1969 577 m 63 X s 2001 639 m 31 X s 2001
 701 m 31 X s 2001 763 m 31 X s 1969 825 m 63 X s 2001 887 m 31 X s 2001 949 m 31 X s 2001 1011 m 31 X s 1969 1073 m 63 X s 2001 1135 m 31 X s 2001 1197 m 31 X s 2001 1259 m 31 X s 1969 1321 m 63 X s 2001 1383 m 31 X s 2001 1445 m 31 X s 2001 1507 m
 31 X s 1969 1569 m 63 X s 2001 1631 m 31 X s 2001 1693 m 31 X s 2001 1755 m 31 X s 1969 1817 m 63 X s 2001 1879 m 31 X s 2001 1941 m 31 X s 2001 2004 m 31 X s 1969 2066 m 63 X s 1969 2066 m 63 X s 1 1 1 c black
 gsave  2245 1622 11 544 C 662.051 1989.96 t 0 r /Helvetica findfont 60.8983 sf 0 0 m ( Internal) show NC gr 
 gsave  2245 1622 11 544 C 452.782 1989.96 t 0 r /Helvetica-BoldOblique findfont 60.8983 sf 0 0 m (ATLAS) show NC gr 
 gsave  2245 1622 11 544 C 452.782 1902.45 t 0 r /Helvetica findfont 60.8983 sf 0 0 m (data 2015\25518 + mc16a,d,e) show NC gr 
 gsave  2245 1622 11 544 C 1034.93 1818.74 t 0 r /Helvetica findfont 41.8676 sf 0 0 m (\2551) show NC gr 
 gsave  2245 1622 11 544 C 513.661 1792.1 t 0 r /Helvetica findfont 60.8983 sf 0 0 m (=13 TeV, 138.97 fb) show NC gr 
 gsave  2245 1622 11 544 C 483.221 1792.1 t 0 r /Helvetica findfont 60.8983 sf 0 0 m (s) show NC gr  6 lw 464 1826 m 8 -38 d s 3 lw 472 1788 m 4 57 d s 476 1845 m 38 X s
 gsave  2245 1622 11 544 C 745.759 1712.2 t 0 r /Helvetica findfont 60.8983 sf 0 0 m ( CR) show NC gr 
 gsave  2245 1622 11 544 C 722.93 1689.37 t 0 r /Helvetica findfont 41.8676 sf 0 0 m (0) show NC gr 
 gsave  2245 1622 11 544 C 452.782 1712.2 t 0 r /Helvetica findfont 60.8983 sf 0 0 m (Inverted d) show NC gr  1 1 1 c 718 438 1269 1598 bl 1269 1598 m 718 X s 1987 1598 m 438 Y s 1987 2036 m -718 X s 1269 2036 m -438 Y s black
 gsave  2245 1622 11 544 C 1445.86 1974.74 t 0 r /Helvetica findfont 72.3167 sf 0 0 m (MC Data) show NC gr  1296 1992 m 125 X s 1358 1966 m 52 Y s 1358 1992 m20
 gsave  2245 1622 11 544 C 1445.86 1887.23 t 0 r /Helvetica findfont 72.3167 sf 0 0 m (Total BG) show NC gr  0.8 0 0 c 9 lw 1296 1904 m 125 X s black
 gsave  2245 1622 11 544 C 1445.86 1799.71 t 0 r /Helvetica findfont 72.3167 sf 0 0 m (Z+HFjets) show NC gr  0.2 0.4 0.2 c[  12 12 ] 0 sd 1296 1817 m 125 X s black
 gsave  2245 1622 11 544 C 1468.69 1712.2 t 0 r /Helvetica findfont 72.3167 sf 0 0 m (t) show NC gr [  ] 0 sd 6 lw 1469 1769 m 23 X s
 gsave  2245 1622 11 544 C 1445.86 1712.2 t 0 r /Helvetica findfont 72.3167 sf 0 0 m (t) show NC gr  1 0.8 0.2 c[  12 12 ] 0 sd 9 lw 1296 1729 m 125 X s black
 gsave  2245 1622 11 544 C 1445.86 1624.69 t 0 r /Helvetica findfont 72.3167 sf 0 0 m (Diboson) show NC gr  0 0 1 c 1296 1642 m 125 X s
 gr  gr showpage
end
%%EOF
