%!PS-Adobe-2.0 EPSF-2.0
%%BoundingBox:  0 0 567 544
%%Title: Results/M2MC_invIso.eps: Region: invIso
%%Creator: ROOT Version 6.08/06
%%CreationDate: Mon Oct 14 09:43:31 2019
%%DocumentNeededResources: ProcSet (FontSetInit)
%%EndComments
%%BeginProlog
80 dict begin
/s {stroke} def /l {lineto} def /m {moveto} def /t {translate} def
/r {rotate} def /rl {roll}  def /R {repeat} def
/d {rlineto} def /rm {rmoveto} def /gr {grestore} def /f {eofill} def
/c {setrgbcolor} def /black {0 setgray} def /sd {setdash} def
/cl {closepath} def /sf {scalefont setfont} def /lw {setlinewidth} def
/box {m dup 0 exch d exch 0 d 0 exch neg d cl} def
/NC{systemdict begin initclip end}def/C{NC box clip newpath}def
/bl {box s} def /bf {gsave box gsave f grestore 1 lw [] 0 sd s grestore} def /Y { 0 exch d} def /X { 0 d} def 
/K {{pop pop 0 moveto} exch kshow} bind def
/ita {/ang 15 def gsave [1 0 ang dup sin exch cos div 1 0 0] concat} def 
/mp {newpath /y exch def /x exch def} def
/side {[w .77 mul w .23 mul] .385 w mul sd w 0 l currentpoint t -144 r} def
/mr {mp x y w2 0 360 arc} def /m24 {mr s} def /m20 {mr f} def
/mb {mp x y w2 add m w2 neg 0 d 0 w neg d w 0 d 0 w d cl} def
/mt {mp x y w2 add m w2 neg w neg d w 0 d cl} def
/m21 {mb f} def /m25 {mb s} def /m22 {mt f} def /m26{mt s} def
/m23 {mp x y w2 sub m w2 w d w neg 0 d cl f} def
/m27 {mp x y w2 add m w3 neg w2 neg d w3 w2 neg d w3 w2 d cl s} def
/m28 {mp x w2 sub y w2 sub w3 add m w3 0 d  0 w3 neg d w3 0 d 0 w3 d w3 0 d  0 w3 d w3 neg 0 d 0 w3 d w3 neg 0 d 0 w3 neg d w3 neg 0 d cl s } def
/m29 {mp gsave x w2 sub y w2 add w3 sub m currentpoint t 4 {side} repeat cl fill gr} def
/m30 {mp gsave x w2 sub y w2 add w3 sub m currentpoint t 4 {side} repeat cl s gr} def
/m31 {mp x y w2 sub m 0 w d x w2 sub y m w 0 d x w2 sub y w2 add m w w neg d x w2 sub y w2 sub m w w d s} def
/m32 {mp x y w2 sub m w2 w d w neg 0 d cl s} def
/m33 {mp x y w2 add m w3 neg w2 neg d w3 w2 neg d w3 w2 d cl f} def
/m34 {mp x w2 sub y w2 sub w3 add m w3 0 d  0 w3 neg d w3 0 d 0 w3 d w3 0 d  0 w3 d w3 neg 0 d 0 w3 d w3 neg 0 d 0 w3 neg d w3 neg 0 d cl f } def
/m2 {mp x y w2 sub m 0 w d x w2 sub y m w 0 d s} def
/m5 {mp x w2 sub y w2 sub m w w d x w2 sub y w2 add m w w neg d s} def
%%IncludeResource: ProcSet (FontSetInit)
%%IncludeResource: font Times-Roman
%%IncludeResource: font Times-Italic
%%IncludeResource: font Times-Bold
%%IncludeResource: font Times-BoldItalic
%%IncludeResource: font Helvetica
%%IncludeResource: font Helvetica-Oblique
%%IncludeResource: font Helvetica-Bold
%%IncludeResource: font Helvetica-BoldOblique
%%IncludeResource: font Courier
%%IncludeResource: font Courier-Oblique
%%IncludeResource: font Courier-Bold
%%IncludeResource: font Courier-BoldOblique
%%IncludeResource: font Symbol
%%IncludeResource: font ZapfDingbats
/reEncode {exch findfont dup length dict begin {1 index /FID eq  {pop pop} {def} ifelse } forall /Encoding exch def currentdict end dup /FontName get exch definefont pop } def [/Times-Bold /Times-Italic /Times-BoldItalic /Helvetica /Helvetica-Oblique
 /Helvetica-Bold /Helvetica-BoldOblique /Courier /Courier-Oblique /Courier-Bold /Courier-BoldOblique /Times-Roman /AvantGarde-Book /AvantGarde-BookOblique /AvantGarde-Demi /AvantGarde-DemiOblique /Bookman-Demi /Bookman-DemiItalic /Bookman-Light
 /Bookman-LightItalic /Helvetica-Narrow /Helvetica-Narrow-Bold /Helvetica-Narrow-BoldOblique /Helvetica-Narrow-Oblique /NewCenturySchlbk-Roman /NewCenturySchlbk-Bold /NewCenturySchlbk-BoldItalic /NewCenturySchlbk-Italic /Palatino-Bold
 /Palatino-BoldItalic /Palatino-Italic /Palatino-Roman ] {ISOLatin1Encoding reEncode } forall
%%EndProlog
%%BeginSetup
%%EndSetup
newpath  gsave  .25 .25 scale  gsave  0 0 t black[  ] 0 sd 3 lw 1 1 1 c 2268 2176 0 0 bf black 1 1 1 c 2245 533 11 11 bf black 1 1 1 c 1661 288 371 224 bf black 1661 288 371 224 bl 371 224 m 1661 X s 371 512 m 1661 X s 371 224 m 288 Y s[ 4 8] 0 sd
 2032 224 m -1661 X s 2032 296 m -1661 X s 2032 368 m -1661 X s 2032 440 m -1661 X s 2032 512 m -1661 X s[  ] 0 sd 2032 224 m 288 Y s 371 224 m 1661 X s
 gsave  2245 533 11 11 C 1849.18 98.9272 t 0 r /Helvetica findfont 64.7479 sf 0 0 m ( [GeV]) show NC gr 
 gsave  2245 533 11 11 C 1803.52 76.0979 t 0 r /Helvetica findfont 41.8957 sf 0 0 m (12) show NC gr 
 gsave  2245 533 11 11 C 1750.25 98.9272 t 0 r /Helvetica findfont 64.7479 sf 0 0 m (m) show NC gr  371 236 m -12 Y s 430 230 m -6 Y s 489 230 m -6 Y s 549 230 m -6 Y s 608 230 m -6 Y s 667 236 m -12 Y s 727 230 m -6 Y s 786 230 m -6 Y s 845 230 m -6
 Y s 905 230 m -6 Y s 964 236 m -12 Y s 1023 230 m -6 Y s 1083 230 m -6 Y s 1142 230 m -6 Y s 1201 230 m -6 Y s 1261 236 m -12 Y s 1320 230 m -6 Y s 1379 230 m -6 Y s 1439 230 m -6 Y s 1498 230 m -6 Y s 1557 236 m -12 Y s 1617 230 m -6 Y s 1676 230 m
 -6 Y s 1735 230 m -6 Y s 1795 230 m -6 Y s 1854 236 m -12 Y s 1854 236 m -12 Y s 1913 230 m -6 Y s 1973 230 m -6 Y s
 gsave  2245 533 11 11 C 334.831 171.22 t 0 r /Helvetica findfont 57.1305 sf 0 0 m (50) show NC gr 
 gsave  2245 533 11 11 C 631.612 171.22 t 0 r /Helvetica findfont 57.1305 sf 0 0 m (60) show NC gr 
 gsave  2245 533 11 11 C 928.394 171.22 t 0 r /Helvetica findfont 57.1305 sf 0 0 m (70) show NC gr 
 gsave  2245 533 11 11 C 1225.18 171.22 t 0 r /Helvetica findfont 57.1305 sf 0 0 m (80) show NC gr 
 gsave  2245 533 11 11 C 1521.96 171.22 t 0 r /Helvetica findfont 57.1305 sf 0 0 m (90) show NC gr 
 gsave  2245 533 11 11 C 1803.52 171.22 t 0 r /Helvetica findfont 57.1305 sf 0 0 m (100) show NC gr  371 512 m 1661 X s 371 500 m 12 Y s 430 506 m 6 Y s 489 506 m 6 Y s 549 506 m 6 Y s 608 506 m 6 Y s 667 500 m 12 Y s 727 506 m 6 Y s 786 506 m 6 Y s
 845 506 m 6 Y s 905 506 m 6 Y s 964 500 m 12 Y s 1023 506 m 6 Y s 1083 506 m 6 Y s 1142 506 m 6 Y s 1201 506 m 6 Y s 1261 500 m 12 Y s 1320 506 m 6 Y s 1379 506 m 6 Y s 1439 506 m 6 Y s 1498 506 m 6 Y s 1557 500 m 12 Y s 1617 506 m 6 Y s 1676 506 m
 6 Y s 1735 506 m 6 Y s 1795 506 m 6 Y s 1854 500 m 12 Y s 1854 500 m 12 Y s 1913 506 m 6 Y s 1973 506 m 6 Y s 371 224 m 288 Y s
 gsave  2245 533 11 11 C 156.001 407.124 t 90 r /Helvetica findfont 64.7479 sf 0 0 m (Pull) show NC gr  407 224 m -36 X s 389 242 m -18 X s 389 260 m -18 X s 389 278 m -18 X s 407 296 m -36 X s 389 314 m -18 X s 389 332 m -18 X s 389 350 m -18 X s
 407 368 m -36 X s 389 386 m -18 X s 389 404 m -18 X s 389 422 m -18 X s 407 440 m -36 X s 389 458 m -18 X s 389 476 m -18 X s 389 494 m -18 X s 407 512 m -36 X s
 gsave  2245 533 11 11 C 327.221 201.659 t 0 r /Helvetica findfont 57.1305 sf 0 0 m (4) show NC gr 
 gsave  2245 533 11 11 C 292.977 201.659 t 0 r /Symbol findfont 57.1305 sf 0 0 m (-) show NC gr 
 gsave  2245 533 11 11 C 327.221 273.952 t 0 r /Helvetica findfont 57.1305 sf 0 0 m (2) show NC gr 
 gsave  2245 533 11 11 C 292.977 273.952 t 0 r /Symbol findfont 57.1305 sf 0 0 m (-) show NC gr 
 gsave  2245 533 11 11 C 327.221 346.245 t 0 r /Helvetica findfont 57.1305 sf 0 0 m (0) show NC gr 
 gsave  2245 533 11 11 C 327.221 418.538 t 0 r /Helvetica findfont 57.1305 sf 0 0 m (2) show NC gr 
 gsave  2245 533 11 11 C 327.221 490.831 t 0 r /Helvetica findfont 57.1305 sf 0 0 m (4) show NC gr  2032 224 m 288 Y s 1996 224 m 36 X s 2014 242 m 18 X s 2014 260 m 18 X s 2014 278 m 18 X s 1996 296 m 36 X s 2014 314 m 18 X s 2014 332 m 18 X s 2014
 350 m 18 X s 1996 368 m 36 X s 2014 386 m 18 X s 2014 404 m 18 X s 2014 422 m 18 X s 1996 440 m 36 X s 2014 458 m 18 X s 2014 476 m 18 X s 2014 494 m 18 X s 1996 512 m 36 X s 400 295 m 36 Y s 400 331 m cl s 400 295 m -36 Y s 400 259 m cl s 460 338 m
 36 Y s 460 374 m cl s 460 338 m -36 Y s 460 302 m cl s 519 376 m 36 Y s 519 412 m cl s 519 376 m -36 Y s 519 340 m cl s 578 341 m 36 Y s 578 377 m cl s 578 341 m -36 Y s 578 305 m cl s 638 408 m 36 Y s 638 444 m cl s 638 408 m -36 Y s 638 372 m cl s
 697 401 m 36 Y s 697 437 m cl s 697 401 m -36 Y s 697 365 m cl s 756 367 m 36 Y s 756 403 m cl s 756 367 m -36 Y s 756 331 m cl s 816 444 m 36 Y s 816 480 m cl s 816 444 m -36 Y s 816 408 m cl s 875 359 m 36 Y s 875 395 m cl s 875 359 m -36 Y s 875
 323 m cl s 934 420 m 36 Y s 934 456 m cl s 934 420 m -36 Y s 934 384 m cl s 994 423 m 36 Y s 994 459 m cl s 994 423 m -36 Y s 994 387 m cl s 1053 332 m 36 Y s 1053 368 m cl s 1053 332 m -36 Y s 1053 296 m cl s 1112 424 m 36 Y s 1112 460 m cl s 1112
 424 m -36 Y s 1112 388 m cl s 1172 441 m 36 Y s 1172 477 m cl s 1172 441 m -36 Y s 1172 405 m cl s 1231 453 m 36 Y s 1231 489 m cl s 1231 453 m -36 Y s 1231 417 m cl s 1290 397 m 36 Y s 1290 433 m cl s 1290 397 m -36 Y s 1290 361 m cl s 1350 399 m
 36 Y s 1350 435 m cl s 1350 399 m -36 Y s 1350 363 m cl s 1409 386 m 36 Y s 1409 422 m cl s 1409 386 m -36 Y s 1409 350 m cl s 1468 400 m 36 Y s 1468 436 m cl s 1468 400 m -36 Y s 1468 364 m cl s 1528 404 m 36 Y s 1528 440 m cl s 1528 404 m -36 Y s
 1528 368 m cl s 1587 256 m 36 Y s 1587 292 m cl s 1587 256 m -32 Y s 1587 224 m cl s 1646 352 m 36 Y s 1646 388 m cl s 1646 352 m -36 Y s 1646 316 m cl s 1706 338 m 36 Y s 1706 374 m cl s 1706 338 m -36 Y s 1706 302 m cl s 1765 388 m 36 Y s 1765 424
 m cl s 1765 388 m -36 Y s 1765 352 m cl s 1943 227 m 36 Y s 1943 263 m cl s 1943 227 m -3 Y s 1943 224 m cl s 2002 355 m 36 Y s 2002 391 m cl s 2002 355 m -36 Y s 2002 319 m cl s /w 37 def /w2 {w 2 div} def /w3 {w 3 div} def 400 295 460 338 519 376
 578 341 638 408 697 401 756 367 816 444 875 359 934 420 994 423 1053 332 1112 424 1172 441 1231 453 1290 397 1350 399 1409 386 1468 400 1528 404 1587 256 1646 352 1706 338 1765 388 24 { m20} R 1943 227 2002 355 2 { m20} R 371 224 m 1661 X s 371 236
 m -12 Y s 430 230 m -6 Y s 489 230 m -6 Y s 549 230 m -6 Y s 608 230 m -6 Y s 667 236 m -12 Y s 727 230 m -6 Y s 786 230 m -6 Y s 845 230 m -6 Y s 905 230 m -6 Y s 964 236 m -12 Y s 1023 230 m -6 Y s 1083 230 m -6 Y s 1142 230 m -6 Y s 1201 230 m -6
 Y s 1261 236 m -12 Y s 1320 230 m -6 Y s 1379 230 m -6 Y s 1439 230 m -6 Y s 1498 230 m -6 Y s 1557 236 m -12 Y s 1617 230 m -6 Y s 1676 230 m -6 Y s 1735 230 m -6 Y s 1795 230 m -6 Y s 1854 236 m -12 Y s 1854 236 m -12 Y s 1913 230 m -6 Y s 1973
 230 m -6 Y s 371 512 m 1661 X s 371 500 m 12 Y s 430 506 m 6 Y s 489 506 m 6 Y s 549 506 m 6 Y s 608 506 m 6 Y s 667 500 m 12 Y s 727 506 m 6 Y s 786 506 m 6 Y s 845 506 m 6 Y s 905 506 m 6 Y s 964 500 m 12 Y s 1023 506 m 6 Y s 1083 506 m 6 Y s 1142
 506 m 6 Y s 1201 506 m 6 Y s 1261 500 m 12 Y s 1320 506 m 6 Y s 1379 506 m 6 Y s 1439 506 m 6 Y s 1498 506 m 6 Y s 1557 500 m 12 Y s 1617 506 m 6 Y s 1676 506 m 6 Y s 1735 506 m 6 Y s 1795 506 m 6 Y s 1854 500 m 12 Y s 1854 500 m 12 Y s 1913 506 m 6
 Y s 1973 506 m 6 Y s 371 224 m 288 Y s 407 224 m -36 X s 389 242 m -18 X s 389 260 m -18 X s 389 278 m -18 X s 407 296 m -36 X s 389 314 m -18 X s 389 332 m -18 X s 389 350 m -18 X s 407 368 m -36 X s 389 386 m -18 X s 389 404 m -18 X s 389 422 m
 -18 X s 407 440 m -36 X s 389 458 m -18 X s 389 476 m -18 X s 389 494 m -18 X s 407 512 m -36 X s 2032 224 m 288 Y s 1996 224 m 36 X s 2014 242 m 18 X s 2014 260 m 18 X s 2014 278 m 18 X s 1996 296 m 36 X s 2014 314 m 18 X s 2014 332 m 18 X s 2014
 350 m 18 X s 1996 368 m 36 X s 2014 386 m 18 X s 2014 404 m 18 X s 2014 422 m 18 X s 1996 440 m 36 X s 2014 458 m 18 X s 2014 476 m 18 X s 2014 494 m 18 X s 1996 512 m 36 X s[  12 12 ] 0 sd 6 lw 371 368 m 1661 X s[  ] 0 sd 3 lw 1 1 1 c 2245 1622 11
 544 bf black 1 1 1 c 1661 1507 371 577 bf black 1661 1507 371 577 bl 371 577 m 1661 X s 371 613 m -36 Y s 430 595 m -18 Y s 489 595 m -18 Y s 549 595 m -18 Y s 608 595 m -18 Y s 667 613 m -36 Y s 727 595 m -18 Y s 786 595 m -18 Y s 845 595 m -18 Y s
 905 595 m -18 Y s 964 613 m -36 Y s 1023 595 m -18 Y s 1083 595 m -18 Y s 1142 595 m -18 Y s 1201 595 m -18 Y s 1261 613 m -36 Y s 1320 595 m -18 Y s 1379 595 m -18 Y s 1439 595 m -18 Y s 1498 595 m -18 Y s 1557 613 m -36 Y s 1617 595 m -18 Y s 1676
 595 m -18 Y s 1735 595 m -18 Y s 1795 595 m -18 Y s 1854 613 m -36 Y s 1854 613 m -36 Y s 1913 595 m -18 Y s 1973 595 m -18 Y s 371 2084 m 1661 X s 371 2048 m 36 Y s 430 2066 m 18 Y s 489 2066 m 18 Y s 549 2066 m 18 Y s 608 2066 m 18 Y s 667 2048 m
 36 Y s 727 2066 m 18 Y s 786 2066 m 18 Y s 845 2066 m 18 Y s 905 2066 m 18 Y s 964 2048 m 36 Y s 1023 2066 m 18 Y s 1083 2066 m 18 Y s 1142 2066 m 18 Y s 1201 2066 m 18 Y s 1261 2048 m 36 Y s 1320 2066 m 18 Y s 1379 2066 m 18 Y s 1439 2066 m 18 Y s
 1498 2066 m 18 Y s 1557 2048 m 36 Y s 1617 2066 m 18 Y s 1676 2066 m 18 Y s 1735 2066 m 18 Y s 1795 2066 m 18 Y s 1854 2048 m 36 Y s 1854 2048 m 36 Y s 1913 2066 m 18 Y s 1973 2066 m 18 Y s 371 577 m 1507 Y s
 gsave  2245 1622 11 544 C 152.196 1666.54 t 90 r /Helvetica findfont 64.7045 sf 0 0 m (Events / 2GeV) show NC gr  433 577 m -62 X s 402 608 m -31 X s 402 638 m -31 X s 402 669 m -31 X s 402 700 m -31 X s 433 731 m -62 X s 402 762 m -31 X s 402 793 m
 -31 X s 402 824 m -31 X s 402 855 m -31 X s 433 886 m -62 X s 402 917 m -31 X s 402 948 m -31 X s 402 979 m -31 X s 402 1010 m -31 X s 433 1041 m -62 X s 402 1072 m -31 X s 402 1103 m -31 X s 402 1134 m -31 X s 402 1165 m -31 X s 433 1196 m -62 X s
 402 1227 m -31 X s 402 1258 m -31 X s 402 1289 m -31 X s 402 1320 m -31 X s 433 1351 m -62 X s 402 1382 m -31 X s 402 1413 m -31 X s 402 1444 m -31 X s 402 1475 m -31 X s 433 1506 m -62 X s 402 1537 m -31 X s 402 1568 m -31 X s 402 1599 m -31 X s
 402 1630 m -31 X s 433 1661 m -62 X s 402 1692 m -31 X s 402 1723 m -31 X s 402 1753 m -31 X s 402 1784 m -31 X s 433 1815 m -62 X s 402 1846 m -31 X s 402 1877 m -31 X s 402 1908 m -31 X s 402 1939 m -31 X s 433 1970 m -62 X s 433 1970 m -62 X s
 402 2001 m -31 X s 402 2032 m -31 X s 402 2063 m -31 X s
 gsave  2245 1622 11 544 C 327.221 555.514 t 0 r /Helvetica findfont 57.0922 sf 0 0 m (0) show NC gr 
 gsave  2245 1622 11 544 C 292.977 711.515 t 0 r /Helvetica findfont 57.0922 sf 0 0 m (50) show NC gr 
 gsave  2245 1622 11 544 C 262.538 863.711 t 0 r /Helvetica findfont 57.0922 sf 0 0 m (100) show NC gr 
 gsave  2245 1622 11 544 C 262.538 1019.71 t 0 r /Helvetica findfont 57.0922 sf 0 0 m (150) show NC gr 
 gsave  2245 1622 11 544 C 262.538 1175.71 t 0 r /Helvetica findfont 57.0922 sf 0 0 m (200) show NC gr 
 gsave  2245 1622 11 544 C 262.538 1331.71 t 0 r /Helvetica findfont 57.0922 sf 0 0 m (250) show NC gr 
 gsave  2245 1622 11 544 C 262.538 1483.91 t 0 r /Helvetica findfont 57.0922 sf 0 0 m (300) show NC gr 
 gsave  2245 1622 11 544 C 262.538 1639.91 t 0 r /Helvetica findfont 57.0922 sf 0 0 m (350) show NC gr 
 gsave  2245 1622 11 544 C 262.538 1795.91 t 0 r /Helvetica findfont 57.0922 sf 0 0 m (400) show NC gr 
 gsave  2245 1622 11 544 C 262.538 1948.11 t 0 r /Helvetica findfont 57.0922 sf 0 0 m (450) show NC gr  2032 577 m 1507 Y s 1969 577 m 63 X s 2001 608 m 31 X s 2001 638 m 31 X s 2001 669 m 31 X s 2001 700 m 31 X s 1969 731 m 63 X s 2001 762 m 31 X s
 2001 793 m 31 X s 2001 824 m 31 X s 2001 855 m 31 X s 1969 886 m 63 X s 2001 917 m 31 X s 2001 948 m 31 X s 2001 979 m 31 X s 2001 1010 m 31 X s 1969 1041 m 63 X s 2001 1072 m 31 X s 2001 1103 m 31 X s 2001 1134 m 31 X s 2001 1165 m 31 X s 1969 1196
 m 63 X s 2001 1227 m 31 X s 2001 1258 m 31 X s 2001 1289 m 31 X s 2001 1320 m 31 X s 1969 1351 m 63 X s 2001 1382 m 31 X s 2001 1413 m 31 X s 2001 1444 m 31 X s 2001 1475 m 31 X s 1969 1506 m 63 X s 2001 1537 m 31 X s 2001 1568 m 31 X s 2001 1599 m
 31 X s 2001 1630 m 31 X s 1969 1661 m 63 X s 2001 1692 m 31 X s 2001 1723 m 31 X s 2001 1753 m 31 X s 2001 1784 m 31 X s 1969 1815 m 63 X s 2001 1846 m 31 X s 2001 1877 m 31 X s 2001 1908 m 31 X s 2001 1939 m 31 X s 1969 1970 m 63 X s 1969 1970 m 63
 X s 2001 2001 m 31 X s 2001 2032 m 31 X s 2001 2063 m 31 X s 400 628 m -29 X s 371 628 m cl s 400 628 m 30 X s 430 628 m cl s 400 628 m 1 Y s 400 629 m cl s 400 628 m -2 Y s 400 626 m cl s 460 634 m -30 X s 430 634 m cl s 460 634 m 29 X s 489 634 m
 cl s 460 634 m 1 Y s 460 635 m cl s 460 634 m -2 Y s 460 632 m cl s 519 639 m -30 X s 489 639 m cl s 519 639 m 30 X s 549 639 m cl s 519 639 m 4 Y s 519 643 m cl s 519 639 m -4 Y s 519 635 m cl s 578 640 m -29 X s 549 640 m cl s 578 640 m 30 X s 608
 640 m cl s 578 640 m 2 Y s 578 642 m cl s 578 640 m -2 Y s 578 638 m cl s 638 649 m -30 X s 608 649 m cl s 638 649 m 29 X s 667 649 m cl s 638 649 m 6 Y s 638 655 m cl s 638 649 m -5 Y s 638 644 m cl s 697 647 m -30 X s 667 647 m cl s 697 647 m 30 X
 s 727 647 m cl s 697 647 m 2 Y s 697 649 m cl s 697 647 m -2 Y s 697 645 m cl s 756 646 m -29 X s 727 646 m cl s 756 646 m 30 X s 786 646 m cl s 756 646 m 2 Y s 756 648 m cl s 756 646 m -2 Y s 756 644 m cl s 816 658 m -30 X s 786 658 m cl s 816 658
 m 29 X s 845 658 m cl s 816 658 m 5 Y s 816 663 m cl s 816 658 m -6 Y s 816 652 m cl s 875 645 m -30 X s 845 645 m cl s 875 645 m 30 X s 905 645 m cl s 875 645 m 3 Y s 875 648 m cl s 875 645 m -4 Y s 875 641 m cl s 934 651 m -29 X s 905 651 m cl s
 934 651 m 30 X s 964 651 m cl s 934 651 m 4 Y s 934 655 m cl s 934 651 m -4 Y s 934 647 m cl s 994 651 m -30 X s 964 651 m cl s 994 651 m 29 X s 1023 651 m cl s 994 651 m 4 Y s 994 655 m cl s 994 651 m -3 Y s 994 648 m cl s 1053 645 m -30 X s 1023
 645 m cl s 1053 645 m 30 X s 1083 645 m cl s 1053 645 m 1 Y s 1053 646 m cl s 1053 645 m -2 Y s 1053 643 m cl s 1112 660 m -29 X s 1083 660 m cl s 1112 660 m 30 X s 1142 660 m cl s 1112 660 m 7 Y s 1112 667 m cl s 1112 660 m -7 Y s 1112 653 m cl s
 1172 657 m -30 X s 1142 657 m cl s 1172 657 m 29 X s 1201 657 m cl s 1172 657 m 2 Y s 1172 659 m cl s 1172 657 m -2 Y s 1172 655 m cl s 1231 679 m -30 X s 1201 679 m cl s 1231 679 m 30 X s 1261 679 m cl s 1231 679 m 7 Y s 1231 686 m cl s 1231 679 m
 -8 Y s 1231 671 m cl s 1290 679 m -29 X s 1261 679 m cl s 1290 679 m 30 X s 1320 679 m cl s 1290 679 m 5 Y s 1290 684 m cl s 1290 679 m -6 Y s 1290 673 m cl s 1350 708 m -30 X s 1320 708 m cl s 1350 708 m 29 X s 1379 708 m cl s 1350 708 m 6 Y s 1350
 714 m cl s 1350 708 m -6 Y s 1350 702 m cl s 1409 769 m -30 X s 1379 769 m cl s 1409 769 m 30 X s 1439 769 m cl s 1409 769 m 9 Y s 1409 778 m cl s 1409 769 m -8 Y s 1409 761 m cl s 1468 934 m -29 X s 1439 934 m cl s 1468 934 m 30 X s 1498 934 m cl s
 1468 934 m 13 Y s 1468 947 m cl s 1468 934 m -14 Y s 1468 920 m cl s 1528 1270 m -30 X s 1498 1270 m cl s 1528 1270 m 29 X s 1557 1270 m cl s 1528 1270 m 22 Y s 1528 1292 m cl s 1528 1270 m -22 Y s 1528 1248 m cl s 1587 1459 m -30 X s 1557 1459 m cl
 s 1587 1459 m 30 X s 1617 1459 m cl s 1587 1459 m 24 Y s 1587 1483 m cl s 1587 1459 m -24 Y s 1587 1435 m cl s 1646 1187 m -29 X s 1617 1187 m cl s 1646 1187 m 30 X s 1676 1187 m cl s 1646 1187 m 22 Y s 1646 1209 m cl s 1646 1187 m -22 Y s 1646 1165
 m cl s 1706 830 m -30 X s 1676 830 m cl s 1706 830 m 29 X s 1735 830 m cl s 1706 830 m 12 Y s 1706 842 m cl s 1706 830 m -11 Y s 1706 819 m cl s 1765 707 m -30 X s 1735 707 m cl s 1765 707 m 30 X s 1795 707 m cl s 1765 707 m 9 Y s 1765 716 m cl s
 1765 707 m -9 Y s 1765 698 m cl s 1824 647 m -29 X s 1795 647 m cl s 1824 647 m 30 X s 1854 647 m cl s 1824 647 m 2 Y s 1824 649 m cl s 1824 647 m -2 Y s 1824 645 m cl s 1884 627 m -30 X s 1854 627 m cl s 1884 627 m 29 X s 1913 627 m cl s 1884 627 m
 1 Y s 1884 628 m cl s 1884 627 m -2 Y s 1884 625 m cl s 1943 619 m -30 X s 1913 619 m cl s 1943 619 m 30 X s 1973 619 m cl s 1943 619 m 1 Y s 1943 620 m cl s 1943 619 m -2 Y s 1943 617 m cl s 2002 615 m -29 X s 1973 615 m cl s 2002 615 m 30 X s 2032
 615 m cl s 2002 615 m 4 Y s 2002 619 m cl s 2002 615 m -4 Y s 2002 611 m cl s 400 628 460 634 519 639 578 640 638 649 697 647 756 646 816 658 875 645 934 651 994 651 1053 645 1112 660 1172 657 1231 679 1290 679 1350 708 1409 769 1468 934 1528 1270
 1587 1459 1646 1187 1706 830 1765 707 1824 647 1884 627 1943 619 2002 615 28 { m20} R 0.8 0 0 c 9 lw black 0.8 0 0 c 371 629 m cl s 371 629 m 59 4 d 59 4 d 60 3 d 59 2 d 59 2 d 60 1 d 59 1 d 59 X 60 -1 d 59 X 59 1 d 60 1 d 59 3 d 59 6 d 60 10 d 29 8
 d 30 12 d 30 17 d 14 11 d 15 13 d 15 17 d 15 21 d 15 27 d 7 15 d 8 18 d 7 20 d 7 23 d 8 25 d 7 28 d 8 32 d 7 34 d 7 38 d 8 40 d 7 43 d 8 45 d 15 95 d 14 96 d 15 89 d 4 19 d 4 18 d 7 31 d 4 14 d 3 8 d 4 7 d 4 3 d 4 1 d 3 -3 d 4 -8 d 4 -11 d 3 -15 d 4
 -17 d 4 -20 d 4 -24 d 3 -26 d 4 -29 d 7 -58 d 15 -126 d 8 -59 d 3 -29 d 4 -28 d 7 -51 d 8 -47 d 7 -42 d 8 -38 d 7 -34 d 8 -29 d 7 -26 d 7 -23 d 8 -20 d 7 -18 d 8 -15 d 7 -14 d 15 -22 d 15 -16 d 15 -13 d 14 -10 d 15 -8 d 30 -11 d 30 -8 d 29 -7 d 60
 -9 d 59 -7 d s 0.2 0.4 0.2 c[  12 12 ] 0 sd black 0.2 0.4 0.2 c 371 578 m cl s 371 578 m 178 X 59 1 d 59 1 d 60 1 d 59 X 59 1 d 60 1 d 59 2 d 59 2 d 60 3 d 59 4 d 59 6 d 30 5 d 30 5 d 29 8 d 30 11 d 15 6 d 15 8 d 14 10 d 15 12 d 15 14 d 15 18 d 15
 23 d 7 13 d 8 15 d 7 17 d 7 18 d 8 21 d 7 23 d 8 25 d 7 28 d 15 59 d 15 63 d 15 62 d 7 27 d 7 25 d 8 21 d 7 17 d 4 7 d 4 5 d 3 4 d 4 3 d 4 1 d 3 X 4 -2 d 4 -2 d 4 -5 d 3 -5 d 4 -7 d 4 -8 d 7 -20 d 8 -23 d 7 -27 d 7 -30 d 15 -64 d 15 -65 d 15 -62 d 7
 -29 d 8 -26 d 7 -25 d 8 -22 d 7 -20 d 7 -18 d 8 -15 d 7 -14 d 8 -12 d 7 -11 d 15 -17 d 15 -13 d 15 -9 d 14 -8 d 15 -5 d 30 -8 d 30 -6 d 29 -3 d 60 -5 d 59 -3 d s 1 0.8 0.2 c black 1 0.8 0.2 c 371 611 m cl s 371 611 m 59 3 d 59 1 d 60 2 d 59 2 d 59 1
 d 60 1 d 59 1 d 59 1 d 60 1 d 59 X 59 1 d 119 X 59 -1 d 60 X 59 -1 d 59 -1 d 60 X 59 -2 d 59 -1 d 60 -1 d 59 -2 d 59 -2 d 60 -2 d 59 -2 d 59 -3 d 60 -2 d 59 -3 d s 0 0 1 c black 0 0 1 c 371 592 m cl s 371 592 m 59 3 d 59 1 d 60 1 d 59 1 d 59 X 60 -1
 d 59 -2 d 59 -2 d 60 -2 d 59 -2 d 59 -2 d 60 -1 d 59 -1 d 59 -1 d 60 1 d 59 2 d 30 2 d 29 4 d 15 2 d 15 4 d 15 4 d 15 6 d 14 7 d 8 5 d 7 5 d 8 7 d 7 7 d 7 9 d 8 10 d 7 11 d 4 7 d 4 7 d 7 16 d 4 8 d 4 10 d 3 10 d 4 10 d 7 23 d 8 25 d 7 26 d 8 26 d 7
 25 d 4 12 d 3 9 d 4 8 d 4 6 d 4 5 d 1 2 d 2 1 d 4 -1 d 4 -3 d 3 -5 d 4 -7 d 4 -9 d 4 -11 d 3 -13 d 4 -15 d 7 -29 d 4 -15 d 4 -16 d 2 -8 d 1 -8 d 4 -14 d 8 -26 d 3 -13 d 4 -11 d 4 -10 d 3 -9 d 4 -9 d 4 -8 d 4 -7 d 3 -6 d 4 -6 d 4 -5 d 7 -9 d 8 -7 d 7
 -6 d 7 -5 d 15 -8 d 15 -5 d 15 -5 d 15 -3 d 15 -2 d 29 -4 d 30 -2 d 59 -4 d 60 -1 d 59 -1 d s black[  ] 0 sd 3 lw 371 577 m 1661 X s 371 613 m -36 Y s 430 595 m -18 Y s 489 595 m -18 Y s 549 595 m -18 Y s 608 595 m -18 Y s 667 613 m -36 Y s 727 595
 m -18 Y s 786 595 m -18 Y s 845 595 m -18 Y s 905 595 m -18 Y s 964 613 m -36 Y s 1023 595 m -18 Y s 1083 595 m -18 Y s 1142 595 m -18 Y s 1201 595 m -18 Y s 1261 613 m -36 Y s 1320 595 m -18 Y s 1379 595 m -18 Y s 1439 595 m -18 Y s 1498 595 m -18
 Y s 1557 613 m -36 Y s 1617 595 m -18 Y s 1676 595 m -18 Y s 1735 595 m -18 Y s 1795 595 m -18 Y s 1854 613 m -36 Y s 1854 613 m -36 Y s 1913 595 m -18 Y s 1973 595 m -18 Y s 371 2084 m 1661 X s 371 2048 m 36 Y s 430 2066 m 18 Y s 489 2066 m 18 Y s
 549 2066 m 18 Y s 608 2066 m 18 Y s 667 2048 m 36 Y s 727 2066 m 18 Y s 786 2066 m 18 Y s 845 2066 m 18 Y s 905 2066 m 18 Y s 964 2048 m 36 Y s 1023 2066 m 18 Y s 1083 2066 m 18 Y s 1142 2066 m 18 Y s 1201 2066 m 18 Y s 1261 2048 m 36 Y s 1320 2066
 m 18 Y s 1379 2066 m 18 Y s 1439 2066 m 18 Y s 1498 2066 m 18 Y s 1557 2048 m 36 Y s 1617 2066 m 18 Y s 1676 2066 m 18 Y s 1735 2066 m 18 Y s 1795 2066 m 18 Y s 1854 2048 m 36 Y s 1854 2048 m 36 Y s 1913 2066 m 18 Y s 1973 2066 m 18 Y s 371 577 m
 1507 Y s 433 577 m -62 X s 402 608 m -31 X s 402 638 m -31 X s 402 669 m -31 X s 402 700 m -31 X s 433 731 m -62 X s 402 762 m -31 X s 402 793 m -31 X s 402 824 m -31 X s 402 855 m -31 X s 433 886 m -62 X s 402 917 m -31 X s 402 948 m -31 X s 402
 979 m -31 X s 402 1010 m -31 X s 433 1041 m -62 X s 402 1072 m -31 X s 402 1103 m -31 X s 402 1134 m -31 X s 402 1165 m -31 X s 433 1196 m -62 X s 402 1227 m -31 X s 402 1258 m -31 X s 402 1289 m -31 X s 402 1320 m -31 X s 433 1351 m -62 X s 402
 1382 m -31 X s 402 1413 m -31 X s 402 1444 m -31 X s 402 1475 m -31 X s 433 1506 m -62 X s 402 1537 m -31 X s 402 1568 m -31 X s 402 1599 m -31 X s 402 1630 m -31 X s 433 1661 m -62 X s 402 1692 m -31 X s 402 1723 m -31 X s 402 1753 m -31 X s 402
 1784 m -31 X s 433 1815 m -62 X s 402 1846 m -31 X s 402 1877 m -31 X s 402 1908 m -31 X s 402 1939 m -31 X s 433 1970 m -62 X s 433 1970 m -62 X s 402 2001 m -31 X s 402 2032 m -31 X s 402 2063 m -31 X s 2032 577 m 1507 Y s 1969 577 m 63 X s 2001
 608 m 31 X s 2001 638 m 31 X s 2001 669 m 31 X s 2001 700 m 31 X s 1969 731 m 63 X s 2001 762 m 31 X s 2001 793 m 31 X s 2001 824 m 31 X s 2001 855 m 31 X s 1969 886 m 63 X s 2001 917 m 31 X s 2001 948 m 31 X s 2001 979 m 31 X s 2001 1010 m 31 X s
 1969 1041 m 63 X s 2001 1072 m 31 X s 2001 1103 m 31 X s 2001 1134 m 31 X s 2001 1165 m 31 X s 1969 1196 m 63 X s 2001 1227 m 31 X s 2001 1258 m 31 X s 2001 1289 m 31 X s 2001 1320 m 31 X s 1969 1351 m 63 X s 2001 1382 m 31 X s 2001 1413 m 31 X s
 2001 1444 m 31 X s 2001 1475 m 31 X s 1969 1506 m 63 X s 2001 1537 m 31 X s 2001 1568 m 31 X s 2001 1599 m 31 X s 2001 1630 m 31 X s 1969 1661 m 63 X s 2001 1692 m 31 X s 2001 1723 m 31 X s 2001 1753 m 31 X s 2001 1784 m 31 X s 1969 1815 m 63 X s
 2001 1846 m 31 X s 2001 1877 m 31 X s 2001 1908 m 31 X s 2001 1939 m 31 X s 1969 1970 m 63 X s 1969 1970 m 63 X s 2001 2001 m 31 X s 2001 2032 m 31 X s 2001 2063 m 31 X s 1 1 1 c black
 gsave  2245 1622 11 544 C 662.051 1989.96 t 0 r /Helvetica findfont 60.8983 sf 0 0 m ( Internal) show NC gr 
 gsave  2245 1622 11 544 C 452.782 1989.96 t 0 r /Helvetica-BoldOblique findfont 60.8983 sf 0 0 m (ATLAS) show NC gr 
 gsave  2245 1622 11 544 C 452.782 1902.45 t 0 r /Helvetica findfont 60.8983 sf 0 0 m (data 2015\25518 + mc16a,d,e) show NC gr 
 gsave  2245 1622 11 544 C 1034.93 1818.74 t 0 r /Helvetica findfont 41.8676 sf 0 0 m (\2551) show NC gr 
 gsave  2245 1622 11 544 C 513.661 1792.1 t 0 r /Helvetica findfont 60.8983 sf 0 0 m (=13 TeV, 138.97 fb) show NC gr 
 gsave  2245 1622 11 544 C 483.221 1792.1 t 0 r /Helvetica findfont 60.8983 sf 0 0 m (s) show NC gr  6 lw 464 1826 m 8 -38 d s 3 lw 472 1788 m 4 57 d s 476 1845 m 38 X s
 gsave  2245 1622 11 544 C 452.782 1712.2 t 0 r /Helvetica findfont 60.8983 sf 0 0 m (Inverted isolation CR) show NC gr  1 1 1 c 718 438 1269 1598 bl 1269 1598 m 718 X s 1987 1598 m 438 Y s 1987 2036 m -718 X s 1269 2036 m -438 Y s black
 gsave  2245 1622 11 544 C 1445.86 1974.74 t 0 r /Helvetica findfont 72.3167 sf 0 0 m (MC Data) show NC gr  1296 1992 m 125 X s 1358 1966 m 52 Y s 1358 1992 m20
 gsave  2245 1622 11 544 C 1445.86 1887.23 t 0 r /Helvetica findfont 72.3167 sf 0 0 m (Total BG) show NC gr  0.8 0 0 c 9 lw 1296 1904 m 125 X s black
 gsave  2245 1622 11 544 C 1445.86 1799.71 t 0 r /Helvetica findfont 72.3167 sf 0 0 m (Z+HFjets) show NC gr  0.2 0.4 0.2 c[  12 12 ] 0 sd 1296 1817 m 125 X s black
 gsave  2245 1622 11 544 C 1468.69 1712.2 t 0 r /Helvetica findfont 72.3167 sf 0 0 m (t) show NC gr [  ] 0 sd 6 lw 1469 1769 m 23 X s
 gsave  2245 1622 11 544 C 1445.86 1712.2 t 0 r /Helvetica findfont 72.3167 sf 0 0 m (t) show NC gr  1 0.8 0.2 c[  12 12 ] 0 sd 9 lw 1296 1729 m 125 X s black
 gsave  2245 1622 11 544 C 1445.86 1624.69 t 0 r /Helvetica findfont 72.3167 sf 0 0 m (Diboson) show NC gr  0 0 1 c 1296 1642 m 125 X s
 gr  gr showpage
end
%%EOF
