%!PS-Adobe-2.0 EPSF-2.0
%%BoundingBox:  0 0 567 544
%%Title: Results/M2MC_relaxIsoD0.eps: Region: relaxIsoD0
%%Creator: ROOT Version 6.08/06
%%CreationDate: Mon Oct 14 09:43:30 2019
%%DocumentNeededResources: ProcSet (FontSetInit)
%%EndComments
%%BeginProlog
80 dict begin
/s {stroke} def /l {lineto} def /m {moveto} def /t {translate} def
/r {rotate} def /rl {roll}  def /R {repeat} def
/d {rlineto} def /rm {rmoveto} def /gr {grestore} def /f {eofill} def
/c {setrgbcolor} def /black {0 setgray} def /sd {setdash} def
/cl {closepath} def /sf {scalefont setfont} def /lw {setlinewidth} def
/box {m dup 0 exch d exch 0 d 0 exch neg d cl} def
/NC{systemdict begin initclip end}def/C{NC box clip newpath}def
/bl {box s} def /bf {gsave box gsave f grestore 1 lw [] 0 sd s grestore} def /Y { 0 exch d} def /X { 0 d} def 
/K {{pop pop 0 moveto} exch kshow} bind def
/ita {/ang 15 def gsave [1 0 ang dup sin exch cos div 1 0 0] concat} def 
/mp {newpath /y exch def /x exch def} def
/side {[w .77 mul w .23 mul] .385 w mul sd w 0 l currentpoint t -144 r} def
/mr {mp x y w2 0 360 arc} def /m24 {mr s} def /m20 {mr f} def
/mb {mp x y w2 add m w2 neg 0 d 0 w neg d w 0 d 0 w d cl} def
/mt {mp x y w2 add m w2 neg w neg d w 0 d cl} def
/m21 {mb f} def /m25 {mb s} def /m22 {mt f} def /m26{mt s} def
/m23 {mp x y w2 sub m w2 w d w neg 0 d cl f} def
/m27 {mp x y w2 add m w3 neg w2 neg d w3 w2 neg d w3 w2 d cl s} def
/m28 {mp x w2 sub y w2 sub w3 add m w3 0 d  0 w3 neg d w3 0 d 0 w3 d w3 0 d  0 w3 d w3 neg 0 d 0 w3 d w3 neg 0 d 0 w3 neg d w3 neg 0 d cl s } def
/m29 {mp gsave x w2 sub y w2 add w3 sub m currentpoint t 4 {side} repeat cl fill gr} def
/m30 {mp gsave x w2 sub y w2 add w3 sub m currentpoint t 4 {side} repeat cl s gr} def
/m31 {mp x y w2 sub m 0 w d x w2 sub y m w 0 d x w2 sub y w2 add m w w neg d x w2 sub y w2 sub m w w d s} def
/m32 {mp x y w2 sub m w2 w d w neg 0 d cl s} def
/m33 {mp x y w2 add m w3 neg w2 neg d w3 w2 neg d w3 w2 d cl f} def
/m34 {mp x w2 sub y w2 sub w3 add m w3 0 d  0 w3 neg d w3 0 d 0 w3 d w3 0 d  0 w3 d w3 neg 0 d 0 w3 d w3 neg 0 d 0 w3 neg d w3 neg 0 d cl f } def
/m2 {mp x y w2 sub m 0 w d x w2 sub y m w 0 d s} def
/m5 {mp x w2 sub y w2 sub m w w d x w2 sub y w2 add m w w neg d s} def
%%IncludeResource: ProcSet (FontSetInit)
%%IncludeResource: font Times-Roman
%%IncludeResource: font Times-Italic
%%IncludeResource: font Times-Bold
%%IncludeResource: font Times-BoldItalic
%%IncludeResource: font Helvetica
%%IncludeResource: font Helvetica-Oblique
%%IncludeResource: font Helvetica-Bold
%%IncludeResource: font Helvetica-BoldOblique
%%IncludeResource: font Courier
%%IncludeResource: font Courier-Oblique
%%IncludeResource: font Courier-Bold
%%IncludeResource: font Courier-BoldOblique
%%IncludeResource: font Symbol
%%IncludeResource: font ZapfDingbats
/reEncode {exch findfont dup length dict begin {1 index /FID eq  {pop pop} {def} ifelse } forall /Encoding exch def currentdict end dup /FontName get exch definefont pop } def [/Times-Bold /Times-Italic /Times-BoldItalic /Helvetica /Helvetica-Oblique
 /Helvetica-Bold /Helvetica-BoldOblique /Courier /Courier-Oblique /Courier-Bold /Courier-BoldOblique /Times-Roman /AvantGarde-Book /AvantGarde-BookOblique /AvantGarde-Demi /AvantGarde-DemiOblique /Bookman-Demi /Bookman-DemiItalic /Bookman-Light
 /Bookman-LightItalic /Helvetica-Narrow /Helvetica-Narrow-Bold /Helvetica-Narrow-BoldOblique /Helvetica-Narrow-Oblique /NewCenturySchlbk-Roman /NewCenturySchlbk-Bold /NewCenturySchlbk-BoldItalic /NewCenturySchlbk-Italic /Palatino-Bold
 /Palatino-BoldItalic /Palatino-Italic /Palatino-Roman ] {ISOLatin1Encoding reEncode } forall
%%EndProlog
%%BeginSetup
%%EndSetup
newpath  gsave  .25 .25 scale  gsave  0 0 t black[  ] 0 sd 3 lw 1 1 1 c 2268 2176 0 0 bf black 1 1 1 c 2245 533 11 11 bf black 1 1 1 c 1661 288 371 224 bf black 1661 288 371 224 bl 371 224 m 1661 X s 371 512 m 1661 X s 371 224 m 288 Y s[ 4 8] 0 sd
 2032 224 m -1661 X s 2032 296 m -1661 X s 2032 368 m -1661 X s 2032 440 m -1661 X s 2032 512 m -1661 X s[  ] 0 sd 2032 224 m 288 Y s 371 224 m 1661 X s
 gsave  2245 533 11 11 C 1849.18 98.9272 t 0 r /Helvetica findfont 64.7479 sf 0 0 m ( [GeV]) show NC gr 
 gsave  2245 533 11 11 C 1803.52 76.0979 t 0 r /Helvetica findfont 41.8957 sf 0 0 m (12) show NC gr 
 gsave  2245 533 11 11 C 1750.25 98.9272 t 0 r /Helvetica findfont 64.7479 sf 0 0 m (m) show NC gr  371 236 m -12 Y s 430 230 m -6 Y s 489 230 m -6 Y s 549 230 m -6 Y s 608 230 m -6 Y s 667 236 m -12 Y s 727 230 m -6 Y s 786 230 m -6 Y s 845 230 m -6
 Y s 905 230 m -6 Y s 964 236 m -12 Y s 1023 230 m -6 Y s 1083 230 m -6 Y s 1142 230 m -6 Y s 1201 230 m -6 Y s 1261 236 m -12 Y s 1320 230 m -6 Y s 1379 230 m -6 Y s 1439 230 m -6 Y s 1498 230 m -6 Y s 1557 236 m -12 Y s 1617 230 m -6 Y s 1676 230 m
 -6 Y s 1735 230 m -6 Y s 1795 230 m -6 Y s 1854 236 m -12 Y s 1854 236 m -12 Y s 1913 230 m -6 Y s 1973 230 m -6 Y s
 gsave  2245 533 11 11 C 334.831 171.22 t 0 r /Helvetica findfont 57.1305 sf 0 0 m (50) show NC gr 
 gsave  2245 533 11 11 C 631.612 171.22 t 0 r /Helvetica findfont 57.1305 sf 0 0 m (60) show NC gr 
 gsave  2245 533 11 11 C 928.394 171.22 t 0 r /Helvetica findfont 57.1305 sf 0 0 m (70) show NC gr 
 gsave  2245 533 11 11 C 1225.18 171.22 t 0 r /Helvetica findfont 57.1305 sf 0 0 m (80) show NC gr 
 gsave  2245 533 11 11 C 1521.96 171.22 t 0 r /Helvetica findfont 57.1305 sf 0 0 m (90) show NC gr 
 gsave  2245 533 11 11 C 1803.52 171.22 t 0 r /Helvetica findfont 57.1305 sf 0 0 m (100) show NC gr  371 512 m 1661 X s 371 500 m 12 Y s 430 506 m 6 Y s 489 506 m 6 Y s 549 506 m 6 Y s 608 506 m 6 Y s 667 500 m 12 Y s 727 506 m 6 Y s 786 506 m 6 Y s
 845 506 m 6 Y s 905 506 m 6 Y s 964 500 m 12 Y s 1023 506 m 6 Y s 1083 506 m 6 Y s 1142 506 m 6 Y s 1201 506 m 6 Y s 1261 500 m 12 Y s 1320 506 m 6 Y s 1379 506 m 6 Y s 1439 506 m 6 Y s 1498 506 m 6 Y s 1557 500 m 12 Y s 1617 506 m 6 Y s 1676 506 m
 6 Y s 1735 506 m 6 Y s 1795 506 m 6 Y s 1854 500 m 12 Y s 1854 500 m 12 Y s 1913 506 m 6 Y s 1973 506 m 6 Y s 371 224 m 288 Y s
 gsave  2245 533 11 11 C 156.001 407.124 t 90 r /Helvetica findfont 64.7479 sf 0 0 m (Pull) show NC gr  407 224 m -36 X s 389 242 m -18 X s 389 260 m -18 X s 389 278 m -18 X s 407 296 m -36 X s 389 314 m -18 X s 389 332 m -18 X s 389 350 m -18 X s
 407 368 m -36 X s 389 386 m -18 X s 389 404 m -18 X s 389 422 m -18 X s 407 440 m -36 X s 389 458 m -18 X s 389 476 m -18 X s 389 494 m -18 X s 407 512 m -36 X s
 gsave  2245 533 11 11 C 327.221 201.659 t 0 r /Helvetica findfont 57.1305 sf 0 0 m (4) show NC gr 
 gsave  2245 533 11 11 C 292.977 201.659 t 0 r /Symbol findfont 57.1305 sf 0 0 m (-) show NC gr 
 gsave  2245 533 11 11 C 327.221 273.952 t 0 r /Helvetica findfont 57.1305 sf 0 0 m (2) show NC gr 
 gsave  2245 533 11 11 C 292.977 273.952 t 0 r /Symbol findfont 57.1305 sf 0 0 m (-) show NC gr 
 gsave  2245 533 11 11 C 327.221 346.245 t 0 r /Helvetica findfont 57.1305 sf 0 0 m (0) show NC gr 
 gsave  2245 533 11 11 C 327.221 418.538 t 0 r /Helvetica findfont 57.1305 sf 0 0 m (2) show NC gr 
 gsave  2245 533 11 11 C 327.221 490.831 t 0 r /Helvetica findfont 57.1305 sf 0 0 m (4) show NC gr  2032 224 m 288 Y s 1996 224 m 36 X s 2014 242 m 18 X s 2014 260 m 18 X s 2014 278 m 18 X s 1996 296 m 36 X s 2014 314 m 18 X s 2014 332 m 18 X s 2014
 350 m 18 X s 1996 368 m 36 X s 2014 386 m 18 X s 2014 404 m 18 X s 2014 422 m 18 X s 1996 440 m 36 X s 2014 458 m 18 X s 2014 476 m 18 X s 2014 494 m 18 X s 1996 512 m 36 X s 400 326 m 36 Y s 400 362 m cl s 400 326 m -36 Y s 400 290 m cl s 460 332 m
 36 Y s 460 368 m cl s 460 332 m -36 Y s 460 296 m cl s 519 398 m 36 Y s 519 434 m cl s 519 398 m -36 Y s 519 362 m cl s 578 339 m 36 Y s 578 375 m cl s 578 339 m -36 Y s 578 303 m cl s 638 401 m 36 Y s 638 437 m cl s 638 401 m -36 Y s 638 365 m cl s
 697 350 m 36 Y s 697 386 m cl s 697 350 m -36 Y s 697 314 m cl s 756 363 m 36 Y s 756 399 m cl s 756 363 m -36 Y s 756 327 m cl s 816 437 m 36 Y s 816 473 m cl s 816 437 m -36 Y s 816 401 m cl s 875 257 m 36 Y s 875 293 m cl s 875 257 m -33 Y s 875
 224 m cl s 934 351 m 36 Y s 934 387 m cl s 934 351 m -36 Y s 934 315 m cl s 994 276 m 36 Y s 994 312 m cl s 994 276 m -36 Y s 994 240 m cl s 1053 234 m 36 Y s 1053 270 m cl s 1053 234 m -10 Y s 1053 224 m cl s 1112 356 m 36 Y s 1112 392 m cl s 1112
 356 m -36 Y s 1112 320 m cl s 1231 408 m 36 Y s 1231 444 m cl s 1231 408 m -36 Y s 1231 372 m cl s 1290 377 m 36 Y s 1290 413 m cl s 1290 377 m -36 Y s 1290 341 m cl s 1350 386 m 36 Y s 1350 422 m cl s 1350 386 m -36 Y s 1350 350 m cl s 1409 372 m
 36 Y s 1409 408 m cl s 1409 372 m -36 Y s 1409 336 m cl s 1468 453 m 36 Y s 1468 489 m cl s 1468 453 m -36 Y s 1468 417 m cl s 1587 336 m 36 Y s 1587 372 m cl s 1587 336 m -36 Y s 1587 300 m cl s 1646 260 m 36 Y s 1646 296 m cl s 1646 260 m -36 Y s
 1646 224 m cl s 1706 339 m 36 Y s 1706 375 m cl s 1706 339 m -36 Y s 1706 303 m cl s 1765 300 m 36 Y s 1765 336 m cl s 1765 300 m -36 Y s 1765 264 m cl s 1824 230 m 36 Y s 1824 266 m cl s 1824 230 m -6 Y s 1824 224 m cl s /w 37 def /w2 {w 2 div} def
 /w3 {w 3 div} def 400 326 460 332 519 398 578 339 638 401 697 350 756 363 816 437 875 257 934 351 994 276 1053 234 1112 356 13 { m20} R 1231 408 1290 377 1350 386 1409 372 1468 453 5 { m20} R 1587 336 1646 260 1706 339 1765 300 1824 230 5 { m20} R
 371 224 m 1661 X s 371 236 m -12 Y s 430 230 m -6 Y s 489 230 m -6 Y s 549 230 m -6 Y s 608 230 m -6 Y s 667 236 m -12 Y s 727 230 m -6 Y s 786 230 m -6 Y s 845 230 m -6 Y s 905 230 m -6 Y s 964 236 m -12 Y s 1023 230 m -6 Y s 1083 230 m -6 Y s 1142
 230 m -6 Y s 1201 230 m -6 Y s 1261 236 m -12 Y s 1320 230 m -6 Y s 1379 230 m -6 Y s 1439 230 m -6 Y s 1498 230 m -6 Y s 1557 236 m -12 Y s 1617 230 m -6 Y s 1676 230 m -6 Y s 1735 230 m -6 Y s 1795 230 m -6 Y s 1854 236 m -12 Y s 1854 236 m -12 Y
 s 1913 230 m -6 Y s 1973 230 m -6 Y s 371 512 m 1661 X s 371 500 m 12 Y s 430 506 m 6 Y s 489 506 m 6 Y s 549 506 m 6 Y s 608 506 m 6 Y s 667 500 m 12 Y s 727 506 m 6 Y s 786 506 m 6 Y s 845 506 m 6 Y s 905 506 m 6 Y s 964 500 m 12 Y s 1023 506 m 6
 Y s 1083 506 m 6 Y s 1142 506 m 6 Y s 1201 506 m 6 Y s 1261 500 m 12 Y s 1320 506 m 6 Y s 1379 506 m 6 Y s 1439 506 m 6 Y s 1498 506 m 6 Y s 1557 500 m 12 Y s 1617 506 m 6 Y s 1676 506 m 6 Y s 1735 506 m 6 Y s 1795 506 m 6 Y s 1854 500 m 12 Y s 1854
 500 m 12 Y s 1913 506 m 6 Y s 1973 506 m 6 Y s 371 224 m 288 Y s 407 224 m -36 X s 389 242 m -18 X s 389 260 m -18 X s 389 278 m -18 X s 407 296 m -36 X s 389 314 m -18 X s 389 332 m -18 X s 389 350 m -18 X s 407 368 m -36 X s 389 386 m -18 X s 389
 404 m -18 X s 389 422 m -18 X s 407 440 m -36 X s 389 458 m -18 X s 389 476 m -18 X s 389 494 m -18 X s 407 512 m -36 X s 2032 224 m 288 Y s 1996 224 m 36 X s 2014 242 m 18 X s 2014 260 m 18 X s 2014 278 m 18 X s 1996 296 m 36 X s 2014 314 m 18 X s
 2014 332 m 18 X s 2014 350 m 18 X s 1996 368 m 36 X s 2014 386 m 18 X s 2014 404 m 18 X s 2014 422 m 18 X s 1996 440 m 36 X s 2014 458 m 18 X s 2014 476 m 18 X s 2014 494 m 18 X s 1996 512 m 36 X s[  12 12 ] 0 sd 6 lw 371 368 m 1661 X s[  ] 0 sd 3
 lw 1 1 1 c 2245 1622 11 544 bf black 1 1 1 c 1661 1507 371 577 bf black 1661 1507 371 577 bl 371 577 m 1661 X s 371 613 m -36 Y s 430 595 m -18 Y s 489 595 m -18 Y s 549 595 m -18 Y s 608 595 m -18 Y s 667 613 m -36 Y s 727 595 m -18 Y s 786 595 m
 -18 Y s 845 595 m -18 Y s 905 595 m -18 Y s 964 613 m -36 Y s 1023 595 m -18 Y s 1083 595 m -18 Y s 1142 595 m -18 Y s 1201 595 m -18 Y s 1261 613 m -36 Y s 1320 595 m -18 Y s 1379 595 m -18 Y s 1439 595 m -18 Y s 1498 595 m -18 Y s 1557 613 m -36 Y
 s 1617 595 m -18 Y s 1676 595 m -18 Y s 1735 595 m -18 Y s 1795 595 m -18 Y s 1854 613 m -36 Y s 1854 613 m -36 Y s 1913 595 m -18 Y s 1973 595 m -18 Y s 371 2084 m 1661 X s 371 2048 m 36 Y s 430 2066 m 18 Y s 489 2066 m 18 Y s 549 2066 m 18 Y s 608
 2066 m 18 Y s 667 2048 m 36 Y s 727 2066 m 18 Y s 786 2066 m 18 Y s 845 2066 m 18 Y s 905 2066 m 18 Y s 964 2048 m 36 Y s 1023 2066 m 18 Y s 1083 2066 m 18 Y s 1142 2066 m 18 Y s 1201 2066 m 18 Y s 1261 2048 m 36 Y s 1320 2066 m 18 Y s 1379 2066 m
 18 Y s 1439 2066 m 18 Y s 1498 2066 m 18 Y s 1557 2048 m 36 Y s 1617 2066 m 18 Y s 1676 2066 m 18 Y s 1735 2066 m 18 Y s 1795 2066 m 18 Y s 1854 2048 m 36 Y s 1854 2048 m 36 Y s 1913 2066 m 18 Y s 1973 2066 m 18 Y s 371 577 m 1507 Y s
 gsave  2245 1622 11 544 C 152.196 1666.54 t 90 r /Helvetica findfont 64.7045 sf 0 0 m (Events / 2GeV) show NC gr  433 577 m -62 X s 402 625 m -31 X s 402 673 m -31 X s 402 721 m -31 X s 402 769 m -31 X s 433 817 m -62 X s 402 865 m -31 X s 402 914 m
 -31 X s 402 962 m -31 X s 402 1010 m -31 X s 433 1058 m -62 X s 402 1106 m -31 X s 402 1154 m -31 X s 402 1202 m -31 X s 402 1251 m -31 X s 433 1299 m -62 X s 402 1347 m -31 X s 402 1395 m -31 X s 402 1443 m -31 X s 402 1491 m -31 X s 433 1540 m -62
 X s 402 1588 m -31 X s 402 1636 m -31 X s 402 1684 m -31 X s 402 1732 m -31 X s 433 1780 m -62 X s 402 1828 m -31 X s 402 1877 m -31 X s 402 1925 m -31 X s 402 1973 m -31 X s 433 2021 m -62 X s 433 2021 m -62 X s 402 2069 m -31 X s
 gsave  2245 1622 11 544 C 327.221 555.514 t 0 r /Helvetica findfont 57.0922 sf 0 0 m (0) show NC gr 
 gsave  2245 1622 11 544 C 262.538 795.223 t 0 r /Helvetica findfont 57.0922 sf 0 0 m (500) show NC gr 
 gsave  2245 1622 11 544 C 232.099 1038.74 t 0 r /Helvetica findfont 57.0922 sf 0 0 m (1000) show NC gr 
 gsave  2245 1622 11 544 C 232.099 1278.44 t 0 r /Helvetica findfont 57.0922 sf 0 0 m (1500) show NC gr 
 gsave  2245 1622 11 544 C 232.099 1518.15 t 0 r /Helvetica findfont 57.0922 sf 0 0 m (2000) show NC gr 
 gsave  2245 1622 11 544 C 232.099 1757.86 t 0 r /Helvetica findfont 57.0922 sf 0 0 m (2500) show NC gr 
 gsave  2245 1622 11 544 C 232.099 2001.37 t 0 r /Helvetica findfont 57.0922 sf 0 0 m (3000) show NC gr  2032 577 m 1507 Y s 1969 577 m 63 X s 2001 625 m 31 X s 2001 673 m 31 X s 2001 721 m 31 X s 2001 769 m 31 X s 1969 817 m 63 X s 2001 865 m 31 X s
 2001 914 m 31 X s 2001 962 m 31 X s 2001 1010 m 31 X s 1969 1058 m 63 X s 2001 1106 m 31 X s 2001 1154 m 31 X s 2001 1202 m 31 X s 2001 1251 m 31 X s 1969 1299 m 63 X s 2001 1347 m 31 X s 2001 1395 m 31 X s 2001 1443 m 31 X s 2001 1491 m 31 X s 1969
 1540 m 63 X s 2001 1588 m 31 X s 2001 1636 m 31 X s 2001 1684 m 31 X s 2001 1732 m 31 X s 1969 1780 m 63 X s 2001 1828 m 31 X s 2001 1877 m 31 X s 2001 1925 m 31 X s 2001 1973 m 31 X s 1969 2021 m 63 X s 1969 2021 m 63 X s 2001 2069 m 31 X s 400 631
 m -29 X s 371 631 m cl s 400 631 m 30 X s 430 631 m cl s 400 631 m 1 Y s 400 632 m cl s 400 631 m s 400 631 m cl s 460 635 m -30 X s 430 635 m cl s 460 635 m 29 X s 489 635 m cl s 460 635 m 1 Y s 460 636 m cl s 460 635 m s 460 635 m cl s 519 640 m
 -30 X s 489 640 m cl s 519 640 m 30 X s 549 640 m cl s 519 640 m 1 Y s 519 641 m cl s 519 640 m -1 Y s 519 639 m cl s 578 642 m -29 X s 549 642 m cl s 578 642 m 30 X s 608 642 m cl s 578 642 m s 578 642 m cl s 578 642 m -1 Y s 578 641 m cl s 638 645
 m -30 X s 608 645 m cl s 638 645 m 29 X s 667 645 m cl s 638 645 m 2 Y s 638 647 m cl s 638 645 m -1 Y s 638 644 m cl s 697 645 m -30 X s 667 645 m cl s 697 645 m 30 X s 727 645 m cl s 697 645 m 1 Y s 697 646 m cl s 697 645 m s 697 645 m cl s 756
 646 m -29 X s 727 646 m cl s 756 646 m 30 X s 786 646 m cl s 756 646 m 1 Y s 756 647 m cl s 756 646 m -1 Y s 756 645 m cl s 816 649 m -30 X s 786 649 m cl s 816 649 m 29 X s 845 649 m cl s 816 649 m 2 Y s 816 651 m cl s 816 649 m -1 Y s 816 648 m cl
 s 875 644 m -30 X s 845 644 m cl s 875 644 m 30 X s 905 644 m cl s 875 644 m 1 Y s 875 645 m cl s 875 644 m -1 Y s 875 643 m cl s 934 645 m -29 X s 905 645 m cl s 934 645 m 30 X s 964 645 m cl s 934 645 m 2 Y s 934 647 m cl s 934 645 m -1 Y s 934
 644 m cl s 994 644 m -30 X s 964 644 m cl s 994 644 m 29 X s 1023 644 m cl s 994 644 m 1 Y s 994 645 m cl s 994 644 m -1 Y s 994 643 m cl s 1053 644 m -30 X s 1023 644 m cl s 1053 644 m 30 X s 1083 644 m cl s 1053 644 m 1 Y s 1053 645 m cl s 1053
 644 m -1 Y s 1053 643 m cl s 1112 647 m -29 X s 1083 647 m cl s 1112 647 m 30 X s 1142 647 m cl s 1112 647 m 2 Y s 1112 649 m cl s 1112 647 m -1 Y s 1112 646 m cl s 1172 648 m -30 X s 1142 648 m cl s 1172 648 m 29 X s 1201 648 m cl s 1172 648 m s
 1172 648 m cl s 1172 648 m -1 Y s 1172 647 m cl s 1231 659 m -30 X s 1201 659 m cl s 1231 659 m 30 X s 1261 659 m cl s 1231 659 m 2 Y s 1231 661 m cl s 1231 659 m -2 Y s 1231 657 m cl s 1290 668 m -29 X s 1261 668 m cl s 1290 668 m 30 X s 1320 668 m
 cl s 1290 668 m 2 Y s 1290 670 m cl s 1290 668 m -2 Y s 1290 666 m cl s 1350 691 m -30 X s 1320 691 m cl s 1350 691 m 29 X s 1379 691 m cl s 1350 691 m 2 Y s 1350 693 m cl s 1350 691 m -2 Y s 1350 689 m cl s 1409 740 m -30 X s 1379 740 m cl s 1409
 740 m 30 X s 1439 740 m cl s 1409 740 m 2 Y s 1409 742 m cl s 1409 740 m -2 Y s 1409 738 m cl s 1468 878 m -29 X s 1439 878 m cl s 1468 878 m 30 X s 1498 878 m cl s 1468 878 m 4 Y s 1468 882 m cl s 1468 878 m -4 Y s 1468 874 m cl s 1528 1204 m -30 X
 s 1498 1204 m cl s 1528 1204 m 29 X s 1557 1204 m cl s 1528 1204 m 5 Y s 1528 1209 m cl s 1528 1204 m -6 Y s 1528 1198 m cl s 1587 1523 m -30 X s 1557 1523 m cl s 1587 1523 m 30 X s 1617 1523 m cl s 1587 1523 m 5 Y s 1587 1528 m cl s 1587 1523 m -6
 Y s 1587 1517 m cl s 1646 1153 m -29 X s 1617 1153 m cl s 1646 1153 m 30 X s 1676 1153 m cl s 1646 1153 m 5 Y s 1646 1158 m cl s 1646 1153 m -5 Y s 1646 1148 m cl s 1706 809 m -30 X s 1676 809 m cl s 1706 809 m 29 X s 1735 809 m cl s 1706 809 m 4 Y
 s 1706 813 m cl s 1706 809 m -3 Y s 1706 806 m cl s 1765 690 m -30 X s 1735 690 m cl s 1765 690 m 30 X s 1795 690 m cl s 1765 690 m 2 Y s 1765 692 m cl s 1765 690 m -2 Y s 1765 688 m cl s 1824 648 m -29 X s 1795 648 m cl s 1824 648 m 30 X s 1854 648
 m cl s 1824 648 m 2 Y s 1824 650 m cl s 1824 648 m -1 Y s 1824 647 m cl s 1884 628 m -30 X s 1854 628 m cl s 1884 628 m 29 X s 1913 628 m cl s 1884 628 m 1 Y s 1884 629 m cl s 1884 628 m -1 Y s 1884 627 m cl s 1943 620 m -30 X s 1913 620 m cl s 1943
 620 m 30 X s 1973 620 m cl s 1943 620 m s 1943 620 m cl s 1943 620 m -1 Y s 1943 619 m cl s 2002 614 m -29 X s 1973 614 m cl s 2002 614 m 30 X s 2032 614 m cl s 2002 614 m 1 Y s 2002 615 m cl s 2002 614 m -1 Y s 2002 613 m cl s 400 631 460 635 519
 640 578 642 638 645 697 645 756 646 816 649 875 644 934 645 994 644 1053 644 1112 647 1172 648 1231 659 1290 668 1350 691 1409 740 1468 878 1528 1204 1587 1523 1646 1153 1706 809 1765 690 1824 648 1884 628 1943 620 2002 614 28 { m20} R 0.8 0 0 c 9
 lw black 0.8 0 0 c 371 630 m cl s 371 630 m 59 4 d 59 4 d 60 3 d 59 2 d 59 2 d 60 1 d 59 1 d 59 X 60 -1 d 118 X 60 1 d 59 2 d 59 4 d 60 8 d 29 7 d 30 9 d 30 13 d 14 9 d 15 11 d 15 13 d 15 17 d 15 21 d 15 28 d 7 16 d 7 19 d 8 21 d 7 24 d 8 26 d 7 30
 d 7 33 d 8 36 d 7 40 d 8 42 d 7 46 d 8 48 d 7 51 d 7 53 d 15 107 d 4 25 d 4 24 d 7 44 d 4 20 d 3 14 d 4 11 d 4 9 d 4 5 d 1 1 d 2 -1 d 4 -6 d 4 -10 d 3 -14 d 4 -19 d 4 -22 d 4 -25 d 3 -30 d 4 -33 d 7 -66 d 15 -140 d 8 -64 d 3 -31 d 4 -29 d 7 -52 d 8
 -47 d 7 -40 d 8 -35 d 7 -31 d 8 -26 d 7 -24 d 7 -20 d 8 -17 d 7 -15 d 15 -24 d 15 -19 d 15 -14 d 15 -11 d 14 -9 d 15 -7 d 30 -10 d 30 -8 d 29 -5 d 60 -9 d 59 -7 d s 0.2 0.4 0.2 c[  12 12 ] 0 sd black 0.2 0.4 0.2 c 371 578 m cl s 371 578 m 59 -1 d 59
 1 d 119 X 59 1 d 60 X 59 1 d 59 X 60 1 d 59 1 d 59 1 d 60 2 d 59 3 d 59 4 d 30 3 d 30 4 d 29 5 d 30 7 d 15 4 d 15 6 d 14 6 d 15 8 d 15 10 d 15 11 d 15 15 d 7 9 d 8 10 d 7 11 d 7 12 d 8 14 d 7 15 d 8 17 d 7 18 d 15 39 d 15 42 d 15 41 d 7 18 d 7 17 d
 8 13 d 7 12 d 4 4 d 4 3 d 3 3 d 4 2 d 4 1 d 3 X 4 -1 d 4 -2 d 4 -3 d 3 -4 d 4 -4 d 4 -5 d 7 -14 d 8 -15 d 7 -18 d 7 -19 d 15 -43 d 15 -43 d 15 -41 d 7 -19 d 8 -18 d 7 -16 d 8 -14 d 7 -14 d 7 -11 d 8 -11 d 7 -9 d 8 -8 d 7 -7 d 15 -11 d 15 -9 d 15 -6
 d 14 -5 d 15 -4 d 30 -5 d 30 -3 d 29 -3 d 60 -3 d 59 -2 d s 1 0.8 0.2 c black 1 0.8 0.2 c 371 614 m cl s 371 614 m 59 2 d 59 2 d 60 2 d 59 2 d 59 1 d 60 1 d 59 1 d 59 1 d 60 1 d 59 X 59 1 d 119 X 59 -1 d 60 X 59 -1 d 59 X 60 -2 d 59 -1 d 59 -1 d 60
 -2 d 59 -2 d 59 -2 d 60 -2 d 59 -2 d 59 -3 d 60 -2 d 59 -3 d s 0 0 1 c black 0 0 1 c 371 592 m cl s 371 592 m 59 2 d 59 1 d 60 1 d 59 1 d 59 X 60 -1 d 59 -1 d 59 -2 d 60 -2 d 59 -1 d 59 -2 d 60 -1 d 59 -1 d 59 1 d 60 1 d 59 4 d 30 4 d 29 6 d 15 4 d
 15 5 d 15 7 d 15 9 d 14 12 d 8 8 d 7 9 d 8 10 d 7 12 d 7 13 d 8 17 d 7 18 d 4 11 d 4 11 d 7 25 d 4 14 d 4 15 d 3 16 d 4 17 d 7 36 d 8 40 d 7 43 d 8 41 d 7 40 d 4 19 d 3 14 d 4 12 d 4 11 d 4 8 d 1 3 d 2 1 d 4 -1 d 4 -5 d 3 -8 d 4 -12 d 4 -14 d 4 -17
 d 3 -21 d 4 -24 d 7 -46 d 4 -24 d 4 -26 d 2 -13 d 1 -12 d 4 -22 d 8 -43 d 3 -20 d 4 -18 d 4 -16 d 3 -15 d 4 -14 d 4 -12 d 4 -11 d 3 -11 d 4 -9 d 4 -8 d 7 -14 d 8 -12 d 7 -9 d 7 -8 d 15 -12 d 15 -9 d 15 -7 d 15 -5 d 15 -4 d 29 -6 d 30 -4 d 59 -5 d 60
 -3 d 59 -1 d s black[  ] 0 sd 3 lw 371 577 m 1661 X s 371 613 m -36 Y s 430 595 m -18 Y s 489 595 m -18 Y s 549 595 m -18 Y s 608 595 m -18 Y s 667 613 m -36 Y s 727 595 m -18 Y s 786 595 m -18 Y s 845 595 m -18 Y s 905 595 m -18 Y s 964 613 m -36 Y
 s 1023 595 m -18 Y s 1083 595 m -18 Y s 1142 595 m -18 Y s 1201 595 m -18 Y s 1261 613 m -36 Y s 1320 595 m -18 Y s 1379 595 m -18 Y s 1439 595 m -18 Y s 1498 595 m -18 Y s 1557 613 m -36 Y s 1617 595 m -18 Y s 1676 595 m -18 Y s 1735 595 m -18 Y s
 1795 595 m -18 Y s 1854 613 m -36 Y s 1854 613 m -36 Y s 1913 595 m -18 Y s 1973 595 m -18 Y s 371 2084 m 1661 X s 371 2048 m 36 Y s 430 2066 m 18 Y s 489 2066 m 18 Y s 549 2066 m 18 Y s 608 2066 m 18 Y s 667 2048 m 36 Y s 727 2066 m 18 Y s 786 2066
 m 18 Y s 845 2066 m 18 Y s 905 2066 m 18 Y s 964 2048 m 36 Y s 1023 2066 m 18 Y s 1083 2066 m 18 Y s 1142 2066 m 18 Y s 1201 2066 m 18 Y s 1261 2048 m 36 Y s 1320 2066 m 18 Y s 1379 2066 m 18 Y s 1439 2066 m 18 Y s 1498 2066 m 18 Y s 1557 2048 m 36
 Y s 1617 2066 m 18 Y s 1676 2066 m 18 Y s 1735 2066 m 18 Y s 1795 2066 m 18 Y s 1854 2048 m 36 Y s 1854 2048 m 36 Y s 1913 2066 m 18 Y s 1973 2066 m 18 Y s 371 577 m 1507 Y s 433 577 m -62 X s 402 625 m -31 X s 402 673 m -31 X s 402 721 m -31 X s
 402 769 m -31 X s 433 817 m -62 X s 402 865 m -31 X s 402 914 m -31 X s 402 962 m -31 X s 402 1010 m -31 X s 433 1058 m -62 X s 402 1106 m -31 X s 402 1154 m -31 X s 402 1202 m -31 X s 402 1251 m -31 X s 433 1299 m -62 X s 402 1347 m -31 X s 402
 1395 m -31 X s 402 1443 m -31 X s 402 1491 m -31 X s 433 1540 m -62 X s 402 1588 m -31 X s 402 1636 m -31 X s 402 1684 m -31 X s 402 1732 m -31 X s 433 1780 m -62 X s 402 1828 m -31 X s 402 1877 m -31 X s 402 1925 m -31 X s 402 1973 m -31 X s 433
 2021 m -62 X s 433 2021 m -62 X s 402 2069 m -31 X s 2032 577 m 1507 Y s 1969 577 m 63 X s 2001 625 m 31 X s 2001 673 m 31 X s 2001 721 m 31 X s 2001 769 m 31 X s 1969 817 m 63 X s 2001 865 m 31 X s 2001 914 m 31 X s 2001 962 m 31 X s 2001 1010 m 31
 X s 1969 1058 m 63 X s 2001 1106 m 31 X s 2001 1154 m 31 X s 2001 1202 m 31 X s 2001 1251 m 31 X s 1969 1299 m 63 X s 2001 1347 m 31 X s 2001 1395 m 31 X s 2001 1443 m 31 X s 2001 1491 m 31 X s 1969 1540 m 63 X s 2001 1588 m 31 X s 2001 1636 m 31 X
 s 2001 1684 m 31 X s 2001 1732 m 31 X s 1969 1780 m 63 X s 2001 1828 m 31 X s 2001 1877 m 31 X s 2001 1925 m 31 X s 2001 1973 m 31 X s 1969 2021 m 63 X s 1969 2021 m 63 X s 2001 2069 m 31 X s 1 1 1 c black
 gsave  2245 1622 11 544 C 662.051 1989.96 t 0 r /Helvetica findfont 60.8983 sf 0 0 m ( Internal) show NC gr 
 gsave  2245 1622 11 544 C 452.782 1989.96 t 0 r /Helvetica-BoldOblique findfont 60.8983 sf 0 0 m (ATLAS) show NC gr 
 gsave  2245 1622 11 544 C 452.782 1902.45 t 0 r /Helvetica findfont 60.8983 sf 0 0 m (data 2015\25518 + mc16a,d,e) show NC gr 
 gsave  2245 1622 11 544 C 1034.93 1818.74 t 0 r /Helvetica findfont 41.8676 sf 0 0 m (\2551) show NC gr 
 gsave  2245 1622 11 544 C 513.661 1792.1 t 0 r /Helvetica findfont 60.8983 sf 0 0 m (=13 TeV, 138.97 fb) show NC gr 
 gsave  2245 1622 11 544 C 483.221 1792.1 t 0 r /Helvetica findfont 60.8983 sf 0 0 m (s) show NC gr  6 lw 464 1826 m 8 -38 d s 3 lw 472 1788 m 4 57 d s 476 1845 m 38 X s
 gsave  2245 1622 11 544 C 452.782 1716.01 t 0 r /Helvetica findfont 60.8983 sf 0 0 m (Relaxed Region) show NC gr  1 1 1 c 718 438 1269 1598 bl 1269 1598 m 718 X s 1987 1598 m 438 Y s 1987 2036 m -718 X s 1269 2036 m -438 Y s black
 gsave  2245 1622 11 544 C 1445.86 1974.74 t 0 r /Helvetica findfont 72.3167 sf 0 0 m (MC Data) show NC gr  1296 1992 m 125 X s 1358 1966 m 52 Y s 1358 1992 m20
 gsave  2245 1622 11 544 C 1445.86 1887.23 t 0 r /Helvetica findfont 72.3167 sf 0 0 m (Total BG) show NC gr  0.8 0 0 c 9 lw 1296 1904 m 125 X s black
 gsave  2245 1622 11 544 C 1445.86 1799.71 t 0 r /Helvetica findfont 72.3167 sf 0 0 m (Z+HFjets) show NC gr  0.2 0.4 0.2 c[  12 12 ] 0 sd 1296 1817 m 125 X s black
 gsave  2245 1622 11 544 C 1468.69 1712.2 t 0 r /Helvetica findfont 72.3167 sf 0 0 m (t) show NC gr [  ] 0 sd 6 lw 1469 1769 m 23 X s
 gsave  2245 1622 11 544 C 1445.86 1712.2 t 0 r /Helvetica findfont 72.3167 sf 0 0 m (t) show NC gr  1 0.8 0.2 c[  12 12 ] 0 sd 9 lw 1296 1729 m 125 X s black
 gsave  2245 1622 11 544 C 1445.86 1624.69 t 0 r /Helvetica findfont 72.3167 sf 0 0 m (Diboson) show NC gr  0 0 1 c 1296 1642 m 125 X s
 gr  gr showpage
end
%%EOF
