%!PS-Adobe-2.0 EPSF-2.0
%%BoundingBox:  0 0 567 544
%%Title: Results/M3aData_relaxIsoD0.eps: Region: relaxIsoD0
%%Creator: ROOT Version 6.08/06
%%CreationDate: Mon Oct 14 10:11:06 2019
%%DocumentNeededResources: ProcSet (FontSetInit)
%%EndComments
%%BeginProlog
80 dict begin
/s {stroke} def /l {lineto} def /m {moveto} def /t {translate} def
/r {rotate} def /rl {roll}  def /R {repeat} def
/d {rlineto} def /rm {rmoveto} def /gr {grestore} def /f {eofill} def
/c {setrgbcolor} def /black {0 setgray} def /sd {setdash} def
/cl {closepath} def /sf {scalefont setfont} def /lw {setlinewidth} def
/box {m dup 0 exch d exch 0 d 0 exch neg d cl} def
/NC{systemdict begin initclip end}def/C{NC box clip newpath}def
/bl {box s} def /bf {gsave box gsave f grestore 1 lw [] 0 sd s grestore} def /Y { 0 exch d} def /X { 0 d} def 
/K {{pop pop 0 moveto} exch kshow} bind def
/ita {/ang 15 def gsave [1 0 ang dup sin exch cos div 1 0 0] concat} def 
/mp {newpath /y exch def /x exch def} def
/side {[w .77 mul w .23 mul] .385 w mul sd w 0 l currentpoint t -144 r} def
/mr {mp x y w2 0 360 arc} def /m24 {mr s} def /m20 {mr f} def
/mb {mp x y w2 add m w2 neg 0 d 0 w neg d w 0 d 0 w d cl} def
/mt {mp x y w2 add m w2 neg w neg d w 0 d cl} def
/m21 {mb f} def /m25 {mb s} def /m22 {mt f} def /m26{mt s} def
/m23 {mp x y w2 sub m w2 w d w neg 0 d cl f} def
/m27 {mp x y w2 add m w3 neg w2 neg d w3 w2 neg d w3 w2 d cl s} def
/m28 {mp x w2 sub y w2 sub w3 add m w3 0 d  0 w3 neg d w3 0 d 0 w3 d w3 0 d  0 w3 d w3 neg 0 d 0 w3 d w3 neg 0 d 0 w3 neg d w3 neg 0 d cl s } def
/m29 {mp gsave x w2 sub y w2 add w3 sub m currentpoint t 4 {side} repeat cl fill gr} def
/m30 {mp gsave x w2 sub y w2 add w3 sub m currentpoint t 4 {side} repeat cl s gr} def
/m31 {mp x y w2 sub m 0 w d x w2 sub y m w 0 d x w2 sub y w2 add m w w neg d x w2 sub y w2 sub m w w d s} def
/m32 {mp x y w2 sub m w2 w d w neg 0 d cl s} def
/m33 {mp x y w2 add m w3 neg w2 neg d w3 w2 neg d w3 w2 d cl f} def
/m34 {mp x w2 sub y w2 sub w3 add m w3 0 d  0 w3 neg d w3 0 d 0 w3 d w3 0 d  0 w3 d w3 neg 0 d 0 w3 d w3 neg 0 d 0 w3 neg d w3 neg 0 d cl f } def
/m2 {mp x y w2 sub m 0 w d x w2 sub y m w 0 d s} def
/m5 {mp x w2 sub y w2 sub m w w d x w2 sub y w2 add m w w neg d s} def
%%IncludeResource: ProcSet (FontSetInit)
%%IncludeResource: font Times-Roman
%%IncludeResource: font Times-Italic
%%IncludeResource: font Times-Bold
%%IncludeResource: font Times-BoldItalic
%%IncludeResource: font Helvetica
%%IncludeResource: font Helvetica-Oblique
%%IncludeResource: font Helvetica-Bold
%%IncludeResource: font Helvetica-BoldOblique
%%IncludeResource: font Courier
%%IncludeResource: font Courier-Oblique
%%IncludeResource: font Courier-Bold
%%IncludeResource: font Courier-BoldOblique
%%IncludeResource: font Symbol
%%IncludeResource: font ZapfDingbats
/reEncode {exch findfont dup length dict begin {1 index /FID eq  {pop pop} {def} ifelse } forall /Encoding exch def currentdict end dup /FontName get exch definefont pop } def [/Times-Bold /Times-Italic /Times-BoldItalic /Helvetica /Helvetica-Oblique
 /Helvetica-Bold /Helvetica-BoldOblique /Courier /Courier-Oblique /Courier-Bold /Courier-BoldOblique /Times-Roman /AvantGarde-Book /AvantGarde-BookOblique /AvantGarde-Demi /AvantGarde-DemiOblique /Bookman-Demi /Bookman-DemiItalic /Bookman-Light
 /Bookman-LightItalic /Helvetica-Narrow /Helvetica-Narrow-Bold /Helvetica-Narrow-BoldOblique /Helvetica-Narrow-Oblique /NewCenturySchlbk-Roman /NewCenturySchlbk-Bold /NewCenturySchlbk-BoldItalic /NewCenturySchlbk-Italic /Palatino-Bold
 /Palatino-BoldItalic /Palatino-Italic /Palatino-Roman ] {ISOLatin1Encoding reEncode } forall
%%EndProlog
%%BeginSetup
%%EndSetup
newpath  gsave  .25 .25 scale  gsave  0 0 t black[  ] 0 sd 3 lw 1 1 1 c 2268 2176 0 0 bf black 1 1 1 c 2245 533 11 11 bf black 1 1 1 c 1661 288 371 224 bf black 1661 288 371 224 bl 371 224 m 1661 X s 371 512 m 1661 X s 371 224 m 288 Y s[ 4 8] 0 sd
 2032 224 m -1661 X s 2032 296 m -1661 X s 2032 368 m -1661 X s 2032 440 m -1661 X s 2032 512 m -1661 X s[  ] 0 sd 2032 224 m 288 Y s 371 224 m 1661 X s
 gsave  2245 533 11 11 C 1849.18 98.9272 t 0 r /Helvetica findfont 64.7479 sf 0 0 m ( [GeV]) show NC gr 
 gsave  2245 533 11 11 C 1803.52 76.0979 t 0 r /Helvetica findfont 41.8957 sf 0 0 m (12) show NC gr 
 gsave  2245 533 11 11 C 1750.25 98.9272 t 0 r /Helvetica findfont 64.7479 sf 0 0 m (m) show NC gr  371 236 m -12 Y s 430 230 m -6 Y s 489 230 m -6 Y s 549 230 m -6 Y s 608 230 m -6 Y s 667 236 m -12 Y s 727 230 m -6 Y s 786 230 m -6 Y s 845 230 m -6
 Y s 905 230 m -6 Y s 964 236 m -12 Y s 1023 230 m -6 Y s 1083 230 m -6 Y s 1142 230 m -6 Y s 1201 230 m -6 Y s 1261 236 m -12 Y s 1320 230 m -6 Y s 1379 230 m -6 Y s 1439 230 m -6 Y s 1498 230 m -6 Y s 1557 236 m -12 Y s 1617 230 m -6 Y s 1676 230 m
 -6 Y s 1735 230 m -6 Y s 1795 230 m -6 Y s 1854 236 m -12 Y s 1854 236 m -12 Y s 1913 230 m -6 Y s 1973 230 m -6 Y s
 gsave  2245 533 11 11 C 334.831 171.22 t 0 r /Helvetica findfont 57.1305 sf 0 0 m (50) show NC gr 
 gsave  2245 533 11 11 C 631.612 171.22 t 0 r /Helvetica findfont 57.1305 sf 0 0 m (60) show NC gr 
 gsave  2245 533 11 11 C 928.394 171.22 t 0 r /Helvetica findfont 57.1305 sf 0 0 m (70) show NC gr 
 gsave  2245 533 11 11 C 1225.18 171.22 t 0 r /Helvetica findfont 57.1305 sf 0 0 m (80) show NC gr 
 gsave  2245 533 11 11 C 1521.96 171.22 t 0 r /Helvetica findfont 57.1305 sf 0 0 m (90) show NC gr 
 gsave  2245 533 11 11 C 1803.52 171.22 t 0 r /Helvetica findfont 57.1305 sf 0 0 m (100) show NC gr  371 512 m 1661 X s 371 500 m 12 Y s 430 506 m 6 Y s 489 506 m 6 Y s 549 506 m 6 Y s 608 506 m 6 Y s 667 500 m 12 Y s 727 506 m 6 Y s 786 506 m 6 Y s
 845 506 m 6 Y s 905 506 m 6 Y s 964 500 m 12 Y s 1023 506 m 6 Y s 1083 506 m 6 Y s 1142 506 m 6 Y s 1201 506 m 6 Y s 1261 500 m 12 Y s 1320 506 m 6 Y s 1379 506 m 6 Y s 1439 506 m 6 Y s 1498 506 m 6 Y s 1557 500 m 12 Y s 1617 506 m 6 Y s 1676 506 m
 6 Y s 1735 506 m 6 Y s 1795 506 m 6 Y s 1854 500 m 12 Y s 1854 500 m 12 Y s 1913 506 m 6 Y s 1973 506 m 6 Y s 371 224 m 288 Y s
 gsave  2245 533 11 11 C 156.001 407.124 t 90 r /Helvetica findfont 64.7479 sf 0 0 m (Pull) show NC gr  407 224 m -36 X s 389 242 m -18 X s 389 260 m -18 X s 389 278 m -18 X s 407 296 m -36 X s 389 314 m -18 X s 389 332 m -18 X s 389 350 m -18 X s
 407 368 m -36 X s 389 386 m -18 X s 389 404 m -18 X s 389 422 m -18 X s 407 440 m -36 X s 389 458 m -18 X s 389 476 m -18 X s 389 494 m -18 X s 407 512 m -36 X s
 gsave  2245 533 11 11 C 327.221 201.659 t 0 r /Helvetica findfont 57.1305 sf 0 0 m (4) show NC gr 
 gsave  2245 533 11 11 C 292.977 201.659 t 0 r /Symbol findfont 57.1305 sf 0 0 m (-) show NC gr 
 gsave  2245 533 11 11 C 327.221 273.952 t 0 r /Helvetica findfont 57.1305 sf 0 0 m (2) show NC gr 
 gsave  2245 533 11 11 C 292.977 273.952 t 0 r /Symbol findfont 57.1305 sf 0 0 m (-) show NC gr 
 gsave  2245 533 11 11 C 327.221 346.245 t 0 r /Helvetica findfont 57.1305 sf 0 0 m (0) show NC gr 
 gsave  2245 533 11 11 C 327.221 418.538 t 0 r /Helvetica findfont 57.1305 sf 0 0 m (2) show NC gr 
 gsave  2245 533 11 11 C 327.221 490.831 t 0 r /Helvetica findfont 57.1305 sf 0 0 m (4) show NC gr  2032 224 m 288 Y s 1996 224 m 36 X s 2014 242 m 18 X s 2014 260 m 18 X s 2014 278 m 18 X s 1996 296 m 36 X s 2014 314 m 18 X s 2014 332 m 18 X s 2014
 350 m 18 X s 1996 368 m 36 X s 2014 386 m 18 X s 2014 404 m 18 X s 2014 422 m 18 X s 1996 440 m 36 X s 2014 458 m 18 X s 2014 476 m 18 X s 2014 494 m 18 X s 1996 512 m 36 X s 400 418 m 39 Y s 400 457 m cl s 400 418 m -36 Y s 400 382 m cl s 460 394 m
 39 Y s 460 433 m cl s 460 394 m -36 Y s 460 358 m cl s 519 345 m 36 Y s 519 381 m cl s 519 345 m -33 Y s 519 312 m cl s 578 354 m 36 Y s 578 390 m cl s 578 354 m -33 Y s 578 321 m cl s 638 387 m 39 Y s 638 426 m cl s 638 387 m -36 Y s 638 351 m cl s
 697 357 m 36 Y s 697 393 m cl s 697 357 m -33 Y s 697 324 m cl s 756 349 m 36 Y s 756 385 m cl s 756 349 m -33 Y s 756 316 m cl s 816 324 m 36 Y s 816 360 m cl s 816 324 m -34 Y s 816 290 m cl s 875 372 m 39 Y s 875 411 m cl s 875 372 m -36 Y s 875
 336 m cl s 934 342 m 36 Y s 934 378 m cl s 934 342 m -33 Y s 934 309 m cl s 994 288 m 36 Y s 994 324 m cl s 994 288 m -33 Y s 994 255 m cl s 1053 347 m 36 Y s 1053 383 m cl s 1053 347 m -33 Y s 1053 314 m cl s 1112 372 m 39 Y s 1112 411 m cl s 1112
 372 m -36 Y s 1112 336 m cl s 1172 368 m 36 Y s 1172 404 m cl s 1172 368 m -33 Y s 1172 335 m cl s 1231 389 m 39 Y s 1231 428 m cl s 1231 389 m -36 Y s 1231 353 m cl s 1290 439 m 38 Y s 1290 477 m cl s 1290 439 m -36 Y s 1290 403 m cl s 1350 381 m
 39 Y s 1350 420 m cl s 1350 381 m -36 Y s 1350 345 m cl s 1409 384 m 38 Y s 1409 422 m cl s 1409 384 m -36 Y s 1409 348 m cl s 1468 469 m 37 Y s 1468 506 m cl s 1468 469 m -36 Y s 1468 433 m cl s 1587 485 m 27 Y s 1587 512 m cl s 1587 485 m -36 Y s
 1587 449 m cl s 1646 349 m 36 Y s 1646 385 m cl s 1646 349 m -35 Y s 1646 314 m cl s 1706 420 m 37 Y s 1706 457 m cl s 1706 420 m -36 Y s 1706 384 m cl s 1765 418 m 39 Y s 1765 457 m cl s 1765 418 m -36 Y s 1765 382 m cl s 1824 241 m 36 Y s 1824 277
 m cl s 1824 241 m -17 Y s 1824 224 m cl s 1884 375 m 39 Y s 1884 414 m cl s 1884 375 m -36 Y s 1884 339 m cl s 1943 338 m 36 Y s 1943 374 m cl s 1943 338 m -33 Y s 1943 305 m cl s 2002 332 m 36 Y s 2002 368 m cl s 2002 332 m -32 Y s 2002 300 m cl s
 /w 37 def /w2 {w 2 div} def /w3 {w 3 div} def 400 418 460 394 519 345 578 354 638 387 697 357 756 349 816 324 875 372 934 342 994 288 1053 347 1112 372 1172 368 1231 389 1290 439 1350 381 1409 384 1468 469 19 { m20} R 1587 485 1646 349 1706 420 1765
 418 1824 241 1884 375 1943 338 2002 332 8 { m20} R 371 224 m 1661 X s 371 236 m -12 Y s 430 230 m -6 Y s 489 230 m -6 Y s 549 230 m -6 Y s 608 230 m -6 Y s 667 236 m -12 Y s 727 230 m -6 Y s 786 230 m -6 Y s 845 230 m -6 Y s 905 230 m -6 Y s 964 236
 m -12 Y s 1023 230 m -6 Y s 1083 230 m -6 Y s 1142 230 m -6 Y s 1201 230 m -6 Y s 1261 236 m -12 Y s 1320 230 m -6 Y s 1379 230 m -6 Y s 1439 230 m -6 Y s 1498 230 m -6 Y s 1557 236 m -12 Y s 1617 230 m -6 Y s 1676 230 m -6 Y s 1735 230 m -6 Y s
 1795 230 m -6 Y s 1854 236 m -12 Y s 1854 236 m -12 Y s 1913 230 m -6 Y s 1973 230 m -6 Y s 371 512 m 1661 X s 371 500 m 12 Y s 430 506 m 6 Y s 489 506 m 6 Y s 549 506 m 6 Y s 608 506 m 6 Y s 667 500 m 12 Y s 727 506 m 6 Y s 786 506 m 6 Y s 845 506
 m 6 Y s 905 506 m 6 Y s 964 500 m 12 Y s 1023 506 m 6 Y s 1083 506 m 6 Y s 1142 506 m 6 Y s 1201 506 m 6 Y s 1261 500 m 12 Y s 1320 506 m 6 Y s 1379 506 m 6 Y s 1439 506 m 6 Y s 1498 506 m 6 Y s 1557 500 m 12 Y s 1617 506 m 6 Y s 1676 506 m 6 Y s
 1735 506 m 6 Y s 1795 506 m 6 Y s 1854 500 m 12 Y s 1854 500 m 12 Y s 1913 506 m 6 Y s 1973 506 m 6 Y s 371 224 m 288 Y s 407 224 m -36 X s 389 242 m -18 X s 389 260 m -18 X s 389 278 m -18 X s 407 296 m -36 X s 389 314 m -18 X s 389 332 m -18 X s
 389 350 m -18 X s 407 368 m -36 X s 389 386 m -18 X s 389 404 m -18 X s 389 422 m -18 X s 407 440 m -36 X s 389 458 m -18 X s 389 476 m -18 X s 389 494 m -18 X s 407 512 m -36 X s 2032 224 m 288 Y s 1996 224 m 36 X s 2014 242 m 18 X s 2014 260 m 18
 X s 2014 278 m 18 X s 1996 296 m 36 X s 2014 314 m 18 X s 2014 332 m 18 X s 2014 350 m 18 X s 1996 368 m 36 X s 2014 386 m 18 X s 2014 404 m 18 X s 2014 422 m 18 X s 1996 440 m 36 X s 2014 458 m 18 X s 2014 476 m 18 X s 2014 494 m 18 X s 1996 512 m
 36 X s[  12 12 ] 0 sd 6 lw 371 368 m 1661 X s[  ] 0 sd 3 lw 1 1 1 c 2245 1622 11 544 bf black 1 1 1 c 1661 1507 371 577 bf black 1661 1507 371 577 bl 371 577 m 1661 X s 371 613 m -36 Y s 430 595 m -18 Y s 489 595 m -18 Y s 549 595 m -18 Y s 608 595
 m -18 Y s 667 613 m -36 Y s 727 595 m -18 Y s 786 595 m -18 Y s 845 595 m -18 Y s 905 595 m -18 Y s 964 613 m -36 Y s 1023 595 m -18 Y s 1083 595 m -18 Y s 1142 595 m -18 Y s 1201 595 m -18 Y s 1261 613 m -36 Y s 1320 595 m -18 Y s 1379 595 m -18 Y
 s 1439 595 m -18 Y s 1498 595 m -18 Y s 1557 613 m -36 Y s 1617 595 m -18 Y s 1676 595 m -18 Y s 1735 595 m -18 Y s 1795 595 m -18 Y s 1854 613 m -36 Y s 1854 613 m -36 Y s 1913 595 m -18 Y s 1973 595 m -18 Y s 371 2084 m 1661 X s 371 2048 m 36 Y s
 430 2066 m 18 Y s 489 2066 m 18 Y s 549 2066 m 18 Y s 608 2066 m 18 Y s 667 2048 m 36 Y s 727 2066 m 18 Y s 786 2066 m 18 Y s 845 2066 m 18 Y s 905 2066 m 18 Y s 964 2048 m 36 Y s 1023 2066 m 18 Y s 1083 2066 m 18 Y s 1142 2066 m 18 Y s 1201 2066 m
 18 Y s 1261 2048 m 36 Y s 1320 2066 m 18 Y s 1379 2066 m 18 Y s 1439 2066 m 18 Y s 1498 2066 m 18 Y s 1557 2048 m 36 Y s 1617 2066 m 18 Y s 1676 2066 m 18 Y s 1735 2066 m 18 Y s 1795 2066 m 18 Y s 1854 2048 m 36 Y s 1854 2048 m 36 Y s 1913 2066 m 18
 Y s 1973 2066 m 18 Y s 371 577 m 1507 Y s
 gsave  2245 1622 11 544 C 152.196 1666.54 t 90 r /Helvetica findfont 64.7045 sf 0 0 m (Events / 2GeV) show NC gr  433 577 m -62 X s 402 622 m -31 X s 402 667 m -31 X s 402 713 m -31 X s 402 758 m -31 X s 433 804 m -62 X s 402 849 m -31 X s 402 894 m
 -31 X s 402 940 m -31 X s 402 985 m -31 X s 433 1031 m -62 X s 402 1076 m -31 X s 402 1122 m -31 X s 402 1167 m -31 X s 402 1212 m -31 X s 433 1258 m -62 X s 402 1303 m -31 X s 402 1349 m -31 X s 402 1394 m -31 X s 402 1440 m -31 X s 433 1485 m -62
 X s 402 1530 m -31 X s 402 1576 m -31 X s 402 1621 m -31 X s 402 1667 m -31 X s 433 1712 m -62 X s 402 1757 m -31 X s 402 1803 m -31 X s 402 1848 m -31 X s 402 1894 m -31 X s 433 1939 m -62 X s 433 1939 m -62 X s 402 1985 m -31 X s 402 2030 m -31 X
 s 402 2075 m -31 X s
 gsave  2245 1622 11 544 C 327.221 555.514 t 0 r /Helvetica findfont 57.0922 sf 0 0 m (0) show NC gr 
 gsave  2245 1622 11 544 C 262.538 783.808 t 0 r /Helvetica findfont 57.0922 sf 0 0 m (500) show NC gr 
 gsave  2245 1622 11 544 C 232.099 1008.3 t 0 r /Helvetica findfont 57.0922 sf 0 0 m (1000) show NC gr 
 gsave  2245 1622 11 544 C 232.099 1236.59 t 0 r /Helvetica findfont 57.0922 sf 0 0 m (1500) show NC gr 
 gsave  2245 1622 11 544 C 232.099 1464.88 t 0 r /Helvetica findfont 57.0922 sf 0 0 m (2000) show NC gr 
 gsave  2245 1622 11 544 C 232.099 1689.37 t 0 r /Helvetica findfont 57.0922 sf 0 0 m (2500) show NC gr 
 gsave  2245 1622 11 544 C 232.099 1917.67 t 0 r /Helvetica findfont 57.0922 sf 0 0 m (3000) show NC gr  2032 577 m 1507 Y s 1969 577 m 63 X s 2001 622 m 31 X s 2001 667 m 31 X s 2001 713 m 31 X s 2001 758 m 31 X s 1969 804 m 63 X s 2001 849 m 31 X s
 2001 894 m 31 X s 2001 940 m 31 X s 2001 985 m 31 X s 1969 1031 m 63 X s 2001 1076 m 31 X s 2001 1122 m 31 X s 2001 1167 m 31 X s 2001 1212 m 31 X s 1969 1258 m 63 X s 2001 1303 m 31 X s 2001 1349 m 31 X s 2001 1394 m 31 X s 2001 1440 m 31 X s 1969
 1485 m 63 X s 2001 1530 m 31 X s 2001 1576 m 31 X s 2001 1621 m 31 X s 2001 1667 m 31 X s 1969 1712 m 63 X s 2001 1757 m 31 X s 2001 1803 m 31 X s 2001 1848 m 31 X s 2001 1894 m 31 X s 1969 1939 m 63 X s 1969 1939 m 63 X s 2001 1985 m 31 X s 2001
 2030 m 31 X s 2001 2075 m 31 X s 400 645 m -29 X s 371 645 m cl s 400 645 m 30 X s 430 645 m cl s 400 645 m 5 Y s 400 650 m cl s 400 645 m -6 Y s 400 639 m cl s 460 645 m -30 X s 430 645 m cl s 460 645 m 29 X s 489 645 m cl s 460 645 m 6 Y s 460 651
 m cl s 460 645 m -5 Y s 460 640 m cl s 519 641 m -30 X s 489 641 m cl s 519 641 m 30 X s 549 641 m cl s 519 641 m 6 Y s 519 647 m cl s 519 641 m -5 Y s 519 636 m cl s 578 645 m -29 X s 549 645 m cl s 578 645 m 30 X s 608 645 m cl s 578 645 m 6 Y s
 578 651 m cl s 578 645 m -5 Y s 578 640 m cl s 638 652 m -30 X s 608 652 m cl s 638 652 m 29 X s 667 652 m cl s 638 652 m 6 Y s 638 658 m cl s 638 652 m -5 Y s 638 647 m cl s 697 649 m -30 X s 667 649 m cl s 697 649 m 30 X s 727 649 m cl s 697 649 m
 6 Y s 697 655 m cl s 697 649 m -6 Y s 697 643 m cl s 756 648 m -29 X s 727 648 m cl s 756 648 m 30 X s 786 648 m cl s 756 648 m 6 Y s 756 654 m cl s 756 648 m -6 Y s 756 642 m cl s 816 644 m -30 X s 786 644 m cl s 816 644 m 29 X s 845 644 m cl s 816
 644 m 6 Y s 816 650 m cl s 816 644 m -6 Y s 816 638 m cl s 875 651 m -30 X s 845 651 m cl s 875 651 m 30 X s 905 651 m cl s 875 651 m 6 Y s 875 657 m cl s 875 651 m -6 Y s 875 645 m cl s 934 646 m -29 X s 905 646 m cl s 934 646 m 30 X s 964 646 m cl
 s 934 646 m 5 Y s 934 651 m cl s 934 646 m -6 Y s 934 640 m cl s 994 637 m -30 X s 964 637 m cl s 994 637 m 29 X s 1023 637 m cl s 994 637 m 5 Y s 994 642 m cl s 994 637 m -5 Y s 994 632 m cl s 1053 646 m -30 X s 1023 646 m cl s 1053 646 m 30 X s
 1083 646 m cl s 1053 646 m 5 Y s 1053 651 m cl s 1053 646 m -6 Y s 1053 640 m cl s 1112 650 m -29 X s 1083 650 m cl s 1112 650 m 30 X s 1142 650 m cl s 1112 650 m 6 Y s 1112 656 m cl s 1112 650 m -5 Y s 1112 645 m cl s 1172 651 m -30 X s 1142 651 m
 cl s 1172 651 m 29 X s 1201 651 m cl s 1172 651 m 7 Y s 1172 658 m cl s 1172 651 m -5 Y s 1172 646 m cl s 1231 660 m -30 X s 1201 660 m cl s 1231 660 m 30 X s 1261 660 m cl s 1231 660 m 6 Y s 1231 666 m cl s 1231 660 m -6 Y s 1231 654 m cl s 1290
 678 m -29 X s 1261 678 m cl s 1290 678 m 30 X s 1320 678 m cl s 1290 678 m 7 Y s 1290 685 m cl s 1290 678 m -7 Y s 1290 671 m cl s 1350 688 m -30 X s 1320 688 m cl s 1350 688 m 29 X s 1379 688 m cl s 1350 688 m 7 Y s 1350 695 m cl s 1350 688 m -7 Y
 s 1350 681 m cl s 1409 735 m -30 X s 1379 735 m cl s 1409 735 m 30 X s 1439 735 m cl s 1409 735 m 8 Y s 1409 743 m cl s 1409 735 m -9 Y s 1409 726 m cl s 1468 872 m -29 X s 1439 872 m cl s 1468 872 m 30 X s 1498 872 m cl s 1468 872 m 12 Y s 1468 884
 m cl s 1468 872 m -11 Y s 1468 861 m cl s 1528 1165 m -30 X s 1498 1165 m cl s 1528 1165 m 29 X s 1557 1165 m cl s 1528 1165 m 17 Y s 1528 1182 m cl s 1528 1165 m -16 Y s 1528 1149 m cl s 1587 1513 m -30 X s 1557 1513 m cl s 1587 1513 m 30 X s 1617
 1513 m cl s 1587 1513 m 21 Y s 1587 1534 m cl s 1587 1513 m -20 Y s 1587 1493 m cl s 1646 1122 m -29 X s 1617 1122 m cl s 1646 1122 m 30 X s 1676 1122 m cl s 1646 1122 m 16 Y s 1646 1138 m cl s 1646 1122 m -16 Y s 1646 1106 m cl s 1706 817 m -30 X s
 1676 817 m cl s 1706 817 m 29 X s 1735 817 m cl s 1706 817 m 10 Y s 1706 827 m cl s 1706 817 m -10 Y s 1706 807 m cl s 1765 702 m -30 X s 1735 702 m cl s 1765 702 m 30 X s 1795 702 m cl s 1765 702 m 8 Y s 1765 710 m cl s 1765 702 m -7 Y s 1765 695 m
 cl s 1824 635 m -29 X s 1795 635 m cl s 1824 635 m 30 X s 1854 635 m cl s 1824 635 m 5 Y s 1824 640 m cl s 1824 635 m -5 Y s 1824 630 m cl s 1884 637 m -30 X s 1854 637 m cl s 1884 637 m 29 X s 1913 637 m cl s 1884 637 m 6 Y s 1884 643 m cl s 1884
 637 m -5 Y s 1884 632 m cl s 1943 622 m -30 X s 1913 622 m cl s 1943 622 m 30 X s 1973 622 m cl s 1943 622 m 5 Y s 1943 627 m cl s 1943 622 m -4 Y s 1943 618 m cl s 2002 614 m -29 X s 1973 614 m cl s 2002 614 m 30 X s 2032 614 m cl s 2002 614 m 5 Y
 s 2002 619 m cl s 2002 614 m -4 Y s 2002 610 m cl s 400 645 460 645 519 641 578 645 638 652 697 649 756 648 816 644 875 651 934 646 994 637 1053 646 1112 650 1172 651 1231 660 1290 678 1350 688 1409 735 1468 872 1528 1165 1587 1513 1646 1122 1706
 817 1765 702 1824 635 1884 637 1943 622 2002 614 28 { m20} R 0.8 0 0 c 9 lw black 0.8 0 0 c 371 635 m cl s 371 635 m 59 4 d 59 4 d 60 3 d 59 3 d 59 1 d 60 1 d 118 X 60 -1 d 59 -1 d 119 X 59 1 d 59 3 d 60 6 d 29 6 d 30 8 d 30 12 d 14 8 d 15 10 d 15
 13 d 15 15 d 15 19 d 15 24 d 7 14 d 7 15 d 8 18 d 7 19 d 8 22 d 7 25 d 7 27 d 8 30 d 7 34 d 8 37 d 7 40 d 8 44 d 7 47 d 7 50 d 8 51 d 7 52 d 8 47 d 7 44 d 4 21 d 3 14 d 4 12 d 4 10 d 4 6 d 1 2 d 2 X 4 -4 d 4 -8 d 3 -12 d 4 -16 d 4 -19 d 4 -22 d 3
 -27 d 4 -30 d 7 -59 d 15 -128 d 8 -59 d 3 -29 d 4 -26 d 7 -48 d 8 -43 d 7 -37 d 8 -33 d 7 -28 d 8 -25 d 7 -21 d 7 -19 d 8 -16 d 7 -14 d 15 -23 d 15 -17 d 15 -14 d 15 -10 d 14 -8 d 15 -6 d 30 -10 d 30 -8 d 29 -5 d 60 -9 d 59 -7 d s 0.2 0.4 0.2 c[  12
 12 ] 0 sd black 0.2 0.4 0.2 c 371 577 m cl s 371 577 m 178 X 59 1 d 237 X 60 1 d 59 X 59 1 d 60 1 d 59 2 d 59 3 d 30 2 d 30 3 d 29 5 d 30 6 d 15 4 d 15 5 d 14 6 d 15 7 d 15 9 d 15 11 d 15 12 d 7 8 d 8 8 d 7 9 d 7 10 d 8 10 d 7 12 d 8 12 d 7 14 d 7
 14 d 8 15 d 15 33 d 15 34 d 14 32 d 8 13 d 7 12 d 4 5 d 4 4 d 7 7 d 4 2 d 3 2 d 8 X 4 -1 d 3 -2 d 4 -3 d 4 -3 d 3 -4 d 4 -5 d 4 -5 d 4 -7 d 3 -6 d 4 -8 d 7 -15 d 8 -18 d 7 -18 d 15 -37 d 15 -37 d 7 -17 d 8 -16 d 7 -14 d 8 -14 d 7 -12 d 7 -11 d 8 -9
 d 7 -9 d 8 -7 d 7 -7 d 15 -10 d 15 -8 d 15 -5 d 14 -5 d 15 -3 d 30 -5 d 30 -3 d 29 -2 d 60 -3 d 59 -2 d s 1 0.8 0.2 c black 1 0.8 0.2 c 371 620 m cl s 371 620 m 59 2 d 59 3 d 60 2 d 59 1 d 59 2 d 60 1 d 59 1 d 59 1 d 60 1 d 59 X 59 1 d 60 X 59 -1 d
 59 X 60 -1 d 59 X 59 -1 d 60 -2 d 59 -1 d 59 -2 d 60 -2 d 59 -2 d 59 -2 d 60 -3 d 59 -3 d 59 -2 d 60 -4 d 59 -3 d s 0 0 1 c black 0 0 1 c 371 591 m cl s 371 591 m 59 2 d 59 1 d 60 1 d 59 1 d 59 X 60 -1 d 59 -1 d 59 -2 d 60 -2 d 59 -1 d 59 -2 d 60 -1
 d 118 X 60 2 d 59 4 d 30 3 d 29 6 d 15 3 d 15 5 d 15 7 d 15 8 d 14 12 d 8 7 d 7 8 d 8 10 d 7 11 d 7 13 d 8 15 d 7 18 d 4 10 d 4 10 d 7 24 d 4 13 d 4 14 d 3 15 d 4 16 d 7 35 d 8 37 d 7 40 d 8 39 d 7 38 d 4 18 d 3 13 d 4 12 d 4 10 d 4 8 d 1 2 d 2 1 d
 4 -1 d 4 -5 d 3 -7 d 4 -11 d 4 -14 d 4 -16 d 3 -20 d 4 -22 d 7 -44 d 4 -22 d 4 -24 d 2 -13 d 1 -11 d 4 -21 d 8 -40 d 3 -19 d 4 -17 d 4 -16 d 3 -14 d 4 -12 d 4 -12 d 4 -11 d 3 -10 d 4 -8 d 4 -8 d 7 -13 d 8 -11 d 7 -9 d 7 -8 d 15 -11 d 15 -9 d 15 -6 d
 15 -5 d 15 -4 d 29 -5 d 30 -4 d 59 -4 d 60 -3 d 59 -2 d s black[  ] 0 sd 3 lw 371 577 m 1661 X s 371 613 m -36 Y s 430 595 m -18 Y s 489 595 m -18 Y s 549 595 m -18 Y s 608 595 m -18 Y s 667 613 m -36 Y s 727 595 m -18 Y s 786 595 m -18 Y s 845 595
 m -18 Y s 905 595 m -18 Y s 964 613 m -36 Y s 1023 595 m -18 Y s 1083 595 m -18 Y s 1142 595 m -18 Y s 1201 595 m -18 Y s 1261 613 m -36 Y s 1320 595 m -18 Y s 1379 595 m -18 Y s 1439 595 m -18 Y s 1498 595 m -18 Y s 1557 613 m -36 Y s 1617 595 m
 -18 Y s 1676 595 m -18 Y s 1735 595 m -18 Y s 1795 595 m -18 Y s 1854 613 m -36 Y s 1854 613 m -36 Y s 1913 595 m -18 Y s 1973 595 m -18 Y s 371 2084 m 1661 X s 371 2048 m 36 Y s 430 2066 m 18 Y s 489 2066 m 18 Y s 549 2066 m 18 Y s 608 2066 m 18 Y
 s 667 2048 m 36 Y s 727 2066 m 18 Y s 786 2066 m 18 Y s 845 2066 m 18 Y s 905 2066 m 18 Y s 964 2048 m 36 Y s 1023 2066 m 18 Y s 1083 2066 m 18 Y s 1142 2066 m 18 Y s 1201 2066 m 18 Y s 1261 2048 m 36 Y s 1320 2066 m 18 Y s 1379 2066 m 18 Y s 1439
 2066 m 18 Y s 1498 2066 m 18 Y s 1557 2048 m 36 Y s 1617 2066 m 18 Y s 1676 2066 m 18 Y s 1735 2066 m 18 Y s 1795 2066 m 18 Y s 1854 2048 m 36 Y s 1854 2048 m 36 Y s 1913 2066 m 18 Y s 1973 2066 m 18 Y s 371 577 m 1507 Y s 433 577 m -62 X s 402 622
 m -31 X s 402 667 m -31 X s 402 713 m -31 X s 402 758 m -31 X s 433 804 m -62 X s 402 849 m -31 X s 402 894 m -31 X s 402 940 m -31 X s 402 985 m -31 X s 433 1031 m -62 X s 402 1076 m -31 X s 402 1122 m -31 X s 402 1167 m -31 X s 402 1212 m -31 X s
 433 1258 m -62 X s 402 1303 m -31 X s 402 1349 m -31 X s 402 1394 m -31 X s 402 1440 m -31 X s 433 1485 m -62 X s 402 1530 m -31 X s 402 1576 m -31 X s 402 1621 m -31 X s 402 1667 m -31 X s 433 1712 m -62 X s 402 1757 m -31 X s 402 1803 m -31 X s
 402 1848 m -31 X s 402 1894 m -31 X s 433 1939 m -62 X s 433 1939 m -62 X s 402 1985 m -31 X s 402 2030 m -31 X s 402 2075 m -31 X s 2032 577 m 1507 Y s 1969 577 m 63 X s 2001 622 m 31 X s 2001 667 m 31 X s 2001 713 m 31 X s 2001 758 m 31 X s 1969
 804 m 63 X s 2001 849 m 31 X s 2001 894 m 31 X s 2001 940 m 31 X s 2001 985 m 31 X s 1969 1031 m 63 X s 2001 1076 m 31 X s 2001 1122 m 31 X s 2001 1167 m 31 X s 2001 1212 m 31 X s 1969 1258 m 63 X s 2001 1303 m 31 X s 2001 1349 m 31 X s 2001 1394 m
 31 X s 2001 1440 m 31 X s 1969 1485 m 63 X s 2001 1530 m 31 X s 2001 1576 m 31 X s 2001 1621 m 31 X s 2001 1667 m 31 X s 1969 1712 m 63 X s 2001 1757 m 31 X s 2001 1803 m 31 X s 2001 1848 m 31 X s 2001 1894 m 31 X s 1969 1939 m 63 X s 1969 1939 m 63
 X s 2001 1985 m 31 X s 2001 2030 m 31 X s 2001 2075 m 31 X s 1 1 1 c black
 gsave  2245 1622 11 544 C 662.051 1989.96 t 0 r /Helvetica findfont 60.8983 sf 0 0 m ( Internal) show NC gr 
 gsave  2245 1622 11 544 C 452.782 1989.96 t 0 r /Helvetica-BoldOblique findfont 60.8983 sf 0 0 m (ATLAS) show NC gr 
 gsave  2245 1622 11 544 C 452.782 1902.45 t 0 r /Helvetica findfont 60.8983 sf 0 0 m (data 2015\25518 + mc16a,d,e) show NC gr 
 gsave  2245 1622 11 544 C 1034.93 1818.74 t 0 r /Helvetica findfont 41.8676 sf 0 0 m (\2551) show NC gr 
 gsave  2245 1622 11 544 C 513.661 1792.1 t 0 r /Helvetica findfont 60.8983 sf 0 0 m (=13 TeV, 138.97 fb) show NC gr 
 gsave  2245 1622 11 544 C 483.221 1792.1 t 0 r /Helvetica findfont 60.8983 sf 0 0 m (s) show NC gr  6 lw 464 1826 m 8 -38 d s 3 lw 472 1788 m 4 57 d s 476 1845 m 38 X s
 gsave  2245 1622 11 544 C 452.782 1716.01 t 0 r /Helvetica findfont 60.8983 sf 0 0 m (Relaxed Region) show NC gr  1 1 1 c 718 438 1269 1598 bl 1269 1598 m 718 X s 1987 1598 m 438 Y s 1987 2036 m -718 X s 1269 2036 m -438 Y s black
 gsave  2245 1622 11 544 C 1445.86 1974.74 t 0 r /Helvetica findfont 72.3167 sf 0 0 m (Data) show NC gr  1296 1992 m 125 X s 1358 1966 m 52 Y s 1358 1992 m20
 gsave  2245 1622 11 544 C 1445.86 1887.23 t 0 r /Helvetica findfont 72.3167 sf 0 0 m (Total BG) show NC gr  0.8 0 0 c 9 lw 1296 1904 m 125 X s black
 gsave  2245 1622 11 544 C 1445.86 1799.71 t 0 r /Helvetica findfont 72.3167 sf 0 0 m (Z+HFjets) show NC gr  0.2 0.4 0.2 c[  12 12 ] 0 sd 1296 1817 m 125 X s black
 gsave  2245 1622 11 544 C 1468.69 1712.2 t 0 r /Helvetica findfont 72.3167 sf 0 0 m (t) show NC gr [  ] 0 sd 6 lw 1469 1769 m 23 X s
 gsave  2245 1622 11 544 C 1445.86 1712.2 t 0 r /Helvetica findfont 72.3167 sf 0 0 m (t) show NC gr  1 0.8 0.2 c[  12 12 ] 0 sd 9 lw 1296 1729 m 125 X s black
 gsave  2245 1622 11 544 C 1445.86 1624.69 t 0 r /Helvetica findfont 72.3167 sf 0 0 m (Diboson) show NC gr  0 0 1 c 1296 1642 m 125 X s
 gr  gr showpage
end
%%EOF
