%!PS-Adobe-2.0 EPSF-2.0
%%BoundingBox:  0 0 567 544
%%Title: Results/M3aData_emu.eps: Region: emu
%%Creator: ROOT Version 6.08/06
%%CreationDate: Mon Oct 14 10:11:06 2019
%%DocumentNeededResources: ProcSet (FontSetInit)
%%EndComments
%%BeginProlog
80 dict begin
/s {stroke} def /l {lineto} def /m {moveto} def /t {translate} def
/r {rotate} def /rl {roll}  def /R {repeat} def
/d {rlineto} def /rm {rmoveto} def /gr {grestore} def /f {eofill} def
/c {setrgbcolor} def /black {0 setgray} def /sd {setdash} def
/cl {closepath} def /sf {scalefont setfont} def /lw {setlinewidth} def
/box {m dup 0 exch d exch 0 d 0 exch neg d cl} def
/NC{systemdict begin initclip end}def/C{NC box clip newpath}def
/bl {box s} def /bf {gsave box gsave f grestore 1 lw [] 0 sd s grestore} def /Y { 0 exch d} def /X { 0 d} def 
/K {{pop pop 0 moveto} exch kshow} bind def
/ita {/ang 15 def gsave [1 0 ang dup sin exch cos div 1 0 0] concat} def 
/mp {newpath /y exch def /x exch def} def
/side {[w .77 mul w .23 mul] .385 w mul sd w 0 l currentpoint t -144 r} def
/mr {mp x y w2 0 360 arc} def /m24 {mr s} def /m20 {mr f} def
/mb {mp x y w2 add m w2 neg 0 d 0 w neg d w 0 d 0 w d cl} def
/mt {mp x y w2 add m w2 neg w neg d w 0 d cl} def
/m21 {mb f} def /m25 {mb s} def /m22 {mt f} def /m26{mt s} def
/m23 {mp x y w2 sub m w2 w d w neg 0 d cl f} def
/m27 {mp x y w2 add m w3 neg w2 neg d w3 w2 neg d w3 w2 d cl s} def
/m28 {mp x w2 sub y w2 sub w3 add m w3 0 d  0 w3 neg d w3 0 d 0 w3 d w3 0 d  0 w3 d w3 neg 0 d 0 w3 d w3 neg 0 d 0 w3 neg d w3 neg 0 d cl s } def
/m29 {mp gsave x w2 sub y w2 add w3 sub m currentpoint t 4 {side} repeat cl fill gr} def
/m30 {mp gsave x w2 sub y w2 add w3 sub m currentpoint t 4 {side} repeat cl s gr} def
/m31 {mp x y w2 sub m 0 w d x w2 sub y m w 0 d x w2 sub y w2 add m w w neg d x w2 sub y w2 sub m w w d s} def
/m32 {mp x y w2 sub m w2 w d w neg 0 d cl s} def
/m33 {mp x y w2 add m w3 neg w2 neg d w3 w2 neg d w3 w2 d cl f} def
/m34 {mp x w2 sub y w2 sub w3 add m w3 0 d  0 w3 neg d w3 0 d 0 w3 d w3 0 d  0 w3 d w3 neg 0 d 0 w3 d w3 neg 0 d 0 w3 neg d w3 neg 0 d cl f } def
/m2 {mp x y w2 sub m 0 w d x w2 sub y m w 0 d s} def
/m5 {mp x w2 sub y w2 sub m w w d x w2 sub y w2 add m w w neg d s} def
%%IncludeResource: ProcSet (FontSetInit)
%%IncludeResource: font Times-Roman
%%IncludeResource: font Times-Italic
%%IncludeResource: font Times-Bold
%%IncludeResource: font Times-BoldItalic
%%IncludeResource: font Helvetica
%%IncludeResource: font Helvetica-Oblique
%%IncludeResource: font Helvetica-Bold
%%IncludeResource: font Helvetica-BoldOblique
%%IncludeResource: font Courier
%%IncludeResource: font Courier-Oblique
%%IncludeResource: font Courier-Bold
%%IncludeResource: font Courier-BoldOblique
%%IncludeResource: font Symbol
%%IncludeResource: font ZapfDingbats
/reEncode {exch findfont dup length dict begin {1 index /FID eq  {pop pop} {def} ifelse } forall /Encoding exch def currentdict end dup /FontName get exch definefont pop } def [/Times-Bold /Times-Italic /Times-BoldItalic /Helvetica /Helvetica-Oblique
 /Helvetica-Bold /Helvetica-BoldOblique /Courier /Courier-Oblique /Courier-Bold /Courier-BoldOblique /Times-Roman /AvantGarde-Book /AvantGarde-BookOblique /AvantGarde-Demi /AvantGarde-DemiOblique /Bookman-Demi /Bookman-DemiItalic /Bookman-Light
 /Bookman-LightItalic /Helvetica-Narrow /Helvetica-Narrow-Bold /Helvetica-Narrow-BoldOblique /Helvetica-Narrow-Oblique /NewCenturySchlbk-Roman /NewCenturySchlbk-Bold /NewCenturySchlbk-BoldItalic /NewCenturySchlbk-Italic /Palatino-Bold
 /Palatino-BoldItalic /Palatino-Italic /Palatino-Roman ] {ISOLatin1Encoding reEncode } forall
%%EndProlog
%%BeginSetup
%%EndSetup
newpath  gsave  .25 .25 scale  gsave  0 0 t black[  ] 0 sd 3 lw 1 1 1 c 2268 2176 0 0 bf black 1 1 1 c 2245 533 11 11 bf black 1 1 1 c 1661 288 371 224 bf black 1661 288 371 224 bl 371 224 m 1661 X s 371 512 m 1661 X s 371 224 m 288 Y s[ 4 8] 0 sd
 2032 224 m -1661 X s 2032 296 m -1661 X s 2032 368 m -1661 X s 2032 440 m -1661 X s 2032 512 m -1661 X s[  ] 0 sd 2032 224 m 288 Y s 371 224 m 1661 X s
 gsave  2245 533 11 11 C 1849.18 98.9272 t 0 r /Helvetica findfont 64.7479 sf 0 0 m ( [GeV]) show NC gr 
 gsave  2245 533 11 11 C 1803.52 76.0979 t 0 r /Helvetica findfont 41.8957 sf 0 0 m (12) show NC gr 
 gsave  2245 533 11 11 C 1750.25 98.9272 t 0 r /Helvetica findfont 64.7479 sf 0 0 m (m) show NC gr  371 236 m -12 Y s 430 230 m -6 Y s 489 230 m -6 Y s 549 230 m -6 Y s 608 230 m -6 Y s 667 236 m -12 Y s 727 230 m -6 Y s 786 230 m -6 Y s 845 230 m -6
 Y s 905 230 m -6 Y s 964 236 m -12 Y s 1023 230 m -6 Y s 1083 230 m -6 Y s 1142 230 m -6 Y s 1201 230 m -6 Y s 1261 236 m -12 Y s 1320 230 m -6 Y s 1379 230 m -6 Y s 1439 230 m -6 Y s 1498 230 m -6 Y s 1557 236 m -12 Y s 1617 230 m -6 Y s 1676 230 m
 -6 Y s 1735 230 m -6 Y s 1795 230 m -6 Y s 1854 236 m -12 Y s 1854 236 m -12 Y s 1913 230 m -6 Y s 1973 230 m -6 Y s
 gsave  2245 533 11 11 C 334.831 171.22 t 0 r /Helvetica findfont 57.1305 sf 0 0 m (50) show NC gr 
 gsave  2245 533 11 11 C 631.612 171.22 t 0 r /Helvetica findfont 57.1305 sf 0 0 m (60) show NC gr 
 gsave  2245 533 11 11 C 928.394 171.22 t 0 r /Helvetica findfont 57.1305 sf 0 0 m (70) show NC gr 
 gsave  2245 533 11 11 C 1225.18 171.22 t 0 r /Helvetica findfont 57.1305 sf 0 0 m (80) show NC gr 
 gsave  2245 533 11 11 C 1521.96 171.22 t 0 r /Helvetica findfont 57.1305 sf 0 0 m (90) show NC gr 
 gsave  2245 533 11 11 C 1803.52 171.22 t 0 r /Helvetica findfont 57.1305 sf 0 0 m (100) show NC gr  371 512 m 1661 X s 371 500 m 12 Y s 430 506 m 6 Y s 489 506 m 6 Y s 549 506 m 6 Y s 608 506 m 6 Y s 667 500 m 12 Y s 727 506 m 6 Y s 786 506 m 6 Y s
 845 506 m 6 Y s 905 506 m 6 Y s 964 500 m 12 Y s 1023 506 m 6 Y s 1083 506 m 6 Y s 1142 506 m 6 Y s 1201 506 m 6 Y s 1261 500 m 12 Y s 1320 506 m 6 Y s 1379 506 m 6 Y s 1439 506 m 6 Y s 1498 506 m 6 Y s 1557 500 m 12 Y s 1617 506 m 6 Y s 1676 506 m
 6 Y s 1735 506 m 6 Y s 1795 506 m 6 Y s 1854 500 m 12 Y s 1854 500 m 12 Y s 1913 506 m 6 Y s 1973 506 m 6 Y s 371 224 m 288 Y s
 gsave  2245 533 11 11 C 156.001 407.124 t 90 r /Helvetica findfont 64.7479 sf 0 0 m (Pull) show NC gr  407 224 m -36 X s 389 242 m -18 X s 389 260 m -18 X s 389 278 m -18 X s 407 296 m -36 X s 389 314 m -18 X s 389 332 m -18 X s 389 350 m -18 X s
 407 368 m -36 X s 389 386 m -18 X s 389 404 m -18 X s 389 422 m -18 X s 407 440 m -36 X s 389 458 m -18 X s 389 476 m -18 X s 389 494 m -18 X s 407 512 m -36 X s
 gsave  2245 533 11 11 C 327.221 201.659 t 0 r /Helvetica findfont 57.1305 sf 0 0 m (4) show NC gr 
 gsave  2245 533 11 11 C 292.977 201.659 t 0 r /Symbol findfont 57.1305 sf 0 0 m (-) show NC gr 
 gsave  2245 533 11 11 C 327.221 273.952 t 0 r /Helvetica findfont 57.1305 sf 0 0 m (2) show NC gr 
 gsave  2245 533 11 11 C 292.977 273.952 t 0 r /Symbol findfont 57.1305 sf 0 0 m (-) show NC gr 
 gsave  2245 533 11 11 C 327.221 346.245 t 0 r /Helvetica findfont 57.1305 sf 0 0 m (0) show NC gr 
 gsave  2245 533 11 11 C 327.221 418.538 t 0 r /Helvetica findfont 57.1305 sf 0 0 m (2) show NC gr 
 gsave  2245 533 11 11 C 327.221 490.831 t 0 r /Helvetica findfont 57.1305 sf 0 0 m (4) show NC gr  2032 224 m 288 Y s 1996 224 m 36 X s 2014 242 m 18 X s 2014 260 m 18 X s 2014 278 m 18 X s 1996 296 m 36 X s 2014 314 m 18 X s 2014 332 m 18 X s 2014
 350 m 18 X s 1996 368 m 36 X s 2014 386 m 18 X s 2014 404 m 18 X s 2014 422 m 18 X s 1996 440 m 36 X s 2014 458 m 18 X s 2014 476 m 18 X s 2014 494 m 18 X s 1996 512 m 36 X s 400 390 m 39 Y s 400 429 m cl s 400 390 m -36 Y s 400 354 m cl s 460 344 m
 36 Y s 460 380 m cl s 460 344 m -33 Y s 460 311 m cl s 519 291 m 36 Y s 519 327 m cl s 519 291 m -33 Y s 519 258 m cl s 578 362 m 36 Y s 578 398 m cl s 578 362 m -34 Y s 578 328 m cl s 638 360 m 36 Y s 638 396 m cl s 638 360 m -34 Y s 638 326 m cl s
 697 415 m 38 Y s 697 453 m cl s 697 415 m -36 Y s 697 379 m cl s 756 414 m 38 Y s 756 452 m cl s 756 414 m -36 Y s 756 378 m cl s 816 415 m 38 Y s 816 453 m cl s 816 415 m -36 Y s 816 379 m cl s 875 356 m 36 Y s 875 392 m cl s 875 356 m -34 Y s 875
 322 m cl s 934 380 m 38 Y s 934 418 m cl s 934 380 m -36 Y s 934 344 m cl s 994 339 m 36 Y s 994 375 m cl s 994 339 m -34 Y s 994 305 m cl s 1053 386 m 38 Y s 1053 424 m cl s 1053 386 m -36 Y s 1053 350 m cl s 1112 378 m 38 Y s 1112 416 m cl s 1112
 378 m -36 Y s 1112 342 m cl s 1172 366 m 36 Y s 1172 402 m cl s 1172 366 m -33 Y s 1172 333 m cl s 1231 348 m 36 Y s 1231 384 m cl s 1231 348 m -34 Y s 1231 314 m cl s 1290 366 m 36 Y s 1290 402 m cl s 1290 366 m -33 Y s 1290 333 m cl s 1350 358 m
 36 Y s 1350 394 m cl s 1350 358 m -33 Y s 1350 325 m cl s 1409 411 m 38 Y s 1409 449 m cl s 1409 411 m -36 Y s 1409 375 m cl s 1468 360 m 36 Y s 1468 396 m cl s 1468 360 m -33 Y s 1468 327 m cl s 1528 365 m 36 Y s 1528 401 m cl s 1528 365 m -33 Y s
 1528 332 m cl s 1587 360 m 36 Y s 1587 396 m cl s 1587 360 m -33 Y s 1587 327 m cl s 1646 443 m 38 Y s 1646 481 m cl s 1646 443 m -36 Y s 1646 407 m cl s 1706 374 m 39 Y s 1706 413 m cl s 1706 374 m -36 Y s 1706 338 m cl s 1765 359 m 36 Y s 1765 395
 m cl s 1765 359 m -34 Y s 1765 325 m cl s 1824 330 m 36 Y s 1824 366 m cl s 1824 330 m -33 Y s 1824 297 m cl s 1884 344 m 36 Y s 1884 380 m cl s 1884 344 m -33 Y s 1884 311 m cl s 1943 372 m 40 Y s 1943 412 m cl s 1943 372 m -36 Y s 1943 336 m cl s
 2002 374 m 40 Y s 2002 414 m cl s 2002 374 m -36 Y s 2002 338 m cl s /w 37 def /w2 {w 2 div} def /w3 {w 3 div} def 400 390 460 344 519 291 578 362 638 360 697 415 756 414 816 415 875 356 934 380 994 339 1053 386 1112 378 1172 366 1231 348 1290 366
 1350 358 1409 411 1468 360 1528 365 1587 360 1646 443 1706 374 1765 359 1824 330 1884 344 1943 372 2002 374 28 { m20} R 371 224 m 1661 X s 371 236 m -12 Y s 430 230 m -6 Y s 489 230 m -6 Y s 549 230 m -6 Y s 608 230 m -6 Y s 667 236 m -12 Y s 727
 230 m -6 Y s 786 230 m -6 Y s 845 230 m -6 Y s 905 230 m -6 Y s 964 236 m -12 Y s 1023 230 m -6 Y s 1083 230 m -6 Y s 1142 230 m -6 Y s 1201 230 m -6 Y s 1261 236 m -12 Y s 1320 230 m -6 Y s 1379 230 m -6 Y s 1439 230 m -6 Y s 1498 230 m -6 Y s 1557
 236 m -12 Y s 1617 230 m -6 Y s 1676 230 m -6 Y s 1735 230 m -6 Y s 1795 230 m -6 Y s 1854 236 m -12 Y s 1854 236 m -12 Y s 1913 230 m -6 Y s 1973 230 m -6 Y s 371 512 m 1661 X s 371 500 m 12 Y s 430 506 m 6 Y s 489 506 m 6 Y s 549 506 m 6 Y s 608
 506 m 6 Y s 667 500 m 12 Y s 727 506 m 6 Y s 786 506 m 6 Y s 845 506 m 6 Y s 905 506 m 6 Y s 964 500 m 12 Y s 1023 506 m 6 Y s 1083 506 m 6 Y s 1142 506 m 6 Y s 1201 506 m 6 Y s 1261 500 m 12 Y s 1320 506 m 6 Y s 1379 506 m 6 Y s 1439 506 m 6 Y s
 1498 506 m 6 Y s 1557 500 m 12 Y s 1617 506 m 6 Y s 1676 506 m 6 Y s 1735 506 m 6 Y s 1795 506 m 6 Y s 1854 500 m 12 Y s 1854 500 m 12 Y s 1913 506 m 6 Y s 1973 506 m 6 Y s 371 224 m 288 Y s 407 224 m -36 X s 389 242 m -18 X s 389 260 m -18 X s 389
 278 m -18 X s 407 296 m -36 X s 389 314 m -18 X s 389 332 m -18 X s 389 350 m -18 X s 407 368 m -36 X s 389 386 m -18 X s 389 404 m -18 X s 389 422 m -18 X s 407 440 m -36 X s 389 458 m -18 X s 389 476 m -18 X s 389 494 m -18 X s 407 512 m -36 X s
 2032 224 m 288 Y s 1996 224 m 36 X s 2014 242 m 18 X s 2014 260 m 18 X s 2014 278 m 18 X s 1996 296 m 36 X s 2014 314 m 18 X s 2014 332 m 18 X s 2014 350 m 18 X s 1996 368 m 36 X s 2014 386 m 18 X s 2014 404 m 18 X s 2014 422 m 18 X s 1996 440 m 36
 X s 2014 458 m 18 X s 2014 476 m 18 X s 2014 494 m 18 X s 1996 512 m 36 X s[  12 12 ] 0 sd 6 lw 371 368 m 1661 X s[  ] 0 sd 3 lw 1 1 1 c 2245 1622 11 544 bf black 1 1 1 c 1661 1507 371 577 bf black 1661 1507 371 577 bl 371 577 m 1661 X s 371 613 m
 -36 Y s 430 595 m -18 Y s 489 595 m -18 Y s 549 595 m -18 Y s 608 595 m -18 Y s 667 613 m -36 Y s 727 595 m -18 Y s 786 595 m -18 Y s 845 595 m -18 Y s 905 595 m -18 Y s 964 613 m -36 Y s 1023 595 m -18 Y s 1083 595 m -18 Y s 1142 595 m -18 Y s 1201
 595 m -18 Y s 1261 613 m -36 Y s 1320 595 m -18 Y s 1379 595 m -18 Y s 1439 595 m -18 Y s 1498 595 m -18 Y s 1557 613 m -36 Y s 1617 595 m -18 Y s 1676 595 m -18 Y s 1735 595 m -18 Y s 1795 595 m -18 Y s 1854 613 m -36 Y s 1854 613 m -36 Y s 1913
 595 m -18 Y s 1973 595 m -18 Y s 371 2084 m 1661 X s 371 2048 m 36 Y s 430 2066 m 18 Y s 489 2066 m 18 Y s 549 2066 m 18 Y s 608 2066 m 18 Y s 667 2048 m 36 Y s 727 2066 m 18 Y s 786 2066 m 18 Y s 845 2066 m 18 Y s 905 2066 m 18 Y s 964 2048 m 36 Y
 s 1023 2066 m 18 Y s 1083 2066 m 18 Y s 1142 2066 m 18 Y s 1201 2066 m 18 Y s 1261 2048 m 36 Y s 1320 2066 m 18 Y s 1379 2066 m 18 Y s 1439 2066 m 18 Y s 1498 2066 m 18 Y s 1557 2048 m 36 Y s 1617 2066 m 18 Y s 1676 2066 m 18 Y s 1735 2066 m 18 Y s
 1795 2066 m 18 Y s 1854 2048 m 36 Y s 1854 2048 m 36 Y s 1913 2066 m 18 Y s 1973 2066 m 18 Y s 371 577 m 1507 Y s
 gsave  2245 1622 11 544 C 152.196 1666.54 t 90 r /Helvetica findfont 64.7045 sf 0 0 m (Events / 2GeV) show NC gr  433 577 m -62 X s 402 613 m -31 X s 402 650 m -31 X s 402 687 m -31 X s 402 724 m -31 X s 433 761 m -62 X s 402 798 m -31 X s 402 835 m
 -31 X s 402 872 m -31 X s 402 909 m -31 X s 433 946 m -62 X s 402 983 m -31 X s 402 1020 m -31 X s 402 1057 m -31 X s 402 1094 m -31 X s 433 1131 m -62 X s 402 1168 m -31 X s 402 1205 m -31 X s 402 1242 m -31 X s 402 1279 m -31 X s 433 1316 m -62 X
 s 402 1353 m -31 X s 402 1389 m -31 X s 402 1426 m -31 X s 402 1463 m -31 X s 433 1500 m -62 X s 402 1537 m -31 X s 402 1574 m -31 X s 402 1611 m -31 X s 402 1648 m -31 X s 433 1685 m -62 X s 402 1722 m -31 X s 402 1759 m -31 X s 402 1796 m -31 X s
 402 1833 m -31 X s 433 1870 m -62 X s 402 1907 m -31 X s 402 1944 m -31 X s 402 1981 m -31 X s 402 2018 m -31 X s 433 2055 m -62 X s 433 2055 m -62 X s
 gsave  2245 1622 11 544 C 327.221 555.514 t 0 r /Helvetica findfont 57.0922 sf 0 0 m (0) show NC gr 
 gsave  2245 1622 11 544 C 292.977 741.954 t 0 r /Helvetica findfont 57.0922 sf 0 0 m (50) show NC gr 
 gsave  2245 1622 11 544 C 262.538 924.589 t 0 r /Helvetica findfont 57.0922 sf 0 0 m (100) show NC gr 
 gsave  2245 1622 11 544 C 262.538 1111.03 t 0 r /Helvetica findfont 57.0922 sf 0 0 m (150) show NC gr 
 gsave  2245 1622 11 544 C 262.538 1293.66 t 0 r /Helvetica findfont 57.0922 sf 0 0 m (200) show NC gr 
 gsave  2245 1622 11 544 C 262.538 1480.1 t 0 r /Helvetica findfont 57.0922 sf 0 0 m (250) show NC gr 
 gsave  2245 1622 11 544 C 262.538 1662.74 t 0 r /Helvetica findfont 57.0922 sf 0 0 m (300) show NC gr 
 gsave  2245 1622 11 544 C 262.538 1849.18 t 0 r /Helvetica findfont 57.0922 sf 0 0 m (350) show NC gr 
 gsave  2245 1622 11 544 C 262.538 2031.81 t 0 r /Helvetica findfont 57.0922 sf 0 0 m (400) show NC gr  2032 577 m 1507 Y s 1969 577 m 63 X s 2001 613 m 31 X s 2001 650 m 31 X s 2001 687 m 31 X s 2001 724 m 31 X s 1969 761 m 63 X s 2001 798 m 31 X s
 2001 835 m 31 X s 2001 872 m 31 X s 2001 909 m 31 X s 1969 946 m 63 X s 2001 983 m 31 X s 2001 1020 m 31 X s 2001 1057 m 31 X s 2001 1094 m 31 X s 1969 1131 m 63 X s 2001 1168 m 31 X s 2001 1205 m 31 X s 2001 1242 m 31 X s 2001 1279 m 31 X s 1969
 1316 m 63 X s 2001 1353 m 31 X s 2001 1389 m 31 X s 2001 1426 m 31 X s 2001 1463 m 31 X s 1969 1500 m 63 X s 2001 1537 m 31 X s 2001 1574 m 31 X s 2001 1611 m 31 X s 2001 1648 m 31 X s 1969 1685 m 63 X s 2001 1722 m 31 X s 2001 1759 m 31 X s 2001
 1796 m 31 X s 2001 1833 m 31 X s 1969 1870 m 63 X s 2001 1907 m 31 X s 2001 1944 m 31 X s 2001 1981 m 31 X s 2001 2018 m 31 X s 1969 2055 m 63 X s 1969 2055 m 63 X s 400 1279 m -29 X s 371 1279 m cl s 400 1279 m 30 X s 430 1279 m cl s 400 1279 m 52
 Y s 400 1331 m cl s 400 1279 m -50 Y s 400 1229 m cl s 460 1245 m -30 X s 430 1245 m cl s 460 1245 m 29 X s 489 1245 m cl s 460 1245 m 52 Y s 460 1297 m cl s 460 1245 m -48 Y s 460 1197 m cl s 519 1201 m -30 X s 489 1201 m cl s 519 1201 m 30 X s 549
 1201 m cl s 519 1201 m 50 Y s 519 1251 m cl s 519 1201 m -46 Y s 519 1155 m cl s 578 1323 m -29 X s 549 1323 m cl s 578 1323 m 30 X s 608 1323 m cl s 578 1323 m 54 Y s 578 1377 m cl s 578 1323 m -51 Y s 578 1272 m cl s 638 1341 m -30 X s 608 1341 m
 cl s 638 1341 m 29 X s 667 1341 m cl s 638 1341 m 55 Y s 638 1396 m cl s 638 1341 m -51 Y s 638 1290 m cl s 697 1445 m -30 X s 667 1445 m cl s 697 1445 m 30 X s 727 1445 m cl s 697 1445 m 58 Y s 697 1503 m cl s 697 1445 m -55 Y s 697 1390 m cl s 756
 1460 m -29 X s 727 1460 m cl s 756 1460 m 30 X s 786 1460 m cl s 756 1460 m 59 Y s 756 1519 m cl s 756 1460 m -56 Y s 756 1404 m cl s 816 1474 m -30 X s 786 1474 m cl s 816 1474 m 29 X s 845 1474 m cl s 816 1474 m 60 Y s 816 1534 m cl s 816 1474 m
 -55 Y s 816 1419 m cl s 875 1393 m -30 X s 845 1393 m cl s 875 1393 m 30 X s 905 1393 m cl s 875 1393 m 57 Y s 875 1450 m cl s 875 1393 m -53 Y s 875 1340 m cl s 934 1438 m -29 X s 905 1438 m cl s 934 1438 m 30 X s 964 1438 m cl s 934 1438 m 58 Y s
 934 1496 m cl s 934 1438 m -55 Y s 934 1383 m cl s 994 1378 m -30 X s 964 1378 m cl s 994 1378 m 29 X s 1023 1378 m cl s 994 1378 m 57 Y s 994 1435 m cl s 994 1378 m -52 Y s 994 1326 m cl s 1053 1452 m -30 X s 1023 1452 m cl s 1053 1452 m 30 X s
 1083 1452 m cl s 1053 1452 m 59 Y s 1053 1511 m cl s 1053 1452 m -55 Y s 1053 1397 m cl s 1112 1438 m -29 X s 1083 1438 m cl s 1112 1438 m 30 X s 1142 1438 m cl s 1112 1438 m 58 Y s 1112 1496 m cl s 1112 1438 m -55 Y s 1112 1383 m cl s 1172 1415 m
 -30 X s 1142 1415 m cl s 1172 1415 m 29 X s 1201 1415 m cl s 1172 1415 m 58 Y s 1172 1473 m cl s 1172 1415 m -54 Y s 1172 1361 m cl s 1231 1378 m -30 X s 1201 1378 m cl s 1231 1378 m 30 X s 1261 1378 m cl s 1231 1378 m 57 Y s 1231 1435 m cl s 1231
 1378 m -52 Y s 1231 1326 m cl s 1290 1397 m -29 X s 1261 1397 m cl s 1290 1397 m 30 X s 1320 1397 m cl s 1290 1397 m 57 Y s 1290 1454 m cl s 1290 1397 m -53 Y s 1290 1344 m cl s 1350 1371 m -30 X s 1320 1371 m cl s 1350 1371 m 29 X s 1379 1371 m cl
 s 1350 1371 m 56 Y s 1350 1427 m cl s 1350 1371 m -52 Y s 1350 1319 m cl s 1409 1434 m -30 X s 1379 1434 m cl s 1409 1434 m 30 X s 1439 1434 m cl s 1409 1434 m 58 Y s 1409 1492 m cl s 1409 1434 m -55 Y s 1409 1379 m cl s 1468 1338 m -29 X s 1439
 1338 m cl s 1468 1338 m 30 X s 1498 1338 m cl s 1468 1338 m 55 Y s 1468 1393 m cl s 1468 1338 m -51 Y s 1468 1287 m cl s 1528 1323 m -30 X s 1498 1323 m cl s 1528 1323 m 29 X s 1557 1323 m cl s 1528 1323 m 54 Y s 1528 1377 m cl s 1528 1323 m -51 Y s
 1528 1272 m cl s 1587 1290 m -30 X s 1557 1290 m cl s 1587 1290 m 30 X s 1617 1290 m cl s 1587 1290 m 53 Y s 1587 1343 m cl s 1587 1290 m -50 Y s 1587 1240 m cl s 1646 1382 m -29 X s 1617 1382 m cl s 1646 1382 m 30 X s 1676 1382 m cl s 1646 1382 m
 57 Y s 1646 1439 m cl s 1646 1382 m -53 Y s 1646 1329 m cl s 1706 1249 m -30 X s 1676 1249 m cl s 1706 1249 m 29 X s 1735 1249 m cl s 1706 1249 m 52 Y s 1706 1301 m cl s 1706 1249 m -48 Y s 1706 1201 m cl s 1765 1194 m -30 X s 1735 1194 m cl s 1765
 1194 m 30 X s 1795 1194 m cl s 1765 1194 m 49 Y s 1765 1243 m cl s 1765 1194 m -46 Y s 1765 1148 m cl s 1824 1120 m -29 X s 1795 1120 m cl s 1824 1120 m 30 X s 1854 1120 m cl s 1824 1120 m 46 Y s 1824 1166 m cl s 1824 1120 m -43 Y s 1824 1077 m cl s
 1884 1098 m -30 X s 1854 1098 m cl s 1884 1098 m 29 X s 1913 1098 m cl s 1884 1098 m 45 Y s 1884 1143 m cl s 1884 1098 m -43 Y s 1884 1055 m cl s 1943 1090 m -30 X s 1913 1090 m cl s 1943 1090 m 30 X s 1973 1090 m cl s 1943 1090 m 46 Y s 1943 1136 m
 cl s 1943 1090 m -42 Y s 1943 1048 m cl s 2002 1046 m -29 X s 1973 1046 m cl s 2002 1046 m 30 X s 2032 1046 m cl s 2002 1046 m 43 Y s 2002 1089 m cl s 2002 1046 m -40 Y s 2002 1006 m cl s 400 1279 460 1245 519 1201 578 1323 638 1341 697 1445 756
 1460 816 1474 875 1393 934 1438 994 1378 1053 1452 1112 1438 1172 1415 1231 1378 1290 1397 1350 1371 1409 1434 1468 1338 1528 1323 1587 1290 1646 1382 1706 1249 1765 1194 1824 1120 1884 1098 1943 1090 2002 1046 28 { m20} R 0.8 0 0 c 9 lw black 0.8 0
 0 c 371 1233 m cl s 371 1233 m 59 32 d 59 29 d 60 27 d 59 23 d 59 21 d 60 17 d 59 15 d 59 11 d 60 9 d 59 6 d 59 2 d 60 X 59 -3 d 59 -7 d 60 -9 d 59 -12 d 59 -15 d 60 -19 d 59 -21 d 59 -24 d 60 -27 d 59 -30 d 59 -33 d 60 -36 d 59 -39 d 59 -42 d 60
 -45 d 59 -48 d s 0.2 0.4 0.2 c[  12 12 ] 0 sd black 0.2 0.4 0.2 c 371 604 m cl s 371 604 m 59 X 59 -1 d 119 X 59 -1 d 60 X 59 -1 d 119 X 59 -1 d 59 X 60 -1 d 118 X 60 -1 d 59 X 59 -1 d 60 X 59 -1 d 119 X 59 -1 d 59 X 60 -1 d 118 X 60 -1 d 59 X s 1
 0.8 0.2 c black 1 0.8 0.2 c 371 1180 m cl s 371 1180 m 59 33 d 59 30 d 60 27 d 59 25 d 59 21 d 60 18 d 59 15 d 59 13 d 60 9 d 59 7 d 59 3 d 60 X 59 -2 d 59 -6 d 60 -8 d 59 -12 d 59 -14 d 60 -17 d 59 -21 d 59 -23 d 60 -26 d 59 -30 d 59 -32 d 60 -35 d
 59 -39 d 59 -41 d 60 -44 d 59 -47 d s 0 0 1 c black 0 0 1 c 371 602 m cl s 371 602 m 59 -1 d 119 X 59 -1 d 59 X 60 -1 d 118 X 60 -1 d 118 X 60 -1 d 59 X 59 -1 d 119 X 59 -1 d 119 X 59 -1 d 60 X 59 -1 d 119 X 59 -1 d 119 X 59 -1 d s black[  ] 0 sd 3
 lw 371 577 m 1661 X s 371 613 m -36 Y s 430 595 m -18 Y s 489 595 m -18 Y s 549 595 m -18 Y s 608 595 m -18 Y s 667 613 m -36 Y s 727 595 m -18 Y s 786 595 m -18 Y s 845 595 m -18 Y s 905 595 m -18 Y s 964 613 m -36 Y s 1023 595 m -18 Y s 1083 595 m
 -18 Y s 1142 595 m -18 Y s 1201 595 m -18 Y s 1261 613 m -36 Y s 1320 595 m -18 Y s 1379 595 m -18 Y s 1439 595 m -18 Y s 1498 595 m -18 Y s 1557 613 m -36 Y s 1617 595 m -18 Y s 1676 595 m -18 Y s 1735 595 m -18 Y s 1795 595 m -18 Y s 1854 613 m
 -36 Y s 1854 613 m -36 Y s 1913 595 m -18 Y s 1973 595 m -18 Y s 371 2084 m 1661 X s 371 2048 m 36 Y s 430 2066 m 18 Y s 489 2066 m 18 Y s 549 2066 m 18 Y s 608 2066 m 18 Y s 667 2048 m 36 Y s 727 2066 m 18 Y s 786 2066 m 18 Y s 845 2066 m 18 Y s
 905 2066 m 18 Y s 964 2048 m 36 Y s 1023 2066 m 18 Y s 1083 2066 m 18 Y s 1142 2066 m 18 Y s 1201 2066 m 18 Y s 1261 2048 m 36 Y s 1320 2066 m 18 Y s 1379 2066 m 18 Y s 1439 2066 m 18 Y s 1498 2066 m 18 Y s 1557 2048 m 36 Y s 1617 2066 m 18 Y s 1676
 2066 m 18 Y s 1735 2066 m 18 Y s 1795 2066 m 18 Y s 1854 2048 m 36 Y s 1854 2048 m 36 Y s 1913 2066 m 18 Y s 1973 2066 m 18 Y s 371 577 m 1507 Y s 433 577 m -62 X s 402 613 m -31 X s 402 650 m -31 X s 402 687 m -31 X s 402 724 m -31 X s 433 761 m
 -62 X s 402 798 m -31 X s 402 835 m -31 X s 402 872 m -31 X s 402 909 m -31 X s 433 946 m -62 X s 402 983 m -31 X s 402 1020 m -31 X s 402 1057 m -31 X s 402 1094 m -31 X s 433 1131 m -62 X s 402 1168 m -31 X s 402 1205 m -31 X s 402 1242 m -31 X s
 402 1279 m -31 X s 433 1316 m -62 X s 402 1353 m -31 X s 402 1389 m -31 X s 402 1426 m -31 X s 402 1463 m -31 X s 433 1500 m -62 X s 402 1537 m -31 X s 402 1574 m -31 X s 402 1611 m -31 X s 402 1648 m -31 X s 433 1685 m -62 X s 402 1722 m -31 X s
 402 1759 m -31 X s 402 1796 m -31 X s 402 1833 m -31 X s 433 1870 m -62 X s 402 1907 m -31 X s 402 1944 m -31 X s 402 1981 m -31 X s 402 2018 m -31 X s 433 2055 m -62 X s 433 2055 m -62 X s 2032 577 m 1507 Y s 1969 577 m 63 X s 2001 613 m 31 X s
 2001 650 m 31 X s 2001 687 m 31 X s 2001 724 m 31 X s 1969 761 m 63 X s 2001 798 m 31 X s 2001 835 m 31 X s 2001 872 m 31 X s 2001 909 m 31 X s 1969 946 m 63 X s 2001 983 m 31 X s 2001 1020 m 31 X s 2001 1057 m 31 X s 2001 1094 m 31 X s 1969 1131 m
 63 X s 2001 1168 m 31 X s 2001 1205 m 31 X s 2001 1242 m 31 X s 2001 1279 m 31 X s 1969 1316 m 63 X s 2001 1353 m 31 X s 2001 1389 m 31 X s 2001 1426 m 31 X s 2001 1463 m 31 X s 1969 1500 m 63 X s 2001 1537 m 31 X s 2001 1574 m 31 X s 2001 1611 m 31
 X s 2001 1648 m 31 X s 1969 1685 m 63 X s 2001 1722 m 31 X s 2001 1759 m 31 X s 2001 1796 m 31 X s 2001 1833 m 31 X s 1969 1870 m 63 X s 2001 1907 m 31 X s 2001 1944 m 31 X s 2001 1981 m 31 X s 2001 2018 m 31 X s 1969 2055 m 63 X s 1969 2055 m 63 X
 s 1 1 1 c black
 gsave  2245 1622 11 544 C 662.051 1989.96 t 0 r /Helvetica findfont 60.8983 sf 0 0 m ( Internal) show NC gr 
 gsave  2245 1622 11 544 C 452.782 1989.96 t 0 r /Helvetica-BoldOblique findfont 60.8983 sf 0 0 m (ATLAS) show NC gr 
 gsave  2245 1622 11 544 C 452.782 1902.45 t 0 r /Helvetica findfont 60.8983 sf 0 0 m (data 2015\25518 + mc16a,d,e) show NC gr 
 gsave  2245 1622 11 544 C 1034.93 1818.74 t 0 r /Helvetica findfont 41.8676 sf 0 0 m (\2551) show NC gr 
 gsave  2245 1622 11 544 C 513.661 1792.1 t 0 r /Helvetica findfont 60.8983 sf 0 0 m (=13 TeV, 138.97 fb) show NC gr 
 gsave  2245 1622 11 544 C 483.221 1792.1 t 0 r /Helvetica findfont 60.8983 sf 0 0 m (s) show NC gr  6 lw 464 1826 m 8 -38 d s 3 lw 472 1788 m 4 57 d s 476 1845 m 38 X s
 gsave  2245 1622 11 544 C 635.417 1712.2 t 0 r /Helvetica findfont 60.8983 sf 0 0 m ( CR) show NC gr 
 gsave  2245 1622 11 544 C 597.368 1712.2 t 0 r /Symbol findfont 60.8983 sf 0 0 m (m) show NC gr 
 gsave  2245 1622 11 544 C 559.319 1712.2 t 0 r /Symbol findfont 60.8983 sf 0 0 m (m) show NC gr 
 gsave  2245 1622 11 544 C 525.075 1712.2 t 0 r /Helvetica findfont 60.8983 sf 0 0 m (+) show NC gr 
 gsave  2245 1622 11 544 C 487.026 1712.2 t 0 r /Symbol findfont 60.8983 sf 0 0 m (m) show NC gr 
 gsave  2245 1622 11 544 C 452.782 1712.2 t 0 r /Helvetica findfont 60.8983 sf 0 0 m (e) show NC gr  1 1 1 c 718 438 1269 1598 bl 1269 1598 m 718 X s 1987 1598 m 438 Y s 1987 2036 m -718 X s 1269 2036 m -438 Y s black
 gsave  2245 1622 11 544 C 1445.86 1974.74 t 0 r /Helvetica findfont 72.3167 sf 0 0 m (Data) show NC gr  1296 1992 m 125 X s 1358 1966 m 52 Y s 1358 1992 m20
 gsave  2245 1622 11 544 C 1445.86 1887.23 t 0 r /Helvetica findfont 72.3167 sf 0 0 m (Total BG) show NC gr  0.8 0 0 c 9 lw 1296 1904 m 125 X s black
 gsave  2245 1622 11 544 C 1445.86 1799.71 t 0 r /Helvetica findfont 72.3167 sf 0 0 m (Z+HFjets) show NC gr  0.2 0.4 0.2 c[  12 12 ] 0 sd 1296 1817 m 125 X s black
 gsave  2245 1622 11 544 C 1468.69 1712.2 t 0 r /Helvetica findfont 72.3167 sf 0 0 m (t) show NC gr [  ] 0 sd 6 lw 1469 1769 m 23 X s
 gsave  2245 1622 11 544 C 1445.86 1712.2 t 0 r /Helvetica findfont 72.3167 sf 0 0 m (t) show NC gr  1 0.8 0.2 c[  12 12 ] 0 sd 9 lw 1296 1729 m 125 X s black
 gsave  2245 1622 11 544 C 1445.86 1624.69 t 0 r /Helvetica findfont 72.3167 sf 0 0 m (Diboson) show NC gr  0 0 1 c 1296 1642 m 125 X s
 gr  gr showpage
end
%%EOF
