%!PS-Adobe-2.0 EPSF-2.0
%%BoundingBox:  0 0 567 544
%%Title: Results/M3aMC_emu.eps: Region: emu
%%Creator: ROOT Version 6.08/06
%%CreationDate: Mon Oct 14 10:11:01 2019
%%DocumentNeededResources: ProcSet (FontSetInit)
%%EndComments
%%BeginProlog
80 dict begin
/s {stroke} def /l {lineto} def /m {moveto} def /t {translate} def
/r {rotate} def /rl {roll}  def /R {repeat} def
/d {rlineto} def /rm {rmoveto} def /gr {grestore} def /f {eofill} def
/c {setrgbcolor} def /black {0 setgray} def /sd {setdash} def
/cl {closepath} def /sf {scalefont setfont} def /lw {setlinewidth} def
/box {m dup 0 exch d exch 0 d 0 exch neg d cl} def
/NC{systemdict begin initclip end}def/C{NC box clip newpath}def
/bl {box s} def /bf {gsave box gsave f grestore 1 lw [] 0 sd s grestore} def /Y { 0 exch d} def /X { 0 d} def 
/K {{pop pop 0 moveto} exch kshow} bind def
/ita {/ang 15 def gsave [1 0 ang dup sin exch cos div 1 0 0] concat} def 
/mp {newpath /y exch def /x exch def} def
/side {[w .77 mul w .23 mul] .385 w mul sd w 0 l currentpoint t -144 r} def
/mr {mp x y w2 0 360 arc} def /m24 {mr s} def /m20 {mr f} def
/mb {mp x y w2 add m w2 neg 0 d 0 w neg d w 0 d 0 w d cl} def
/mt {mp x y w2 add m w2 neg w neg d w 0 d cl} def
/m21 {mb f} def /m25 {mb s} def /m22 {mt f} def /m26{mt s} def
/m23 {mp x y w2 sub m w2 w d w neg 0 d cl f} def
/m27 {mp x y w2 add m w3 neg w2 neg d w3 w2 neg d w3 w2 d cl s} def
/m28 {mp x w2 sub y w2 sub w3 add m w3 0 d  0 w3 neg d w3 0 d 0 w3 d w3 0 d  0 w3 d w3 neg 0 d 0 w3 d w3 neg 0 d 0 w3 neg d w3 neg 0 d cl s } def
/m29 {mp gsave x w2 sub y w2 add w3 sub m currentpoint t 4 {side} repeat cl fill gr} def
/m30 {mp gsave x w2 sub y w2 add w3 sub m currentpoint t 4 {side} repeat cl s gr} def
/m31 {mp x y w2 sub m 0 w d x w2 sub y m w 0 d x w2 sub y w2 add m w w neg d x w2 sub y w2 sub m w w d s} def
/m32 {mp x y w2 sub m w2 w d w neg 0 d cl s} def
/m33 {mp x y w2 add m w3 neg w2 neg d w3 w2 neg d w3 w2 d cl f} def
/m34 {mp x w2 sub y w2 sub w3 add m w3 0 d  0 w3 neg d w3 0 d 0 w3 d w3 0 d  0 w3 d w3 neg 0 d 0 w3 d w3 neg 0 d 0 w3 neg d w3 neg 0 d cl f } def
/m2 {mp x y w2 sub m 0 w d x w2 sub y m w 0 d s} def
/m5 {mp x w2 sub y w2 sub m w w d x w2 sub y w2 add m w w neg d s} def
%%IncludeResource: ProcSet (FontSetInit)
%%IncludeResource: font Times-Roman
%%IncludeResource: font Times-Italic
%%IncludeResource: font Times-Bold
%%IncludeResource: font Times-BoldItalic
%%IncludeResource: font Helvetica
%%IncludeResource: font Helvetica-Oblique
%%IncludeResource: font Helvetica-Bold
%%IncludeResource: font Helvetica-BoldOblique
%%IncludeResource: font Courier
%%IncludeResource: font Courier-Oblique
%%IncludeResource: font Courier-Bold
%%IncludeResource: font Courier-BoldOblique
%%IncludeResource: font Symbol
%%IncludeResource: font ZapfDingbats
/reEncode {exch findfont dup length dict begin {1 index /FID eq  {pop pop} {def} ifelse } forall /Encoding exch def currentdict end dup /FontName get exch definefont pop } def [/Times-Bold /Times-Italic /Times-BoldItalic /Helvetica /Helvetica-Oblique
 /Helvetica-Bold /Helvetica-BoldOblique /Courier /Courier-Oblique /Courier-Bold /Courier-BoldOblique /Times-Roman /AvantGarde-Book /AvantGarde-BookOblique /AvantGarde-Demi /AvantGarde-DemiOblique /Bookman-Demi /Bookman-DemiItalic /Bookman-Light
 /Bookman-LightItalic /Helvetica-Narrow /Helvetica-Narrow-Bold /Helvetica-Narrow-BoldOblique /Helvetica-Narrow-Oblique /NewCenturySchlbk-Roman /NewCenturySchlbk-Bold /NewCenturySchlbk-BoldItalic /NewCenturySchlbk-Italic /Palatino-Bold
 /Palatino-BoldItalic /Palatino-Italic /Palatino-Roman ] {ISOLatin1Encoding reEncode } forall
%%EndProlog
%%BeginSetup
%%EndSetup
newpath  gsave  .25 .25 scale  gsave  0 0 t black[  ] 0 sd 3 lw 1 1 1 c 2268 2176 0 0 bf black 1 1 1 c 2245 533 11 11 bf black 1 1 1 c 1661 288 371 224 bf black 1661 288 371 224 bl 371 224 m 1661 X s 371 512 m 1661 X s 371 224 m 288 Y s[ 4 8] 0 sd
 2032 224 m -1661 X s 2032 296 m -1661 X s 2032 368 m -1661 X s 2032 440 m -1661 X s 2032 512 m -1661 X s[  ] 0 sd 2032 224 m 288 Y s 371 224 m 1661 X s
 gsave  2245 533 11 11 C 1849.18 98.9272 t 0 r /Helvetica findfont 64.7479 sf 0 0 m ( [GeV]) show NC gr 
 gsave  2245 533 11 11 C 1803.52 76.0979 t 0 r /Helvetica findfont 41.8957 sf 0 0 m (12) show NC gr 
 gsave  2245 533 11 11 C 1750.25 98.9272 t 0 r /Helvetica findfont 64.7479 sf 0 0 m (m) show NC gr  371 236 m -12 Y s 430 230 m -6 Y s 489 230 m -6 Y s 549 230 m -6 Y s 608 230 m -6 Y s 667 236 m -12 Y s 727 230 m -6 Y s 786 230 m -6 Y s 845 230 m -6
 Y s 905 230 m -6 Y s 964 236 m -12 Y s 1023 230 m -6 Y s 1083 230 m -6 Y s 1142 230 m -6 Y s 1201 230 m -6 Y s 1261 236 m -12 Y s 1320 230 m -6 Y s 1379 230 m -6 Y s 1439 230 m -6 Y s 1498 230 m -6 Y s 1557 236 m -12 Y s 1617 230 m -6 Y s 1676 230 m
 -6 Y s 1735 230 m -6 Y s 1795 230 m -6 Y s 1854 236 m -12 Y s 1854 236 m -12 Y s 1913 230 m -6 Y s 1973 230 m -6 Y s
 gsave  2245 533 11 11 C 334.831 171.22 t 0 r /Helvetica findfont 57.1305 sf 0 0 m (50) show NC gr 
 gsave  2245 533 11 11 C 631.612 171.22 t 0 r /Helvetica findfont 57.1305 sf 0 0 m (60) show NC gr 
 gsave  2245 533 11 11 C 928.394 171.22 t 0 r /Helvetica findfont 57.1305 sf 0 0 m (70) show NC gr 
 gsave  2245 533 11 11 C 1225.18 171.22 t 0 r /Helvetica findfont 57.1305 sf 0 0 m (80) show NC gr 
 gsave  2245 533 11 11 C 1521.96 171.22 t 0 r /Helvetica findfont 57.1305 sf 0 0 m (90) show NC gr 
 gsave  2245 533 11 11 C 1803.52 171.22 t 0 r /Helvetica findfont 57.1305 sf 0 0 m (100) show NC gr  371 512 m 1661 X s 371 500 m 12 Y s 430 506 m 6 Y s 489 506 m 6 Y s 549 506 m 6 Y s 608 506 m 6 Y s 667 500 m 12 Y s 727 506 m 6 Y s 786 506 m 6 Y s
 845 506 m 6 Y s 905 506 m 6 Y s 964 500 m 12 Y s 1023 506 m 6 Y s 1083 506 m 6 Y s 1142 506 m 6 Y s 1201 506 m 6 Y s 1261 500 m 12 Y s 1320 506 m 6 Y s 1379 506 m 6 Y s 1439 506 m 6 Y s 1498 506 m 6 Y s 1557 500 m 12 Y s 1617 506 m 6 Y s 1676 506 m
 6 Y s 1735 506 m 6 Y s 1795 506 m 6 Y s 1854 500 m 12 Y s 1854 500 m 12 Y s 1913 506 m 6 Y s 1973 506 m 6 Y s 371 224 m 288 Y s
 gsave  2245 533 11 11 C 156.001 407.124 t 90 r /Helvetica findfont 64.7479 sf 0 0 m (Pull) show NC gr  407 224 m -36 X s 389 242 m -18 X s 389 260 m -18 X s 389 278 m -18 X s 407 296 m -36 X s 389 314 m -18 X s 389 332 m -18 X s 389 350 m -18 X s
 407 368 m -36 X s 389 386 m -18 X s 389 404 m -18 X s 389 422 m -18 X s 407 440 m -36 X s 389 458 m -18 X s 389 476 m -18 X s 389 494 m -18 X s 407 512 m -36 X s
 gsave  2245 533 11 11 C 327.221 201.659 t 0 r /Helvetica findfont 57.1305 sf 0 0 m (4) show NC gr 
 gsave  2245 533 11 11 C 292.977 201.659 t 0 r /Symbol findfont 57.1305 sf 0 0 m (-) show NC gr 
 gsave  2245 533 11 11 C 327.221 273.952 t 0 r /Helvetica findfont 57.1305 sf 0 0 m (2) show NC gr 
 gsave  2245 533 11 11 C 292.977 273.952 t 0 r /Symbol findfont 57.1305 sf 0 0 m (-) show NC gr 
 gsave  2245 533 11 11 C 327.221 346.245 t 0 r /Helvetica findfont 57.1305 sf 0 0 m (0) show NC gr 
 gsave  2245 533 11 11 C 327.221 418.538 t 0 r /Helvetica findfont 57.1305 sf 0 0 m (2) show NC gr 
 gsave  2245 533 11 11 C 327.221 490.831 t 0 r /Helvetica findfont 57.1305 sf 0 0 m (4) show NC gr  2032 224 m 288 Y s 1996 224 m 36 X s 2014 242 m 18 X s 2014 260 m 18 X s 2014 278 m 18 X s 1996 296 m 36 X s 2014 314 m 18 X s 2014 332 m 18 X s 2014
 350 m 18 X s 1996 368 m 36 X s 2014 386 m 18 X s 2014 404 m 18 X s 2014 422 m 18 X s 1996 440 m 36 X s 2014 458 m 18 X s 2014 476 m 18 X s 2014 494 m 18 X s 1996 512 m 36 X s 400 385 m 36 Y s 400 421 m cl s 400 385 m -36 Y s 400 349 m cl s 460 391 m
 36 Y s 460 427 m cl s 460 391 m -36 Y s 460 355 m cl s 519 353 m 36 Y s 519 389 m cl s 519 353 m -36 Y s 519 317 m cl s 578 307 m 36 Y s 578 343 m cl s 578 307 m -36 Y s 578 271 m cl s 638 398 m 36 Y s 638 434 m cl s 638 398 m -36 Y s 638 362 m cl s
 697 364 m 36 Y s 697 400 m cl s 697 364 m -36 Y s 697 328 m cl s 756 415 m 36 Y s 756 451 m cl s 756 415 m -36 Y s 756 379 m cl s 816 371 m 36 Y s 816 407 m cl s 816 371 m -36 Y s 816 335 m cl s 875 236 m 36 Y s 875 272 m cl s 875 236 m -12 Y s 875
 224 m cl s 934 255 m 36 Y s 934 291 m cl s 934 255 m -31 Y s 934 224 m cl s 994 312 m 36 Y s 994 348 m cl s 994 312 m -36 Y s 994 276 m cl s 1053 285 m 36 Y s 1053 321 m cl s 1053 285 m -36 Y s 1053 249 m cl s 1112 396 m 36 Y s 1112 432 m cl s 1112
 396 m -36 Y s 1112 360 m cl s 1172 322 m 36 Y s 1172 358 m cl s 1172 322 m -36 Y s 1172 286 m cl s 1231 382 m 36 Y s 1231 418 m cl s 1231 382 m -36 Y s 1231 346 m cl s 1290 326 m 36 Y s 1290 362 m cl s 1290 326 m -36 Y s 1290 290 m cl s 1350 435 m
 36 Y s 1350 471 m cl s 1350 435 m -36 Y s 1350 399 m cl s 1409 355 m 36 Y s 1409 391 m cl s 1409 355 m -36 Y s 1409 319 m cl s 1468 409 m 36 Y s 1468 445 m cl s 1468 409 m -36 Y s 1468 373 m cl s 1528 457 m 36 Y s 1528 493 m cl s 1528 457 m -36 Y s
 1528 421 m cl s 1587 456 m 36 Y s 1587 492 m cl s 1587 456 m -36 Y s 1587 420 m cl s 1646 417 m 36 Y s 1646 453 m cl s 1646 417 m -36 Y s 1646 381 m cl s 1706 331 m 36 Y s 1706 367 m cl s 1706 331 m -36 Y s 1706 295 m cl s 1765 373 m 36 Y s 1765 409
 m cl s 1765 373 m -35 Y s 1765 338 m cl s 1824 317 m 36 Y s 1824 353 m cl s 1824 317 m -36 Y s 1824 281 m cl s 1884 251 m 36 Y s 1884 287 m cl s 1884 251 m -27 Y s 1884 224 m cl s 1943 342 m 36 Y s 1943 378 m cl s 1943 342 m -36 Y s 1943 306 m cl s
 2002 411 m 36 Y s 2002 447 m cl s 2002 411 m -36 Y s 2002 375 m cl s /w 37 def /w2 {w 2 div} def /w3 {w 3 div} def 400 385 460 391 519 353 578 307 638 398 697 364 756 415 816 371 875 236 934 255 994 312 1053 285 1112 396 1172 322 1231 382 1290 326
 1350 435 1409 355 1468 409 1528 457 1587 456 1646 417 1706 331 1765 373 1824 317 1884 251 1943 342 2002 411 28 { m20} R 371 224 m 1661 X s 371 236 m -12 Y s 430 230 m -6 Y s 489 230 m -6 Y s 549 230 m -6 Y s 608 230 m -6 Y s 667 236 m -12 Y s 727
 230 m -6 Y s 786 230 m -6 Y s 845 230 m -6 Y s 905 230 m -6 Y s 964 236 m -12 Y s 1023 230 m -6 Y s 1083 230 m -6 Y s 1142 230 m -6 Y s 1201 230 m -6 Y s 1261 236 m -12 Y s 1320 230 m -6 Y s 1379 230 m -6 Y s 1439 230 m -6 Y s 1498 230 m -6 Y s 1557
 236 m -12 Y s 1617 230 m -6 Y s 1676 230 m -6 Y s 1735 230 m -6 Y s 1795 230 m -6 Y s 1854 236 m -12 Y s 1854 236 m -12 Y s 1913 230 m -6 Y s 1973 230 m -6 Y s 371 512 m 1661 X s 371 500 m 12 Y s 430 506 m 6 Y s 489 506 m 6 Y s 549 506 m 6 Y s 608
 506 m 6 Y s 667 500 m 12 Y s 727 506 m 6 Y s 786 506 m 6 Y s 845 506 m 6 Y s 905 506 m 6 Y s 964 500 m 12 Y s 1023 506 m 6 Y s 1083 506 m 6 Y s 1142 506 m 6 Y s 1201 506 m 6 Y s 1261 500 m 12 Y s 1320 506 m 6 Y s 1379 506 m 6 Y s 1439 506 m 6 Y s
 1498 506 m 6 Y s 1557 500 m 12 Y s 1617 506 m 6 Y s 1676 506 m 6 Y s 1735 506 m 6 Y s 1795 506 m 6 Y s 1854 500 m 12 Y s 1854 500 m 12 Y s 1913 506 m 6 Y s 1973 506 m 6 Y s 371 224 m 288 Y s 407 224 m -36 X s 389 242 m -18 X s 389 260 m -18 X s 389
 278 m -18 X s 407 296 m -36 X s 389 314 m -18 X s 389 332 m -18 X s 389 350 m -18 X s 407 368 m -36 X s 389 386 m -18 X s 389 404 m -18 X s 389 422 m -18 X s 407 440 m -36 X s 389 458 m -18 X s 389 476 m -18 X s 389 494 m -18 X s 407 512 m -36 X s
 2032 224 m 288 Y s 1996 224 m 36 X s 2014 242 m 18 X s 2014 260 m 18 X s 2014 278 m 18 X s 1996 296 m 36 X s 2014 314 m 18 X s 2014 332 m 18 X s 2014 350 m 18 X s 1996 368 m 36 X s 2014 386 m 18 X s 2014 404 m 18 X s 2014 422 m 18 X s 1996 440 m 36
 X s 2014 458 m 18 X s 2014 476 m 18 X s 2014 494 m 18 X s 1996 512 m 36 X s[  12 12 ] 0 sd 6 lw 371 368 m 1661 X s[  ] 0 sd 3 lw 1 1 1 c 2245 1622 11 544 bf black 1 1 1 c 1661 1507 371 577 bf black 1661 1507 371 577 bl 371 577 m 1661 X s 371 613 m
 -36 Y s 430 595 m -18 Y s 489 595 m -18 Y s 549 595 m -18 Y s 608 595 m -18 Y s 667 613 m -36 Y s 727 595 m -18 Y s 786 595 m -18 Y s 845 595 m -18 Y s 905 595 m -18 Y s 964 613 m -36 Y s 1023 595 m -18 Y s 1083 595 m -18 Y s 1142 595 m -18 Y s 1201
 595 m -18 Y s 1261 613 m -36 Y s 1320 595 m -18 Y s 1379 595 m -18 Y s 1439 595 m -18 Y s 1498 595 m -18 Y s 1557 613 m -36 Y s 1617 595 m -18 Y s 1676 595 m -18 Y s 1735 595 m -18 Y s 1795 595 m -18 Y s 1854 613 m -36 Y s 1854 613 m -36 Y s 1913
 595 m -18 Y s 1973 595 m -18 Y s 371 2084 m 1661 X s 371 2048 m 36 Y s 430 2066 m 18 Y s 489 2066 m 18 Y s 549 2066 m 18 Y s 608 2066 m 18 Y s 667 2048 m 36 Y s 727 2066 m 18 Y s 786 2066 m 18 Y s 845 2066 m 18 Y s 905 2066 m 18 Y s 964 2048 m 36 Y
 s 1023 2066 m 18 Y s 1083 2066 m 18 Y s 1142 2066 m 18 Y s 1201 2066 m 18 Y s 1261 2048 m 36 Y s 1320 2066 m 18 Y s 1379 2066 m 18 Y s 1439 2066 m 18 Y s 1498 2066 m 18 Y s 1557 2048 m 36 Y s 1617 2066 m 18 Y s 1676 2066 m 18 Y s 1735 2066 m 18 Y s
 1795 2066 m 18 Y s 1854 2048 m 36 Y s 1854 2048 m 36 Y s 1913 2066 m 18 Y s 1973 2066 m 18 Y s 371 577 m 1507 Y s
 gsave  2245 1622 11 544 C 152.196 1666.54 t 90 r /Helvetica findfont 64.7045 sf 0 0 m (Events / 2GeV) show NC gr  433 577 m -62 X s 402 625 m -31 X s 402 673 m -31 X s 402 721 m -31 X s 402 769 m -31 X s 433 817 m -62 X s 402 865 m -31 X s 402 913 m
 -31 X s 402 961 m -31 X s 402 1009 m -31 X s 433 1057 m -62 X s 402 1105 m -31 X s 402 1154 m -31 X s 402 1202 m -31 X s 402 1250 m -31 X s 433 1298 m -62 X s 402 1346 m -31 X s 402 1394 m -31 X s 402 1442 m -31 X s 402 1490 m -31 X s 433 1538 m -62
 X s 402 1586 m -31 X s 402 1634 m -31 X s 402 1683 m -31 X s 402 1731 m -31 X s 433 1779 m -62 X s 402 1827 m -31 X s 402 1875 m -31 X s 402 1923 m -31 X s 402 1971 m -31 X s 433 2019 m -62 X s 433 2019 m -62 X s 402 2067 m -31 X s
 gsave  2245 1622 11 544 C 327.221 555.514 t 0 r /Helvetica findfont 57.0922 sf 0 0 m (0) show NC gr 
 gsave  2245 1622 11 544 C 292.977 795.223 t 0 r /Helvetica findfont 57.0922 sf 0 0 m (50) show NC gr 
 gsave  2245 1622 11 544 C 262.538 1034.93 t 0 r /Helvetica findfont 57.0922 sf 0 0 m (100) show NC gr 
 gsave  2245 1622 11 544 C 262.538 1278.44 t 0 r /Helvetica findfont 57.0922 sf 0 0 m (150) show NC gr 
 gsave  2245 1622 11 544 C 262.538 1518.15 t 0 r /Helvetica findfont 57.0922 sf 0 0 m (200) show NC gr 
 gsave  2245 1622 11 544 C 262.538 1757.86 t 0 r /Helvetica findfont 57.0922 sf 0 0 m (250) show NC gr 
 gsave  2245 1622 11 544 C 262.538 1997.57 t 0 r /Helvetica findfont 57.0922 sf 0 0 m (300) show NC gr  2032 577 m 1507 Y s 1969 577 m 63 X s 2001 625 m 31 X s 2001 673 m 31 X s 2001 721 m 31 X s 2001 769 m 31 X s 1969 817 m 63 X s 2001 865 m 31 X s
 2001 913 m 31 X s 2001 961 m 31 X s 2001 1009 m 31 X s 1969 1057 m 63 X s 2001 1105 m 31 X s 2001 1154 m 31 X s 2001 1202 m 31 X s 2001 1250 m 31 X s 1969 1298 m 63 X s 2001 1346 m 31 X s 2001 1394 m 31 X s 2001 1442 m 31 X s 2001 1490 m 31 X s 1969
 1538 m 63 X s 2001 1586 m 31 X s 2001 1634 m 31 X s 2001 1683 m 31 X s 2001 1731 m 31 X s 1969 1779 m 63 X s 2001 1827 m 31 X s 2001 1875 m 31 X s 2001 1923 m 31 X s 2001 1971 m 31 X s 1969 2019 m 63 X s 1969 2019 m 63 X s 2001 2067 m 31 X s 400
 1309 m -29 X s 371 1309 m cl s 400 1309 m 30 X s 430 1309 m cl s 400 1309 m 15 Y s 400 1324 m cl s 400 1309 m -14 Y s 400 1295 m cl s 460 1348 m -30 X s 430 1348 m cl s 460 1348 m 29 X s 489 1348 m cl s 460 1348 m 14 Y s 460 1362 m cl s 460 1348 m
 -15 Y s 460 1333 m cl s 519 1366 m -30 X s 489 1366 m cl s 519 1366 m 30 X s 549 1366 m cl s 519 1366 m 11 Y s 519 1377 m cl s 519 1366 m -10 Y s 519 1356 m cl s 578 1385 m -29 X s 549 1385 m cl s 578 1385 m 30 X s 608 1385 m cl s 578 1385 m 9 Y s
 578 1394 m cl s 578 1385 m -9 Y s 578 1376 m cl s 638 1437 m -30 X s 608 1437 m cl s 638 1437 m 29 X s 667 1437 m cl s 638 1437 m 14 Y s 638 1451 m cl s 638 1437 m -14 Y s 638 1423 m cl s 697 1446 m -30 X s 667 1446 m cl s 697 1446 m 30 X s 727 1446
 m cl s 697 1446 m 11 Y s 697 1457 m cl s 697 1446 m -10 Y s 697 1436 m cl s 756 1503 m -29 X s 727 1503 m cl s 756 1503 m 30 X s 786 1503 m cl s 756 1503 m 29 Y s 756 1532 m cl s 756 1503 m -28 Y s 756 1475 m cl s 816 1483 m -30 X s 786 1483 m cl s
 816 1483 m 29 X s 845 1483 m cl s 816 1483 m 14 Y s 816 1497 m cl s 816 1483 m -13 Y s 816 1470 m cl s 875 1465 m -30 X s 845 1465 m cl s 875 1465 m 30 X s 905 1465 m cl s 875 1465 m 8 Y s 875 1473 m cl s 875 1465 m -8 Y s 875 1457 m cl s 934 1478 m
 -29 X s 905 1478 m cl s 934 1478 m 30 X s 964 1478 m cl s 934 1478 m 8 Y s 934 1486 m cl s 934 1478 m -9 Y s 934 1469 m cl s 994 1491 m -30 X s 964 1491 m cl s 994 1491 m 29 X s 1023 1491 m cl s 994 1491 m 12 Y s 994 1503 m cl s 994 1491 m -12 Y s
 994 1479 m cl s 1053 1493 m -30 X s 1023 1493 m cl s 1053 1493 m 30 X s 1083 1493 m cl s 1053 1493 m 8 Y s 1053 1501 m cl s 1053 1493 m -8 Y s 1053 1485 m cl s 1112 1521 m -29 X s 1083 1521 m cl s 1112 1521 m 30 X s 1142 1521 m cl s 1112 1521 m 13 Y
 s 1112 1534 m cl s 1112 1521 m -12 Y s 1112 1509 m cl s 1172 1494 m -30 X s 1142 1494 m cl s 1172 1494 m 29 X s 1201 1494 m cl s 1172 1494 m 11 Y s 1172 1505 m cl s 1172 1494 m -10 Y s 1172 1484 m cl s 1231 1506 m -30 X s 1201 1506 m cl s 1231 1506
 m 30 X s 1261 1506 m cl s 1231 1506 m 14 Y s 1231 1520 m cl s 1231 1506 m -14 Y s 1231 1492 m cl s 1290 1479 m -29 X s 1261 1479 m cl s 1290 1479 m 30 X s 1320 1479 m cl s 1290 1479 m 9 Y s 1290 1488 m cl s 1290 1479 m -9 Y s 1290 1470 m cl s 1350
 1506 m -30 X s 1320 1506 m cl s 1350 1506 m 29 X s 1379 1506 m cl s 1350 1506 m 16 Y s 1350 1522 m cl s 1350 1506 m -17 Y s 1350 1489 m cl s 1409 1455 m -30 X s 1379 1455 m cl s 1409 1455 m 30 X s 1439 1455 m cl s 1409 1455 m 9 Y s 1409 1464 m cl s
 1409 1455 m -9 Y s 1409 1446 m cl s 1468 1448 m -29 X s 1439 1448 m cl s 1468 1448 m 30 X s 1498 1448 m cl s 1468 1448 m 8 Y s 1468 1456 m cl s 1468 1448 m -9 Y s 1468 1439 m cl s 1528 1436 m -30 X s 1498 1436 m cl s 1528 1436 m 29 X s 1557 1436 m
 cl s 1528 1436 m 9 Y s 1528 1445 m cl s 1528 1436 m -9 Y s 1528 1427 m cl s 1587 1412 m -30 X s 1557 1412 m cl s 1587 1412 m 30 X s 1617 1412 m cl s 1587 1412 m 10 Y s 1587 1422 m cl s 1587 1412 m -10 Y s 1587 1402 m cl s 1646 1367 m -29 X s 1617
 1367 m cl s 1646 1367 m 30 X s 1676 1367 m cl s 1646 1367 m 7 Y s 1646 1374 m cl s 1646 1367 m -8 Y s 1646 1359 m cl s 1706 1315 m -30 X s 1676 1315 m cl s 1706 1315 m 29 X s 1735 1315 m cl s 1706 1315 m 8 Y s 1706 1323 m cl s 1706 1315 m -7 Y s
 1706 1308 m cl s 1765 1287 m -30 X s 1735 1287 m cl s 1765 1287 m 30 X s 1795 1287 m cl s 1765 1287 m 10 Y s 1765 1297 m cl s 1765 1287 m -10 Y s 1765 1277 m cl s 1824 1231 m -29 X s 1795 1231 m cl s 1824 1231 m 30 X s 1854 1231 m cl s 1824 1231 m
 10 Y s 1824 1241 m cl s 1824 1231 m -11 Y s 1824 1220 m cl s 1884 1181 m -30 X s 1854 1181 m cl s 1884 1181 m 29 X s 1913 1181 m cl s 1884 1181 m 6 Y s 1884 1187 m cl s 1884 1181 m -7 Y s 1884 1174 m cl s 1943 1148 m -30 X s 1913 1148 m cl s 1943
 1148 m 30 X s 1973 1148 m cl s 1943 1148 m 10 Y s 1943 1158 m cl s 1943 1148 m -9 Y s 1943 1139 m cl s 2002 1115 m -29 X s 1973 1115 m cl s 2002 1115 m 30 X s 2032 1115 m cl s 2002 1115 m 8 Y s 2002 1123 m cl s 2002 1115 m -9 Y s 2002 1106 m cl s
 400 1309 460 1348 519 1366 578 1385 638 1437 697 1446 756 1503 816 1483 875 1465 934 1478 994 1491 1053 1493 1112 1521 1172 1494 1231 1506 1290 1479 1350 1506 1409 1455 1468 1448 1528 1436 1587 1412 1646 1367 1706 1315 1765 1287 1824 1231 1884 1181
 1943 1148 2002 1115 28 { m20} R 0.8 0 0 c 9 lw black 0.8 0 0 c 371 1284 m cl s 371 1284 m 59 37 d 59 34 d 60 31 d 59 27 d 59 24 d 60 21 d 59 17 d 59 14 d 60 11 d 59 8 d 59 4 d 60 1 d 59 -2 d 59 -6 d 60 -9 d 59 -12 d 59 -16 d 60 -19 d 59 -22 d 59 -26
 d 60 -28 d 59 -32 d 59 -36 d 60 -38 d 59 -42 d 59 -46 d 60 -48 d 59 -52 d s 0.2 0.4 0.2 c[  12 12 ] 0 sd black 0.2 0.4 0.2 c 371 620 m cl s 371 620 m 59 X 59 -1 d 60 -1 d 59 -1 d 59 -1 d 60 -1 d 59 X 59 -1 d 60 -1 d 59 -1 d 59 -1 d 60 -1 d 59 -1 d
 59 X 60 -1 d 59 -1 d 59 -1 d 60 -1 d 59 -1 d 59 X 60 -1 d 59 -1 d 59 -1 d 60 -1 d 59 -1 d 59 -1 d 60 X 59 -1 d s 1 0.8 0.2 c black 1 0.8 0.2 c 371 1205 m cl s 371 1205 m 29 19 d 30 19 d 30 19 d 29 17 d 30 16 d 30 16 d 29 15 d 30 14 d 30 13 d 29 12 d
 30 12 d 30 11 d 29 10 d 30 9 d 30 8 d 29 7 d 30 7 d 30 6 d 29 5 d 30 4 d 30 3 d 29 2 d 30 2 d 30 1 d 29 X 30 -1 d 30 -2 d 29 -2 d 30 -3 d 30 -5 d 29 -5 d 30 -5 d 30 -7 d 29 -7 d 30 -9 d 30 -9 d 29 -10 d 30 -10 d 30 -12 d 29 -12 d 30 -14 d 30 -14 d
 29 -14 d 30 -16 d 30 -17 d 29 -17 d 30 -18 d 30 -19 d 29 -20 d 30 -21 d 30 -21 d 29 -22 d 30 -23 d 30 -24 d 29 -25 d 30 -26 d s 0 0 1 c black 0 0 1 c 371 612 m cl s 371 612 m 59 -1 d 59 X 60 -1 d 59 -1 d 59 X 60 -1 d 59 -1 d 59 X 60 -1 d 59 -1 d 59
 X 60 -1 d 59 -1 d 59 -1 d 60 X 59 -1 d 59 -1 d 60 X 59 -1 d 59 -1 d 60 X 59 -1 d 59 -1 d 60 X 59 -1 d 59 -1 d 60 X 59 -1 d s black[  ] 0 sd 3 lw 371 577 m 1661 X s 371 613 m -36 Y s 430 595 m -18 Y s 489 595 m -18 Y s 549 595 m -18 Y s 608 595 m -18
 Y s 667 613 m -36 Y s 727 595 m -18 Y s 786 595 m -18 Y s 845 595 m -18 Y s 905 595 m -18 Y s 964 613 m -36 Y s 1023 595 m -18 Y s 1083 595 m -18 Y s 1142 595 m -18 Y s 1201 595 m -18 Y s 1261 613 m -36 Y s 1320 595 m -18 Y s 1379 595 m -18 Y s 1439
 595 m -18 Y s 1498 595 m -18 Y s 1557 613 m -36 Y s 1617 595 m -18 Y s 1676 595 m -18 Y s 1735 595 m -18 Y s 1795 595 m -18 Y s 1854 613 m -36 Y s 1854 613 m -36 Y s 1913 595 m -18 Y s 1973 595 m -18 Y s 371 2084 m 1661 X s 371 2048 m 36 Y s 430
 2066 m 18 Y s 489 2066 m 18 Y s 549 2066 m 18 Y s 608 2066 m 18 Y s 667 2048 m 36 Y s 727 2066 m 18 Y s 786 2066 m 18 Y s 845 2066 m 18 Y s 905 2066 m 18 Y s 964 2048 m 36 Y s 1023 2066 m 18 Y s 1083 2066 m 18 Y s 1142 2066 m 18 Y s 1201 2066 m 18 Y
 s 1261 2048 m 36 Y s 1320 2066 m 18 Y s 1379 2066 m 18 Y s 1439 2066 m 18 Y s 1498 2066 m 18 Y s 1557 2048 m 36 Y s 1617 2066 m 18 Y s 1676 2066 m 18 Y s 1735 2066 m 18 Y s 1795 2066 m 18 Y s 1854 2048 m 36 Y s 1854 2048 m 36 Y s 1913 2066 m 18 Y s
 1973 2066 m 18 Y s 371 577 m 1507 Y s 433 577 m -62 X s 402 625 m -31 X s 402 673 m -31 X s 402 721 m -31 X s 402 769 m -31 X s 433 817 m -62 X s 402 865 m -31 X s 402 913 m -31 X s 402 961 m -31 X s 402 1009 m -31 X s 433 1057 m -62 X s 402 1105 m
 -31 X s 402 1154 m -31 X s 402 1202 m -31 X s 402 1250 m -31 X s 433 1298 m -62 X s 402 1346 m -31 X s 402 1394 m -31 X s 402 1442 m -31 X s 402 1490 m -31 X s 433 1538 m -62 X s 402 1586 m -31 X s 402 1634 m -31 X s 402 1683 m -31 X s 402 1731 m
 -31 X s 433 1779 m -62 X s 402 1827 m -31 X s 402 1875 m -31 X s 402 1923 m -31 X s 402 1971 m -31 X s 433 2019 m -62 X s 433 2019 m -62 X s 402 2067 m -31 X s 2032 577 m 1507 Y s 1969 577 m 63 X s 2001 625 m 31 X s 2001 673 m 31 X s 2001 721 m 31 X
 s 2001 769 m 31 X s 1969 817 m 63 X s 2001 865 m 31 X s 2001 913 m 31 X s 2001 961 m 31 X s 2001 1009 m 31 X s 1969 1057 m 63 X s 2001 1105 m 31 X s 2001 1154 m 31 X s 2001 1202 m 31 X s 2001 1250 m 31 X s 1969 1298 m 63 X s 2001 1346 m 31 X s 2001
 1394 m 31 X s 2001 1442 m 31 X s 2001 1490 m 31 X s 1969 1538 m 63 X s 2001 1586 m 31 X s 2001 1634 m 31 X s 2001 1683 m 31 X s 2001 1731 m 31 X s 1969 1779 m 63 X s 2001 1827 m 31 X s 2001 1875 m 31 X s 2001 1923 m 31 X s 2001 1971 m 31 X s 1969
 2019 m 63 X s 1969 2019 m 63 X s 2001 2067 m 31 X s 1 1 1 c black
 gsave  2245 1622 11 544 C 662.051 1989.96 t 0 r /Helvetica findfont 60.8983 sf 0 0 m ( Internal) show NC gr 
 gsave  2245 1622 11 544 C 452.782 1989.96 t 0 r /Helvetica-BoldOblique findfont 60.8983 sf 0 0 m (ATLAS) show NC gr 
 gsave  2245 1622 11 544 C 452.782 1902.45 t 0 r /Helvetica findfont 60.8983 sf 0 0 m (data 2015\25518 + mc16a,d,e) show NC gr 
 gsave  2245 1622 11 544 C 1034.93 1818.74 t 0 r /Helvetica findfont 41.8676 sf 0 0 m (\2551) show NC gr 
 gsave  2245 1622 11 544 C 513.661 1792.1 t 0 r /Helvetica findfont 60.8983 sf 0 0 m (=13 TeV, 138.97 fb) show NC gr 
 gsave  2245 1622 11 544 C 483.221 1792.1 t 0 r /Helvetica findfont 60.8983 sf 0 0 m (s) show NC gr  6 lw 464 1826 m 8 -38 d s 3 lw 472 1788 m 4 57 d s 476 1845 m 38 X s
 gsave  2245 1622 11 544 C 635.417 1712.2 t 0 r /Helvetica findfont 60.8983 sf 0 0 m ( CR) show NC gr 
 gsave  2245 1622 11 544 C 597.368 1712.2 t 0 r /Symbol findfont 60.8983 sf 0 0 m (m) show NC gr 
 gsave  2245 1622 11 544 C 559.319 1712.2 t 0 r /Symbol findfont 60.8983 sf 0 0 m (m) show NC gr 
 gsave  2245 1622 11 544 C 525.075 1712.2 t 0 r /Helvetica findfont 60.8983 sf 0 0 m (+) show NC gr 
 gsave  2245 1622 11 544 C 487.026 1712.2 t 0 r /Symbol findfont 60.8983 sf 0 0 m (m) show NC gr 
 gsave  2245 1622 11 544 C 452.782 1712.2 t 0 r /Helvetica findfont 60.8983 sf 0 0 m (e) show NC gr  1 1 1 c 718 438 1269 1598 bl 1269 1598 m 718 X s 1987 1598 m 438 Y s 1987 2036 m -718 X s 1269 2036 m -438 Y s black
 gsave  2245 1622 11 544 C 1445.86 1974.74 t 0 r /Helvetica findfont 72.3167 sf 0 0 m (MC Data) show NC gr  1296 1992 m 125 X s 1358 1966 m 52 Y s 1358 1992 m20
 gsave  2245 1622 11 544 C 1445.86 1887.23 t 0 r /Helvetica findfont 72.3167 sf 0 0 m (Total BG) show NC gr  0.8 0 0 c 9 lw 1296 1904 m 125 X s black
 gsave  2245 1622 11 544 C 1445.86 1799.71 t 0 r /Helvetica findfont 72.3167 sf 0 0 m (Z+HFjets) show NC gr  0.2 0.4 0.2 c[  12 12 ] 0 sd 1296 1817 m 125 X s black
 gsave  2245 1622 11 544 C 1468.69 1712.2 t 0 r /Helvetica findfont 72.3167 sf 0 0 m (t) show NC gr [  ] 0 sd 6 lw 1469 1769 m 23 X s
 gsave  2245 1622 11 544 C 1445.86 1712.2 t 0 r /Helvetica findfont 72.3167 sf 0 0 m (t) show NC gr  1 0.8 0.2 c[  12 12 ] 0 sd 9 lw 1296 1729 m 125 X s black
 gsave  2245 1622 11 544 C 1445.86 1624.69 t 0 r /Helvetica findfont 72.3167 sf 0 0 m (Diboson) show NC gr  0 0 1 c 1296 1642 m 125 X s
 gr  gr showpage
end
%%EOF
