%!PS-Adobe-2.0 EPSF-2.0
%%BoundingBox:  0 0 567 544
%%Title: Results/M3aMC_invD0.eps: Region: invD0
%%Creator: ROOT Version 6.08/06
%%CreationDate: Mon Oct 14 10:11:01 2019
%%DocumentNeededResources: ProcSet (FontSetInit)
%%EndComments
%%BeginProlog
80 dict begin
/s {stroke} def /l {lineto} def /m {moveto} def /t {translate} def
/r {rotate} def /rl {roll}  def /R {repeat} def
/d {rlineto} def /rm {rmoveto} def /gr {grestore} def /f {eofill} def
/c {setrgbcolor} def /black {0 setgray} def /sd {setdash} def
/cl {closepath} def /sf {scalefont setfont} def /lw {setlinewidth} def
/box {m dup 0 exch d exch 0 d 0 exch neg d cl} def
/NC{systemdict begin initclip end}def/C{NC box clip newpath}def
/bl {box s} def /bf {gsave box gsave f grestore 1 lw [] 0 sd s grestore} def /Y { 0 exch d} def /X { 0 d} def 
/K {{pop pop 0 moveto} exch kshow} bind def
/ita {/ang 15 def gsave [1 0 ang dup sin exch cos div 1 0 0] concat} def 
/mp {newpath /y exch def /x exch def} def
/side {[w .77 mul w .23 mul] .385 w mul sd w 0 l currentpoint t -144 r} def
/mr {mp x y w2 0 360 arc} def /m24 {mr s} def /m20 {mr f} def
/mb {mp x y w2 add m w2 neg 0 d 0 w neg d w 0 d 0 w d cl} def
/mt {mp x y w2 add m w2 neg w neg d w 0 d cl} def
/m21 {mb f} def /m25 {mb s} def /m22 {mt f} def /m26{mt s} def
/m23 {mp x y w2 sub m w2 w d w neg 0 d cl f} def
/m27 {mp x y w2 add m w3 neg w2 neg d w3 w2 neg d w3 w2 d cl s} def
/m28 {mp x w2 sub y w2 sub w3 add m w3 0 d  0 w3 neg d w3 0 d 0 w3 d w3 0 d  0 w3 d w3 neg 0 d 0 w3 d w3 neg 0 d 0 w3 neg d w3 neg 0 d cl s } def
/m29 {mp gsave x w2 sub y w2 add w3 sub m currentpoint t 4 {side} repeat cl fill gr} def
/m30 {mp gsave x w2 sub y w2 add w3 sub m currentpoint t 4 {side} repeat cl s gr} def
/m31 {mp x y w2 sub m 0 w d x w2 sub y m w 0 d x w2 sub y w2 add m w w neg d x w2 sub y w2 sub m w w d s} def
/m32 {mp x y w2 sub m w2 w d w neg 0 d cl s} def
/m33 {mp x y w2 add m w3 neg w2 neg d w3 w2 neg d w3 w2 d cl f} def
/m34 {mp x w2 sub y w2 sub w3 add m w3 0 d  0 w3 neg d w3 0 d 0 w3 d w3 0 d  0 w3 d w3 neg 0 d 0 w3 d w3 neg 0 d 0 w3 neg d w3 neg 0 d cl f } def
/m2 {mp x y w2 sub m 0 w d x w2 sub y m w 0 d s} def
/m5 {mp x w2 sub y w2 sub m w w d x w2 sub y w2 add m w w neg d s} def
%%IncludeResource: ProcSet (FontSetInit)
%%IncludeResource: font Times-Roman
%%IncludeResource: font Times-Italic
%%IncludeResource: font Times-Bold
%%IncludeResource: font Times-BoldItalic
%%IncludeResource: font Helvetica
%%IncludeResource: font Helvetica-Oblique
%%IncludeResource: font Helvetica-Bold
%%IncludeResource: font Helvetica-BoldOblique
%%IncludeResource: font Courier
%%IncludeResource: font Courier-Oblique
%%IncludeResource: font Courier-Bold
%%IncludeResource: font Courier-BoldOblique
%%IncludeResource: font Symbol
%%IncludeResource: font ZapfDingbats
/reEncode {exch findfont dup length dict begin {1 index /FID eq  {pop pop} {def} ifelse } forall /Encoding exch def currentdict end dup /FontName get exch definefont pop } def [/Times-Bold /Times-Italic /Times-BoldItalic /Helvetica /Helvetica-Oblique
 /Helvetica-Bold /Helvetica-BoldOblique /Courier /Courier-Oblique /Courier-Bold /Courier-BoldOblique /Times-Roman /AvantGarde-Book /AvantGarde-BookOblique /AvantGarde-Demi /AvantGarde-DemiOblique /Bookman-Demi /Bookman-DemiItalic /Bookman-Light
 /Bookman-LightItalic /Helvetica-Narrow /Helvetica-Narrow-Bold /Helvetica-Narrow-BoldOblique /Helvetica-Narrow-Oblique /NewCenturySchlbk-Roman /NewCenturySchlbk-Bold /NewCenturySchlbk-BoldItalic /NewCenturySchlbk-Italic /Palatino-Bold
 /Palatino-BoldItalic /Palatino-Italic /Palatino-Roman ] {ISOLatin1Encoding reEncode } forall
%%EndProlog
%%BeginSetup
%%EndSetup
newpath  gsave  .25 .25 scale  gsave  0 0 t black[  ] 0 sd 3 lw 1 1 1 c 2268 2176 0 0 bf black 1 1 1 c 2245 533 11 11 bf black 1 1 1 c 1661 288 371 224 bf black 1661 288 371 224 bl 371 224 m 1661 X s 371 512 m 1661 X s 371 224 m 288 Y s[ 4 8] 0 sd
 2032 224 m -1661 X s 2032 296 m -1661 X s 2032 368 m -1661 X s 2032 440 m -1661 X s 2032 512 m -1661 X s[  ] 0 sd 2032 224 m 288 Y s 371 224 m 1661 X s
 gsave  2245 533 11 11 C 1849.18 98.9272 t 0 r /Helvetica findfont 64.7479 sf 0 0 m ( [GeV]) show NC gr 
 gsave  2245 533 11 11 C 1803.52 76.0979 t 0 r /Helvetica findfont 41.8957 sf 0 0 m (12) show NC gr 
 gsave  2245 533 11 11 C 1750.25 98.9272 t 0 r /Helvetica findfont 64.7479 sf 0 0 m (m) show NC gr  371 236 m -12 Y s 430 230 m -6 Y s 489 230 m -6 Y s 549 230 m -6 Y s 608 230 m -6 Y s 667 236 m -12 Y s 727 230 m -6 Y s 786 230 m -6 Y s 845 230 m -6
 Y s 905 230 m -6 Y s 964 236 m -12 Y s 1023 230 m -6 Y s 1083 230 m -6 Y s 1142 230 m -6 Y s 1201 230 m -6 Y s 1261 236 m -12 Y s 1320 230 m -6 Y s 1379 230 m -6 Y s 1439 230 m -6 Y s 1498 230 m -6 Y s 1557 236 m -12 Y s 1617 230 m -6 Y s 1676 230 m
 -6 Y s 1735 230 m -6 Y s 1795 230 m -6 Y s 1854 236 m -12 Y s 1854 236 m -12 Y s 1913 230 m -6 Y s 1973 230 m -6 Y s
 gsave  2245 533 11 11 C 334.831 171.22 t 0 r /Helvetica findfont 57.1305 sf 0 0 m (50) show NC gr 
 gsave  2245 533 11 11 C 631.612 171.22 t 0 r /Helvetica findfont 57.1305 sf 0 0 m (60) show NC gr 
 gsave  2245 533 11 11 C 928.394 171.22 t 0 r /Helvetica findfont 57.1305 sf 0 0 m (70) show NC gr 
 gsave  2245 533 11 11 C 1225.18 171.22 t 0 r /Helvetica findfont 57.1305 sf 0 0 m (80) show NC gr 
 gsave  2245 533 11 11 C 1521.96 171.22 t 0 r /Helvetica findfont 57.1305 sf 0 0 m (90) show NC gr 
 gsave  2245 533 11 11 C 1803.52 171.22 t 0 r /Helvetica findfont 57.1305 sf 0 0 m (100) show NC gr  371 512 m 1661 X s 371 500 m 12 Y s 430 506 m 6 Y s 489 506 m 6 Y s 549 506 m 6 Y s 608 506 m 6 Y s 667 500 m 12 Y s 727 506 m 6 Y s 786 506 m 6 Y s
 845 506 m 6 Y s 905 506 m 6 Y s 964 500 m 12 Y s 1023 506 m 6 Y s 1083 506 m 6 Y s 1142 506 m 6 Y s 1201 506 m 6 Y s 1261 500 m 12 Y s 1320 506 m 6 Y s 1379 506 m 6 Y s 1439 506 m 6 Y s 1498 506 m 6 Y s 1557 500 m 12 Y s 1617 506 m 6 Y s 1676 506 m
 6 Y s 1735 506 m 6 Y s 1795 506 m 6 Y s 1854 500 m 12 Y s 1854 500 m 12 Y s 1913 506 m 6 Y s 1973 506 m 6 Y s 371 224 m 288 Y s
 gsave  2245 533 11 11 C 156.001 407.124 t 90 r /Helvetica findfont 64.7479 sf 0 0 m (Pull) show NC gr  407 224 m -36 X s 389 242 m -18 X s 389 260 m -18 X s 389 278 m -18 X s 407 296 m -36 X s 389 314 m -18 X s 389 332 m -18 X s 389 350 m -18 X s
 407 368 m -36 X s 389 386 m -18 X s 389 404 m -18 X s 389 422 m -18 X s 407 440 m -36 X s 389 458 m -18 X s 389 476 m -18 X s 389 494 m -18 X s 407 512 m -36 X s
 gsave  2245 533 11 11 C 327.221 201.659 t 0 r /Helvetica findfont 57.1305 sf 0 0 m (4) show NC gr 
 gsave  2245 533 11 11 C 292.977 201.659 t 0 r /Symbol findfont 57.1305 sf 0 0 m (-) show NC gr 
 gsave  2245 533 11 11 C 327.221 273.952 t 0 r /Helvetica findfont 57.1305 sf 0 0 m (2) show NC gr 
 gsave  2245 533 11 11 C 292.977 273.952 t 0 r /Symbol findfont 57.1305 sf 0 0 m (-) show NC gr 
 gsave  2245 533 11 11 C 327.221 346.245 t 0 r /Helvetica findfont 57.1305 sf 0 0 m (0) show NC gr 
 gsave  2245 533 11 11 C 327.221 418.538 t 0 r /Helvetica findfont 57.1305 sf 0 0 m (2) show NC gr 
 gsave  2245 533 11 11 C 327.221 490.831 t 0 r /Helvetica findfont 57.1305 sf 0 0 m (4) show NC gr  2032 224 m 288 Y s 1996 224 m 36 X s 2014 242 m 18 X s 2014 260 m 18 X s 2014 278 m 18 X s 1996 296 m 36 X s 2014 314 m 18 X s 2014 332 m 18 X s 2014
 350 m 18 X s 1996 368 m 36 X s 2014 386 m 18 X s 2014 404 m 18 X s 2014 422 m 18 X s 1996 440 m 36 X s 2014 458 m 18 X s 2014 476 m 18 X s 2014 494 m 18 X s 1996 512 m 36 X s 400 331 m 36 Y s 400 367 m cl s 400 331 m -36 Y s 400 295 m cl s 460 365 m
 36 Y s 460 401 m cl s 460 365 m -36 Y s 460 329 m cl s 519 411 m 36 Y s 519 447 m cl s 519 411 m -36 Y s 519 375 m cl s 578 386 m 36 Y s 578 422 m cl s 578 386 m -36 Y s 578 350 m cl s 638 396 m 36 Y s 638 432 m cl s 638 396 m -36 Y s 638 360 m cl s
 697 357 m 36 Y s 697 393 m cl s 697 357 m -36 Y s 697 321 m cl s 756 380 m 36 Y s 756 416 m cl s 756 380 m -36 Y s 756 344 m cl s 816 414 m 36 Y s 816 450 m cl s 816 414 m -36 Y s 816 378 m cl s 875 270 m 36 Y s 875 306 m cl s 875 270 m -36 Y s 875
 234 m cl s 934 382 m 36 Y s 934 418 m cl s 934 382 m -36 Y s 934 346 m cl s 994 280 m 36 Y s 994 316 m cl s 994 280 m -36 Y s 994 244 m cl s 1053 348 m 36 Y s 1053 384 m cl s 1053 348 m -36 Y s 1053 312 m cl s 1112 371 m 36 Y s 1112 407 m cl s 1112
 371 m -36 Y s 1112 335 m cl s 1172 274 m 36 Y s 1172 310 m cl s 1172 274 m -36 Y s 1172 238 m cl s 1231 418 m 36 Y s 1231 454 m cl s 1231 418 m -36 Y s 1231 382 m cl s 1290 407 m 36 Y s 1290 443 m cl s 1290 407 m -36 Y s 1290 371 m cl s 1350 386 m
 36 Y s 1350 422 m cl s 1350 386 m -36 Y s 1350 350 m cl s 1409 370 m 36 Y s 1409 406 m cl s 1409 370 m -36 Y s 1409 334 m cl s 1468 403 m 36 Y s 1468 439 m cl s 1468 403 m -36 Y s 1468 367 m cl s 1528 355 m 36 Y s 1528 391 m cl s 1528 355 m -36 Y s
 1528 319 m cl s 1587 275 m 36 Y s 1587 311 m cl s 1587 275 m -36 Y s 1587 239 m cl s 1646 343 m 36 Y s 1646 379 m cl s 1646 343 m -36 Y s 1646 307 m cl s 1706 409 m 36 Y s 1706 445 m cl s 1706 409 m -36 Y s 1706 373 m cl s 1765 463 m 36 Y s 1765 499
 m cl s 1765 463 m -36 Y s 1765 427 m cl s 1824 449 m 36 Y s 1824 485 m cl s 1824 449 m -36 Y s 1824 413 m cl s 1884 341 m 36 Y s 1884 377 m cl s 1884 341 m -36 Y s 1884 305 m cl s 1943 319 m 36 Y s 1943 355 m cl s 1943 319 m -36 Y s 1943 283 m cl s
 2002 333 m 36 Y s 2002 369 m cl s 2002 333 m -36 Y s 2002 297 m cl s /w 37 def /w2 {w 2 div} def /w3 {w 3 div} def 400 331 460 365 519 411 578 386 638 396 697 357 756 380 816 414 875 270 934 382 994 280 1053 348 1112 371 1172 274 1231 418 1290 407
 1350 386 1409 370 1468 403 1528 355 1587 275 1646 343 1706 409 1765 463 1824 449 1884 341 1943 319 2002 333 28 { m20} R 371 224 m 1661 X s 371 236 m -12 Y s 430 230 m -6 Y s 489 230 m -6 Y s 549 230 m -6 Y s 608 230 m -6 Y s 667 236 m -12 Y s 727
 230 m -6 Y s 786 230 m -6 Y s 845 230 m -6 Y s 905 230 m -6 Y s 964 236 m -12 Y s 1023 230 m -6 Y s 1083 230 m -6 Y s 1142 230 m -6 Y s 1201 230 m -6 Y s 1261 236 m -12 Y s 1320 230 m -6 Y s 1379 230 m -6 Y s 1439 230 m -6 Y s 1498 230 m -6 Y s 1557
 236 m -12 Y s 1617 230 m -6 Y s 1676 230 m -6 Y s 1735 230 m -6 Y s 1795 230 m -6 Y s 1854 236 m -12 Y s 1854 236 m -12 Y s 1913 230 m -6 Y s 1973 230 m -6 Y s 371 512 m 1661 X s 371 500 m 12 Y s 430 506 m 6 Y s 489 506 m 6 Y s 549 506 m 6 Y s 608
 506 m 6 Y s 667 500 m 12 Y s 727 506 m 6 Y s 786 506 m 6 Y s 845 506 m 6 Y s 905 506 m 6 Y s 964 500 m 12 Y s 1023 506 m 6 Y s 1083 506 m 6 Y s 1142 506 m 6 Y s 1201 506 m 6 Y s 1261 500 m 12 Y s 1320 506 m 6 Y s 1379 506 m 6 Y s 1439 506 m 6 Y s
 1498 506 m 6 Y s 1557 500 m 12 Y s 1617 506 m 6 Y s 1676 506 m 6 Y s 1735 506 m 6 Y s 1795 506 m 6 Y s 1854 500 m 12 Y s 1854 500 m 12 Y s 1913 506 m 6 Y s 1973 506 m 6 Y s 371 224 m 288 Y s 407 224 m -36 X s 389 242 m -18 X s 389 260 m -18 X s 389
 278 m -18 X s 407 296 m -36 X s 389 314 m -18 X s 389 332 m -18 X s 389 350 m -18 X s 407 368 m -36 X s 389 386 m -18 X s 389 404 m -18 X s 389 422 m -18 X s 407 440 m -36 X s 389 458 m -18 X s 389 476 m -18 X s 389 494 m -18 X s 407 512 m -36 X s
 2032 224 m 288 Y s 1996 224 m 36 X s 2014 242 m 18 X s 2014 260 m 18 X s 2014 278 m 18 X s 1996 296 m 36 X s 2014 314 m 18 X s 2014 332 m 18 X s 2014 350 m 18 X s 1996 368 m 36 X s 2014 386 m 18 X s 2014 404 m 18 X s 2014 422 m 18 X s 1996 440 m 36
 X s 2014 458 m 18 X s 2014 476 m 18 X s 2014 494 m 18 X s 1996 512 m 36 X s[  12 12 ] 0 sd 6 lw 371 368 m 1661 X s[  ] 0 sd 3 lw 1 1 1 c 2245 1622 11 544 bf black 1 1 1 c 1661 1507 371 577 bf black 1661 1507 371 577 bl 371 577 m 1661 X s 371 613 m
 -36 Y s 430 595 m -18 Y s 489 595 m -18 Y s 549 595 m -18 Y s 608 595 m -18 Y s 667 613 m -36 Y s 727 595 m -18 Y s 786 595 m -18 Y s 845 595 m -18 Y s 905 595 m -18 Y s 964 613 m -36 Y s 1023 595 m -18 Y s 1083 595 m -18 Y s 1142 595 m -18 Y s 1201
 595 m -18 Y s 1261 613 m -36 Y s 1320 595 m -18 Y s 1379 595 m -18 Y s 1439 595 m -18 Y s 1498 595 m -18 Y s 1557 613 m -36 Y s 1617 595 m -18 Y s 1676 595 m -18 Y s 1735 595 m -18 Y s 1795 595 m -18 Y s 1854 613 m -36 Y s 1854 613 m -36 Y s 1913
 595 m -18 Y s 1973 595 m -18 Y s 371 2084 m 1661 X s 371 2048 m 36 Y s 430 2066 m 18 Y s 489 2066 m 18 Y s 549 2066 m 18 Y s 608 2066 m 18 Y s 667 2048 m 36 Y s 727 2066 m 18 Y s 786 2066 m 18 Y s 845 2066 m 18 Y s 905 2066 m 18 Y s 964 2048 m 36 Y
 s 1023 2066 m 18 Y s 1083 2066 m 18 Y s 1142 2066 m 18 Y s 1201 2066 m 18 Y s 1261 2048 m 36 Y s 1320 2066 m 18 Y s 1379 2066 m 18 Y s 1439 2066 m 18 Y s 1498 2066 m 18 Y s 1557 2048 m 36 Y s 1617 2066 m 18 Y s 1676 2066 m 18 Y s 1735 2066 m 18 Y s
 1795 2066 m 18 Y s 1854 2048 m 36 Y s 1854 2048 m 36 Y s 1913 2066 m 18 Y s 1973 2066 m 18 Y s 371 577 m 1507 Y s
 gsave  2245 1622 11 544 C 152.196 1666.54 t 90 r /Helvetica findfont 64.7045 sf 0 0 m (Events / 2GeV) show NC gr  433 577 m -62 X s 402 638 m -31 X s 402 699 m -31 X s 402 760 m -31 X s 433 821 m -62 X s 402 882 m -31 X s 402 943 m -31 X s 402 1005
 m -31 X s 433 1066 m -62 X s 402 1127 m -31 X s 402 1188 m -31 X s 402 1249 m -31 X s 433 1310 m -62 X s 402 1372 m -31 X s 402 1433 m -31 X s 402 1494 m -31 X s 433 1555 m -62 X s 402 1616 m -31 X s 402 1677 m -31 X s 402 1738 m -31 X s 433 1800 m
 -62 X s 402 1861 m -31 X s 402 1922 m -31 X s 402 1983 m -31 X s 433 2044 m -62 X s 433 2044 m -62 X s
 gsave  2245 1622 11 544 C 327.221 555.514 t 0 r /Helvetica findfont 57.0922 sf 0 0 m (0) show NC gr 
 gsave  2245 1622 11 544 C 262.538 799.028 t 0 r /Helvetica findfont 57.0922 sf 0 0 m (200) show NC gr 
 gsave  2245 1622 11 544 C 262.538 1046.35 t 0 r /Helvetica findfont 57.0922 sf 0 0 m (400) show NC gr 
 gsave  2245 1622 11 544 C 262.538 1289.86 t 0 r /Helvetica findfont 57.0922 sf 0 0 m (600) show NC gr 
 gsave  2245 1622 11 544 C 262.538 1533.37 t 0 r /Helvetica findfont 57.0922 sf 0 0 m (800) show NC gr 
 gsave  2245 1622 11 544 C 232.099 1776.89 t 0 r /Helvetica findfont 57.0922 sf 0 0 m (1000) show NC gr 
 gsave  2245 1622 11 544 C 232.099 2024.2 t 0 r /Helvetica findfont 57.0922 sf 0 0 m (1200) show NC gr  2032 577 m 1507 Y s 1969 577 m 63 X s 2001 638 m 31 X s 2001 699 m 31 X s 2001 760 m 31 X s 1969 821 m 63 X s 2001 882 m 31 X s 2001 943 m 31 X s
 2001 1005 m 31 X s 1969 1066 m 63 X s 2001 1127 m 31 X s 2001 1188 m 31 X s 2001 1249 m 31 X s 1969 1310 m 63 X s 2001 1372 m 31 X s 2001 1433 m 31 X s 2001 1494 m 31 X s 1969 1555 m 63 X s 2001 1616 m 31 X s 2001 1677 m 31 X s 2001 1738 m 31 X s
 1969 1800 m 63 X s 2001 1861 m 31 X s 2001 1922 m 31 X s 2001 1983 m 31 X s 1969 2044 m 63 X s 1969 2044 m 63 X s 400 662 m -29 X s 371 662 m cl s 400 662 m 30 X s 430 662 m cl s 400 662 m 1 Y s 400 663 m cl s 400 662 m -1 Y s 400 661 m cl s 460 668
 m -30 X s 430 668 m cl s 460 668 m 29 X s 489 668 m cl s 460 668 m 2 Y s 460 670 m cl s 460 668 m -1 Y s 460 667 m cl s 519 675 m -30 X s 489 675 m cl s 519 675 m 30 X s 549 675 m cl s 519 675 m 1 Y s 519 676 m cl s 519 675 m -2 Y s 519 673 m cl s
 578 678 m -29 X s 549 678 m cl s 578 678 m 30 X s 608 678 m cl s 578 678 m 1 Y s 578 679 m cl s 578 678 m -1 Y s 578 677 m cl s 638 683 m -30 X s 608 683 m cl s 638 683 m 29 X s 667 683 m cl s 638 683 m 2 Y s 638 685 m cl s 638 683 m -2 Y s 638 681
 m cl s 697 685 m -30 X s 667 685 m cl s 697 685 m 30 X s 727 685 m cl s 697 685 m 1 Y s 697 686 m cl s 697 685 m -2 Y s 697 683 m cl s 756 689 m -29 X s 727 689 m cl s 756 689 m 30 X s 786 689 m cl s 756 689 m 2 Y s 756 691 m cl s 756 689 m -2 Y s
 756 687 m cl s 816 695 m -30 X s 786 695 m cl s 816 695 m 29 X s 845 695 m cl s 816 695 m 2 Y s 816 697 m cl s 816 695 m -3 Y s 816 692 m cl s 875 690 m -30 X s 845 690 m cl s 875 690 m 30 X s 905 690 m cl s 875 690 m 2 Y s 875 692 m cl s 875 690 m
 -1 Y s 875 689 m cl s 934 698 m -29 X s 905 698 m cl s 934 698 m 30 X s 964 698 m cl s 934 698 m 3 Y s 934 701 m cl s 934 698 m -3 Y s 934 695 m cl s 994 696 m -30 X s 964 696 m cl s 994 696 m 29 X s 1023 696 m cl s 994 696 m 1 Y s 994 697 m cl s
 994 696 m -1 Y s 994 695 m cl s 1053 702 m -30 X s 1023 702 m cl s 1053 702 m 30 X s 1083 702 m cl s 1053 702 m 1 Y s 1053 703 m cl s 1053 702 m -2 Y s 1053 700 m cl s 1112 707 m -29 X s 1083 707 m cl s 1112 707 m 30 X s 1142 707 m cl s 1112 707 m 2
 Y s 1112 709 m cl s 1112 707 m -2 Y s 1112 705 m cl s 1172 708 m -30 X s 1142 708 m cl s 1172 708 m 29 X s 1201 708 m cl s 1172 708 m 2 Y s 1172 710 m cl s 1172 708 m -2 Y s 1172 706 m cl s 1231 727 m -30 X s 1201 727 m cl s 1231 727 m 30 X s 1261
 727 m cl s 1231 727 m 3 Y s 1231 730 m cl s 1231 727 m -4 Y s 1231 723 m cl s 1290 743 m -29 X s 1261 743 m cl s 1290 743 m 30 X s 1320 743 m cl s 1290 743 m 4 Y s 1290 747 m cl s 1290 743 m -4 Y s 1290 739 m cl s 1350 773 m -30 X s 1320 773 m cl s
 1350 773 m 29 X s 1379 773 m cl s 1350 773 m 4 Y s 1350 777 m cl s 1350 773 m -4 Y s 1350 769 m cl s 1409 841 m -30 X s 1379 841 m cl s 1409 841 m 30 X s 1439 841 m cl s 1409 841 m 4 Y s 1409 845 m cl s 1409 841 m -4 Y s 1409 837 m cl s 1468 1015 m
 -29 X s 1439 1015 m cl s 1468 1015 m 30 X s 1498 1015 m cl s 1468 1015 m 9 Y s 1468 1024 m cl s 1468 1015 m -8 Y s 1468 1007 m cl s 1528 1330 m -30 X s 1498 1330 m cl s 1528 1330 m 29 X s 1557 1330 m cl s 1528 1330 m 11 Y s 1528 1341 m cl s 1528
 1330 m -10 Y s 1528 1320 m cl s 1587 1506 m -30 X s 1557 1506 m cl s 1587 1506 m 30 X s 1617 1506 m cl s 1587 1506 m 10 Y s 1587 1516 m cl s 1587 1506 m -10 Y s 1587 1496 m cl s 1646 1233 m -29 X s 1617 1233 m cl s 1646 1233 m 30 X s 1676 1233 m cl
 s 1646 1233 m 9 Y s 1646 1242 m cl s 1646 1233 m -10 Y s 1646 1223 m cl s 1706 909 m -30 X s 1676 909 m cl s 1706 909 m 29 X s 1735 909 m cl s 1706 909 m 8 Y s 1706 917 m cl s 1706 909 m -9 Y s 1706 900 m cl s 1765 762 m -30 X s 1735 762 m cl s 1765
 762 m 30 X s 1795 762 m cl s 1765 762 m 4 Y s 1765 766 m cl s 1765 762 m -4 Y s 1765 758 m cl s 1824 709 m -29 X s 1795 709 m cl s 1824 709 m 30 X s 1854 709 m cl s 1824 709 m 3 Y s 1824 712 m cl s 1824 709 m -4 Y s 1824 705 m cl s 1884 676 m -30 X
 s 1854 676 m cl s 1884 676 m 29 X s 1913 676 m cl s 1884 676 m 3 Y s 1884 679 m cl s 1884 676 m -2 Y s 1884 674 m cl s 1943 662 m -30 X s 1913 662 m cl s 1943 662 m 30 X s 1973 662 m cl s 1943 662 m 1 Y s 1943 663 m cl s 1943 662 m -1 Y s 1943 661 m
 cl s 2002 651 m -29 X s 1973 651 m cl s 2002 651 m 30 X s 2032 651 m cl s 2002 651 m 1 Y s 2002 652 m cl s 2002 651 m -1 Y s 2002 650 m cl s 400 662 460 668 519 675 578 678 638 683 697 685 756 689 816 695 875 690 934 698 994 696 1053 702 1112 707
 1172 708 1231 727 1290 743 1350 773 1409 841 1468 1015 1528 1330 1587 1506 1646 1233 1706 909 1765 762 1824 709 1884 676 1943 662 2002 651 28 { m20} R 0.8 0 0 c 9 lw black 0.8 0 0 c 371 661 m cl s 371 661 m 59 5 d 59 5 d 60 4 d 59 4 d 59 4 d 60 4 d
 59 3 d 59 3 d 60 2 d 59 3 d 59 3 d 60 3 d 59 5 d 59 8 d 30 5 d 30 7 d 29 10 d 30 13 d 15 9 d 15 10 d 14 13 d 15 15 d 15 19 d 15 23 d 15 29 d 7 17 d 8 19 d 7 21 d 7 24 d 8 27 d 7 29 d 8 33 d 7 35 d 7 39 d 8 41 d 15 89 d 15 90 d 14 84 d 8 35 d 7 31 d
 4 13 d 4 11 d 7 17 d 4 6 d 3 2 d 4 1 d 4 -2 d 4 -4 d 3 -6 d 4 -9 d 4 -12 d 3 -14 d 4 -16 d 4 -17 d 4 -20 d 59 -390 d 7 -41 d 8 -38 d 7 -35 d 8 -31 d 7 -28 d 7 -24 d 8 -22 d 7 -19 d 8 -16 d 7 -15 d 15 -23 d 15 -18 d 15 -13 d 14 -11 d 15 -9 d 30 -13 d
 30 -10 d 29 -8 d 60 -12 d 59 -11 d s 0.2 0.4 0.2 c[  12 12 ] 0 sd black 0.2 0.4 0.2 c 371 578 m cl s 371 578 m 59 X 59 1 d 119 X 59 1 d 60 1 d 59 1 d 59 1 d 60 1 d 59 2 d 59 2 d 60 4 d 59 5 d 59 7 d 30 6 d 30 8 d 29 10 d 30 13 d 15 9 d 15 10 d 14 13
 d 15 15 d 15 19 d 15 22 d 15 29 d 7 16 d 8 19 d 7 20 d 7 24 d 8 25 d 7 28 d 8 32 d 7 34 d 7 36 d 8 39 d 30 164 d 7 37 d 7 35 d 8 29 d 7 25 d 4 9 d 4 8 d 3 6 d 4 5 d 4 2 d 3 1 d 4 -2 d 4 -3 d 4 -5 d 3 -7 d 4 -9 d 4 -10 d 3 -13 d 4 -13 d 8 -31 d 7 -37
 d 7 -39 d 15 -86 d 15 -87 d 15 -82 d 7 -37 d 8 -34 d 7 -32 d 8 -29 d 7 -25 d 7 -23 d 8 -20 d 7 -17 d 8 -15 d 7 -13 d 15 -21 d 15 -16 d 15 -12 d 14 -9 d 15 -7 d 30 -10 d 30 -6 d 29 -5 d 60 -6 d 59 -4 d s 1 0.8 0.2 c black 1 0.8 0.2 c 371 656 m cl s
 371 656 m 29 3 d 30 2 d 30 3 d 29 2 d 30 2 d 30 2 d 29 2 d 30 2 d 30 1 d 29 2 d 30 1 d 30 2 d 29 1 d 30 1 d 30 1 d 29 1 d 30 1 d 30 1 d 29 X 30 1 d 30 X 29 1 d 149 X 29 -1 d 30 X 30 -1 d 29 X 30 -1 d 30 -1 d 29 -1 d 30 -1 d 30 -1 d 29 -1 d 30 -2 d
 30 -1 d 29 -2 d 30 -1 d 30 -2 d 29 -2 d 30 -2 d 30 -2 d 29 -2 d 30 -3 d 30 -2 d 29 -3 d 30 -2 d 30 -3 d 29 -3 d 30 -3 d 30 -3 d 29 -3 d 30 -3 d s 0 0 1 c black 0 0 1 c 371 579 m cl s 371 579 m 118 X 60 1 d 178 X 59 -1 d 178 X 59 -1 d 178 X 60 1 d 59
 X 30 1 d 29 1 d 15 1 d 15 1 d 15 1 d 15 1 d 14 2 d 8 2 d 7 1 d 8 2 d 7 2 d 7 2 d 8 3 d 7 3 d 4 2 d 4 2 d 7 4 d 4 3 d 4 2 d 3 3 d 4 3 d 7 6 d 8 7 d 7 7 d 8 7 d 7 7 d 4 3 d 3 3 d 4 2 d 4 2 d 4 1 d 1 1 d 6 X 4 -1 d 3 -2 d 4 -1 d 4 -3 d 4 -3 d 3 -3 d 4
 -5 d 7 -7 d 4 -5 d 4 -4 d 2 -2 d 1 -2 d 4 -4 d 8 -7 d 3 -4 d 4 -3 d 4 -3 d 3 -2 d 4 -3 d 4 -2 d 4 -2 d 3 -2 d 4 -1 d 4 -1 d 7 -3 d 8 -2 d 7 -2 d 7 -1 d 15 -2 d 15 -2 d 15 -1 d 15 -1 d 15 X 29 -1 d 30 -1 d 59 -1 d 60 X 59 -1 d s black[  ] 0 sd 3 lw
 371 577 m 1661 X s 371 613 m -36 Y s 430 595 m -18 Y s 489 595 m -18 Y s 549 595 m -18 Y s 608 595 m -18 Y s 667 613 m -36 Y s 727 595 m -18 Y s 786 595 m -18 Y s 845 595 m -18 Y s 905 595 m -18 Y s 964 613 m -36 Y s 1023 595 m -18 Y s 1083 595 m
 -18 Y s 1142 595 m -18 Y s 1201 595 m -18 Y s 1261 613 m -36 Y s 1320 595 m -18 Y s 1379 595 m -18 Y s 1439 595 m -18 Y s 1498 595 m -18 Y s 1557 613 m -36 Y s 1617 595 m -18 Y s 1676 595 m -18 Y s 1735 595 m -18 Y s 1795 595 m -18 Y s 1854 613 m
 -36 Y s 1854 613 m -36 Y s 1913 595 m -18 Y s 1973 595 m -18 Y s 371 2084 m 1661 X s 371 2048 m 36 Y s 430 2066 m 18 Y s 489 2066 m 18 Y s 549 2066 m 18 Y s 608 2066 m 18 Y s 667 2048 m 36 Y s 727 2066 m 18 Y s 786 2066 m 18 Y s 845 2066 m 18 Y s
 905 2066 m 18 Y s 964 2048 m 36 Y s 1023 2066 m 18 Y s 1083 2066 m 18 Y s 1142 2066 m 18 Y s 1201 2066 m 18 Y s 1261 2048 m 36 Y s 1320 2066 m 18 Y s 1379 2066 m 18 Y s 1439 2066 m 18 Y s 1498 2066 m 18 Y s 1557 2048 m 36 Y s 1617 2066 m 18 Y s 1676
 2066 m 18 Y s 1735 2066 m 18 Y s 1795 2066 m 18 Y s 1854 2048 m 36 Y s 1854 2048 m 36 Y s 1913 2066 m 18 Y s 1973 2066 m 18 Y s 371 577 m 1507 Y s 433 577 m -62 X s 402 638 m -31 X s 402 699 m -31 X s 402 760 m -31 X s 433 821 m -62 X s 402 882 m
 -31 X s 402 943 m -31 X s 402 1005 m -31 X s 433 1066 m -62 X s 402 1127 m -31 X s 402 1188 m -31 X s 402 1249 m -31 X s 433 1310 m -62 X s 402 1372 m -31 X s 402 1433 m -31 X s 402 1494 m -31 X s 433 1555 m -62 X s 402 1616 m -31 X s 402 1677 m -31
 X s 402 1738 m -31 X s 433 1800 m -62 X s 402 1861 m -31 X s 402 1922 m -31 X s 402 1983 m -31 X s 433 2044 m -62 X s 433 2044 m -62 X s 2032 577 m 1507 Y s 1969 577 m 63 X s 2001 638 m 31 X s 2001 699 m 31 X s 2001 760 m 31 X s 1969 821 m 63 X s
 2001 882 m 31 X s 2001 943 m 31 X s 2001 1005 m 31 X s 1969 1066 m 63 X s 2001 1127 m 31 X s 2001 1188 m 31 X s 2001 1249 m 31 X s 1969 1310 m 63 X s 2001 1372 m 31 X s 2001 1433 m 31 X s 2001 1494 m 31 X s 1969 1555 m 63 X s 2001 1616 m 31 X s 2001
 1677 m 31 X s 2001 1738 m 31 X s 1969 1800 m 63 X s 2001 1861 m 31 X s 2001 1922 m 31 X s 2001 1983 m 31 X s 1969 2044 m 63 X s 1969 2044 m 63 X s 1 1 1 c black
 gsave  2245 1622 11 544 C 662.051 1989.96 t 0 r /Helvetica findfont 60.8983 sf 0 0 m ( Internal) show NC gr 
 gsave  2245 1622 11 544 C 452.782 1989.96 t 0 r /Helvetica-BoldOblique findfont 60.8983 sf 0 0 m (ATLAS) show NC gr 
 gsave  2245 1622 11 544 C 452.782 1902.45 t 0 r /Helvetica findfont 60.8983 sf 0 0 m (data 2015\25518 + mc16a,d,e) show NC gr 
 gsave  2245 1622 11 544 C 1034.93 1818.74 t 0 r /Helvetica findfont 41.8676 sf 0 0 m (\2551) show NC gr 
 gsave  2245 1622 11 544 C 513.661 1792.1 t 0 r /Helvetica findfont 60.8983 sf 0 0 m (=13 TeV, 138.97 fb) show NC gr 
 gsave  2245 1622 11 544 C 483.221 1792.1 t 0 r /Helvetica findfont 60.8983 sf 0 0 m (s) show NC gr  6 lw 464 1826 m 8 -38 d s 3 lw 472 1788 m 4 57 d s 476 1845 m 38 X s
 gsave  2245 1622 11 544 C 745.759 1712.2 t 0 r /Helvetica findfont 60.8983 sf 0 0 m ( CR) show NC gr 
 gsave  2245 1622 11 544 C 722.93 1689.37 t 0 r /Helvetica findfont 41.8676 sf 0 0 m (0) show NC gr 
 gsave  2245 1622 11 544 C 452.782 1712.2 t 0 r /Helvetica findfont 60.8983 sf 0 0 m (Inverted d) show NC gr  1 1 1 c 718 438 1269 1598 bl 1269 1598 m 718 X s 1987 1598 m 438 Y s 1987 2036 m -718 X s 1269 2036 m -438 Y s black
 gsave  2245 1622 11 544 C 1445.86 1974.74 t 0 r /Helvetica findfont 72.3167 sf 0 0 m (MC Data) show NC gr  1296 1992 m 125 X s 1358 1966 m 52 Y s 1358 1992 m20
 gsave  2245 1622 11 544 C 1445.86 1887.23 t 0 r /Helvetica findfont 72.3167 sf 0 0 m (Total BG) show NC gr  0.8 0 0 c 9 lw 1296 1904 m 125 X s black
 gsave  2245 1622 11 544 C 1445.86 1799.71 t 0 r /Helvetica findfont 72.3167 sf 0 0 m (Z+HFjets) show NC gr  0.2 0.4 0.2 c[  12 12 ] 0 sd 1296 1817 m 125 X s black
 gsave  2245 1622 11 544 C 1468.69 1712.2 t 0 r /Helvetica findfont 72.3167 sf 0 0 m (t) show NC gr [  ] 0 sd 6 lw 1469 1769 m 23 X s
 gsave  2245 1622 11 544 C 1445.86 1712.2 t 0 r /Helvetica findfont 72.3167 sf 0 0 m (t) show NC gr  1 0.8 0.2 c[  12 12 ] 0 sd 9 lw 1296 1729 m 125 X s black
 gsave  2245 1622 11 544 C 1445.86 1624.69 t 0 r /Helvetica findfont 72.3167 sf 0 0 m (Diboson) show NC gr  0 0 1 c 1296 1642 m 125 X s
 gr  gr showpage
end
%%EOF
