%!PS-Adobe-2.0 EPSF-2.0
%%BoundingBox:  0 0 567 544
%%Title: Results/M3bData_invIso.eps: Region: invIso
%%Creator: ROOT Version 6.08/06
%%CreationDate: Mon Oct 14 11:01:51 2019
%%DocumentNeededResources: ProcSet (FontSetInit)
%%EndComments
%%BeginProlog
80 dict begin
/s {stroke} def /l {lineto} def /m {moveto} def /t {translate} def
/r {rotate} def /rl {roll}  def /R {repeat} def
/d {rlineto} def /rm {rmoveto} def /gr {grestore} def /f {eofill} def
/c {setrgbcolor} def /black {0 setgray} def /sd {setdash} def
/cl {closepath} def /sf {scalefont setfont} def /lw {setlinewidth} def
/box {m dup 0 exch d exch 0 d 0 exch neg d cl} def
/NC{systemdict begin initclip end}def/C{NC box clip newpath}def
/bl {box s} def /bf {gsave box gsave f grestore 1 lw [] 0 sd s grestore} def /Y { 0 exch d} def /X { 0 d} def 
/K {{pop pop 0 moveto} exch kshow} bind def
/ita {/ang 15 def gsave [1 0 ang dup sin exch cos div 1 0 0] concat} def 
/mp {newpath /y exch def /x exch def} def
/side {[w .77 mul w .23 mul] .385 w mul sd w 0 l currentpoint t -144 r} def
/mr {mp x y w2 0 360 arc} def /m24 {mr s} def /m20 {mr f} def
/mb {mp x y w2 add m w2 neg 0 d 0 w neg d w 0 d 0 w d cl} def
/mt {mp x y w2 add m w2 neg w neg d w 0 d cl} def
/m21 {mb f} def /m25 {mb s} def /m22 {mt f} def /m26{mt s} def
/m23 {mp x y w2 sub m w2 w d w neg 0 d cl f} def
/m27 {mp x y w2 add m w3 neg w2 neg d w3 w2 neg d w3 w2 d cl s} def
/m28 {mp x w2 sub y w2 sub w3 add m w3 0 d  0 w3 neg d w3 0 d 0 w3 d w3 0 d  0 w3 d w3 neg 0 d 0 w3 d w3 neg 0 d 0 w3 neg d w3 neg 0 d cl s } def
/m29 {mp gsave x w2 sub y w2 add w3 sub m currentpoint t 4 {side} repeat cl fill gr} def
/m30 {mp gsave x w2 sub y w2 add w3 sub m currentpoint t 4 {side} repeat cl s gr} def
/m31 {mp x y w2 sub m 0 w d x w2 sub y m w 0 d x w2 sub y w2 add m w w neg d x w2 sub y w2 sub m w w d s} def
/m32 {mp x y w2 sub m w2 w d w neg 0 d cl s} def
/m33 {mp x y w2 add m w3 neg w2 neg d w3 w2 neg d w3 w2 d cl f} def
/m34 {mp x w2 sub y w2 sub w3 add m w3 0 d  0 w3 neg d w3 0 d 0 w3 d w3 0 d  0 w3 d w3 neg 0 d 0 w3 d w3 neg 0 d 0 w3 neg d w3 neg 0 d cl f } def
/m2 {mp x y w2 sub m 0 w d x w2 sub y m w 0 d s} def
/m5 {mp x w2 sub y w2 sub m w w d x w2 sub y w2 add m w w neg d s} def
%%IncludeResource: ProcSet (FontSetInit)
%%IncludeResource: font Times-Roman
%%IncludeResource: font Times-Italic
%%IncludeResource: font Times-Bold
%%IncludeResource: font Times-BoldItalic
%%IncludeResource: font Helvetica
%%IncludeResource: font Helvetica-Oblique
%%IncludeResource: font Helvetica-Bold
%%IncludeResource: font Helvetica-BoldOblique
%%IncludeResource: font Courier
%%IncludeResource: font Courier-Oblique
%%IncludeResource: font Courier-Bold
%%IncludeResource: font Courier-BoldOblique
%%IncludeResource: font Symbol
%%IncludeResource: font ZapfDingbats
/reEncode {exch findfont dup length dict begin {1 index /FID eq  {pop pop} {def} ifelse } forall /Encoding exch def currentdict end dup /FontName get exch definefont pop } def [/Times-Bold /Times-Italic /Times-BoldItalic /Helvetica /Helvetica-Oblique
 /Helvetica-Bold /Helvetica-BoldOblique /Courier /Courier-Oblique /Courier-Bold /Courier-BoldOblique /Times-Roman /AvantGarde-Book /AvantGarde-BookOblique /AvantGarde-Demi /AvantGarde-DemiOblique /Bookman-Demi /Bookman-DemiItalic /Bookman-Light
 /Bookman-LightItalic /Helvetica-Narrow /Helvetica-Narrow-Bold /Helvetica-Narrow-BoldOblique /Helvetica-Narrow-Oblique /NewCenturySchlbk-Roman /NewCenturySchlbk-Bold /NewCenturySchlbk-BoldItalic /NewCenturySchlbk-Italic /Palatino-Bold
 /Palatino-BoldItalic /Palatino-Italic /Palatino-Roman ] {ISOLatin1Encoding reEncode } forall
%%EndProlog
%%BeginSetup
%%EndSetup
newpath  gsave  .25 .25 scale  gsave  0 0 t black[  ] 0 sd 3 lw 1 1 1 c 2268 2176 0 0 bf black 1 1 1 c 2245 533 11 11 bf black 1 1 1 c 1661 288 371 224 bf black 1661 288 371 224 bl 371 224 m 1661 X s 371 512 m 1661 X s 371 224 m 288 Y s[ 4 8] 0 sd
 2032 224 m -1661 X s 2032 296 m -1661 X s 2032 368 m -1661 X s 2032 440 m -1661 X s 2032 512 m -1661 X s[  ] 0 sd 2032 224 m 288 Y s 371 224 m 1661 X s
 gsave  2245 533 11 11 C 1849.18 98.9272 t 0 r /Helvetica findfont 64.7479 sf 0 0 m ( [GeV]) show NC gr 
 gsave  2245 533 11 11 C 1803.52 76.0979 t 0 r /Helvetica findfont 41.8957 sf 0 0 m (12) show NC gr 
 gsave  2245 533 11 11 C 1750.25 98.9272 t 0 r /Helvetica findfont 64.7479 sf 0 0 m (m) show NC gr  371 236 m -12 Y s 430 230 m -6 Y s 489 230 m -6 Y s 549 230 m -6 Y s 608 230 m -6 Y s 667 236 m -12 Y s 727 230 m -6 Y s 786 230 m -6 Y s 845 230 m -6
 Y s 905 230 m -6 Y s 964 236 m -12 Y s 1023 230 m -6 Y s 1083 230 m -6 Y s 1142 230 m -6 Y s 1201 230 m -6 Y s 1261 236 m -12 Y s 1320 230 m -6 Y s 1379 230 m -6 Y s 1439 230 m -6 Y s 1498 230 m -6 Y s 1557 236 m -12 Y s 1617 230 m -6 Y s 1676 230 m
 -6 Y s 1735 230 m -6 Y s 1795 230 m -6 Y s 1854 236 m -12 Y s 1854 236 m -12 Y s 1913 230 m -6 Y s 1973 230 m -6 Y s
 gsave  2245 533 11 11 C 334.831 171.22 t 0 r /Helvetica findfont 57.1305 sf 0 0 m (50) show NC gr 
 gsave  2245 533 11 11 C 631.612 171.22 t 0 r /Helvetica findfont 57.1305 sf 0 0 m (60) show NC gr 
 gsave  2245 533 11 11 C 928.394 171.22 t 0 r /Helvetica findfont 57.1305 sf 0 0 m (70) show NC gr 
 gsave  2245 533 11 11 C 1225.18 171.22 t 0 r /Helvetica findfont 57.1305 sf 0 0 m (80) show NC gr 
 gsave  2245 533 11 11 C 1521.96 171.22 t 0 r /Helvetica findfont 57.1305 sf 0 0 m (90) show NC gr 
 gsave  2245 533 11 11 C 1803.52 171.22 t 0 r /Helvetica findfont 57.1305 sf 0 0 m (100) show NC gr  371 512 m 1661 X s 371 500 m 12 Y s 430 506 m 6 Y s 489 506 m 6 Y s 549 506 m 6 Y s 608 506 m 6 Y s 667 500 m 12 Y s 727 506 m 6 Y s 786 506 m 6 Y s
 845 506 m 6 Y s 905 506 m 6 Y s 964 500 m 12 Y s 1023 506 m 6 Y s 1083 506 m 6 Y s 1142 506 m 6 Y s 1201 506 m 6 Y s 1261 500 m 12 Y s 1320 506 m 6 Y s 1379 506 m 6 Y s 1439 506 m 6 Y s 1498 506 m 6 Y s 1557 500 m 12 Y s 1617 506 m 6 Y s 1676 506 m
 6 Y s 1735 506 m 6 Y s 1795 506 m 6 Y s 1854 500 m 12 Y s 1854 500 m 12 Y s 1913 506 m 6 Y s 1973 506 m 6 Y s 371 224 m 288 Y s
 gsave  2245 533 11 11 C 156.001 407.124 t 90 r /Helvetica findfont 64.7479 sf 0 0 m (Pull) show NC gr  407 224 m -36 X s 389 242 m -18 X s 389 260 m -18 X s 389 278 m -18 X s 407 296 m -36 X s 389 314 m -18 X s 389 332 m -18 X s 389 350 m -18 X s
 407 368 m -36 X s 389 386 m -18 X s 389 404 m -18 X s 389 422 m -18 X s 407 440 m -36 X s 389 458 m -18 X s 389 476 m -18 X s 389 494 m -18 X s 407 512 m -36 X s
 gsave  2245 533 11 11 C 327.221 201.659 t 0 r /Helvetica findfont 57.1305 sf 0 0 m (4) show NC gr 
 gsave  2245 533 11 11 C 292.977 201.659 t 0 r /Symbol findfont 57.1305 sf 0 0 m (-) show NC gr 
 gsave  2245 533 11 11 C 327.221 273.952 t 0 r /Helvetica findfont 57.1305 sf 0 0 m (2) show NC gr 
 gsave  2245 533 11 11 C 292.977 273.952 t 0 r /Symbol findfont 57.1305 sf 0 0 m (-) show NC gr 
 gsave  2245 533 11 11 C 327.221 346.245 t 0 r /Helvetica findfont 57.1305 sf 0 0 m (0) show NC gr 
 gsave  2245 533 11 11 C 327.221 418.538 t 0 r /Helvetica findfont 57.1305 sf 0 0 m (2) show NC gr 
 gsave  2245 533 11 11 C 327.221 490.831 t 0 r /Helvetica findfont 57.1305 sf 0 0 m (4) show NC gr  2032 224 m 288 Y s 1996 224 m 36 X s 2014 242 m 18 X s 2014 260 m 18 X s 2014 278 m 18 X s 1996 296 m 36 X s 2014 314 m 18 X s 2014 332 m 18 X s 2014
 350 m 18 X s 1996 368 m 36 X s 2014 386 m 18 X s 2014 404 m 18 X s 2014 422 m 18 X s 1996 440 m 36 X s 2014 458 m 18 X s 2014 476 m 18 X s 2014 494 m 18 X s 1996 512 m 36 X s 400 374 m 45 Y s 400 419 m cl s 400 374 m -36 Y s 400 338 m cl s 460 343 m
 36 Y s 460 379 m cl s 460 343 m -28 Y s 460 315 m cl s 519 386 m 44 Y s 519 430 m cl s 519 386 m -36 Y s 519 350 m cl s 578 380 m 44 Y s 578 424 m cl s 578 380 m -36 Y s 578 344 m cl s 638 426 m 43 Y s 638 469 m cl s 638 426 m -36 Y s 638 390 m cl s
 697 366 m 36 Y s 697 402 m cl s 697 366 m -29 Y s 697 337 m cl s 756 372 m 45 Y s 756 417 m cl s 756 372 m -36 Y s 756 336 m cl s 816 373 m 44 Y s 816 417 m cl s 816 373 m -36 Y s 816 337 m cl s 875 414 m 44 Y s 875 458 m cl s 875 414 m -36 Y s 875
 378 m cl s 934 356 m 36 Y s 934 392 m cl s 934 356 m -29 Y s 934 327 m cl s 994 343 m 36 Y s 994 379 m cl s 994 343 m -29 Y s 994 314 m cl s 1053 349 m 36 Y s 1053 385 m cl s 1053 349 m -28 Y s 1053 321 m cl s 1112 419 m 44 Y s 1112 463 m cl s 1112
 419 m -36 Y s 1112 383 m cl s 1172 400 m 43 Y s 1172 443 m cl s 1172 400 m -36 Y s 1172 364 m cl s 1231 455 m 42 Y s 1231 497 m cl s 1231 455 m -36 Y s 1231 419 m cl s 1290 428 m 42 Y s 1290 470 m cl s 1290 428 m -36 Y s 1290 392 m cl s 1350 406 m
 42 Y s 1350 448 m cl s 1350 406 m -36 Y s 1350 370 m cl s 1409 363 m 36 Y s 1409 399 m cl s 1409 363 m -31 Y s 1409 332 m cl s 1468 380 m 39 Y s 1468 419 m cl s 1468 380 m -36 Y s 1468 344 m cl s 1528 395 m 38 Y s 1528 433 m cl s 1528 395 m -36 Y s
 1528 359 m cl s 1587 357 m 36 Y s 1587 393 m cl s 1587 357 m -34 Y s 1587 323 m cl s 1646 278 m 36 Y s 1646 314 m cl s 1646 278 m -34 Y s 1646 244 m cl s 1706 402 m 40 Y s 1706 442 m cl s 1706 402 m -36 Y s 1706 366 m cl s 1765 366 m 36 Y s 1765 402
 m cl s 1765 366 m -31 Y s 1765 335 m cl s 1824 364 m 36 Y s 1824 400 m cl s 1824 364 m -29 Y s 1824 335 m cl s 1884 325 m 36 Y s 1884 361 m cl s 1884 325 m -27 Y s 1884 298 m cl s 1943 354 m 36 Y s 1943 390 m cl s 1943 354 m -28 Y s 1943 326 m cl s
 2002 402 m 46 Y s 2002 448 m cl s 2002 402 m -36 Y s 2002 366 m cl s /w 37 def /w2 {w 2 div} def /w3 {w 3 div} def 400 374 460 343 519 386 578 380 638 426 697 366 756 372 816 373 875 414 934 356 994 343 1053 349 1112 419 1172 400 1231 455 1290 428
 1350 406 1409 363 1468 380 1528 395 1587 357 1646 278 1706 402 1765 366 1824 364 1884 325 1943 354 2002 402 28 { m20} R 371 224 m 1661 X s 371 236 m -12 Y s 430 230 m -6 Y s 489 230 m -6 Y s 549 230 m -6 Y s 608 230 m -6 Y s 667 236 m -12 Y s 727
 230 m -6 Y s 786 230 m -6 Y s 845 230 m -6 Y s 905 230 m -6 Y s 964 236 m -12 Y s 1023 230 m -6 Y s 1083 230 m -6 Y s 1142 230 m -6 Y s 1201 230 m -6 Y s 1261 236 m -12 Y s 1320 230 m -6 Y s 1379 230 m -6 Y s 1439 230 m -6 Y s 1498 230 m -6 Y s 1557
 236 m -12 Y s 1617 230 m -6 Y s 1676 230 m -6 Y s 1735 230 m -6 Y s 1795 230 m -6 Y s 1854 236 m -12 Y s 1854 236 m -12 Y s 1913 230 m -6 Y s 1973 230 m -6 Y s 371 512 m 1661 X s 371 500 m 12 Y s 430 506 m 6 Y s 489 506 m 6 Y s 549 506 m 6 Y s 608
 506 m 6 Y s 667 500 m 12 Y s 727 506 m 6 Y s 786 506 m 6 Y s 845 506 m 6 Y s 905 506 m 6 Y s 964 500 m 12 Y s 1023 506 m 6 Y s 1083 506 m 6 Y s 1142 506 m 6 Y s 1201 506 m 6 Y s 1261 500 m 12 Y s 1320 506 m 6 Y s 1379 506 m 6 Y s 1439 506 m 6 Y s
 1498 506 m 6 Y s 1557 500 m 12 Y s 1617 506 m 6 Y s 1676 506 m 6 Y s 1735 506 m 6 Y s 1795 506 m 6 Y s 1854 500 m 12 Y s 1854 500 m 12 Y s 1913 506 m 6 Y s 1973 506 m 6 Y s 371 224 m 288 Y s 407 224 m -36 X s 389 242 m -18 X s 389 260 m -18 X s 389
 278 m -18 X s 407 296 m -36 X s 389 314 m -18 X s 389 332 m -18 X s 389 350 m -18 X s 407 368 m -36 X s 389 386 m -18 X s 389 404 m -18 X s 389 422 m -18 X s 407 440 m -36 X s 389 458 m -18 X s 389 476 m -18 X s 389 494 m -18 X s 407 512 m -36 X s
 2032 224 m 288 Y s 1996 224 m 36 X s 2014 242 m 18 X s 2014 260 m 18 X s 2014 278 m 18 X s 1996 296 m 36 X s 2014 314 m 18 X s 2014 332 m 18 X s 2014 350 m 18 X s 1996 368 m 36 X s 2014 386 m 18 X s 2014 404 m 18 X s 2014 422 m 18 X s 1996 440 m 36
 X s 2014 458 m 18 X s 2014 476 m 18 X s 2014 494 m 18 X s 1996 512 m 36 X s[  12 12 ] 0 sd 6 lw 371 368 m 1661 X s[  ] 0 sd 3 lw 1 1 1 c 2245 1622 11 544 bf black 1 1 1 c 1661 1507 371 577 bf black 1661 1507 371 577 bl 371 577 m 1661 X s 371 613 m
 -36 Y s 430 595 m -18 Y s 489 595 m -18 Y s 549 595 m -18 Y s 608 595 m -18 Y s 667 613 m -36 Y s 727 595 m -18 Y s 786 595 m -18 Y s 845 595 m -18 Y s 905 595 m -18 Y s 964 613 m -36 Y s 1023 595 m -18 Y s 1083 595 m -18 Y s 1142 595 m -18 Y s 1201
 595 m -18 Y s 1261 613 m -36 Y s 1320 595 m -18 Y s 1379 595 m -18 Y s 1439 595 m -18 Y s 1498 595 m -18 Y s 1557 613 m -36 Y s 1617 595 m -18 Y s 1676 595 m -18 Y s 1735 595 m -18 Y s 1795 595 m -18 Y s 1854 613 m -36 Y s 1854 613 m -36 Y s 1913
 595 m -18 Y s 1973 595 m -18 Y s 371 2084 m 1661 X s 371 2048 m 36 Y s 430 2066 m 18 Y s 489 2066 m 18 Y s 549 2066 m 18 Y s 608 2066 m 18 Y s 667 2048 m 36 Y s 727 2066 m 18 Y s 786 2066 m 18 Y s 845 2066 m 18 Y s 905 2066 m 18 Y s 964 2048 m 36 Y
 s 1023 2066 m 18 Y s 1083 2066 m 18 Y s 1142 2066 m 18 Y s 1201 2066 m 18 Y s 1261 2048 m 36 Y s 1320 2066 m 18 Y s 1379 2066 m 18 Y s 1439 2066 m 18 Y s 1498 2066 m 18 Y s 1557 2048 m 36 Y s 1617 2066 m 18 Y s 1676 2066 m 18 Y s 1735 2066 m 18 Y s
 1795 2066 m 18 Y s 1854 2048 m 36 Y s 1854 2048 m 36 Y s 1913 2066 m 18 Y s 1973 2066 m 18 Y s 371 577 m 1507 Y s
 gsave  2245 1622 11 544 C 152.196 1666.54 t 90 r /Helvetica findfont 64.7045 sf 0 0 m (Events / 2GeV) show NC gr  433 577 m -62 X s 402 634 m -31 X s 402 691 m -31 X s 402 749 m -31 X s 402 806 m -31 X s 433 864 m -62 X s 402 921 m -31 X s 402 979 m
 -31 X s 402 1036 m -31 X s 402 1094 m -31 X s 433 1151 m -62 X s 402 1209 m -31 X s 402 1266 m -31 X s 402 1323 m -31 X s 402 1381 m -31 X s 433 1438 m -62 X s 402 1496 m -31 X s 402 1553 m -31 X s 402 1611 m -31 X s 402 1668 m -31 X s 433 1726 m
 -62 X s 402 1783 m -31 X s 402 1841 m -31 X s 402 1898 m -31 X s 402 1956 m -31 X s 433 2013 m -62 X s 433 2013 m -62 X s 402 2070 m -31 X s
 gsave  2245 1622 11 544 C 327.221 555.514 t 0 r /Helvetica findfont 57.0922 sf 0 0 m (0) show NC gr 
 gsave  2245 1622 11 544 C 262.538 844.686 t 0 r /Helvetica findfont 57.0922 sf 0 0 m (100) show NC gr 
 gsave  2245 1622 11 544 C 262.538 1130.05 t 0 r /Helvetica findfont 57.0922 sf 0 0 m (200) show NC gr 
 gsave  2245 1622 11 544 C 262.538 1419.23 t 0 r /Helvetica findfont 57.0922 sf 0 0 m (300) show NC gr 
 gsave  2245 1622 11 544 C 262.538 1704.59 t 0 r /Helvetica findfont 57.0922 sf 0 0 m (400) show NC gr 
 gsave  2245 1622 11 544 C 262.538 1993.76 t 0 r /Helvetica findfont 57.0922 sf 0 0 m (500) show NC gr  2032 577 m 1507 Y s 1969 577 m 63 X s 2001 634 m 31 X s 2001 691 m 31 X s 2001 749 m 31 X s 2001 806 m 31 X s 1969 864 m 63 X s 2001 921 m 31 X s
 2001 979 m 31 X s 2001 1036 m 31 X s 2001 1094 m 31 X s 1969 1151 m 63 X s 2001 1209 m 31 X s 2001 1266 m 31 X s 2001 1323 m 31 X s 2001 1381 m 31 X s 1969 1438 m 63 X s 2001 1496 m 31 X s 2001 1553 m 31 X s 2001 1611 m 31 X s 2001 1668 m 31 X s
 1969 1726 m 63 X s 2001 1783 m 31 X s 2001 1841 m 31 X s 2001 1898 m 31 X s 2001 1956 m 31 X s 1969 2013 m 63 X s 1969 2013 m 63 X s 2001 2070 m 31 X s 400 631 m -29 X s 371 631 m cl s 400 631 m 30 X s 430 631 m cl s 400 631 m 16 Y s 400 647 m cl s
 400 631 m -12 Y s 400 619 m cl s 460 622 m -30 X s 430 622 m cl s 460 622 m 29 X s 489 622 m cl s 460 622 m 15 Y s 460 637 m cl s 460 622 m -11 Y s 460 611 m cl s 519 643 m -30 X s 489 643 m cl s 519 643 m 30 X s 549 643 m cl s 519 643 m 16 Y s 519
 659 m cl s 519 643 m -14 Y s 519 629 m cl s 578 643 m -29 X s 549 643 m cl s 578 643 m 30 X s 608 643 m cl s 578 643 m 16 Y s 578 659 m cl s 578 643 m -14 Y s 578 629 m cl s 638 666 m -30 X s 608 666 m cl s 638 666 m 29 X s 667 666 m cl s 638 666 m
 19 Y s 638 685 m cl s 638 666 m -16 Y s 638 650 m cl s 697 640 m -30 X s 667 640 m cl s 697 640 m 30 X s 727 640 m cl s 697 640 m 16 Y s 697 656 m cl s 697 640 m -14 Y s 697 626 m cl s 756 643 m -29 X s 727 643 m cl s 756 643 m 30 X s 786 643 m cl s
 756 643 m 16 Y s 756 659 m cl s 756 643 m -14 Y s 756 629 m cl s 816 643 m -30 X s 786 643 m cl s 816 643 m 29 X s 845 643 m cl s 816 643 m 16 Y s 816 659 m cl s 816 643 m -14 Y s 816 629 m cl s 875 660 m -30 X s 845 660 m cl s 875 660 m 30 X s 905
 660 m cl s 875 660 m 18 Y s 875 678 m cl s 875 660 m -16 Y s 875 644 m cl s 934 634 m -29 X s 905 634 m cl s 934 634 m 30 X s 964 634 m cl s 934 634 m 16 Y s 934 650 m cl s 934 634 m -13 Y s 934 621 m cl s 994 628 m -30 X s 964 628 m cl s 994 628 m
 29 X s 1023 628 m cl s 994 628 m 16 Y s 994 644 m cl s 994 628 m -12 Y s 994 616 m cl s 1053 631 m -30 X s 1023 631 m cl s 1053 631 m 30 X s 1083 631 m cl s 1053 631 m 16 Y s 1053 647 m cl s 1053 631 m -12 Y s 1053 619 m cl s 1112 663 m -29 X s 1083
 663 m cl s 1112 663 m 30 X s 1142 663 m cl s 1112 663 m 18 Y s 1112 681 m cl s 1112 663 m -16 Y s 1112 647 m cl s 1172 657 m -30 X s 1142 657 m cl s 1172 657 m 29 X s 1201 657 m cl s 1172 657 m 18 Y s 1172 675 m cl s 1172 657 m -15 Y s 1172 642 m cl
 s 1231 694 m -30 X s 1201 694 m cl s 1231 694 m 30 X s 1261 694 m cl s 1231 694 m 22 Y s 1231 716 m cl s 1231 694 m -18 Y s 1231 676 m cl s 1290 694 m -29 X s 1261 694 m cl s 1290 694 m 30 X s 1320 694 m cl s 1290 694 m 22 Y s 1290 716 m cl s 1290
 694 m -18 Y s 1290 676 m cl s 1350 714 m -30 X s 1320 714 m cl s 1350 714 m 29 X s 1379 714 m cl s 1350 714 m 23 Y s 1350 737 m cl s 1350 714 m -19 Y s 1350 695 m cl s 1409 755 m -30 X s 1379 755 m cl s 1409 755 m 30 X s 1439 755 m cl s 1409 755 m
 25 Y s 1409 780 m cl s 1409 755 m -23 Y s 1409 732 m cl s 1468 913 m -29 X s 1439 913 m cl s 1468 913 m 30 X s 1498 913 m cl s 1468 913 m 32 Y s 1468 945 m cl s 1468 913 m -30 Y s 1468 883 m cl s 1528 1232 m -30 X s 1498 1232 m cl s 1528 1232 m 29 X
 s 1557 1232 m cl s 1528 1232 m 44 Y s 1528 1276 m cl s 1528 1232 m -42 Y s 1528 1190 m cl s 1587 1481 m -30 X s 1557 1481 m cl s 1587 1481 m 30 X s 1617 1481 m cl s 1587 1481 m 53 Y s 1587 1534 m cl s 1587 1481 m -49 Y s 1587 1432 m cl s 1646 1097 m
 -29 X s 1617 1097 m cl s 1646 1097 m 30 X s 1676 1097 m cl s 1646 1097 m 40 Y s 1646 1137 m cl s 1646 1097 m -38 Y s 1646 1059 m cl s 1706 870 m -30 X s 1676 870 m cl s 1706 870 m 29 X s 1735 870 m cl s 1706 870 m 30 Y s 1706 900 m cl s 1706 870 m
 -28 Y s 1706 842 m cl s 1765 700 m -30 X s 1735 700 m cl s 1765 700 m 30 X s 1795 700 m cl s 1765 700 m 22 Y s 1765 722 m cl s 1765 700 m -19 Y s 1765 681 m cl s 1824 651 m -29 X s 1795 651 m cl s 1824 651 m 30 X s 1854 651 m cl s 1824 651 m 18 Y s
 1824 669 m cl s 1824 651 m -14 Y s 1824 637 m cl s 1884 617 m -30 X s 1854 617 m cl s 1884 617 m 29 X s 1913 617 m cl s 1884 617 m 14 Y s 1884 631 m cl s 1884 617 m -11 Y s 1884 606 m cl s 1943 617 m -30 X s 1913 617 m cl s 1943 617 m 30 X s 1973
 617 m cl s 1943 617 m 14 Y s 1943 631 m cl s 1943 617 m -11 Y s 1943 606 m cl s 2002 625 m -29 X s 1973 625 m cl s 2002 625 m 30 X s 2032 625 m cl s 2002 625 m 15 Y s 2002 640 m cl s 2002 625 m -11 Y s 2002 614 m cl s 400 631 460 622 519 643 578 643
 638 666 697 640 756 643 816 643 875 660 934 634 994 628 1053 631 1112 663 1172 657 1231 694 1290 694 1350 714 1409 755 1468 913 1528 1232 1587 1481 1646 1097 1706 870 1765 700 1824 651 1884 617 1943 617 2002 625 28 { m20} R 0.8 0 0 c 9 lw black 0.8
 0 0 c 371 627 m cl s 371 627 m 59 4 d 59 3 d 60 3 d 59 2 d 59 1 d 60 1 d 118 X 60 -1 d 59 -1 d 119 X 59 2 d 59 5 d 30 4 d 30 6 d 29 8 d 30 12 d 15 8 d 15 9 d 14 12 d 15 14 d 15 18 d 15 21 d 15 26 d 15 32 d 7 19 d 7 20 d 8 23 d 7 25 d 8 28 d 7 30 d 7
 33 d 8 36 d 7 39 d 8 41 d 7 44 d 8 46 d 14 95 d 15 91 d 4 21 d 4 19 d 7 34 d 4 15 d 3 10 d 4 8 d 4 5 d 4 3 d 3 -1 d 4 -5 d 4 -9 d 3 -12 d 4 -16 d 4 -17 d 4 -21 d 3 -24 d 4 -26 d 7 -54 d 15 -119 d 8 -57 d 3 -28 d 4 -27 d 7 -50 d 8 -47 d 7 -42 d 8 -38
 d 7 -34 d 8 -31 d 7 -27 d 7 -23 d 8 -21 d 7 -19 d 8 -15 d 7 -14 d 15 -23 d 15 -17 d 15 -13 d 14 -10 d 15 -8 d 30 -12 d 30 -8 d 29 -6 d 60 -9 d 59 -7 d s 0.2 0.4 0.2 c[  12 12 ] 0 sd black 0.2 0.4 0.2 c 371 578 m cl s 371 578 m 237 X 59 1 d 119 X 59
 1 d 60 1 d 59 X 59 2 d 60 2 d 59 3 d 59 5 d 30 4 d 30 6 d 29 7 d 30 12 d 15 7 d 15 8 d 14 11 d 15 13 d 15 15 d 15 19 d 15 22 d 7 13 d 8 14 d 7 16 d 7 17 d 8 18 d 7 21 d 8 22 d 7 23 d 7 26 d 8 27 d 15 57 d 15 60 d 14 56 d 8 23 d 7 21 d 4 9 d 4 8 d 7
 11 d 4 4 d 3 2 d 4 1 d 4 X 4 -2 d 3 -3 d 4 -5 d 4 -6 d 3 -7 d 4 -9 d 4 -9 d 4 -11 d 3 -12 d 4 -13 d 7 -27 d 8 -31 d 7 -32 d 15 -66 d 15 -64 d 7 -29 d 8 -28 d 7 -26 d 8 -24 d 7 -21 d 7 -19 d 8 -17 d 7 -15 d 8 -13 d 7 -11 d 15 -18 d 15 -14 d 15 -10 d
 14 -7 d 15 -6 d 30 -9 d 30 -5 d 29 -4 d 60 -5 d 59 -3 d s 1 0.8 0.2 c black 1 0.8 0.2 c 371 611 m cl s 371 611 m 59 2 d 59 2 d 60 1 d 59 2 d 59 1 d 60 1 d 59 1 d 59 1 d 60 X 59 1 d 178 X 59 -1 d 60 X 59 -1 d 59 -1 d 60 -1 d 59 -1 d 59 -1 d 60 -2 d
 59 -1 d 59 -2 d 60 -2 d 59 -2 d 59 -3 d 60 -2 d 59 -3 d s 0 0 1 c black 0 0 1 c 371 591 m cl s 371 591 m 59 2 d 59 2 d 60 1 d 118 X 60 -1 d 59 -1 d 59 -2 d 60 -2 d 59 -2 d 59 -1 d 60 -2 d 59 -1 d 119 X 59 2 d 30 2 d 29 3 d 15 3 d 15 3 d 15 4 d 15 5
 d 14 7 d 8 4 d 7 5 d 8 5 d 7 7 d 7 8 d 8 9 d 7 11 d 4 6 d 4 6 d 7 15 d 4 8 d 4 8 d 3 9 d 4 10 d 7 21 d 8 22 d 7 24 d 8 24 d 7 22 d 4 11 d 3 8 d 4 7 d 4 6 d 4 5 d 1 2 d 2 X 4 -1 d 4 -2 d 3 -5 d 4 -6 d 4 -9 d 4 -9 d 3 -12 d 4 -14 d 7 -26 d 4 -14 d 4
 -14 d 2 -8 d 1 -7 d 4 -12 d 8 -24 d 3 -12 d 4 -10 d 4 -9 d 3 -9 d 4 -8 d 4 -7 d 4 -6 d 3 -6 d 4 -5 d 4 -5 d 7 -8 d 8 -7 d 7 -5 d 7 -5 d 15 -7 d 15 -5 d 15 -3 d 15 -3 d 15 -3 d 29 -3 d 30 -2 d 59 -3 d 60 -2 d 59 -1 d s black[  ] 0 sd 3 lw 371 577 m
 1661 X s 371 613 m -36 Y s 430 595 m -18 Y s 489 595 m -18 Y s 549 595 m -18 Y s 608 595 m -18 Y s 667 613 m -36 Y s 727 595 m -18 Y s 786 595 m -18 Y s 845 595 m -18 Y s 905 595 m -18 Y s 964 613 m -36 Y s 1023 595 m -18 Y s 1083 595 m -18 Y s 1142
 595 m -18 Y s 1201 595 m -18 Y s 1261 613 m -36 Y s 1320 595 m -18 Y s 1379 595 m -18 Y s 1439 595 m -18 Y s 1498 595 m -18 Y s 1557 613 m -36 Y s 1617 595 m -18 Y s 1676 595 m -18 Y s 1735 595 m -18 Y s 1795 595 m -18 Y s 1854 613 m -36 Y s 1854
 613 m -36 Y s 1913 595 m -18 Y s 1973 595 m -18 Y s 371 2084 m 1661 X s 371 2048 m 36 Y s 430 2066 m 18 Y s 489 2066 m 18 Y s 549 2066 m 18 Y s 608 2066 m 18 Y s 667 2048 m 36 Y s 727 2066 m 18 Y s 786 2066 m 18 Y s 845 2066 m 18 Y s 905 2066 m 18 Y
 s 964 2048 m 36 Y s 1023 2066 m 18 Y s 1083 2066 m 18 Y s 1142 2066 m 18 Y s 1201 2066 m 18 Y s 1261 2048 m 36 Y s 1320 2066 m 18 Y s 1379 2066 m 18 Y s 1439 2066 m 18 Y s 1498 2066 m 18 Y s 1557 2048 m 36 Y s 1617 2066 m 18 Y s 1676 2066 m 18 Y s
 1735 2066 m 18 Y s 1795 2066 m 18 Y s 1854 2048 m 36 Y s 1854 2048 m 36 Y s 1913 2066 m 18 Y s 1973 2066 m 18 Y s 371 577 m 1507 Y s 433 577 m -62 X s 402 634 m -31 X s 402 691 m -31 X s 402 749 m -31 X s 402 806 m -31 X s 433 864 m -62 X s 402 921
 m -31 X s 402 979 m -31 X s 402 1036 m -31 X s 402 1094 m -31 X s 433 1151 m -62 X s 402 1209 m -31 X s 402 1266 m -31 X s 402 1323 m -31 X s 402 1381 m -31 X s 433 1438 m -62 X s 402 1496 m -31 X s 402 1553 m -31 X s 402 1611 m -31 X s 402 1668 m
 -31 X s 433 1726 m -62 X s 402 1783 m -31 X s 402 1841 m -31 X s 402 1898 m -31 X s 402 1956 m -31 X s 433 2013 m -62 X s 433 2013 m -62 X s 402 2070 m -31 X s 2032 577 m 1507 Y s 1969 577 m 63 X s 2001 634 m 31 X s 2001 691 m 31 X s 2001 749 m 31 X
 s 2001 806 m 31 X s 1969 864 m 63 X s 2001 921 m 31 X s 2001 979 m 31 X s 2001 1036 m 31 X s 2001 1094 m 31 X s 1969 1151 m 63 X s 2001 1209 m 31 X s 2001 1266 m 31 X s 2001 1323 m 31 X s 2001 1381 m 31 X s 1969 1438 m 63 X s 2001 1496 m 31 X s 2001
 1553 m 31 X s 2001 1611 m 31 X s 2001 1668 m 31 X s 1969 1726 m 63 X s 2001 1783 m 31 X s 2001 1841 m 31 X s 2001 1898 m 31 X s 2001 1956 m 31 X s 1969 2013 m 63 X s 1969 2013 m 63 X s 2001 2070 m 31 X s 1 1 1 c black
 gsave  2245 1622 11 544 C 662.051 1989.96 t 0 r /Helvetica findfont 60.8983 sf 0 0 m ( Internal) show NC gr 
 gsave  2245 1622 11 544 C 452.782 1989.96 t 0 r /Helvetica-BoldOblique findfont 60.8983 sf 0 0 m (ATLAS) show NC gr 
 gsave  2245 1622 11 544 C 452.782 1902.45 t 0 r /Helvetica findfont 60.8983 sf 0 0 m (data 2015\25518 + mc16a,d,e) show NC gr 
 gsave  2245 1622 11 544 C 1034.93 1818.74 t 0 r /Helvetica findfont 41.8676 sf 0 0 m (\2551) show NC gr 
 gsave  2245 1622 11 544 C 513.661 1792.1 t 0 r /Helvetica findfont 60.8983 sf 0 0 m (=13 TeV, 138.97 fb) show NC gr 
 gsave  2245 1622 11 544 C 483.221 1792.1 t 0 r /Helvetica findfont 60.8983 sf 0 0 m (s) show NC gr  6 lw 464 1826 m 8 -38 d s 3 lw 472 1788 m 4 57 d s 476 1845 m 38 X s
 gsave  2245 1622 11 544 C 452.782 1712.2 t 0 r /Helvetica findfont 60.8983 sf 0 0 m (Inverted isolation CR) show NC gr  1 1 1 c 718 438 1269 1598 bl 1269 1598 m 718 X s 1987 1598 m 438 Y s 1987 2036 m -718 X s 1269 2036 m -438 Y s black
 gsave  2245 1622 11 544 C 1445.86 1974.74 t 0 r /Helvetica findfont 72.3167 sf 0 0 m (Data) show NC gr  1296 1992 m 125 X s 1358 1966 m 52 Y s 1358 1992 m20
 gsave  2245 1622 11 544 C 1445.86 1887.23 t 0 r /Helvetica findfont 72.3167 sf 0 0 m (Total BG) show NC gr  0.8 0 0 c 9 lw 1296 1904 m 125 X s black
 gsave  2245 1622 11 544 C 1445.86 1799.71 t 0 r /Helvetica findfont 72.3167 sf 0 0 m (Z+HFjets) show NC gr  0.2 0.4 0.2 c[  12 12 ] 0 sd 1296 1817 m 125 X s black
 gsave  2245 1622 11 544 C 1468.69 1712.2 t 0 r /Helvetica findfont 72.3167 sf 0 0 m (t) show NC gr [  ] 0 sd 6 lw 1469 1769 m 23 X s
 gsave  2245 1622 11 544 C 1445.86 1712.2 t 0 r /Helvetica findfont 72.3167 sf 0 0 m (t) show NC gr  1 0.8 0.2 c[  12 12 ] 0 sd 9 lw 1296 1729 m 125 X s black
 gsave  2245 1622 11 544 C 1445.86 1624.69 t 0 r /Helvetica findfont 72.3167 sf 0 0 m (Diboson) show NC gr  0 0 1 c 1296 1642 m 125 X s
 gr  gr showpage
end
%%EOF
