%!PS-Adobe-2.0 EPSF-2.0
%%BoundingBox:  0 0 567 544
%%Title: Results/M3bData_relaxIsoD0.eps: Region: relaxIsoD0
%%Creator: ROOT Version 6.08/06
%%CreationDate: Mon Oct 14 11:01:51 2019
%%DocumentNeededResources: ProcSet (FontSetInit)
%%EndComments
%%BeginProlog
80 dict begin
/s {stroke} def /l {lineto} def /m {moveto} def /t {translate} def
/r {rotate} def /rl {roll}  def /R {repeat} def
/d {rlineto} def /rm {rmoveto} def /gr {grestore} def /f {eofill} def
/c {setrgbcolor} def /black {0 setgray} def /sd {setdash} def
/cl {closepath} def /sf {scalefont setfont} def /lw {setlinewidth} def
/box {m dup 0 exch d exch 0 d 0 exch neg d cl} def
/NC{systemdict begin initclip end}def/C{NC box clip newpath}def
/bl {box s} def /bf {gsave box gsave f grestore 1 lw [] 0 sd s grestore} def /Y { 0 exch d} def /X { 0 d} def 
/K {{pop pop 0 moveto} exch kshow} bind def
/ita {/ang 15 def gsave [1 0 ang dup sin exch cos div 1 0 0] concat} def 
/mp {newpath /y exch def /x exch def} def
/side {[w .77 mul w .23 mul] .385 w mul sd w 0 l currentpoint t -144 r} def
/mr {mp x y w2 0 360 arc} def /m24 {mr s} def /m20 {mr f} def
/mb {mp x y w2 add m w2 neg 0 d 0 w neg d w 0 d 0 w d cl} def
/mt {mp x y w2 add m w2 neg w neg d w 0 d cl} def
/m21 {mb f} def /m25 {mb s} def /m22 {mt f} def /m26{mt s} def
/m23 {mp x y w2 sub m w2 w d w neg 0 d cl f} def
/m27 {mp x y w2 add m w3 neg w2 neg d w3 w2 neg d w3 w2 d cl s} def
/m28 {mp x w2 sub y w2 sub w3 add m w3 0 d  0 w3 neg d w3 0 d 0 w3 d w3 0 d  0 w3 d w3 neg 0 d 0 w3 d w3 neg 0 d 0 w3 neg d w3 neg 0 d cl s } def
/m29 {mp gsave x w2 sub y w2 add w3 sub m currentpoint t 4 {side} repeat cl fill gr} def
/m30 {mp gsave x w2 sub y w2 add w3 sub m currentpoint t 4 {side} repeat cl s gr} def
/m31 {mp x y w2 sub m 0 w d x w2 sub y m w 0 d x w2 sub y w2 add m w w neg d x w2 sub y w2 sub m w w d s} def
/m32 {mp x y w2 sub m w2 w d w neg 0 d cl s} def
/m33 {mp x y w2 add m w3 neg w2 neg d w3 w2 neg d w3 w2 d cl f} def
/m34 {mp x w2 sub y w2 sub w3 add m w3 0 d  0 w3 neg d w3 0 d 0 w3 d w3 0 d  0 w3 d w3 neg 0 d 0 w3 d w3 neg 0 d 0 w3 neg d w3 neg 0 d cl f } def
/m2 {mp x y w2 sub m 0 w d x w2 sub y m w 0 d s} def
/m5 {mp x w2 sub y w2 sub m w w d x w2 sub y w2 add m w w neg d s} def
%%IncludeResource: ProcSet (FontSetInit)
%%IncludeResource: font Times-Roman
%%IncludeResource: font Times-Italic
%%IncludeResource: font Times-Bold
%%IncludeResource: font Times-BoldItalic
%%IncludeResource: font Helvetica
%%IncludeResource: font Helvetica-Oblique
%%IncludeResource: font Helvetica-Bold
%%IncludeResource: font Helvetica-BoldOblique
%%IncludeResource: font Courier
%%IncludeResource: font Courier-Oblique
%%IncludeResource: font Courier-Bold
%%IncludeResource: font Courier-BoldOblique
%%IncludeResource: font Symbol
%%IncludeResource: font ZapfDingbats
/reEncode {exch findfont dup length dict begin {1 index /FID eq  {pop pop} {def} ifelse } forall /Encoding exch def currentdict end dup /FontName get exch definefont pop } def [/Times-Bold /Times-Italic /Times-BoldItalic /Helvetica /Helvetica-Oblique
 /Helvetica-Bold /Helvetica-BoldOblique /Courier /Courier-Oblique /Courier-Bold /Courier-BoldOblique /Times-Roman /AvantGarde-Book /AvantGarde-BookOblique /AvantGarde-Demi /AvantGarde-DemiOblique /Bookman-Demi /Bookman-DemiItalic /Bookman-Light
 /Bookman-LightItalic /Helvetica-Narrow /Helvetica-Narrow-Bold /Helvetica-Narrow-BoldOblique /Helvetica-Narrow-Oblique /NewCenturySchlbk-Roman /NewCenturySchlbk-Bold /NewCenturySchlbk-BoldItalic /NewCenturySchlbk-Italic /Palatino-Bold
 /Palatino-BoldItalic /Palatino-Italic /Palatino-Roman ] {ISOLatin1Encoding reEncode } forall
%%EndProlog
%%BeginSetup
%%EndSetup
newpath  gsave  .25 .25 scale  gsave  0 0 t black[  ] 0 sd 3 lw 1 1 1 c 2268 2176 0 0 bf black 1 1 1 c 2245 533 11 11 bf black 1 1 1 c 1661 288 371 224 bf black 1661 288 371 224 bl 371 224 m 1661 X s 371 512 m 1661 X s 371 224 m 288 Y s[ 4 8] 0 sd
 2032 224 m -1661 X s 2032 296 m -1661 X s 2032 368 m -1661 X s 2032 440 m -1661 X s 2032 512 m -1661 X s[  ] 0 sd 2032 224 m 288 Y s 371 224 m 1661 X s
 gsave  2245 533 11 11 C 1849.18 98.9272 t 0 r /Helvetica findfont 64.7479 sf 0 0 m ( [GeV]) show NC gr 
 gsave  2245 533 11 11 C 1803.52 76.0979 t 0 r /Helvetica findfont 41.8957 sf 0 0 m (12) show NC gr 
 gsave  2245 533 11 11 C 1750.25 98.9272 t 0 r /Helvetica findfont 64.7479 sf 0 0 m (m) show NC gr  371 236 m -12 Y s 430 230 m -6 Y s 489 230 m -6 Y s 549 230 m -6 Y s 608 230 m -6 Y s 667 236 m -12 Y s 727 230 m -6 Y s 786 230 m -6 Y s 845 230 m -6
 Y s 905 230 m -6 Y s 964 236 m -12 Y s 1023 230 m -6 Y s 1083 230 m -6 Y s 1142 230 m -6 Y s 1201 230 m -6 Y s 1261 236 m -12 Y s 1320 230 m -6 Y s 1379 230 m -6 Y s 1439 230 m -6 Y s 1498 230 m -6 Y s 1557 236 m -12 Y s 1617 230 m -6 Y s 1676 230 m
 -6 Y s 1735 230 m -6 Y s 1795 230 m -6 Y s 1854 236 m -12 Y s 1854 236 m -12 Y s 1913 230 m -6 Y s 1973 230 m -6 Y s
 gsave  2245 533 11 11 C 334.831 171.22 t 0 r /Helvetica findfont 57.1305 sf 0 0 m (50) show NC gr 
 gsave  2245 533 11 11 C 631.612 171.22 t 0 r /Helvetica findfont 57.1305 sf 0 0 m (60) show NC gr 
 gsave  2245 533 11 11 C 928.394 171.22 t 0 r /Helvetica findfont 57.1305 sf 0 0 m (70) show NC gr 
 gsave  2245 533 11 11 C 1225.18 171.22 t 0 r /Helvetica findfont 57.1305 sf 0 0 m (80) show NC gr 
 gsave  2245 533 11 11 C 1521.96 171.22 t 0 r /Helvetica findfont 57.1305 sf 0 0 m (90) show NC gr 
 gsave  2245 533 11 11 C 1803.52 171.22 t 0 r /Helvetica findfont 57.1305 sf 0 0 m (100) show NC gr  371 512 m 1661 X s 371 500 m 12 Y s 430 506 m 6 Y s 489 506 m 6 Y s 549 506 m 6 Y s 608 506 m 6 Y s 667 500 m 12 Y s 727 506 m 6 Y s 786 506 m 6 Y s
 845 506 m 6 Y s 905 506 m 6 Y s 964 500 m 12 Y s 1023 506 m 6 Y s 1083 506 m 6 Y s 1142 506 m 6 Y s 1201 506 m 6 Y s 1261 500 m 12 Y s 1320 506 m 6 Y s 1379 506 m 6 Y s 1439 506 m 6 Y s 1498 506 m 6 Y s 1557 500 m 12 Y s 1617 506 m 6 Y s 1676 506 m
 6 Y s 1735 506 m 6 Y s 1795 506 m 6 Y s 1854 500 m 12 Y s 1854 500 m 12 Y s 1913 506 m 6 Y s 1973 506 m 6 Y s 371 224 m 288 Y s
 gsave  2245 533 11 11 C 156.001 407.124 t 90 r /Helvetica findfont 64.7479 sf 0 0 m (Pull) show NC gr  407 224 m -36 X s 389 242 m -18 X s 389 260 m -18 X s 389 278 m -18 X s 407 296 m -36 X s 389 314 m -18 X s 389 332 m -18 X s 389 350 m -18 X s
 407 368 m -36 X s 389 386 m -18 X s 389 404 m -18 X s 389 422 m -18 X s 407 440 m -36 X s 389 458 m -18 X s 389 476 m -18 X s 389 494 m -18 X s 407 512 m -36 X s
 gsave  2245 533 11 11 C 327.221 201.659 t 0 r /Helvetica findfont 57.1305 sf 0 0 m (4) show NC gr 
 gsave  2245 533 11 11 C 292.977 201.659 t 0 r /Symbol findfont 57.1305 sf 0 0 m (-) show NC gr 
 gsave  2245 533 11 11 C 327.221 273.952 t 0 r /Helvetica findfont 57.1305 sf 0 0 m (2) show NC gr 
 gsave  2245 533 11 11 C 292.977 273.952 t 0 r /Symbol findfont 57.1305 sf 0 0 m (-) show NC gr 
 gsave  2245 533 11 11 C 327.221 346.245 t 0 r /Helvetica findfont 57.1305 sf 0 0 m (0) show NC gr 
 gsave  2245 533 11 11 C 327.221 418.538 t 0 r /Helvetica findfont 57.1305 sf 0 0 m (2) show NC gr 
 gsave  2245 533 11 11 C 327.221 490.831 t 0 r /Helvetica findfont 57.1305 sf 0 0 m (4) show NC gr  2032 224 m 288 Y s 1996 224 m 36 X s 2014 242 m 18 X s 2014 260 m 18 X s 2014 278 m 18 X s 1996 296 m 36 X s 2014 314 m 18 X s 2014 332 m 18 X s 2014
 350 m 18 X s 1996 368 m 36 X s 2014 386 m 18 X s 2014 404 m 18 X s 2014 422 m 18 X s 1996 440 m 36 X s 2014 458 m 18 X s 2014 476 m 18 X s 2014 494 m 18 X s 1996 512 m 36 X s 400 416 m 39 Y s 400 455 m cl s 400 416 m -36 Y s 400 380 m cl s 460 393 m
 39 Y s 460 432 m cl s 460 393 m -36 Y s 460 357 m cl s 519 343 m 36 Y s 519 379 m cl s 519 343 m -33 Y s 519 310 m cl s 578 352 m 36 Y s 578 388 m cl s 578 352 m -33 Y s 578 319 m cl s 638 385 m 39 Y s 638 424 m cl s 638 385 m -36 Y s 638 349 m cl s
 697 355 m 36 Y s 697 391 m cl s 697 355 m -33 Y s 697 322 m cl s 756 346 m 36 Y s 756 382 m cl s 756 346 m -33 Y s 756 313 m cl s 816 320 m 36 Y s 816 356 m cl s 816 320 m -33 Y s 816 287 m cl s 875 368 m 36 Y s 875 404 m cl s 875 368 m -33 Y s 875
 335 m cl s 934 338 m 36 Y s 934 374 m cl s 934 338 m -34 Y s 934 304 m cl s 994 281 m 36 Y s 994 317 m cl s 994 281 m -33 Y s 994 248 m cl s 1053 340 m 36 Y s 1053 376 m cl s 1053 340 m -34 Y s 1053 306 m cl s 1112 362 m 36 Y s 1112 398 m cl s 1112
 362 m -34 Y s 1112 328 m cl s 1172 354 m 36 Y s 1172 390 m cl s 1172 354 m -34 Y s 1172 320 m cl s 1231 367 m 36 Y s 1231 403 m cl s 1231 367 m -33 Y s 1231 334 m cl s 1290 407 m 38 Y s 1290 445 m cl s 1290 407 m -36 Y s 1290 371 m cl s 1350 329 m
 36 Y s 1350 365 m cl s 1350 329 m -33 Y s 1350 296 m cl s 1409 299 m 36 Y s 1409 335 m cl s 1409 299 m -34 Y s 1409 265 m cl s 1468 340 m 36 Y s 1468 376 m cl s 1468 340 m -34 Y s 1468 306 m cl s 1528 342 m 36 Y s 1528 378 m cl s 1528 342 m -35 Y s
 1528 307 m cl s 1587 308 m 36 Y s 1587 344 m cl s 1587 308 m -35 Y s 1587 273 m cl s 1706 310 m 36 Y s 1706 346 m cl s 1706 310 m -34 Y s 1706 276 m cl s 1765 359 m 36 Y s 1765 395 m cl s 1765 359 m -34 Y s 1765 325 m cl s 1884 351 m 36 Y s 1884 387
 m cl s 1884 351 m -33 Y s 1884 318 m cl s 1943 320 m 36 Y s 1943 356 m cl s 1943 320 m -33 Y s 1943 287 m cl s 2002 319 m 36 Y s 2002 355 m cl s 2002 319 m -32 Y s 2002 287 m cl s /w 37 def /w2 {w 2 div} def /w3 {w 3 div} def 400 416 460 393 519 343
 578 352 638 385 697 355 756 346 816 320 875 368 934 338 994 281 1053 340 1112 362 1172 354 1231 367 1290 407 1350 329 1409 299 1468 340 1528 342 1587 308 21 { m20} R 1706 310 1765 359 2 { m20} R 1884 351 1943 320 2002 319 3 { m20} R 371 224 m 1661 X
 s 371 236 m -12 Y s 430 230 m -6 Y s 489 230 m -6 Y s 549 230 m -6 Y s 608 230 m -6 Y s 667 236 m -12 Y s 727 230 m -6 Y s 786 230 m -6 Y s 845 230 m -6 Y s 905 230 m -6 Y s 964 236 m -12 Y s 1023 230 m -6 Y s 1083 230 m -6 Y s 1142 230 m -6 Y s
 1201 230 m -6 Y s 1261 236 m -12 Y s 1320 230 m -6 Y s 1379 230 m -6 Y s 1439 230 m -6 Y s 1498 230 m -6 Y s 1557 236 m -12 Y s 1617 230 m -6 Y s 1676 230 m -6 Y s 1735 230 m -6 Y s 1795 230 m -6 Y s 1854 236 m -12 Y s 1854 236 m -12 Y s 1913 230 m
 -6 Y s 1973 230 m -6 Y s 371 512 m 1661 X s 371 500 m 12 Y s 430 506 m 6 Y s 489 506 m 6 Y s 549 506 m 6 Y s 608 506 m 6 Y s 667 500 m 12 Y s 727 506 m 6 Y s 786 506 m 6 Y s 845 506 m 6 Y s 905 506 m 6 Y s 964 500 m 12 Y s 1023 506 m 6 Y s 1083 506
 m 6 Y s 1142 506 m 6 Y s 1201 506 m 6 Y s 1261 500 m 12 Y s 1320 506 m 6 Y s 1379 506 m 6 Y s 1439 506 m 6 Y s 1498 506 m 6 Y s 1557 500 m 12 Y s 1617 506 m 6 Y s 1676 506 m 6 Y s 1735 506 m 6 Y s 1795 506 m 6 Y s 1854 500 m 12 Y s 1854 500 m 12 Y s
 1913 506 m 6 Y s 1973 506 m 6 Y s 371 224 m 288 Y s 407 224 m -36 X s 389 242 m -18 X s 389 260 m -18 X s 389 278 m -18 X s 407 296 m -36 X s 389 314 m -18 X s 389 332 m -18 X s 389 350 m -18 X s 407 368 m -36 X s 389 386 m -18 X s 389 404 m -18 X s
 389 422 m -18 X s 407 440 m -36 X s 389 458 m -18 X s 389 476 m -18 X s 389 494 m -18 X s 407 512 m -36 X s 2032 224 m 288 Y s 1996 224 m 36 X s 2014 242 m 18 X s 2014 260 m 18 X s 2014 278 m 18 X s 1996 296 m 36 X s 2014 314 m 18 X s 2014 332 m 18
 X s 2014 350 m 18 X s 1996 368 m 36 X s 2014 386 m 18 X s 2014 404 m 18 X s 2014 422 m 18 X s 1996 440 m 36 X s 2014 458 m 18 X s 2014 476 m 18 X s 2014 494 m 18 X s 1996 512 m 36 X s[  12 12 ] 0 sd 6 lw 371 368 m 1661 X s[  ] 0 sd 3 lw 1 1 1 c 2245
 1622 11 544 bf black 1 1 1 c 1661 1507 371 577 bf black 1661 1507 371 577 bl 371 577 m 1661 X s 371 613 m -36 Y s 430 595 m -18 Y s 489 595 m -18 Y s 549 595 m -18 Y s 608 595 m -18 Y s 667 613 m -36 Y s 727 595 m -18 Y s 786 595 m -18 Y s 845 595 m
 -18 Y s 905 595 m -18 Y s 964 613 m -36 Y s 1023 595 m -18 Y s 1083 595 m -18 Y s 1142 595 m -18 Y s 1201 595 m -18 Y s 1261 613 m -36 Y s 1320 595 m -18 Y s 1379 595 m -18 Y s 1439 595 m -18 Y s 1498 595 m -18 Y s 1557 613 m -36 Y s 1617 595 m -18
 Y s 1676 595 m -18 Y s 1735 595 m -18 Y s 1795 595 m -18 Y s 1854 613 m -36 Y s 1854 613 m -36 Y s 1913 595 m -18 Y s 1973 595 m -18 Y s 371 2084 m 1661 X s 371 2048 m 36 Y s 430 2066 m 18 Y s 489 2066 m 18 Y s 549 2066 m 18 Y s 608 2066 m 18 Y s
 667 2048 m 36 Y s 727 2066 m 18 Y s 786 2066 m 18 Y s 845 2066 m 18 Y s 905 2066 m 18 Y s 964 2048 m 36 Y s 1023 2066 m 18 Y s 1083 2066 m 18 Y s 1142 2066 m 18 Y s 1201 2066 m 18 Y s 1261 2048 m 36 Y s 1320 2066 m 18 Y s 1379 2066 m 18 Y s 1439
 2066 m 18 Y s 1498 2066 m 18 Y s 1557 2048 m 36 Y s 1617 2066 m 18 Y s 1676 2066 m 18 Y s 1735 2066 m 18 Y s 1795 2066 m 18 Y s 1854 2048 m 36 Y s 1854 2048 m 36 Y s 1913 2066 m 18 Y s 1973 2066 m 18 Y s 371 577 m 1507 Y s
 gsave  2245 1622 11 544 C 152.196 1666.54 t 90 r /Helvetica findfont 64.7045 sf 0 0 m (Events / 2GeV) show NC gr  433 577 m -62 X s 402 621 m -31 X s 402 665 m -31 X s 402 710 m -31 X s 402 754 m -31 X s 433 799 m -62 X s 402 843 m -31 X s 402 887 m
 -31 X s 402 932 m -31 X s 402 976 m -31 X s 433 1021 m -62 X s 402 1065 m -31 X s 402 1110 m -31 X s 402 1154 m -31 X s 402 1198 m -31 X s 433 1243 m -62 X s 402 1287 m -31 X s 402 1332 m -31 X s 402 1376 m -31 X s 402 1420 m -31 X s 433 1465 m -62
 X s 402 1509 m -31 X s 402 1554 m -31 X s 402 1598 m -31 X s 402 1643 m -31 X s 433 1687 m -62 X s 402 1731 m -31 X s 402 1776 m -31 X s 402 1820 m -31 X s 402 1865 m -31 X s 433 1909 m -62 X s 433 1909 m -62 X s 402 1953 m -31 X s 402 1998 m -31 X
 s 402 2042 m -31 X s
 gsave  2245 1622 11 544 C 327.221 555.514 t 0 r /Helvetica findfont 57.0922 sf 0 0 m (0) show NC gr 
 gsave  2245 1622 11 544 C 262.538 776.198 t 0 r /Helvetica findfont 57.0922 sf 0 0 m (500) show NC gr 
 gsave  2245 1622 11 544 C 232.099 1000.69 t 0 r /Helvetica findfont 57.0922 sf 0 0 m (1000) show NC gr 
 gsave  2245 1622 11 544 C 232.099 1221.37 t 0 r /Helvetica findfont 57.0922 sf 0 0 m (1500) show NC gr 
 gsave  2245 1622 11 544 C 232.099 1442.05 t 0 r /Helvetica findfont 57.0922 sf 0 0 m (2000) show NC gr 
 gsave  2245 1622 11 544 C 232.099 1666.54 t 0 r /Helvetica findfont 57.0922 sf 0 0 m (2500) show NC gr 
 gsave  2245 1622 11 544 C 232.099 1887.23 t 0 r /Helvetica findfont 57.0922 sf 0 0 m (3000) show NC gr  2032 577 m 1507 Y s 1969 577 m 63 X s 2001 621 m 31 X s 2001 665 m 31 X s 2001 710 m 31 X s 2001 754 m 31 X s 1969 799 m 63 X s 2001 843 m 31 X s
 2001 887 m 31 X s 2001 932 m 31 X s 2001 976 m 31 X s 1969 1021 m 63 X s 2001 1065 m 31 X s 2001 1110 m 31 X s 2001 1154 m 31 X s 2001 1198 m 31 X s 1969 1243 m 63 X s 2001 1287 m 31 X s 2001 1332 m 31 X s 2001 1376 m 31 X s 2001 1420 m 31 X s 1969
 1465 m 63 X s 2001 1509 m 31 X s 2001 1554 m 31 X s 2001 1598 m 31 X s 2001 1643 m 31 X s 1969 1687 m 63 X s 2001 1731 m 31 X s 2001 1776 m 31 X s 2001 1820 m 31 X s 2001 1865 m 31 X s 1969 1909 m 63 X s 1969 1909 m 63 X s 2001 1953 m 31 X s 2001
 1998 m 31 X s 2001 2042 m 31 X s 400 643 m -29 X s 371 643 m cl s 400 643 m 30 X s 430 643 m cl s 400 643 m 6 Y s 400 649 m cl s 400 643 m -5 Y s 400 638 m cl s 460 644 m -30 X s 430 644 m cl s 460 644 m 29 X s 489 644 m cl s 460 644 m 5 Y s 460 649
 m cl s 460 644 m -6 Y s 460 638 m cl s 519 640 m -30 X s 489 640 m cl s 519 640 m 30 X s 549 640 m cl s 519 640 m 5 Y s 519 645 m cl s 519 640 m -5 Y s 519 635 m cl s 578 644 m -29 X s 549 644 m cl s 578 644 m 30 X s 608 644 m cl s 578 644 m 5 Y s
 578 649 m cl s 578 644 m -6 Y s 578 638 m cl s 638 651 m -30 X s 608 651 m cl s 638 651 m 29 X s 667 651 m cl s 638 651 m 6 Y s 638 657 m cl s 638 651 m -6 Y s 638 645 m cl s 697 647 m -30 X s 667 647 m cl s 697 647 m 30 X s 727 647 m cl s 697 647 m
 6 Y s 697 653 m cl s 697 647 m -5 Y s 697 642 m cl s 756 646 m -29 X s 727 646 m cl s 756 646 m 30 X s 786 646 m cl s 756 646 m 6 Y s 756 652 m cl s 756 646 m -5 Y s 756 641 m cl s 816 642 m -30 X s 786 642 m cl s 816 642 m 29 X s 845 642 m cl s 816
 642 m 6 Y s 816 648 m cl s 816 642 m -5 Y s 816 637 m cl s 875 649 m -30 X s 845 649 m cl s 875 649 m 30 X s 905 649 m cl s 875 649 m 6 Y s 875 655 m cl s 875 649 m -5 Y s 875 644 m cl s 934 644 m -29 X s 905 644 m cl s 934 644 m 30 X s 964 644 m cl
 s 934 644 m 6 Y s 934 650 m cl s 934 644 m -5 Y s 934 639 m cl s 994 636 m -30 X s 964 636 m cl s 994 636 m 29 X s 1023 636 m cl s 994 636 m 5 Y s 994 641 m cl s 994 636 m -5 Y s 994 631 m cl s 1053 644 m -30 X s 1023 644 m cl s 1053 644 m 30 X s
 1083 644 m cl s 1053 644 m 6 Y s 1053 650 m cl s 1053 644 m -5 Y s 1053 639 m cl s 1112 648 m -29 X s 1083 648 m cl s 1112 648 m 30 X s 1142 648 m cl s 1112 648 m 6 Y s 1112 654 m cl s 1112 648 m -5 Y s 1112 643 m cl s 1172 650 m -30 X s 1142 650 m
 cl s 1172 650 m 29 X s 1201 650 m cl s 1172 650 m 6 Y s 1172 656 m cl s 1172 650 m -6 Y s 1172 644 m cl s 1231 658 m -30 X s 1201 658 m cl s 1231 658 m 30 X s 1261 658 m cl s 1231 658 m 6 Y s 1231 664 m cl s 1231 658 m -6 Y s 1231 652 m cl s 1290
 676 m -29 X s 1261 676 m cl s 1290 676 m 30 X s 1320 676 m cl s 1290 676 m 6 Y s 1290 682 m cl s 1290 676 m -7 Y s 1290 669 m cl s 1350 685 m -30 X s 1320 685 m cl s 1350 685 m 29 X s 1379 685 m cl s 1350 685 m 8 Y s 1350 693 m cl s 1350 685 m -6 Y
 s 1350 679 m cl s 1409 731 m -30 X s 1379 731 m cl s 1409 731 m 30 X s 1439 731 m cl s 1409 731 m 9 Y s 1409 740 m cl s 1409 731 m -8 Y s 1409 723 m cl s 1468 866 m -29 X s 1439 866 m cl s 1468 866 m 30 X s 1498 866 m cl s 1468 866 m 11 Y s 1468 877
 m cl s 1468 866 m -11 Y s 1468 855 m cl s 1528 1152 m -30 X s 1498 1152 m cl s 1528 1152 m 29 X s 1557 1152 m cl s 1528 1152 m 16 Y s 1528 1168 m cl s 1528 1152 m -16 Y s 1528 1136 m cl s 1587 1492 m -30 X s 1557 1492 m cl s 1587 1492 m 30 X s 1617
 1492 m cl s 1587 1492 m 21 Y s 1587 1513 m cl s 1587 1492 m -20 Y s 1587 1472 m cl s 1646 1110 m -29 X s 1617 1110 m cl s 1646 1110 m 30 X s 1676 1110 m cl s 1646 1110 m 15 Y s 1646 1125 m cl s 1646 1110 m -16 Y s 1646 1094 m cl s 1706 811 m -30 X s
 1676 811 m cl s 1706 811 m 29 X s 1735 811 m cl s 1706 811 m 11 Y s 1706 822 m cl s 1706 811 m -9 Y s 1706 802 m cl s 1765 699 m -30 X s 1735 699 m cl s 1765 699 m 30 X s 1795 699 m cl s 1765 699 m 8 Y s 1765 707 m cl s 1765 699 m -7 Y s 1765 692 m
 cl s 1824 633 m -29 X s 1795 633 m cl s 1824 633 m 30 X s 1854 633 m cl s 1824 633 m 6 Y s 1824 639 m cl s 1824 633 m -4 Y s 1824 629 m cl s 1884 636 m -30 X s 1854 636 m cl s 1884 636 m 29 X s 1913 636 m cl s 1884 636 m 5 Y s 1884 641 m cl s 1884
 636 m -5 Y s 1884 631 m cl s 1943 621 m -30 X s 1913 621 m cl s 1943 621 m 30 X s 1973 621 m cl s 1943 621 m 5 Y s 1943 626 m cl s 1943 621 m -4 Y s 1943 617 m cl s 2002 613 m -29 X s 1973 613 m cl s 2002 613 m 30 X s 2032 613 m cl s 2002 613 m 5 Y
 s 2002 618 m cl s 2002 613 m -4 Y s 2002 609 m cl s 400 643 460 644 519 640 578 644 638 651 697 647 756 646 816 642 875 649 934 644 994 636 1053 644 1112 648 1172 650 1231 658 1290 676 1350 685 1409 731 1468 866 1528 1152 1587 1492 1646 1110 1706
 811 1765 699 1824 633 1884 636 1943 621 2002 613 28 { m20} R 0.8 0 0 c 9 lw black 0.8 0 0 c 371 634 m cl s 371 634 m 59 4 d 59 4 d 60 3 d 59 2 d 59 2 d 60 1 d 118 X 60 -1 d 59 X 59 -1 d 60 1 d 59 1 d 59 4 d 60 8 d 29 7 d 30 10 d 30 14 d 14 10 d 15
 12 d 15 14 d 15 18 d 15 23 d 15 27 d 7 17 d 7 18 d 8 20 d 7 23 d 8 25 d 7 28 d 7 30 d 8 35 d 7 37 d 8 41 d 7 45 d 8 48 d 7 51 d 7 53 d 15 108 d 4 25 d 4 24 d 7 45 d 4 20 d 3 15 d 4 12 d 4 9 d 4 7 d 1 1 d 2 -1 d 4 -4 d 4 -9 d 3 -13 d 4 -17 d 4 -20 d
 4 -24 d 3 -28 d 4 -31 d 7 -63 d 15 -135 d 8 -63 d 3 -31 d 4 -29 d 7 -52 d 8 -48 d 7 -41 d 8 -36 d 7 -33 d 8 -28 d 7 -24 d 7 -22 d 8 -18 d 7 -17 d 15 -26 d 15 -20 d 15 -15 d 15 -12 d 14 -9 d 15 -7 d 30 -11 d 30 -8 d 29 -7 d 60 -9 d 59 -7 d s 0.2 0.4
 0.2 c[  12 12 ] 0 sd black 0.2 0.4 0.2 c 371 578 m cl s 371 578 m 356 X 59 1 d 119 X 59 1 d 59 1 d 60 1 d 59 3 d 59 4 d 30 2 d 30 4 d 29 6 d 30 8 d 15 5 d 15 7 d 14 7 d 15 9 d 15 12 d 15 13 d 15 16 d 7 10 d 8 10 d 7 11 d 7 13 d 8 13 d 7 15 d 8 16 d
 7 17 d 7 18 d 8 20 d 15 41 d 15 44 d 14 40 d 8 17 d 7 15 d 4 7 d 4 5 d 7 8 d 4 3 d 3 2 d 4 1 d 4 -1 d 4 -1 d 3 -2 d 4 -4 d 4 -4 d 3 -5 d 4 -7 d 4 -6 d 4 -8 d 3 -9 d 4 -9 d 7 -20 d 8 -22 d 7 -23 d 15 -48 d 15 -46 d 7 -22 d 8 -20 d 7 -19 d 8 -17 d 7
 -15 d 7 -14 d 8 -12 d 7 -11 d 8 -9 d 7 -9 d 15 -13 d 15 -10 d 15 -7 d 14 -6 d 15 -4 d 30 -6 d 30 -4 d 29 -3 d 60 -3 d 59 -3 d s 1 0.8 0.2 c black 1 0.8 0.2 c 371 619 m cl s 371 619 m 59 2 d 59 3 d 60 1 d 59 2 d 59 2 d 60 1 d 59 1 d 59 1 d 60 1 d 296
 X 60 -1 d 59 -1 d 59 -1 d 60 -1 d 59 -1 d 59 -2 d 60 -2 d 59 -2 d 59 -2 d 60 -3 d 59 -2 d 59 -3 d 60 -3 d 59 -4 d s 0 0 1 c black 0 0 1 c 371 590 m cl s 371 590 m 59 2 d 59 2 d 60 1 d 118 X 60 -1 d 59 -1 d 59 -1 d 60 -2 d 59 -1 d 59 -2 d 60 -1 d 118
 X 60 1 d 59 4 d 30 4 d 29 5 d 15 4 d 15 5 d 15 6 d 15 8 d 14 12 d 8 6 d 7 9 d 8 9 d 7 11 d 7 12 d 8 15 d 7 18 d 4 9 d 4 11 d 7 23 d 4 13 d 4 14 d 3 14 d 4 16 d 7 34 d 8 36 d 7 39 d 8 38 d 7 37 d 4 18 d 3 13 d 4 11 d 4 10 d 4 8 d 1 2 d 2 1 d 4 -1 d 4
 -4 d 3 -8 d 4 -11 d 4 -13 d 4 -16 d 3 -19 d 4 -22 d 7 -42 d 4 -23 d 4 -23 d 2 -12 d 1 -12 d 4 -20 d 8 -39 d 3 -19 d 4 -16 d 4 -15 d 3 -14 d 4 -13 d 4 -11 d 4 -11 d 3 -9 d 4 -8 d 4 -8 d 7 -13 d 8 -11 d 7 -8 d 7 -8 d 15 -11 d 15 -8 d 15 -7 d 15 -4 d
 15 -4 d 29 -6 d 30 -3 d 59 -5 d 60 -2 d 59 -2 d s black[  ] 0 sd 3 lw 371 577 m 1661 X s 371 613 m -36 Y s 430 595 m -18 Y s 489 595 m -18 Y s 549 595 m -18 Y s 608 595 m -18 Y s 667 613 m -36 Y s 727 595 m -18 Y s 786 595 m -18 Y s 845 595 m -18 Y
 s 905 595 m -18 Y s 964 613 m -36 Y s 1023 595 m -18 Y s 1083 595 m -18 Y s 1142 595 m -18 Y s 1201 595 m -18 Y s 1261 613 m -36 Y s 1320 595 m -18 Y s 1379 595 m -18 Y s 1439 595 m -18 Y s 1498 595 m -18 Y s 1557 613 m -36 Y s 1617 595 m -18 Y s
 1676 595 m -18 Y s 1735 595 m -18 Y s 1795 595 m -18 Y s 1854 613 m -36 Y s 1854 613 m -36 Y s 1913 595 m -18 Y s 1973 595 m -18 Y s 371 2084 m 1661 X s 371 2048 m 36 Y s 430 2066 m 18 Y s 489 2066 m 18 Y s 549 2066 m 18 Y s 608 2066 m 18 Y s 667
 2048 m 36 Y s 727 2066 m 18 Y s 786 2066 m 18 Y s 845 2066 m 18 Y s 905 2066 m 18 Y s 964 2048 m 36 Y s 1023 2066 m 18 Y s 1083 2066 m 18 Y s 1142 2066 m 18 Y s 1201 2066 m 18 Y s 1261 2048 m 36 Y s 1320 2066 m 18 Y s 1379 2066 m 18 Y s 1439 2066 m
 18 Y s 1498 2066 m 18 Y s 1557 2048 m 36 Y s 1617 2066 m 18 Y s 1676 2066 m 18 Y s 1735 2066 m 18 Y s 1795 2066 m 18 Y s 1854 2048 m 36 Y s 1854 2048 m 36 Y s 1913 2066 m 18 Y s 1973 2066 m 18 Y s 371 577 m 1507 Y s 433 577 m -62 X s 402 621 m -31 X
 s 402 665 m -31 X s 402 710 m -31 X s 402 754 m -31 X s 433 799 m -62 X s 402 843 m -31 X s 402 887 m -31 X s 402 932 m -31 X s 402 976 m -31 X s 433 1021 m -62 X s 402 1065 m -31 X s 402 1110 m -31 X s 402 1154 m -31 X s 402 1198 m -31 X s 433 1243
 m -62 X s 402 1287 m -31 X s 402 1332 m -31 X s 402 1376 m -31 X s 402 1420 m -31 X s 433 1465 m -62 X s 402 1509 m -31 X s 402 1554 m -31 X s 402 1598 m -31 X s 402 1643 m -31 X s 433 1687 m -62 X s 402 1731 m -31 X s 402 1776 m -31 X s 402 1820 m
 -31 X s 402 1865 m -31 X s 433 1909 m -62 X s 433 1909 m -62 X s 402 1953 m -31 X s 402 1998 m -31 X s 402 2042 m -31 X s 2032 577 m 1507 Y s 1969 577 m 63 X s 2001 621 m 31 X s 2001 665 m 31 X s 2001 710 m 31 X s 2001 754 m 31 X s 1969 799 m 63 X s
 2001 843 m 31 X s 2001 887 m 31 X s 2001 932 m 31 X s 2001 976 m 31 X s 1969 1021 m 63 X s 2001 1065 m 31 X s 2001 1110 m 31 X s 2001 1154 m 31 X s 2001 1198 m 31 X s 1969 1243 m 63 X s 2001 1287 m 31 X s 2001 1332 m 31 X s 2001 1376 m 31 X s 2001
 1420 m 31 X s 1969 1465 m 63 X s 2001 1509 m 31 X s 2001 1554 m 31 X s 2001 1598 m 31 X s 2001 1643 m 31 X s 1969 1687 m 63 X s 2001 1731 m 31 X s 2001 1776 m 31 X s 2001 1820 m 31 X s 2001 1865 m 31 X s 1969 1909 m 63 X s 1969 1909 m 63 X s 2001
 1953 m 31 X s 2001 1998 m 31 X s 2001 2042 m 31 X s 1 1 1 c black
 gsave  2245 1622 11 544 C 662.051 1989.96 t 0 r /Helvetica findfont 60.8983 sf 0 0 m ( Internal) show NC gr 
 gsave  2245 1622 11 544 C 452.782 1989.96 t 0 r /Helvetica-BoldOblique findfont 60.8983 sf 0 0 m (ATLAS) show NC gr 
 gsave  2245 1622 11 544 C 452.782 1902.45 t 0 r /Helvetica findfont 60.8983 sf 0 0 m (data 2015\25518 + mc16a,d,e) show NC gr 
 gsave  2245 1622 11 544 C 1034.93 1818.74 t 0 r /Helvetica findfont 41.8676 sf 0 0 m (\2551) show NC gr 
 gsave  2245 1622 11 544 C 513.661 1792.1 t 0 r /Helvetica findfont 60.8983 sf 0 0 m (=13 TeV, 138.97 fb) show NC gr 
 gsave  2245 1622 11 544 C 483.221 1792.1 t 0 r /Helvetica findfont 60.8983 sf 0 0 m (s) show NC gr  6 lw 464 1826 m 8 -38 d s 3 lw 472 1788 m 4 57 d s 476 1845 m 38 X s
 gsave  2245 1622 11 544 C 452.782 1716.01 t 0 r /Helvetica findfont 60.8983 sf 0 0 m (Relaxed Region) show NC gr  1 1 1 c 718 438 1269 1598 bl 1269 1598 m 718 X s 1987 1598 m 438 Y s 1987 2036 m -718 X s 1269 2036 m -438 Y s black
 gsave  2245 1622 11 544 C 1445.86 1974.74 t 0 r /Helvetica findfont 72.3167 sf 0 0 m (Data) show NC gr  1296 1992 m 125 X s 1358 1966 m 52 Y s 1358 1992 m20
 gsave  2245 1622 11 544 C 1445.86 1887.23 t 0 r /Helvetica findfont 72.3167 sf 0 0 m (Total BG) show NC gr  0.8 0 0 c 9 lw 1296 1904 m 125 X s black
 gsave  2245 1622 11 544 C 1445.86 1799.71 t 0 r /Helvetica findfont 72.3167 sf 0 0 m (Z+HFjets) show NC gr  0.2 0.4 0.2 c[  12 12 ] 0 sd 1296 1817 m 125 X s black
 gsave  2245 1622 11 544 C 1468.69 1712.2 t 0 r /Helvetica findfont 72.3167 sf 0 0 m (t) show NC gr [  ] 0 sd 6 lw 1469 1769 m 23 X s
 gsave  2245 1622 11 544 C 1445.86 1712.2 t 0 r /Helvetica findfont 72.3167 sf 0 0 m (t) show NC gr  1 0.8 0.2 c[  12 12 ] 0 sd 9 lw 1296 1729 m 125 X s black
 gsave  2245 1622 11 544 C 1445.86 1624.69 t 0 r /Helvetica findfont 72.3167 sf 0 0 m (Diboson) show NC gr  0 0 1 c 1296 1642 m 125 X s
 gr  gr showpage
end
%%EOF
