%!PS-Adobe-2.0 EPSF-2.0
%%BoundingBox:  0 0 567 544
%%Title: Results/M3bMC_relaxIsoD0.eps: Region: relaxIsoD0
%%Creator: ROOT Version 6.08/06
%%CreationDate: Mon Oct 14 11:01:50 2019
%%DocumentNeededResources: ProcSet (FontSetInit)
%%EndComments
%%BeginProlog
80 dict begin
/s {stroke} def /l {lineto} def /m {moveto} def /t {translate} def
/r {rotate} def /rl {roll}  def /R {repeat} def
/d {rlineto} def /rm {rmoveto} def /gr {grestore} def /f {eofill} def
/c {setrgbcolor} def /black {0 setgray} def /sd {setdash} def
/cl {closepath} def /sf {scalefont setfont} def /lw {setlinewidth} def
/box {m dup 0 exch d exch 0 d 0 exch neg d cl} def
/NC{systemdict begin initclip end}def/C{NC box clip newpath}def
/bl {box s} def /bf {gsave box gsave f grestore 1 lw [] 0 sd s grestore} def /Y { 0 exch d} def /X { 0 d} def 
/K {{pop pop 0 moveto} exch kshow} bind def
/ita {/ang 15 def gsave [1 0 ang dup sin exch cos div 1 0 0] concat} def 
/mp {newpath /y exch def /x exch def} def
/side {[w .77 mul w .23 mul] .385 w mul sd w 0 l currentpoint t -144 r} def
/mr {mp x y w2 0 360 arc} def /m24 {mr s} def /m20 {mr f} def
/mb {mp x y w2 add m w2 neg 0 d 0 w neg d w 0 d 0 w d cl} def
/mt {mp x y w2 add m w2 neg w neg d w 0 d cl} def
/m21 {mb f} def /m25 {mb s} def /m22 {mt f} def /m26{mt s} def
/m23 {mp x y w2 sub m w2 w d w neg 0 d cl f} def
/m27 {mp x y w2 add m w3 neg w2 neg d w3 w2 neg d w3 w2 d cl s} def
/m28 {mp x w2 sub y w2 sub w3 add m w3 0 d  0 w3 neg d w3 0 d 0 w3 d w3 0 d  0 w3 d w3 neg 0 d 0 w3 d w3 neg 0 d 0 w3 neg d w3 neg 0 d cl s } def
/m29 {mp gsave x w2 sub y w2 add w3 sub m currentpoint t 4 {side} repeat cl fill gr} def
/m30 {mp gsave x w2 sub y w2 add w3 sub m currentpoint t 4 {side} repeat cl s gr} def
/m31 {mp x y w2 sub m 0 w d x w2 sub y m w 0 d x w2 sub y w2 add m w w neg d x w2 sub y w2 sub m w w d s} def
/m32 {mp x y w2 sub m w2 w d w neg 0 d cl s} def
/m33 {mp x y w2 add m w3 neg w2 neg d w3 w2 neg d w3 w2 d cl f} def
/m34 {mp x w2 sub y w2 sub w3 add m w3 0 d  0 w3 neg d w3 0 d 0 w3 d w3 0 d  0 w3 d w3 neg 0 d 0 w3 d w3 neg 0 d 0 w3 neg d w3 neg 0 d cl f } def
/m2 {mp x y w2 sub m 0 w d x w2 sub y m w 0 d s} def
/m5 {mp x w2 sub y w2 sub m w w d x w2 sub y w2 add m w w neg d s} def
%%IncludeResource: ProcSet (FontSetInit)
%%IncludeResource: font Times-Roman
%%IncludeResource: font Times-Italic
%%IncludeResource: font Times-Bold
%%IncludeResource: font Times-BoldItalic
%%IncludeResource: font Helvetica
%%IncludeResource: font Helvetica-Oblique
%%IncludeResource: font Helvetica-Bold
%%IncludeResource: font Helvetica-BoldOblique
%%IncludeResource: font Courier
%%IncludeResource: font Courier-Oblique
%%IncludeResource: font Courier-Bold
%%IncludeResource: font Courier-BoldOblique
%%IncludeResource: font Symbol
%%IncludeResource: font ZapfDingbats
/reEncode {exch findfont dup length dict begin {1 index /FID eq  {pop pop} {def} ifelse } forall /Encoding exch def currentdict end dup /FontName get exch definefont pop } def [/Times-Bold /Times-Italic /Times-BoldItalic /Helvetica /Helvetica-Oblique
 /Helvetica-Bold /Helvetica-BoldOblique /Courier /Courier-Oblique /Courier-Bold /Courier-BoldOblique /Times-Roman /AvantGarde-Book /AvantGarde-BookOblique /AvantGarde-Demi /AvantGarde-DemiOblique /Bookman-Demi /Bookman-DemiItalic /Bookman-Light
 /Bookman-LightItalic /Helvetica-Narrow /Helvetica-Narrow-Bold /Helvetica-Narrow-BoldOblique /Helvetica-Narrow-Oblique /NewCenturySchlbk-Roman /NewCenturySchlbk-Bold /NewCenturySchlbk-BoldItalic /NewCenturySchlbk-Italic /Palatino-Bold
 /Palatino-BoldItalic /Palatino-Italic /Palatino-Roman ] {ISOLatin1Encoding reEncode } forall
%%EndProlog
%%BeginSetup
%%EndSetup
newpath  gsave  .25 .25 scale  gsave  0 0 t black[  ] 0 sd 3 lw 1 1 1 c 2268 2176 0 0 bf black 1 1 1 c 2245 533 11 11 bf black 1 1 1 c 1661 288 371 224 bf black 1661 288 371 224 bl 371 224 m 1661 X s 371 512 m 1661 X s 371 224 m 288 Y s[ 4 8] 0 sd
 2032 224 m -1661 X s 2032 296 m -1661 X s 2032 368 m -1661 X s 2032 440 m -1661 X s 2032 512 m -1661 X s[  ] 0 sd 2032 224 m 288 Y s 371 224 m 1661 X s
 gsave  2245 533 11 11 C 1849.18 98.9272 t 0 r /Helvetica findfont 64.7479 sf 0 0 m ( [GeV]) show NC gr 
 gsave  2245 533 11 11 C 1803.52 76.0979 t 0 r /Helvetica findfont 41.8957 sf 0 0 m (12) show NC gr 
 gsave  2245 533 11 11 C 1750.25 98.9272 t 0 r /Helvetica findfont 64.7479 sf 0 0 m (m) show NC gr  371 236 m -12 Y s 430 230 m -6 Y s 489 230 m -6 Y s 549 230 m -6 Y s 608 230 m -6 Y s 667 236 m -12 Y s 727 230 m -6 Y s 786 230 m -6 Y s 845 230 m -6
 Y s 905 230 m -6 Y s 964 236 m -12 Y s 1023 230 m -6 Y s 1083 230 m -6 Y s 1142 230 m -6 Y s 1201 230 m -6 Y s 1261 236 m -12 Y s 1320 230 m -6 Y s 1379 230 m -6 Y s 1439 230 m -6 Y s 1498 230 m -6 Y s 1557 236 m -12 Y s 1617 230 m -6 Y s 1676 230 m
 -6 Y s 1735 230 m -6 Y s 1795 230 m -6 Y s 1854 236 m -12 Y s 1854 236 m -12 Y s 1913 230 m -6 Y s 1973 230 m -6 Y s
 gsave  2245 533 11 11 C 334.831 171.22 t 0 r /Helvetica findfont 57.1305 sf 0 0 m (50) show NC gr 
 gsave  2245 533 11 11 C 631.612 171.22 t 0 r /Helvetica findfont 57.1305 sf 0 0 m (60) show NC gr 
 gsave  2245 533 11 11 C 928.394 171.22 t 0 r /Helvetica findfont 57.1305 sf 0 0 m (70) show NC gr 
 gsave  2245 533 11 11 C 1225.18 171.22 t 0 r /Helvetica findfont 57.1305 sf 0 0 m (80) show NC gr 
 gsave  2245 533 11 11 C 1521.96 171.22 t 0 r /Helvetica findfont 57.1305 sf 0 0 m (90) show NC gr 
 gsave  2245 533 11 11 C 1803.52 171.22 t 0 r /Helvetica findfont 57.1305 sf 0 0 m (100) show NC gr  371 512 m 1661 X s 371 500 m 12 Y s 430 506 m 6 Y s 489 506 m 6 Y s 549 506 m 6 Y s 608 506 m 6 Y s 667 500 m 12 Y s 727 506 m 6 Y s 786 506 m 6 Y s
 845 506 m 6 Y s 905 506 m 6 Y s 964 500 m 12 Y s 1023 506 m 6 Y s 1083 506 m 6 Y s 1142 506 m 6 Y s 1201 506 m 6 Y s 1261 500 m 12 Y s 1320 506 m 6 Y s 1379 506 m 6 Y s 1439 506 m 6 Y s 1498 506 m 6 Y s 1557 500 m 12 Y s 1617 506 m 6 Y s 1676 506 m
 6 Y s 1735 506 m 6 Y s 1795 506 m 6 Y s 1854 500 m 12 Y s 1854 500 m 12 Y s 1913 506 m 6 Y s 1973 506 m 6 Y s 371 224 m 288 Y s
 gsave  2245 533 11 11 C 156.001 407.124 t 90 r /Helvetica findfont 64.7479 sf 0 0 m (Pull) show NC gr  407 224 m -36 X s 389 242 m -18 X s 389 260 m -18 X s 389 278 m -18 X s 407 296 m -36 X s 389 314 m -18 X s 389 332 m -18 X s 389 350 m -18 X s
 407 368 m -36 X s 389 386 m -18 X s 389 404 m -18 X s 389 422 m -18 X s 407 440 m -36 X s 389 458 m -18 X s 389 476 m -18 X s 389 494 m -18 X s 407 512 m -36 X s
 gsave  2245 533 11 11 C 327.221 201.659 t 0 r /Helvetica findfont 57.1305 sf 0 0 m (4) show NC gr 
 gsave  2245 533 11 11 C 292.977 201.659 t 0 r /Symbol findfont 57.1305 sf 0 0 m (-) show NC gr 
 gsave  2245 533 11 11 C 327.221 273.952 t 0 r /Helvetica findfont 57.1305 sf 0 0 m (2) show NC gr 
 gsave  2245 533 11 11 C 292.977 273.952 t 0 r /Symbol findfont 57.1305 sf 0 0 m (-) show NC gr 
 gsave  2245 533 11 11 C 327.221 346.245 t 0 r /Helvetica findfont 57.1305 sf 0 0 m (0) show NC gr 
 gsave  2245 533 11 11 C 327.221 418.538 t 0 r /Helvetica findfont 57.1305 sf 0 0 m (2) show NC gr 
 gsave  2245 533 11 11 C 327.221 490.831 t 0 r /Helvetica findfont 57.1305 sf 0 0 m (4) show NC gr  2032 224 m 288 Y s 1996 224 m 36 X s 2014 242 m 18 X s 2014 260 m 18 X s 2014 278 m 18 X s 1996 296 m 36 X s 2014 314 m 18 X s 2014 332 m 18 X s 2014
 350 m 18 X s 1996 368 m 36 X s 2014 386 m 18 X s 2014 404 m 18 X s 2014 422 m 18 X s 1996 440 m 36 X s 2014 458 m 18 X s 2014 476 m 18 X s 2014 494 m 18 X s 1996 512 m 36 X s 400 234 m 36 Y s 400 270 m cl s 400 234 m -10 Y s 400 224 m cl s 460 257 m
 36 Y s 460 293 m cl s 460 257 m -33 Y s 460 224 m cl s 519 346 m 36 Y s 519 382 m cl s 519 346 m -36 Y s 519 310 m cl s 578 289 m 36 Y s 578 325 m cl s 578 289 m -36 Y s 578 253 m cl s 638 374 m 36 Y s 638 410 m cl s 638 374 m -36 Y s 638 338 m cl s
 697 335 m 36 Y s 697 371 m cl s 697 335 m -36 Y s 697 299 m cl s 756 367 m 36 Y s 756 403 m cl s 756 367 m -36 Y s 756 331 m cl s 816 449 m 36 Y s 816 485 m cl s 816 449 m -36 Y s 816 413 m cl s 875 291 m 36 Y s 875 327 m cl s 875 291 m -36 Y s 875
 255 m cl s 934 381 m 36 Y s 934 417 m cl s 934 381 m -36 Y s 934 345 m cl s 994 356 m 36 Y s 994 392 m cl s 994 356 m -36 Y s 994 320 m cl s 1053 375 m 36 Y s 1053 411 m cl s 1053 375 m -36 Y s 1053 339 m cl s 1112 439 m 36 Y s 1112 475 m cl s 1112
 439 m -36 Y s 1112 403 m cl s 1172 384 m 36 Y s 1172 420 m cl s 1172 384 m -36 Y s 1172 348 m cl s 1231 510 m 2 Y s 1231 512 m cl s 1231 510 m -36 Y s 1231 474 m cl s 1290 480 m 32 Y s 1290 512 m cl s 1290 480 m -36 Y s 1290 444 m cl s 1350 465 m 36
 Y s 1350 501 m cl s 1350 465 m -36 Y s 1350 429 m cl s 1409 411 m 36 Y s 1409 447 m cl s 1409 411 m -36 Y s 1409 375 m cl s 1587 366 m 36 Y s 1587 402 m cl s 1587 366 m -36 Y s 1587 330 m cl s 1706 286 m 36 Y s 1706 322 m cl s 1706 286 m -36 Y s
 1706 250 m cl s 1765 287 m 36 Y s 1765 323 m cl s 1765 287 m -36 Y s 1765 251 m cl s 1824 250 m 36 Y s 1824 286 m cl s 1824 250 m -26 Y s 1824 224 m cl s 2002 261 m 36 Y s 2002 297 m cl s 2002 261 m -36 Y s 2002 225 m cl s /w 37 def /w2 {w 2 div}
 def /w3 {w 3 div} def 400 234 460 257 519 346 578 289 638 374 697 335 756 367 816 449 875 291 934 381 994 356 1053 375 1112 439 1172 384 1231 510 1290 480 1350 465 1409 411 18 { m20} R 1587 366 m20 1706 286 1765 287 1824 250 3 { m20} R 2002 261 m20
 371 224 m 1661 X s 371 236 m -12 Y s 430 230 m -6 Y s 489 230 m -6 Y s 549 230 m -6 Y s 608 230 m -6 Y s 667 236 m -12 Y s 727 230 m -6 Y s 786 230 m -6 Y s 845 230 m -6 Y s 905 230 m -6 Y s 964 236 m -12 Y s 1023 230 m -6 Y s 1083 230 m -6 Y s 1142
 230 m -6 Y s 1201 230 m -6 Y s 1261 236 m -12 Y s 1320 230 m -6 Y s 1379 230 m -6 Y s 1439 230 m -6 Y s 1498 230 m -6 Y s 1557 236 m -12 Y s 1617 230 m -6 Y s 1676 230 m -6 Y s 1735 230 m -6 Y s 1795 230 m -6 Y s 1854 236 m -12 Y s 1854 236 m -12 Y
 s 1913 230 m -6 Y s 1973 230 m -6 Y s 371 512 m 1661 X s 371 500 m 12 Y s 430 506 m 6 Y s 489 506 m 6 Y s 549 506 m 6 Y s 608 506 m 6 Y s 667 500 m 12 Y s 727 506 m 6 Y s 786 506 m 6 Y s 845 506 m 6 Y s 905 506 m 6 Y s 964 500 m 12 Y s 1023 506 m 6
 Y s 1083 506 m 6 Y s 1142 506 m 6 Y s 1201 506 m 6 Y s 1261 500 m 12 Y s 1320 506 m 6 Y s 1379 506 m 6 Y s 1439 506 m 6 Y s 1498 506 m 6 Y s 1557 500 m 12 Y s 1617 506 m 6 Y s 1676 506 m 6 Y s 1735 506 m 6 Y s 1795 506 m 6 Y s 1854 500 m 12 Y s 1854
 500 m 12 Y s 1913 506 m 6 Y s 1973 506 m 6 Y s 371 224 m 288 Y s 407 224 m -36 X s 389 242 m -18 X s 389 260 m -18 X s 389 278 m -18 X s 407 296 m -36 X s 389 314 m -18 X s 389 332 m -18 X s 389 350 m -18 X s 407 368 m -36 X s 389 386 m -18 X s 389
 404 m -18 X s 389 422 m -18 X s 407 440 m -36 X s 389 458 m -18 X s 389 476 m -18 X s 389 494 m -18 X s 407 512 m -36 X s 2032 224 m 288 Y s 1996 224 m 36 X s 2014 242 m 18 X s 2014 260 m 18 X s 2014 278 m 18 X s 1996 296 m 36 X s 2014 314 m 18 X s
 2014 332 m 18 X s 2014 350 m 18 X s 1996 368 m 36 X s 2014 386 m 18 X s 2014 404 m 18 X s 2014 422 m 18 X s 1996 440 m 36 X s 2014 458 m 18 X s 2014 476 m 18 X s 2014 494 m 18 X s 1996 512 m 36 X s[  12 12 ] 0 sd 6 lw 371 368 m 1661 X s[  ] 0 sd 3
 lw 1 1 1 c 2245 1622 11 544 bf black 1 1 1 c 1661 1507 371 577 bf black 1661 1507 371 577 bl 371 577 m 1661 X s 371 613 m -36 Y s 430 595 m -18 Y s 489 595 m -18 Y s 549 595 m -18 Y s 608 595 m -18 Y s 667 613 m -36 Y s 727 595 m -18 Y s 786 595 m
 -18 Y s 845 595 m -18 Y s 905 595 m -18 Y s 964 613 m -36 Y s 1023 595 m -18 Y s 1083 595 m -18 Y s 1142 595 m -18 Y s 1201 595 m -18 Y s 1261 613 m -36 Y s 1320 595 m -18 Y s 1379 595 m -18 Y s 1439 595 m -18 Y s 1498 595 m -18 Y s 1557 613 m -36 Y
 s 1617 595 m -18 Y s 1676 595 m -18 Y s 1735 595 m -18 Y s 1795 595 m -18 Y s 1854 613 m -36 Y s 1854 613 m -36 Y s 1913 595 m -18 Y s 1973 595 m -18 Y s 371 2084 m 1661 X s 371 2048 m 36 Y s 430 2066 m 18 Y s 489 2066 m 18 Y s 549 2066 m 18 Y s 608
 2066 m 18 Y s 667 2048 m 36 Y s 727 2066 m 18 Y s 786 2066 m 18 Y s 845 2066 m 18 Y s 905 2066 m 18 Y s 964 2048 m 36 Y s 1023 2066 m 18 Y s 1083 2066 m 18 Y s 1142 2066 m 18 Y s 1201 2066 m 18 Y s 1261 2048 m 36 Y s 1320 2066 m 18 Y s 1379 2066 m
 18 Y s 1439 2066 m 18 Y s 1498 2066 m 18 Y s 1557 2048 m 36 Y s 1617 2066 m 18 Y s 1676 2066 m 18 Y s 1735 2066 m 18 Y s 1795 2066 m 18 Y s 1854 2048 m 36 Y s 1854 2048 m 36 Y s 1913 2066 m 18 Y s 1973 2066 m 18 Y s 371 577 m 1507 Y s
 gsave  2245 1622 11 544 C 152.196 1666.54 t 90 r /Helvetica findfont 64.7045 sf 0 0 m (Events / 2GeV) show NC gr  433 577 m -62 X s 402 624 m -31 X s 402 672 m -31 X s 402 720 m -31 X s 402 768 m -31 X s 433 815 m -62 X s 402 863 m -31 X s 402 911 m
 -31 X s 402 959 m -31 X s 402 1007 m -31 X s 433 1054 m -62 X s 402 1102 m -31 X s 402 1150 m -31 X s 402 1198 m -31 X s 402 1246 m -31 X s 433 1293 m -62 X s 402 1341 m -31 X s 402 1389 m -31 X s 402 1437 m -31 X s 402 1485 m -31 X s 433 1532 m -62
 X s 402 1580 m -31 X s 402 1628 m -31 X s 402 1676 m -31 X s 402 1724 m -31 X s 433 1771 m -62 X s 402 1819 m -31 X s 402 1867 m -31 X s 402 1915 m -31 X s 402 1963 m -31 X s 433 2010 m -62 X s 433 2010 m -62 X s 402 2058 m -31 X s
 gsave  2245 1622 11 544 C 327.221 555.514 t 0 r /Helvetica findfont 57.0922 sf 0 0 m (0) show NC gr 
 gsave  2245 1622 11 544 C 262.538 795.223 t 0 r /Helvetica findfont 57.0922 sf 0 0 m (500) show NC gr 
 gsave  2245 1622 11 544 C 232.099 1034.93 t 0 r /Helvetica findfont 57.0922 sf 0 0 m (1000) show NC gr 
 gsave  2245 1622 11 544 C 232.099 1270.83 t 0 r /Helvetica findfont 57.0922 sf 0 0 m (1500) show NC gr 
 gsave  2245 1622 11 544 C 232.099 1510.54 t 0 r /Helvetica findfont 57.0922 sf 0 0 m (2000) show NC gr 
 gsave  2245 1622 11 544 C 232.099 1750.25 t 0 r /Helvetica findfont 57.0922 sf 0 0 m (2500) show NC gr 
 gsave  2245 1622 11 544 C 232.099 1989.96 t 0 r /Helvetica findfont 57.0922 sf 0 0 m (3000) show NC gr  2032 577 m 1507 Y s 1969 577 m 63 X s 2001 624 m 31 X s 2001 672 m 31 X s 2001 720 m 31 X s 2001 768 m 31 X s 1969 815 m 63 X s 2001 863 m 31 X s
 2001 911 m 31 X s 2001 959 m 31 X s 2001 1007 m 31 X s 1969 1054 m 63 X s 2001 1102 m 31 X s 2001 1150 m 31 X s 2001 1198 m 31 X s 2001 1246 m 31 X s 1969 1293 m 63 X s 2001 1341 m 31 X s 2001 1389 m 31 X s 2001 1437 m 31 X s 2001 1485 m 31 X s 1969
 1532 m 63 X s 2001 1580 m 31 X s 2001 1628 m 31 X s 2001 1676 m 31 X s 2001 1724 m 31 X s 1969 1771 m 63 X s 2001 1819 m 31 X s 2001 1867 m 31 X s 2001 1915 m 31 X s 2001 1963 m 31 X s 1969 2010 m 63 X s 1969 2010 m 63 X s 2001 2058 m 31 X s 400 638
 m -29 X s 371 638 m cl s 400 638 m 30 X s 430 638 m cl s 400 638 m 1 Y s 400 639 m cl s 400 638 m -1 Y s 400 637 m cl s 460 642 m -30 X s 430 642 m cl s 460 642 m 29 X s 489 642 m cl s 460 642 m 1 Y s 460 643 m cl s 460 642 m s 460 642 m cl s 519
 648 m -30 X s 489 648 m cl s 519 648 m 30 X s 549 648 m cl s 519 648 m 1 Y s 519 649 m cl s 519 648 m -1 Y s 519 647 m cl s 578 650 m -29 X s 549 650 m cl s 578 650 m 30 X s 608 650 m cl s 578 650 m s 578 650 m cl s 578 650 m -1 Y s 578 649 m cl s
 638 653 m -30 X s 608 653 m cl s 638 653 m 29 X s 667 653 m cl s 638 653 m 2 Y s 638 655 m cl s 638 653 m -1 Y s 638 652 m cl s 697 654 m -30 X s 667 654 m cl s 697 654 m 30 X s 727 654 m cl s 697 654 m 1 Y s 697 655 m cl s 697 654 m -1 Y s 697 653
 m cl s 756 655 m -29 X s 727 655 m cl s 756 655 m 30 X s 786 655 m cl s 756 655 m 1 Y s 756 656 m cl s 756 655 m -1 Y s 756 654 m cl s 816 658 m -30 X s 786 658 m cl s 816 658 m 29 X s 845 658 m cl s 816 658 m 2 Y s 816 660 m cl s 816 658 m -1 Y s
 816 657 m cl s 875 653 m -30 X s 845 653 m cl s 875 653 m 30 X s 905 653 m cl s 875 653 m s 875 653 m cl s 875 653 m -1 Y s 875 652 m cl s 934 654 m -29 X s 905 654 m cl s 934 654 m 30 X s 964 654 m cl s 934 654 m 2 Y s 934 656 m cl s 934 654 m -1 Y
 s 934 653 m cl s 994 653 m -30 X s 964 653 m cl s 994 653 m 29 X s 1023 653 m cl s 994 653 m 1 Y s 994 654 m cl s 994 653 m -1 Y s 994 652 m cl s 1053 653 m -30 X s 1023 653 m cl s 1053 653 m 30 X s 1083 653 m cl s 1053 653 m 1 Y s 1053 654 m cl s
 1053 653 m s 1053 653 m cl s 1112 657 m -29 X s 1083 657 m cl s 1112 657 m 30 X s 1142 657 m cl s 1112 657 m 1 Y s 1112 658 m cl s 1112 657 m -2 Y s 1112 655 m cl s 1172 657 m -30 X s 1142 657 m cl s 1172 657 m 29 X s 1201 657 m cl s 1172 657 m 1 Y
 s 1172 658 m cl s 1172 657 m -1 Y s 1172 656 m cl s 1231 668 m -30 X s 1201 668 m cl s 1231 668 m 30 X s 1261 668 m cl s 1231 668 m 2 Y s 1231 670 m cl s 1231 668 m -1 Y s 1231 667 m cl s 1290 677 m -29 X s 1261 677 m cl s 1290 677 m 30 X s 1320 677
 m cl s 1290 677 m 2 Y s 1290 679 m cl s 1290 677 m -2 Y s 1290 675 m cl s 1350 699 m -30 X s 1320 699 m cl s 1350 699 m 29 X s 1379 699 m cl s 1350 699 m 2 Y s 1350 701 m cl s 1350 699 m -1 Y s 1350 698 m cl s 1409 748 m -30 X s 1379 748 m cl s 1409
 748 m 30 X s 1439 748 m cl s 1409 748 m 3 Y s 1409 751 m cl s 1409 748 m -2 Y s 1409 746 m cl s 1468 886 m -29 X s 1439 886 m cl s 1468 886 m 30 X s 1498 886 m cl s 1468 886 m 4 Y s 1468 890 m cl s 1468 886 m -4 Y s 1468 882 m cl s 1528 1208 m -30 X
 s 1498 1208 m cl s 1528 1208 m 29 X s 1557 1208 m cl s 1528 1208 m 6 Y s 1528 1214 m cl s 1528 1208 m -5 Y s 1528 1203 m cl s 1587 1525 m -30 X s 1557 1525 m cl s 1587 1525 m 30 X s 1617 1525 m cl s 1587 1525 m 5 Y s 1587 1530 m cl s 1587 1525 m -6
 Y s 1587 1519 m cl s 1646 1157 m -29 X s 1617 1157 m cl s 1646 1157 m 30 X s 1676 1157 m cl s 1646 1157 m 5 Y s 1646 1162 m cl s 1646 1157 m -5 Y s 1646 1152 m cl s 1706 816 m -30 X s 1676 816 m cl s 1706 816 m 29 X s 1735 816 m cl s 1706 816 m 4 Y
 s 1706 820 m cl s 1706 816 m -4 Y s 1706 812 m cl s 1765 697 m -30 X s 1735 697 m cl s 1765 697 m 30 X s 1795 697 m cl s 1765 697 m 2 Y s 1765 699 m cl s 1765 697 m -2 Y s 1765 695 m cl s 1824 655 m -29 X s 1795 655 m cl s 1824 655 m 30 X s 1854 655
 m cl s 1824 655 m 1 Y s 1824 656 m cl s 1824 655 m -1 Y s 1824 654 m cl s 1884 634 m -30 X s 1854 634 m cl s 1884 634 m 29 X s 1913 634 m cl s 1884 634 m 1 Y s 1884 635 m cl s 1884 634 m -1 Y s 1884 633 m cl s 1943 625 m -30 X s 1913 625 m cl s 1943
 625 m 30 X s 1973 625 m cl s 1943 625 m 1 Y s 1943 626 m cl s 1943 625 m s 1943 625 m cl s 2002 619 m -29 X s 1973 619 m cl s 2002 619 m 30 X s 2032 619 m cl s 2002 619 m 1 Y s 2002 620 m cl s 2002 619 m -1 Y s 2002 618 m cl s 400 638 460 642 519
 648 578 650 638 653 697 654 756 655 816 658 875 653 934 654 994 653 1053 653 1112 657 1172 657 1231 668 1290 677 1350 699 1409 748 1468 886 1528 1208 1587 1525 1646 1157 1706 816 1765 697 1824 655 1884 634 1943 625 2002 619 28 { m20} R 0.8 0 0 c 9
 lw black 0.8 0 0 c 371 638 m cl s 371 638 m 59 5 d 59 4 d 60 3 d 59 2 d 59 2 d 60 1 d 118 X 60 -1 d 59 -1 d 119 X 59 2 d 59 3 d 60 7 d 29 6 d 30 10 d 30 13 d 14 10 d 15 11 d 15 14 d 15 17 d 15 21 d 15 26 d 7 16 d 7 17 d 8 20 d 7 22 d 8 24 d 7 27 d 7
 30 d 8 33 d 7 37 d 8 41 d 7 44 d 8 48 d 7 51 d 7 54 d 15 110 d 8 52 d 7 47 d 4 21 d 3 16 d 4 12 d 4 10 d 4 7 d 1 2 d 2 X 4 -5 d 4 -8 d 3 -13 d 4 -18 d 4 -20 d 4 -25 d 3 -28 d 4 -32 d 7 -64 d 15 -138 d 8 -64 d 3 -31 d 4 -29 d 7 -52 d 8 -47 d 7 -41 d
 8 -36 d 7 -32 d 8 -27 d 7 -23 d 7 -21 d 8 -18 d 7 -16 d 15 -25 d 15 -19 d 15 -15 d 15 -11 d 14 -9 d 15 -7 d 30 -11 d 30 -8 d 29 -6 d 60 -10 d 59 -7 d s 0.2 0.4 0.2 c[  12 12 ] 0 sd black 0.2 0.4 0.2 c 371 577 m cl s 371 577 m 118 X 60 1 d 237 X 59 1
 d 60 X 59 1 d 59 1 d 60 1 d 59 2 d 59 3 d 30 3 d 30 4 d 29 5 d 30 7 d 15 5 d 15 5 d 14 7 d 15 9 d 15 10 d 15 12 d 15 15 d 7 8 d 8 9 d 7 11 d 7 11 d 8 12 d 7 13 d 8 15 d 7 15 d 7 17 d 8 17 d 15 38 d 15 39 d 14 37 d 8 15 d 7 14 d 4 6 d 4 5 d 7 7 d 4 3
 d 3 1 d 4 1 d 4 X 4 -2 d 3 -2 d 4 -3 d 4 -4 d 3 -4 d 4 -6 d 4 -6 d 4 -7 d 3 -8 d 4 -9 d 7 -18 d 8 -20 d 7 -20 d 15 -44 d 15 -42 d 7 -19 d 8 -18 d 7 -17 d 8 -16 d 7 -14 d 7 -12 d 8 -11 d 7 -10 d 8 -8 d 7 -8 d 15 -12 d 15 -9 d 15 -6 d 14 -5 d 15 -4 d
 30 -6 d 30 -3 d 29 -3 d 60 -3 d 59 -2 d s 1 0.8 0.2 c black 1 0.8 0.2 c 371 622 m cl s 371 622 m 59 3 d 59 2 d 60 2 d 59 2 d 59 2 d 60 1 d 59 1 d 59 1 d 60 1 d 59 X 59 1 d 60 X 59 -1 d 59 X 60 -1 d 59 X 59 -2 d 60 -1 d 59 -1 d 59 -2 d 60 -2 d 59 -2
 d 59 -3 d 60 -3 d 59 -2 d 59 -4 d 60 -3 d 59 -4 d s 0 0 1 c black 0 0 1 c 371 592 m cl s 371 592 m 59 2 d 59 1 d 60 1 d 59 1 d 59 X 60 -1 d 59 -1 d 59 -2 d 60 -2 d 59 -2 d 59 -1 d 60 -1 d 59 -1 d 59 1 d 60 1 d 59 4 d 30 4 d 29 6 d 15 4 d 15 5 d 15 7
 d 15 9 d 14 12 d 8 7 d 7 9 d 8 10 d 7 12 d 7 14 d 8 16 d 7 18 d 4 10 d 4 12 d 7 25 d 4 14 d 4 14 d 3 16 d 4 17 d 7 36 d 8 39 d 7 43 d 8 41 d 7 39 d 4 19 d 3 14 d 4 13 d 4 10 d 4 8 d 1 3 d 2 1 d 4 -1 d 4 -5 d 3 -8 d 4 -11 d 4 -15 d 4 -17 d 3 -20 d 4
 -24 d 7 -46 d 4 -24 d 4 -25 d 2 -13 d 1 -12 d 4 -22 d 8 -42 d 3 -20 d 4 -18 d 4 -16 d 3 -15 d 4 -14 d 4 -12 d 4 -11 d 3 -11 d 4 -9 d 4 -7 d 7 -15 d 8 -11 d 7 -10 d 7 -8 d 15 -12 d 15 -9 d 15 -6 d 15 -5 d 15 -4 d 29 -6 d 30 -4 d 59 -5 d 60 -3 d 59 -1
 d s black[  ] 0 sd 3 lw 371 577 m 1661 X s 371 613 m -36 Y s 430 595 m -18 Y s 489 595 m -18 Y s 549 595 m -18 Y s 608 595 m -18 Y s 667 613 m -36 Y s 727 595 m -18 Y s 786 595 m -18 Y s 845 595 m -18 Y s 905 595 m -18 Y s 964 613 m -36 Y s 1023 595
 m -18 Y s 1083 595 m -18 Y s 1142 595 m -18 Y s 1201 595 m -18 Y s 1261 613 m -36 Y s 1320 595 m -18 Y s 1379 595 m -18 Y s 1439 595 m -18 Y s 1498 595 m -18 Y s 1557 613 m -36 Y s 1617 595 m -18 Y s 1676 595 m -18 Y s 1735 595 m -18 Y s 1795 595 m
 -18 Y s 1854 613 m -36 Y s 1854 613 m -36 Y s 1913 595 m -18 Y s 1973 595 m -18 Y s 371 2084 m 1661 X s 371 2048 m 36 Y s 430 2066 m 18 Y s 489 2066 m 18 Y s 549 2066 m 18 Y s 608 2066 m 18 Y s 667 2048 m 36 Y s 727 2066 m 18 Y s 786 2066 m 18 Y s
 845 2066 m 18 Y s 905 2066 m 18 Y s 964 2048 m 36 Y s 1023 2066 m 18 Y s 1083 2066 m 18 Y s 1142 2066 m 18 Y s 1201 2066 m 18 Y s 1261 2048 m 36 Y s 1320 2066 m 18 Y s 1379 2066 m 18 Y s 1439 2066 m 18 Y s 1498 2066 m 18 Y s 1557 2048 m 36 Y s 1617
 2066 m 18 Y s 1676 2066 m 18 Y s 1735 2066 m 18 Y s 1795 2066 m 18 Y s 1854 2048 m 36 Y s 1854 2048 m 36 Y s 1913 2066 m 18 Y s 1973 2066 m 18 Y s 371 577 m 1507 Y s 433 577 m -62 X s 402 624 m -31 X s 402 672 m -31 X s 402 720 m -31 X s 402 768 m
 -31 X s 433 815 m -62 X s 402 863 m -31 X s 402 911 m -31 X s 402 959 m -31 X s 402 1007 m -31 X s 433 1054 m -62 X s 402 1102 m -31 X s 402 1150 m -31 X s 402 1198 m -31 X s 402 1246 m -31 X s 433 1293 m -62 X s 402 1341 m -31 X s 402 1389 m -31 X
 s 402 1437 m -31 X s 402 1485 m -31 X s 433 1532 m -62 X s 402 1580 m -31 X s 402 1628 m -31 X s 402 1676 m -31 X s 402 1724 m -31 X s 433 1771 m -62 X s 402 1819 m -31 X s 402 1867 m -31 X s 402 1915 m -31 X s 402 1963 m -31 X s 433 2010 m -62 X s
 433 2010 m -62 X s 402 2058 m -31 X s 2032 577 m 1507 Y s 1969 577 m 63 X s 2001 624 m 31 X s 2001 672 m 31 X s 2001 720 m 31 X s 2001 768 m 31 X s 1969 815 m 63 X s 2001 863 m 31 X s 2001 911 m 31 X s 2001 959 m 31 X s 2001 1007 m 31 X s 1969 1054
 m 63 X s 2001 1102 m 31 X s 2001 1150 m 31 X s 2001 1198 m 31 X s 2001 1246 m 31 X s 1969 1293 m 63 X s 2001 1341 m 31 X s 2001 1389 m 31 X s 2001 1437 m 31 X s 2001 1485 m 31 X s 1969 1532 m 63 X s 2001 1580 m 31 X s 2001 1628 m 31 X s 2001 1676 m
 31 X s 2001 1724 m 31 X s 1969 1771 m 63 X s 2001 1819 m 31 X s 2001 1867 m 31 X s 2001 1915 m 31 X s 2001 1963 m 31 X s 1969 2010 m 63 X s 1969 2010 m 63 X s 2001 2058 m 31 X s 1 1 1 c black
 gsave  2245 1622 11 544 C 662.051 1989.96 t 0 r /Helvetica findfont 60.8983 sf 0 0 m ( Internal) show NC gr 
 gsave  2245 1622 11 544 C 452.782 1989.96 t 0 r /Helvetica-BoldOblique findfont 60.8983 sf 0 0 m (ATLAS) show NC gr 
 gsave  2245 1622 11 544 C 452.782 1902.45 t 0 r /Helvetica findfont 60.8983 sf 0 0 m (data 2015\25518 + mc16a,d,e) show NC gr 
 gsave  2245 1622 11 544 C 1034.93 1818.74 t 0 r /Helvetica findfont 41.8676 sf 0 0 m (\2551) show NC gr 
 gsave  2245 1622 11 544 C 513.661 1792.1 t 0 r /Helvetica findfont 60.8983 sf 0 0 m (=13 TeV, 138.97 fb) show NC gr 
 gsave  2245 1622 11 544 C 483.221 1792.1 t 0 r /Helvetica findfont 60.8983 sf 0 0 m (s) show NC gr  6 lw 464 1826 m 8 -38 d s 3 lw 472 1788 m 4 57 d s 476 1845 m 38 X s
 gsave  2245 1622 11 544 C 452.782 1716.01 t 0 r /Helvetica findfont 60.8983 sf 0 0 m (Relaxed Region) show NC gr  1 1 1 c 718 438 1269 1598 bl 1269 1598 m 718 X s 1987 1598 m 438 Y s 1987 2036 m -718 X s 1269 2036 m -438 Y s black
 gsave  2245 1622 11 544 C 1445.86 1974.74 t 0 r /Helvetica findfont 72.3167 sf 0 0 m (MC Data) show NC gr  1296 1992 m 125 X s 1358 1966 m 52 Y s 1358 1992 m20
 gsave  2245 1622 11 544 C 1445.86 1887.23 t 0 r /Helvetica findfont 72.3167 sf 0 0 m (Total BG) show NC gr  0.8 0 0 c 9 lw 1296 1904 m 125 X s black
 gsave  2245 1622 11 544 C 1445.86 1799.71 t 0 r /Helvetica findfont 72.3167 sf 0 0 m (Z+HFjets) show NC gr  0.2 0.4 0.2 c[  12 12 ] 0 sd 1296 1817 m 125 X s black
 gsave  2245 1622 11 544 C 1468.69 1712.2 t 0 r /Helvetica findfont 72.3167 sf 0 0 m (t) show NC gr [  ] 0 sd 6 lw 1469 1769 m 23 X s
 gsave  2245 1622 11 544 C 1445.86 1712.2 t 0 r /Helvetica findfont 72.3167 sf 0 0 m (t) show NC gr  1 0.8 0.2 c[  12 12 ] 0 sd 9 lw 1296 1729 m 125 X s black
 gsave  2245 1622 11 544 C 1445.86 1624.69 t 0 r /Helvetica findfont 72.3167 sf 0 0 m (Diboson) show NC gr  0 0 1 c 1296 1642 m 125 X s
 gr  gr showpage
end
%%EOF
