%!PS-Adobe-2.0 EPSF-2.0
%%BoundingBox:  0 0 567 544
%%Title: Results/M3bMC_invIso.eps: Region: invIso
%%Creator: ROOT Version 6.08/06
%%CreationDate: Mon Oct 14 11:01:51 2019
%%DocumentNeededResources: ProcSet (FontSetInit)
%%EndComments
%%BeginProlog
80 dict begin
/s {stroke} def /l {lineto} def /m {moveto} def /t {translate} def
/r {rotate} def /rl {roll}  def /R {repeat} def
/d {rlineto} def /rm {rmoveto} def /gr {grestore} def /f {eofill} def
/c {setrgbcolor} def /black {0 setgray} def /sd {setdash} def
/cl {closepath} def /sf {scalefont setfont} def /lw {setlinewidth} def
/box {m dup 0 exch d exch 0 d 0 exch neg d cl} def
/NC{systemdict begin initclip end}def/C{NC box clip newpath}def
/bl {box s} def /bf {gsave box gsave f grestore 1 lw [] 0 sd s grestore} def /Y { 0 exch d} def /X { 0 d} def 
/K {{pop pop 0 moveto} exch kshow} bind def
/ita {/ang 15 def gsave [1 0 ang dup sin exch cos div 1 0 0] concat} def 
/mp {newpath /y exch def /x exch def} def
/side {[w .77 mul w .23 mul] .385 w mul sd w 0 l currentpoint t -144 r} def
/mr {mp x y w2 0 360 arc} def /m24 {mr s} def /m20 {mr f} def
/mb {mp x y w2 add m w2 neg 0 d 0 w neg d w 0 d 0 w d cl} def
/mt {mp x y w2 add m w2 neg w neg d w 0 d cl} def
/m21 {mb f} def /m25 {mb s} def /m22 {mt f} def /m26{mt s} def
/m23 {mp x y w2 sub m w2 w d w neg 0 d cl f} def
/m27 {mp x y w2 add m w3 neg w2 neg d w3 w2 neg d w3 w2 d cl s} def
/m28 {mp x w2 sub y w2 sub w3 add m w3 0 d  0 w3 neg d w3 0 d 0 w3 d w3 0 d  0 w3 d w3 neg 0 d 0 w3 d w3 neg 0 d 0 w3 neg d w3 neg 0 d cl s } def
/m29 {mp gsave x w2 sub y w2 add w3 sub m currentpoint t 4 {side} repeat cl fill gr} def
/m30 {mp gsave x w2 sub y w2 add w3 sub m currentpoint t 4 {side} repeat cl s gr} def
/m31 {mp x y w2 sub m 0 w d x w2 sub y m w 0 d x w2 sub y w2 add m w w neg d x w2 sub y w2 sub m w w d s} def
/m32 {mp x y w2 sub m w2 w d w neg 0 d cl s} def
/m33 {mp x y w2 add m w3 neg w2 neg d w3 w2 neg d w3 w2 d cl f} def
/m34 {mp x w2 sub y w2 sub w3 add m w3 0 d  0 w3 neg d w3 0 d 0 w3 d w3 0 d  0 w3 d w3 neg 0 d 0 w3 d w3 neg 0 d 0 w3 neg d w3 neg 0 d cl f } def
/m2 {mp x y w2 sub m 0 w d x w2 sub y m w 0 d s} def
/m5 {mp x w2 sub y w2 sub m w w d x w2 sub y w2 add m w w neg d s} def
%%IncludeResource: ProcSet (FontSetInit)
%%IncludeResource: font Times-Roman
%%IncludeResource: font Times-Italic
%%IncludeResource: font Times-Bold
%%IncludeResource: font Times-BoldItalic
%%IncludeResource: font Helvetica
%%IncludeResource: font Helvetica-Oblique
%%IncludeResource: font Helvetica-Bold
%%IncludeResource: font Helvetica-BoldOblique
%%IncludeResource: font Courier
%%IncludeResource: font Courier-Oblique
%%IncludeResource: font Courier-Bold
%%IncludeResource: font Courier-BoldOblique
%%IncludeResource: font Symbol
%%IncludeResource: font ZapfDingbats
/reEncode {exch findfont dup length dict begin {1 index /FID eq  {pop pop} {def} ifelse } forall /Encoding exch def currentdict end dup /FontName get exch definefont pop } def [/Times-Bold /Times-Italic /Times-BoldItalic /Helvetica /Helvetica-Oblique
 /Helvetica-Bold /Helvetica-BoldOblique /Courier /Courier-Oblique /Courier-Bold /Courier-BoldOblique /Times-Roman /AvantGarde-Book /AvantGarde-BookOblique /AvantGarde-Demi /AvantGarde-DemiOblique /Bookman-Demi /Bookman-DemiItalic /Bookman-Light
 /Bookman-LightItalic /Helvetica-Narrow /Helvetica-Narrow-Bold /Helvetica-Narrow-BoldOblique /Helvetica-Narrow-Oblique /NewCenturySchlbk-Roman /NewCenturySchlbk-Bold /NewCenturySchlbk-BoldItalic /NewCenturySchlbk-Italic /Palatino-Bold
 /Palatino-BoldItalic /Palatino-Italic /Palatino-Roman ] {ISOLatin1Encoding reEncode } forall
%%EndProlog
%%BeginSetup
%%EndSetup
newpath  gsave  .25 .25 scale  gsave  0 0 t black[  ] 0 sd 3 lw 1 1 1 c 2268 2176 0 0 bf black 1 1 1 c 2245 533 11 11 bf black 1 1 1 c 1661 288 371 224 bf black 1661 288 371 224 bl 371 224 m 1661 X s 371 512 m 1661 X s 371 224 m 288 Y s[ 4 8] 0 sd
 2032 224 m -1661 X s 2032 296 m -1661 X s 2032 368 m -1661 X s 2032 440 m -1661 X s 2032 512 m -1661 X s[  ] 0 sd 2032 224 m 288 Y s 371 224 m 1661 X s
 gsave  2245 533 11 11 C 1849.18 98.9272 t 0 r /Helvetica findfont 64.7479 sf 0 0 m ( [GeV]) show NC gr 
 gsave  2245 533 11 11 C 1803.52 76.0979 t 0 r /Helvetica findfont 41.8957 sf 0 0 m (12) show NC gr 
 gsave  2245 533 11 11 C 1750.25 98.9272 t 0 r /Helvetica findfont 64.7479 sf 0 0 m (m) show NC gr  371 236 m -12 Y s 430 230 m -6 Y s 489 230 m -6 Y s 549 230 m -6 Y s 608 230 m -6 Y s 667 236 m -12 Y s 727 230 m -6 Y s 786 230 m -6 Y s 845 230 m -6
 Y s 905 230 m -6 Y s 964 236 m -12 Y s 1023 230 m -6 Y s 1083 230 m -6 Y s 1142 230 m -6 Y s 1201 230 m -6 Y s 1261 236 m -12 Y s 1320 230 m -6 Y s 1379 230 m -6 Y s 1439 230 m -6 Y s 1498 230 m -6 Y s 1557 236 m -12 Y s 1617 230 m -6 Y s 1676 230 m
 -6 Y s 1735 230 m -6 Y s 1795 230 m -6 Y s 1854 236 m -12 Y s 1854 236 m -12 Y s 1913 230 m -6 Y s 1973 230 m -6 Y s
 gsave  2245 533 11 11 C 334.831 171.22 t 0 r /Helvetica findfont 57.1305 sf 0 0 m (50) show NC gr 
 gsave  2245 533 11 11 C 631.612 171.22 t 0 r /Helvetica findfont 57.1305 sf 0 0 m (60) show NC gr 
 gsave  2245 533 11 11 C 928.394 171.22 t 0 r /Helvetica findfont 57.1305 sf 0 0 m (70) show NC gr 
 gsave  2245 533 11 11 C 1225.18 171.22 t 0 r /Helvetica findfont 57.1305 sf 0 0 m (80) show NC gr 
 gsave  2245 533 11 11 C 1521.96 171.22 t 0 r /Helvetica findfont 57.1305 sf 0 0 m (90) show NC gr 
 gsave  2245 533 11 11 C 1803.52 171.22 t 0 r /Helvetica findfont 57.1305 sf 0 0 m (100) show NC gr  371 512 m 1661 X s 371 500 m 12 Y s 430 506 m 6 Y s 489 506 m 6 Y s 549 506 m 6 Y s 608 506 m 6 Y s 667 500 m 12 Y s 727 506 m 6 Y s 786 506 m 6 Y s
 845 506 m 6 Y s 905 506 m 6 Y s 964 500 m 12 Y s 1023 506 m 6 Y s 1083 506 m 6 Y s 1142 506 m 6 Y s 1201 506 m 6 Y s 1261 500 m 12 Y s 1320 506 m 6 Y s 1379 506 m 6 Y s 1439 506 m 6 Y s 1498 506 m 6 Y s 1557 500 m 12 Y s 1617 506 m 6 Y s 1676 506 m
 6 Y s 1735 506 m 6 Y s 1795 506 m 6 Y s 1854 500 m 12 Y s 1854 500 m 12 Y s 1913 506 m 6 Y s 1973 506 m 6 Y s 371 224 m 288 Y s
 gsave  2245 533 11 11 C 156.001 407.124 t 90 r /Helvetica findfont 64.7479 sf 0 0 m (Pull) show NC gr  407 224 m -36 X s 389 242 m -18 X s 389 260 m -18 X s 389 278 m -18 X s 407 296 m -36 X s 389 314 m -18 X s 389 332 m -18 X s 389 350 m -18 X s
 407 368 m -36 X s 389 386 m -18 X s 389 404 m -18 X s 389 422 m -18 X s 407 440 m -36 X s 389 458 m -18 X s 389 476 m -18 X s 389 494 m -18 X s 407 512 m -36 X s
 gsave  2245 533 11 11 C 327.221 201.659 t 0 r /Helvetica findfont 57.1305 sf 0 0 m (4) show NC gr 
 gsave  2245 533 11 11 C 292.977 201.659 t 0 r /Symbol findfont 57.1305 sf 0 0 m (-) show NC gr 
 gsave  2245 533 11 11 C 327.221 273.952 t 0 r /Helvetica findfont 57.1305 sf 0 0 m (2) show NC gr 
 gsave  2245 533 11 11 C 292.977 273.952 t 0 r /Symbol findfont 57.1305 sf 0 0 m (-) show NC gr 
 gsave  2245 533 11 11 C 327.221 346.245 t 0 r /Helvetica findfont 57.1305 sf 0 0 m (0) show NC gr 
 gsave  2245 533 11 11 C 327.221 418.538 t 0 r /Helvetica findfont 57.1305 sf 0 0 m (2) show NC gr 
 gsave  2245 533 11 11 C 327.221 490.831 t 0 r /Helvetica findfont 57.1305 sf 0 0 m (4) show NC gr  2032 224 m 288 Y s 1996 224 m 36 X s 2014 242 m 18 X s 2014 260 m 18 X s 2014 278 m 18 X s 1996 296 m 36 X s 2014 314 m 18 X s 2014 332 m 18 X s 2014
 350 m 18 X s 1996 368 m 36 X s 2014 386 m 18 X s 2014 404 m 18 X s 2014 422 m 18 X s 1996 440 m 36 X s 2014 458 m 18 X s 2014 476 m 18 X s 2014 494 m 18 X s 1996 512 m 36 X s 400 266 m 36 Y s 400 302 m cl s 400 266 m -36 Y s 400 230 m cl s 460 336 m
 36 Y s 460 372 m cl s 460 336 m -36 Y s 460 300 m cl s 519 367 m 36 Y s 519 403 m cl s 519 367 m -36 Y s 519 331 m cl s 578 336 m 36 Y s 578 372 m cl s 578 336 m -36 Y s 578 300 m cl s 638 407 m 36 Y s 638 443 m cl s 638 407 m -36 Y s 638 371 m cl s
 697 416 m 36 Y s 697 452 m cl s 697 416 m -36 Y s 697 380 m cl s 756 388 m 36 Y s 756 424 m cl s 756 388 m -36 Y s 756 352 m cl s 816 462 m 36 Y s 816 498 m cl s 816 462 m -36 Y s 816 426 m cl s 875 372 m 36 Y s 875 408 m cl s 875 372 m -36 Y s 875
 336 m cl s 934 439 m 36 Y s 934 475 m cl s 934 439 m -36 Y s 934 403 m cl s 994 447 m 36 Y s 994 483 m cl s 994 447 m -36 Y s 994 411 m cl s 1053 411 m 36 Y s 1053 447 m cl s 1053 411 m -36 Y s 1053 375 m cl s 1112 442 m 36 Y s 1112 478 m cl s 1112
 442 m -36 Y s 1112 406 m cl s 1231 497 m 15 Y s 1231 512 m cl s 1231 497 m -36 Y s 1231 461 m cl s 1290 446 m 36 Y s 1290 482 m cl s 1290 446 m -36 Y s 1290 410 m cl s 1350 441 m 36 Y s 1350 477 m cl s 1350 441 m -36 Y s 1350 405 m cl s 1409 403 m
 36 Y s 1409 439 m cl s 1409 403 m -36 Y s 1409 367 m cl s 1468 436 m 36 Y s 1468 472 m cl s 1468 436 m -36 Y s 1468 400 m cl s 1528 450 m 36 Y s 1528 486 m cl s 1528 450 m -36 Y s 1528 414 m cl s 1587 261 m 36 Y s 1587 297 m cl s 1587 261 m -36 Y s
 1587 225 m cl s 1646 313 m 36 Y s 1646 349 m cl s 1646 313 m -36 Y s 1646 277 m cl s 1706 314 m 36 Y s 1706 350 m cl s 1706 314 m -36 Y s 1706 278 m cl s 1765 380 m 36 Y s 1765 416 m cl s 1765 380 m -36 Y s 1765 344 m cl s 1824 225 m 36 Y s 1824 261
 m cl s 1824 225 m -1 Y s 1824 224 m cl s 1943 267 m 36 Y s 1943 303 m cl s 1943 267 m -36 Y s 1943 231 m cl s 2002 364 m 36 Y s 2002 400 m cl s 2002 364 m -36 Y s 2002 328 m cl s /w 37 def /w2 {w 2 div} def /w3 {w 3 div} def 400 266 460 336 519 367
 578 336 638 407 697 416 756 388 816 462 875 372 934 439 994 447 1053 411 1112 442 13 { m20} R 1231 497 1290 446 1350 441 1409 403 1468 436 1528 450 1587 261 1646 313 1706 314 1765 380 1824 225 11 { m20} R 1943 267 2002 364 2 { m20} R 371 224 m 1661
 X s 371 236 m -12 Y s 430 230 m -6 Y s 489 230 m -6 Y s 549 230 m -6 Y s 608 230 m -6 Y s 667 236 m -12 Y s 727 230 m -6 Y s 786 230 m -6 Y s 845 230 m -6 Y s 905 230 m -6 Y s 964 236 m -12 Y s 1023 230 m -6 Y s 1083 230 m -6 Y s 1142 230 m -6 Y s
 1201 230 m -6 Y s 1261 236 m -12 Y s 1320 230 m -6 Y s 1379 230 m -6 Y s 1439 230 m -6 Y s 1498 230 m -6 Y s 1557 236 m -12 Y s 1617 230 m -6 Y s 1676 230 m -6 Y s 1735 230 m -6 Y s 1795 230 m -6 Y s 1854 236 m -12 Y s 1854 236 m -12 Y s 1913 230 m
 -6 Y s 1973 230 m -6 Y s 371 512 m 1661 X s 371 500 m 12 Y s 430 506 m 6 Y s 489 506 m 6 Y s 549 506 m 6 Y s 608 506 m 6 Y s 667 500 m 12 Y s 727 506 m 6 Y s 786 506 m 6 Y s 845 506 m 6 Y s 905 506 m 6 Y s 964 500 m 12 Y s 1023 506 m 6 Y s 1083 506
 m 6 Y s 1142 506 m 6 Y s 1201 506 m 6 Y s 1261 500 m 12 Y s 1320 506 m 6 Y s 1379 506 m 6 Y s 1439 506 m 6 Y s 1498 506 m 6 Y s 1557 500 m 12 Y s 1617 506 m 6 Y s 1676 506 m 6 Y s 1735 506 m 6 Y s 1795 506 m 6 Y s 1854 500 m 12 Y s 1854 500 m 12 Y s
 1913 506 m 6 Y s 1973 506 m 6 Y s 371 224 m 288 Y s 407 224 m -36 X s 389 242 m -18 X s 389 260 m -18 X s 389 278 m -18 X s 407 296 m -36 X s 389 314 m -18 X s 389 332 m -18 X s 389 350 m -18 X s 407 368 m -36 X s 389 386 m -18 X s 389 404 m -18 X s
 389 422 m -18 X s 407 440 m -36 X s 389 458 m -18 X s 389 476 m -18 X s 389 494 m -18 X s 407 512 m -36 X s 2032 224 m 288 Y s 1996 224 m 36 X s 2014 242 m 18 X s 2014 260 m 18 X s 2014 278 m 18 X s 1996 296 m 36 X s 2014 314 m 18 X s 2014 332 m 18
 X s 2014 350 m 18 X s 1996 368 m 36 X s 2014 386 m 18 X s 2014 404 m 18 X s 2014 422 m 18 X s 1996 440 m 36 X s 2014 458 m 18 X s 2014 476 m 18 X s 2014 494 m 18 X s 1996 512 m 36 X s[  12 12 ] 0 sd 6 lw 371 368 m 1661 X s[  ] 0 sd 3 lw 1 1 1 c 2245
 1622 11 544 bf black 1 1 1 c 1661 1507 371 577 bf black 1661 1507 371 577 bl 371 577 m 1661 X s 371 613 m -36 Y s 430 595 m -18 Y s 489 595 m -18 Y s 549 595 m -18 Y s 608 595 m -18 Y s 667 613 m -36 Y s 727 595 m -18 Y s 786 595 m -18 Y s 845 595 m
 -18 Y s 905 595 m -18 Y s 964 613 m -36 Y s 1023 595 m -18 Y s 1083 595 m -18 Y s 1142 595 m -18 Y s 1201 595 m -18 Y s 1261 613 m -36 Y s 1320 595 m -18 Y s 1379 595 m -18 Y s 1439 595 m -18 Y s 1498 595 m -18 Y s 1557 613 m -36 Y s 1617 595 m -18
 Y s 1676 595 m -18 Y s 1735 595 m -18 Y s 1795 595 m -18 Y s 1854 613 m -36 Y s 1854 613 m -36 Y s 1913 595 m -18 Y s 1973 595 m -18 Y s 371 2084 m 1661 X s 371 2048 m 36 Y s 430 2066 m 18 Y s 489 2066 m 18 Y s 549 2066 m 18 Y s 608 2066 m 18 Y s
 667 2048 m 36 Y s 727 2066 m 18 Y s 786 2066 m 18 Y s 845 2066 m 18 Y s 905 2066 m 18 Y s 964 2048 m 36 Y s 1023 2066 m 18 Y s 1083 2066 m 18 Y s 1142 2066 m 18 Y s 1201 2066 m 18 Y s 1261 2048 m 36 Y s 1320 2066 m 18 Y s 1379 2066 m 18 Y s 1439
 2066 m 18 Y s 1498 2066 m 18 Y s 1557 2048 m 36 Y s 1617 2066 m 18 Y s 1676 2066 m 18 Y s 1735 2066 m 18 Y s 1795 2066 m 18 Y s 1854 2048 m 36 Y s 1854 2048 m 36 Y s 1913 2066 m 18 Y s 1973 2066 m 18 Y s 371 577 m 1507 Y s
 gsave  2245 1622 11 544 C 152.196 1666.54 t 90 r /Helvetica findfont 64.7045 sf 0 0 m (Events / 2GeV) show NC gr  433 577 m -62 X s 402 610 m -31 X s 402 643 m -31 X s 402 676 m -31 X s 402 709 m -31 X s 433 742 m -62 X s 402 775 m -31 X s 402 808 m
 -31 X s 402 841 m -31 X s 402 874 m -31 X s 433 908 m -62 X s 402 941 m -31 X s 402 974 m -31 X s 402 1007 m -31 X s 402 1040 m -31 X s 433 1073 m -62 X s 402 1106 m -31 X s 402 1139 m -31 X s 402 1172 m -31 X s 402 1205 m -31 X s 433 1238 m -62 X s
 402 1272 m -31 X s 402 1305 m -31 X s 402 1338 m -31 X s 402 1371 m -31 X s 433 1404 m -62 X s 402 1437 m -31 X s 402 1470 m -31 X s 402 1503 m -31 X s 402 1536 m -31 X s 433 1569 m -62 X s 402 1603 m -31 X s 402 1636 m -31 X s 402 1669 m -31 X s
 402 1702 m -31 X s 433 1735 m -62 X s 402 1768 m -31 X s 402 1801 m -31 X s 402 1834 m -31 X s 402 1867 m -31 X s 433 1900 m -62 X s 402 1934 m -31 X s 402 1967 m -31 X s 402 2000 m -31 X s 402 2033 m -31 X s 433 2066 m -62 X s 433 2066 m -62 X s
 gsave  2245 1622 11 544 C 327.221 555.514 t 0 r /Helvetica findfont 57.0922 sf 0 0 m (0) show NC gr 
 gsave  2245 1622 11 544 C 292.977 722.93 t 0 r /Helvetica findfont 57.0922 sf 0 0 m (50) show NC gr 
 gsave  2245 1622 11 544 C 262.538 886.54 t 0 r /Helvetica findfont 57.0922 sf 0 0 m (100) show NC gr 
 gsave  2245 1622 11 544 C 262.538 1053.96 t 0 r /Helvetica findfont 57.0922 sf 0 0 m (150) show NC gr 
 gsave  2245 1622 11 544 C 262.538 1217.57 t 0 r /Helvetica findfont 57.0922 sf 0 0 m (200) show NC gr 
 gsave  2245 1622 11 544 C 262.538 1381.18 t 0 r /Helvetica findfont 57.0922 sf 0 0 m (250) show NC gr 
 gsave  2245 1622 11 544 C 262.538 1548.59 t 0 r /Helvetica findfont 57.0922 sf 0 0 m (300) show NC gr 
 gsave  2245 1622 11 544 C 262.538 1712.2 t 0 r /Helvetica findfont 57.0922 sf 0 0 m (350) show NC gr 
 gsave  2245 1622 11 544 C 262.538 1879.62 t 0 r /Helvetica findfont 57.0922 sf 0 0 m (400) show NC gr 
 gsave  2245 1622 11 544 C 262.538 2043.23 t 0 r /Helvetica findfont 57.0922 sf 0 0 m (450) show NC gr  2032 577 m 1507 Y s 1969 577 m 63 X s 2001 610 m 31 X s 2001 643 m 31 X s 2001 676 m 31 X s 2001 709 m 31 X s 1969 742 m 63 X s 2001 775 m 31 X s
 2001 808 m 31 X s 2001 841 m 31 X s 2001 874 m 31 X s 1969 908 m 63 X s 2001 941 m 31 X s 2001 974 m 31 X s 2001 1007 m 31 X s 2001 1040 m 31 X s 1969 1073 m 63 X s 2001 1106 m 31 X s 2001 1139 m 31 X s 2001 1172 m 31 X s 2001 1205 m 31 X s 1969
 1238 m 63 X s 2001 1272 m 31 X s 2001 1305 m 31 X s 2001 1338 m 31 X s 2001 1371 m 31 X s 1969 1404 m 63 X s 2001 1437 m 31 X s 2001 1470 m 31 X s 2001 1503 m 31 X s 2001 1536 m 31 X s 1969 1569 m 63 X s 2001 1603 m 31 X s 2001 1636 m 31 X s 2001
 1669 m 31 X s 2001 1702 m 31 X s 1969 1735 m 63 X s 2001 1768 m 31 X s 2001 1801 m 31 X s 2001 1834 m 31 X s 2001 1867 m 31 X s 1969 1900 m 63 X s 2001 1934 m 31 X s 2001 1967 m 31 X s 2001 2000 m 31 X s 2001 2033 m 31 X s 1969 2066 m 63 X s 1969
 2066 m 63 X s 400 632 m -29 X s 371 632 m cl s 400 632 m 30 X s 430 632 m cl s 400 632 m 1 Y s 400 633 m cl s 400 632 m -2 Y s 400 630 m cl s 460 639 m -30 X s 430 639 m cl s 460 639 m 29 X s 489 639 m cl s 460 639 m 2 Y s 460 641 m cl s 460 639 m
 -2 Y s 460 637 m cl s 519 644 m -30 X s 489 644 m cl s 519 644 m 30 X s 549 644 m cl s 519 644 m 5 Y s 519 649 m cl s 519 644 m -4 Y s 519 640 m cl s 578 645 m -29 X s 549 645 m cl s 578 645 m 30 X s 608 645 m cl s 578 645 m 2 Y s 578 647 m cl s 578
 645 m -2 Y s 578 643 m cl s 638 656 m -30 X s 608 656 m cl s 638 656 m 29 X s 667 656 m cl s 638 656 m 6 Y s 638 662 m cl s 638 656 m -6 Y s 638 650 m cl s 697 653 m -30 X s 667 653 m cl s 697 653 m 30 X s 727 653 m cl s 697 653 m 3 Y s 697 656 m cl
 s 697 653 m -2 Y s 697 651 m cl s 756 652 m -29 X s 727 652 m cl s 756 652 m 30 X s 786 652 m cl s 756 652 m 2 Y s 756 654 m cl s 756 652 m -3 Y s 756 649 m cl s 816 666 m -30 X s 786 666 m cl s 816 666 m 29 X s 845 666 m cl s 816 666 m 6 Y s 816
 672 m cl s 816 666 m -6 Y s 816 660 m cl s 875 650 m -30 X s 845 650 m cl s 875 650 m 30 X s 905 650 m cl s 875 650 m 4 Y s 875 654 m cl s 875 650 m -4 Y s 875 646 m cl s 934 657 m -29 X s 905 657 m cl s 934 657 m 30 X s 964 657 m cl s 934 657 m 4 Y
 s 934 661 m cl s 934 657 m -4 Y s 934 653 m cl s 994 657 m -30 X s 964 657 m cl s 994 657 m 29 X s 1023 657 m cl s 994 657 m 4 Y s 994 661 m cl s 994 657 m -5 Y s 994 652 m cl s 1053 650 m -30 X s 1023 650 m cl s 1053 650 m 30 X s 1083 650 m cl s
 1053 650 m 2 Y s 1053 652 m cl s 1053 650 m -2 Y s 1053 648 m cl s 1112 665 m -29 X s 1083 665 m cl s 1112 665 m 30 X s 1142 665 m cl s 1112 665 m 7 Y s 1112 672 m cl s 1112 665 m -8 Y s 1112 657 m cl s 1172 661 m -30 X s 1142 661 m cl s 1172 661 m
 29 X s 1201 661 m cl s 1172 661 m 2 Y s 1172 663 m cl s 1172 661 m -2 Y s 1172 659 m cl s 1231 686 m -30 X s 1201 686 m cl s 1231 686 m 30 X s 1261 686 m cl s 1231 686 m 9 Y s 1231 695 m cl s 1231 686 m -8 Y s 1231 678 m cl s 1290 683 m -29 X s 1261
 683 m cl s 1290 683 m 30 X s 1320 683 m cl s 1290 683 m 6 Y s 1290 689 m cl s 1290 683 m -5 Y s 1290 678 m cl s 1350 714 m -30 X s 1320 714 m cl s 1350 714 m 29 X s 1379 714 m cl s 1350 714 m 6 Y s 1350 720 m cl s 1350 714 m -7 Y s 1350 707 m cl s
 1409 773 m -30 X s 1379 773 m cl s 1409 773 m 30 X s 1439 773 m cl s 1409 773 m 9 Y s 1409 782 m cl s 1409 773 m -9 Y s 1409 764 m cl s 1468 937 m -29 X s 1439 937 m cl s 1468 937 m 30 X s 1498 937 m cl s 1468 937 m 15 Y s 1468 952 m cl s 1468 937 m
 -15 Y s 1468 922 m cl s 1528 1264 m -30 X s 1498 1264 m cl s 1528 1264 m 29 X s 1557 1264 m cl s 1528 1264 m 22 Y s 1528 1286 m cl s 1528 1264 m -23 Y s 1528 1241 m cl s 1587 1456 m -30 X s 1557 1456 m cl s 1587 1456 m 30 X s 1617 1456 m cl s 1587
 1456 m 25 Y s 1587 1481 m cl s 1587 1456 m -24 Y s 1587 1432 m cl s 1646 1180 m -29 X s 1617 1180 m cl s 1646 1180 m 30 X s 1676 1180 m cl s 1646 1180 m 22 Y s 1646 1202 m cl s 1646 1180 m -23 Y s 1646 1157 m cl s 1706 832 m -30 X s 1676 832 m cl s
 1706 832 m 29 X s 1735 832 m cl s 1706 832 m 12 Y s 1706 844 m cl s 1706 832 m -12 Y s 1706 820 m cl s 1765 710 m -30 X s 1735 710 m cl s 1765 710 m 30 X s 1795 710 m cl s 1765 710 m 10 Y s 1765 720 m cl s 1765 710 m -9 Y s 1765 701 m cl s 1824 650
 m -29 X s 1795 650 m cl s 1824 650 m 30 X s 1854 650 m cl s 1824 650 m 2 Y s 1824 652 m cl s 1824 650 m -2 Y s 1824 648 m cl s 1884 628 m -30 X s 1854 628 m cl s 1884 628 m 29 X s 1913 628 m cl s 1884 628 m 2 Y s 1884 630 m cl s 1884 628 m -2 Y s
 1884 626 m cl s 1943 622 m -30 X s 1913 622 m cl s 1943 622 m 30 X s 1973 622 m cl s 1943 622 m 2 Y s 1943 624 m cl s 1943 622 m -2 Y s 1943 620 m cl s 2002 618 m -29 X s 1973 618 m cl s 2002 618 m 30 X s 2032 618 m cl s 2002 618 m 4 Y s 2002 622 m
 cl s 2002 618 m -4 Y s 2002 614 m cl s 400 632 460 639 519 644 578 645 638 656 697 653 756 652 816 666 875 650 934 657 994 657 1053 650 1112 665 1172 661 1231 686 1290 683 1350 714 1409 773 1468 937 1528 1264 1587 1456 1646 1180 1706 832 1765 710
 1824 650 1884 628 1943 622 2002 618 28 { m20} R 0.8 0 0 c 9 lw black 0.8 0 0 c 371 635 m cl s 371 635 m 59 4 d 59 4 d 60 3 d 59 2 d 59 2 d 178 X 60 -1 d 59 -1 d 59 -1 d 60 1 d 59 1 d 59 5 d 30 3 d 30 6 d 29 8 d 30 12 d 15 7 d 15 10 d 14 12 d 15 14 d
 15 17 d 15 21 d 15 26 d 15 32 d 7 19 d 7 20 d 8 23 d 7 25 d 8 28 d 7 30 d 7 34 d 8 36 d 7 40 d 8 42 d 7 45 d 8 48 d 14 99 d 15 97 d 4 22 d 4 20 d 7 37 d 4 17 d 3 11 d 4 9 d 4 6 d 4 4 d 3 -1 d 4 -5 d 4 -9 d 3 -13 d 4 -16 d 4 -18 d 4 -22 d 3 -25 d 4
 -29 d 7 -57 d 15 -125 d 8 -59 d 3 -30 d 4 -28 d 7 -52 d 8 -48 d 7 -43 d 8 -39 d 7 -34 d 8 -31 d 7 -27 d 7 -24 d 8 -21 d 7 -19 d 8 -15 d 7 -14 d 15 -23 d 15 -17 d 15 -13 d 14 -10 d 15 -8 d 30 -12 d 30 -9 d 29 -6 d 60 -10 d 59 -7 d s 0.2 0.4 0.2 c[ 
 12 12 ] 0 sd black 0.2 0.4 0.2 c 371 578 m cl s 371 578 m 237 X 59 1 d 119 X 59 1 d 60 X 59 1 d 59 2 d 60 1 d 59 3 d 59 6 d 30 3 d 30 6 d 29 7 d 30 11 d 15 7 d 15 9 d 14 10 d 15 12 d 15 15 d 15 18 d 15 22 d 7 12 d 8 14 d 7 15 d 7 17 d 8 18 d 7 19 d
 8 22 d 7 22 d 7 25 d 8 26 d 15 56 d 15 58 d 14 54 d 8 23 d 7 20 d 4 9 d 4 7 d 7 11 d 4 4 d 3 2 d 4 1 d 4 -1 d 4 -1 d 3 -3 d 4 -5 d 4 -6 d 3 -7 d 4 -8 d 4 -9 d 4 -11 d 3 -11 d 4 -13 d 7 -26 d 8 -30 d 7 -31 d 15 -64 d 15 -62 d 7 -28 d 8 -28 d 7 -25 d
 8 -23 d 7 -20 d 7 -19 d 8 -16 d 7 -14 d 8 -13 d 7 -11 d 15 -17 d 15 -13 d 15 -10 d 14 -8 d 15 -5 d 30 -9 d 30 -5 d 29 -4 d 60 -5 d 59 -3 d s 1 0.8 0.2 c black 1 0.8 0.2 c 371 616 m cl s 371 616 m 59 3 d 59 2 d 60 1 d 59 2 d 59 1 d 60 2 d 59 1 d 59 X
 60 1 d 59 1 d 178 X 59 -1 d 60 X 59 -1 d 59 -1 d 60 -1 d 59 -2 d 59 -1 d 60 -2 d 59 -2 d 59 -2 d 60 -2 d 59 -3 d 59 -2 d 60 -3 d 59 -4 d s 0 0 1 c black 0 0 1 c 371 593 m cl s 371 593 m 59 3 d 59 1 d 60 2 d 118 X 60 -1 d 59 -2 d 59 -2 d 60 -2 d 59
 -2 d 59 -2 d 60 -2 d 59 -1 d 119 X 59 3 d 30 2 d 29 4 d 15 2 d 15 4 d 15 4 d 15 6 d 14 8 d 8 5 d 7 6 d 8 6 d 7 8 d 7 9 d 8 11 d 7 12 d 4 7 d 4 7 d 7 17 d 4 9 d 4 10 d 3 10 d 4 11 d 7 24 d 8 26 d 7 28 d 8 27 d 7 26 d 4 13 d 3 9 d 4 8 d 4 7 d 4 5 d 1
 2 d 2 1 d 4 -1 d 4 -3 d 3 -5 d 4 -8 d 4 -9 d 4 -12 d 3 -13 d 4 -16 d 7 -30 d 4 -16 d 4 -17 d 2 -9 d 1 -8 d 4 -14 d 8 -28 d 3 -13 d 4 -12 d 4 -10 d 3 -10 d 4 -9 d 4 -8 d 4 -8 d 3 -7 d 4 -5 d 4 -6 d 7 -9 d 8 -8 d 7 -6 d 7 -5 d 15 -8 d 15 -6 d 15 -5 d
 15 -3 d 15 -3 d 29 -3 d 30 -3 d 59 -3 d 60 -2 d 59 -1 d s black[  ] 0 sd 3 lw 371 577 m 1661 X s 371 613 m -36 Y s 430 595 m -18 Y s 489 595 m -18 Y s 549 595 m -18 Y s 608 595 m -18 Y s 667 613 m -36 Y s 727 595 m -18 Y s 786 595 m -18 Y s 845 595
 m -18 Y s 905 595 m -18 Y s 964 613 m -36 Y s 1023 595 m -18 Y s 1083 595 m -18 Y s 1142 595 m -18 Y s 1201 595 m -18 Y s 1261 613 m -36 Y s 1320 595 m -18 Y s 1379 595 m -18 Y s 1439 595 m -18 Y s 1498 595 m -18 Y s 1557 613 m -36 Y s 1617 595 m
 -18 Y s 1676 595 m -18 Y s 1735 595 m -18 Y s 1795 595 m -18 Y s 1854 613 m -36 Y s 1854 613 m -36 Y s 1913 595 m -18 Y s 1973 595 m -18 Y s 371 2084 m 1661 X s 371 2048 m 36 Y s 430 2066 m 18 Y s 489 2066 m 18 Y s 549 2066 m 18 Y s 608 2066 m 18 Y
 s 667 2048 m 36 Y s 727 2066 m 18 Y s 786 2066 m 18 Y s 845 2066 m 18 Y s 905 2066 m 18 Y s 964 2048 m 36 Y s 1023 2066 m 18 Y s 1083 2066 m 18 Y s 1142 2066 m 18 Y s 1201 2066 m 18 Y s 1261 2048 m 36 Y s 1320 2066 m 18 Y s 1379 2066 m 18 Y s 1439
 2066 m 18 Y s 1498 2066 m 18 Y s 1557 2048 m 36 Y s 1617 2066 m 18 Y s 1676 2066 m 18 Y s 1735 2066 m 18 Y s 1795 2066 m 18 Y s 1854 2048 m 36 Y s 1854 2048 m 36 Y s 1913 2066 m 18 Y s 1973 2066 m 18 Y s 371 577 m 1507 Y s 433 577 m -62 X s 402 610
 m -31 X s 402 643 m -31 X s 402 676 m -31 X s 402 709 m -31 X s 433 742 m -62 X s 402 775 m -31 X s 402 808 m -31 X s 402 841 m -31 X s 402 874 m -31 X s 433 908 m -62 X s 402 941 m -31 X s 402 974 m -31 X s 402 1007 m -31 X s 402 1040 m -31 X s 433
 1073 m -62 X s 402 1106 m -31 X s 402 1139 m -31 X s 402 1172 m -31 X s 402 1205 m -31 X s 433 1238 m -62 X s 402 1272 m -31 X s 402 1305 m -31 X s 402 1338 m -31 X s 402 1371 m -31 X s 433 1404 m -62 X s 402 1437 m -31 X s 402 1470 m -31 X s 402
 1503 m -31 X s 402 1536 m -31 X s 433 1569 m -62 X s 402 1603 m -31 X s 402 1636 m -31 X s 402 1669 m -31 X s 402 1702 m -31 X s 433 1735 m -62 X s 402 1768 m -31 X s 402 1801 m -31 X s 402 1834 m -31 X s 402 1867 m -31 X s 433 1900 m -62 X s 402
 1934 m -31 X s 402 1967 m -31 X s 402 2000 m -31 X s 402 2033 m -31 X s 433 2066 m -62 X s 433 2066 m -62 X s 2032 577 m 1507 Y s 1969 577 m 63 X s 2001 610 m 31 X s 2001 643 m 31 X s 2001 676 m 31 X s 2001 709 m 31 X s 1969 742 m 63 X s 2001 775 m
 31 X s 2001 808 m 31 X s 2001 841 m 31 X s 2001 874 m 31 X s 1969 908 m 63 X s 2001 941 m 31 X s 2001 974 m 31 X s 2001 1007 m 31 X s 2001 1040 m 31 X s 1969 1073 m 63 X s 2001 1106 m 31 X s 2001 1139 m 31 X s 2001 1172 m 31 X s 2001 1205 m 31 X s
 1969 1238 m 63 X s 2001 1272 m 31 X s 2001 1305 m 31 X s 2001 1338 m 31 X s 2001 1371 m 31 X s 1969 1404 m 63 X s 2001 1437 m 31 X s 2001 1470 m 31 X s 2001 1503 m 31 X s 2001 1536 m 31 X s 1969 1569 m 63 X s 2001 1603 m 31 X s 2001 1636 m 31 X s
 2001 1669 m 31 X s 2001 1702 m 31 X s 1969 1735 m 63 X s 2001 1768 m 31 X s 2001 1801 m 31 X s 2001 1834 m 31 X s 2001 1867 m 31 X s 1969 1900 m 63 X s 2001 1934 m 31 X s 2001 1967 m 31 X s 2001 2000 m 31 X s 2001 2033 m 31 X s 1969 2066 m 63 X s
 1969 2066 m 63 X s 1 1 1 c black
 gsave  2245 1622 11 544 C 662.051 1989.96 t 0 r /Helvetica findfont 60.8983 sf 0 0 m ( Internal) show NC gr 
 gsave  2245 1622 11 544 C 452.782 1989.96 t 0 r /Helvetica-BoldOblique findfont 60.8983 sf 0 0 m (ATLAS) show NC gr 
 gsave  2245 1622 11 544 C 452.782 1902.45 t 0 r /Helvetica findfont 60.8983 sf 0 0 m (data 2015\25518 + mc16a,d,e) show NC gr 
 gsave  2245 1622 11 544 C 1034.93 1818.74 t 0 r /Helvetica findfont 41.8676 sf 0 0 m (\2551) show NC gr 
 gsave  2245 1622 11 544 C 513.661 1792.1 t 0 r /Helvetica findfont 60.8983 sf 0 0 m (=13 TeV, 138.97 fb) show NC gr 
 gsave  2245 1622 11 544 C 483.221 1792.1 t 0 r /Helvetica findfont 60.8983 sf 0 0 m (s) show NC gr  6 lw 464 1826 m 8 -38 d s 3 lw 472 1788 m 4 57 d s 476 1845 m 38 X s
 gsave  2245 1622 11 544 C 452.782 1712.2 t 0 r /Helvetica findfont 60.8983 sf 0 0 m (Inverted isolation CR) show NC gr  1 1 1 c 718 438 1269 1598 bl 1269 1598 m 718 X s 1987 1598 m 438 Y s 1987 2036 m -718 X s 1269 2036 m -438 Y s black
 gsave  2245 1622 11 544 C 1445.86 1974.74 t 0 r /Helvetica findfont 72.3167 sf 0 0 m (MC Data) show NC gr  1296 1992 m 125 X s 1358 1966 m 52 Y s 1358 1992 m20
 gsave  2245 1622 11 544 C 1445.86 1887.23 t 0 r /Helvetica findfont 72.3167 sf 0 0 m (Total BG) show NC gr  0.8 0 0 c 9 lw 1296 1904 m 125 X s black
 gsave  2245 1622 11 544 C 1445.86 1799.71 t 0 r /Helvetica findfont 72.3167 sf 0 0 m (Z+HFjets) show NC gr  0.2 0.4 0.2 c[  12 12 ] 0 sd 1296 1817 m 125 X s black
 gsave  2245 1622 11 544 C 1468.69 1712.2 t 0 r /Helvetica findfont 72.3167 sf 0 0 m (t) show NC gr [  ] 0 sd 6 lw 1469 1769 m 23 X s
 gsave  2245 1622 11 544 C 1445.86 1712.2 t 0 r /Helvetica findfont 72.3167 sf 0 0 m (t) show NC gr  1 0.8 0.2 c[  12 12 ] 0 sd 9 lw 1296 1729 m 125 X s black
 gsave  2245 1622 11 544 C 1445.86 1624.69 t 0 r /Helvetica findfont 72.3167 sf 0 0 m (Diboson) show NC gr  0 0 1 c 1296 1642 m 125 X s
 gr  gr showpage
end
%%EOF
