
Z
relaxIsoD0   Events:   3286.93 +/-  24.2674    Fraction:         1 +/-          0%    -----    TF: 0.00501259 +/- 0.000127425   Signal Region Events: 16.476 +/- 0.402809
     invD0   Events:         0 +/-        0    Fraction:         0 +/-       -nan%
    invIso   Events:3.23791e-319 +/-        0    Fraction:         0 +/-       -nan%
        ss   Events:1.26481e-321 +/- 3.39519e-313    Fraction:         0 +/-       -nan%
       emu   Events:         0 +/- 5.2371e-322    Fraction:6.91537e-310 +/-        inf%

Total MCE ---- RelaxIsoD0 : 0   InvD0 : 0   InvIso : 0   SS : 0   emu : 0
