data15_13TeV.00279932.physics_Main.merge.DAOD_HIGG2D1.f629_m1504_p2425/
data15_13TeV.00279984.physics_Main.merge.DAOD_HIGG2D1.f629_m1504_p2425/
data15_13TeV.00280231.physics_Main.merge.DAOD_HIGG2D1.f630_m1504_p2425/
data15_13TeV.00280319.physics_Main.merge.DAOD_HIGG2D1.f629_m1504_p2425/
data15_13TeV.00280368.physics_Main.merge.DAOD_HIGG2D1.f629_m1504_p2425/
