data15_13TeV.00282026.physics_Main.merge.DAOD_HIGG2D1.f629_m1504_p2425/
data15_13TeV.00282248.physics_Main.merge.DAOD_HIGG2D1.f629_m1504_p2425/
data15_13TeV.00282418.physics_Main.merge.DAOD_HIGG2D1.f629_m1504_p2425/
data15_13TeV.00282420.physics_Main.merge.DAOD_HIGG2D1.f629_m1504_p2425/
data15_13TeV.00282421.physics_Main.merge.DAOD_HIGG2D1.f629_m1504_p2425/
data15_13TeV.00282455.physics_Main.merge.DAOD_HIGG2D1.f629_m1504_p2425/
data15_13TeV.00282457.physics_Main.merge.DAOD_HIGG2D1.f629_m1504_p2425/
