
-------- Full --------
    No cut        ZH    745866 +/- 966.633
    No cut        Zl    409946 +/- 2312.11
    No cut       Top   58232.3 +/- 50.8879
    No cut2,3bos,ttv   28555.5 +/- 23.7954
    No cut      Data         0 +/- 0
   Iso cut        ZH    132293 +/- 415.164
   Iso cut        Zl   42243.4 +/- 782.661
   Iso cut       Top   3394.64 +/- 12.3548
   Iso cut2,3bos,ttv   25791.7 +/- 22.9239
   Iso cut      Data         0 +/- 0
    d0 cut        ZH    386234 +/- 700.347
    d0 cut        Zl    370899 +/- 2221.52
    d0 cut       Top   21502.6 +/- 31.325
    d0 cut2,3bos,ttv   26501.3 +/- 23.1427
    d0 cut      Data         0 +/- 0
Iso+d0 cut        ZH   70727.9 +/- 304.263
Iso+d0 cut        Zl   37474.6 +/- 738.957
Iso+d0 cut       Top   1937.31 +/- 9.32634
Iso+d0 cut2,3bos,ttv   24543.4 +/- 22.4405
Iso+d0 cut      Data         0 +/- 0

Iso ef. MCtot   = 0.14656 +- 0.000730192
d0 ef MCtot     = 0.641356 +- 0.000990201
Iso+d0 ef. MCtot= 0.0907214 +- 0.000592987

 ZH Iso ef = 0.177368 +- 0.000495041 d0 ef = 0.517832 +- 0.000647581 iso+d0 ef = 0.0948266 +- 0.000379692
 Zl Iso ef = 0.103046 +- 0.00171468 d0 ef = 0.90475 +- 0.00165568 iso+d0 ef = 0.0914136 +- 0.00162543
Top Iso ef = 0.0582948 +- 0.00020475 d0 ef = 0.369256 +- 0.000421736 iso+d0 ef = 0.0332687 +- 0.000156719

Iso ef. data    = 0.903211 +- 0.000839742 or (bi) -0.000246382
d0 ef. data     = 0.928061 +- 0.000838561 or (bi) -0.000215314
Iso+d0 ef. data = 0.859497 +- 0.000837512 or (bi) -0.000289579

-------- Full --------
    No cut        ZH    745866 +/- 966.633
    No cut        Zl    409946 +/- 2312.11
    No cut       Top   58232.3 +/- 50.8879
    No cut2,3bos,ttv   28555.5 +/- 23.7954
    No cut      Data1.29401e+06 +/- 1137.55
   Iso cut        ZH    132293 +/- 415.164
   Iso cut        Zl   42243.4 +/- 782.661
   Iso cut       Top   3394.64 +/- 12.3548
   Iso cut2,3bos,ttv   25791.7 +/- 22.9239
   Iso cut      Data    220719 +/- 469.807
    d0 cut        ZH    386234 +/- 700.347
    d0 cut        Zl    370899 +/- 2221.52
    d0 cut       Top   21502.6 +/- 31.325
    d0 cut2,3bos,ttv   26501.3 +/- 23.1427
    d0 cut      Data    841398 +/- 917.277
Iso+d0 cut        ZH   70727.9 +/- 304.263
Iso+d0 cut        Zl   37474.6 +/- 738.957
Iso+d0 cut       Top   1937.31 +/- 9.32634
Iso+d0 cut2,3bos,ttv   24543.4 +/- 22.4405
Iso+d0 cut      Data    151873 +/- 389.709

Iso ef. MCtot   = 0.14656 +- 0.000730192
d0 ef MCtot     = 0.641356 +- 0.000990201
Iso+d0 ef. MCtot= 0.0907214 +- 0.000592987

 ZH Iso ef = 0.177368 +- 0.000495041 d0 ef = 0.517832 +- 0.000647581 iso+d0 ef = 0.0948266 +- 0.000379692
 Zl Iso ef = 0.103046 +- 0.00171468 d0 ef = 0.90475 +- 0.00165568 iso+d0 ef = 0.0914136 +- 0.00162543
Top Iso ef = 0.0582948 +- 0.00020475 d0 ef = 0.369256 +- 0.000421736 iso+d0 ef = 0.0332687 +- 0.000156719

Iso ef. data    = 0.154037 +- 0.000325073 or (bi) 0.000324567
d0 ef. data     = 0.643954 +- 0.000430912 or (bi) 0.000430524
Iso+d0 ef. data = 0.100619 +- 0.000271057 or (bi) 0.000270476
